%!PS-Adobe-3.0 EPSF-3.0
%%Title: posterior_predictive_prova.eps
%%Creator: Matplotlib v3.6.2, https://matplotlib.org/
%%CreationDate: Tue Feb 14 19:24:57 2023
%%Orientation: portrait
%%BoundingBox: 75 223 537 569
%%HiResBoundingBox: 75.600000 223.200000 536.400000 568.800000
%%EndComments
%%BeginProlog
/mpldict 11 dict def
mpldict begin
/_d { bind def } bind def
/m { moveto } _d
/l { lineto } _d
/r { rlineto } _d
/c { curveto } _d
/cl { closepath } _d
/ce { closepath eofill } _d
/box {
      m
      1 index 0 r
      0 exch r
      neg 0 r
      cl
    } _d
/clipbox {
      box
      clip
      newpath
    } _d
/sc { setcachedevice } _d
%!PS-Adobe-3.0 Resource-Font
%%Creator: Converted from TrueType to Type 3 by Matplotlib.
10 dict begin
/FontName /DejaVuSans def
/PaintType 0 def
/FontMatrix [0.00048828125 0 0 0.00048828125 0 0] def
/FontBBox [-2090 -948 3673 2524] def
/FontType 3 def
/Encoding [/a /d /period /zero /one /two /four /five /six /t /eight /x] def
/CharStrings 13 dict dup begin
/.notdef 0 def
/a{1255 0 123 -29 1069 1147 sc
702 563 m
553 563 450 546 393 512 c
336 478 307 420 307 338 c
307 273 328 221 371 182 c
414 144 473 125 547 125 c
649 125 731 161 792 233 c
854 306 885 402 885 522 c
885 563 l
702 563 l

1069 639 m
1069 0 l
885 0 l
885 170 l
843 102 791 52 728 19 c
665 -13 589 -29 498 -29 c
383 -29 292 3 224 67 c
157 132 123 218 123 326 c
123 452 165 547 249 611 c
334 675 460 707 627 707 c
885 707 l
885 725 l
885 810 857 875 801 921 c
746 968 668 991 567 991 c
503 991 441 983 380 968 c
319 953 261 930 205 899 c
205 1069 l
272 1095 338 1114 401 1127 c
464 1140 526 1147 586 1147 c
748 1147 869 1105 949 1021 c
1029 937 1069 810 1069 639 c

ce} _d
/d{1300 0 113 -29 1114 1556 sc
930 950 m
930 1556 l
1114 1556 l
1114 0 l
930 0 l
930 168 l
891 101 842 52 783 19 c
724 -13 654 -29 571 -29 c
436 -29 325 25 240 133 c
155 241 113 383 113 559 c
113 735 155 877 240 985 c
325 1093 436 1147 571 1147 c
654 1147 724 1131 783 1098 c
842 1066 891 1017 930 950 c

303 559 m
303 424 331 317 386 240 c
442 163 519 125 616 125 c
713 125 790 163 846 240 c
902 317 930 424 930 559 c
930 694 902 800 846 877 c
790 954 713 993 616 993 c
519 993 442 954 386 877 c
331 800 303 694 303 559 c

ce} _d
/period{651 0 219 0 430 254 sc
219 254 m
430 254 l
430 0 l
219 0 l
219 254 l

ce} _d
/zero{1303 0 135 -29 1167 1520 sc
651 1360 m
547 1360 469 1309 416 1206 c
364 1104 338 950 338 745 c
338 540 364 387 416 284 c
469 182 547 131 651 131 c
756 131 834 182 886 284 c
939 387 965 540 965 745 c
965 950 939 1104 886 1206 c
834 1309 756 1360 651 1360 c

651 1520 m
818 1520 946 1454 1034 1321 c
1123 1189 1167 997 1167 745 c
1167 494 1123 302 1034 169 c
946 37 818 -29 651 -29 c
484 -29 356 37 267 169 c
179 302 135 494 135 745 c
135 997 179 1189 267 1321 c
356 1454 484 1520 651 1520 c

ce} _d
/one{1303 0 225 0 1114 1493 sc
254 170 m
584 170 l
584 1309 l
225 1237 l
225 1421 l
582 1493 l
784 1493 l
784 170 l
1114 170 l
1114 0 l
254 0 l
254 170 l

ce} _d
/two{1303 0 150 0 1098 1520 sc
393 170 m
1098 170 l
1098 0 l
150 0 l
150 170 l
227 249 331 356 463 489 c
596 623 679 709 713 748 c
778 821 823 882 848 932 c
874 983 887 1032 887 1081 c
887 1160 859 1225 803 1275 c
748 1325 675 1350 586 1350 c
523 1350 456 1339 385 1317 c
315 1295 240 1262 160 1217 c
160 1421 l
241 1454 317 1478 388 1495 c
459 1512 523 1520 582 1520 c
737 1520 860 1481 952 1404 c
1044 1327 1090 1223 1090 1094 c
1090 1033 1078 974 1055 919 c
1032 864 991 800 930 725 c
913 706 860 650 771 557 c
682 465 556 336 393 170 c

ce} _d
/four{1303 0 100 0 1188 1493 sc
774 1317 m
264 520 l
774 520 l
774 1317 l

721 1493 m
975 1493 l
975 520 l
1188 520 l
1188 352 l
975 352 l
975 0 l
774 0 l
774 352 l
100 352 l
100 547 l
721 1493 l

ce} _d
/five{1303 0 158 -29 1124 1493 sc
221 1493 m
1014 1493 l
1014 1323 l
406 1323 l
406 957 l
435 967 465 974 494 979 c
523 984 553 987 582 987 c
749 987 881 941 978 850 c
1075 759 1124 635 1124 479 c
1124 318 1074 193 974 104 c
874 15 733 -29 551 -29 c
488 -29 424 -24 359 -13 c
294 -2 227 14 158 35 c
158 238 l
218 205 280 181 344 165 c
408 149 476 141 547 141 c
662 141 754 171 821 232 c
888 293 922 375 922 479 c
922 583 888 665 821 726 c
754 787 662 817 547 817 c
493 817 439 811 385 799 c
332 787 277 768 221 743 c
221 1493 l

ce} _d
/six{1303 0 143 -29 1174 1520 sc
676 827 m
585 827 513 796 460 734 c
407 672 381 587 381 479 c
381 372 407 287 460 224 c
513 162 585 131 676 131 c
767 131 838 162 891 224 c
944 287 971 372 971 479 c
971 587 944 672 891 734 c
838 796 767 827 676 827 c

1077 1460 m
1077 1276 l
1026 1300 975 1318 923 1331 c
872 1344 821 1350 770 1350 c
637 1350 535 1305 464 1215 c
394 1125 354 989 344 807 c
383 865 433 909 492 940 c
551 971 617 987 688 987 c
838 987 956 941 1043 850 c
1130 759 1174 636 1174 479 c
1174 326 1129 203 1038 110 c
947 17 827 -29 676 -29 c
503 -29 371 37 280 169 c
189 302 143 494 143 745 c
143 981 199 1169 311 1309 c
423 1450 573 1520 762 1520 c
813 1520 864 1515 915 1505 c
967 1495 1021 1480 1077 1460 c

ce} _d
/t{803 0 55 0 754 1438 sc
375 1438 m
375 1120 l
754 1120 l
754 977 l
375 977 l
375 369 l
375 278 387 219 412 193 c
437 167 488 154 565 154 c
754 154 l
754 0 l
565 0 l
423 0 325 26 271 79 c
217 132 190 229 190 369 c
190 977 l
55 977 l
55 1120 l
190 1120 l
190 1438 l
375 1438 l

ce} _d
/eight{1303 0 139 -29 1163 1520 sc
651 709 m
555 709 479 683 424 632 c
369 581 342 510 342 420 c
342 330 369 259 424 208 c
479 157 555 131 651 131 c
747 131 823 157 878 208 c
933 260 961 331 961 420 c
961 510 933 581 878 632 c
823 683 748 709 651 709 c

449 795 m
362 816 295 857 246 916 c
198 975 174 1048 174 1133 c
174 1252 216 1347 301 1416 c
386 1485 503 1520 651 1520 c
800 1520 916 1485 1001 1416 c
1086 1347 1128 1252 1128 1133 c
1128 1048 1104 975 1055 916 c
1007 857 940 816 854 795 c
951 772 1027 728 1081 662 c
1136 596 1163 515 1163 420 c
1163 275 1119 164 1030 87 c
942 10 816 -29 651 -29 c
486 -29 360 10 271 87 c
183 164 139 275 139 420 c
139 515 166 596 221 662 c
276 728 352 772 449 795 c

375 1114 m
375 1037 399 976 447 933 c
496 890 564 868 651 868 c
738 868 805 890 854 933 c
903 976 928 1037 928 1114 c
928 1191 903 1252 854 1295 c
805 1338 738 1360 651 1360 c
564 1360 496 1338 447 1295 c
399 1252 375 1191 375 1114 c

ce} _d
/x{1212 0 59 0 1145 1120 sc
1124 1120 m
719 575 l
1145 0 l
928 0 l
602 440 l
276 0 l
59 0 l
494 586 l
96 1120 l
313 1120 l
610 721 l
907 1120 l
1124 1120 l

ce} _d
end readonly def

/BuildGlyph {
 exch begin
 CharStrings exch
 2 copy known not {pop /.notdef} if
 true 3 1 roll get exec
 end
} _d

/BuildChar {
 1 index /Encoding get exch get
 1 index /BuildGlyph get exec
} _d

FontName currentdict end definefont pop
end
%%EndProlog
mpldict begin
75.6 223.2 translate
460.8 345.6 0 0 clipbox
gsave
0 0 m
460.8 0 l
460.8 345.6 l
0 345.6 l
cl
1.000 setgray
fill
grestore
gsave
39.94 195.762784 m
450 195.762784 l
450 334.8 l
39.94 334.8 l
cl
1.000 setgray
fill
grestore
gsave
410.06 139.037 39.94 195.763 clipbox
58.579091 195.762784 m
66.034727 195.762784 l
66.034727 195.961607 l
58.579091 195.961607 l
cl
0.275 0.195 0.496 setrgbcolor
fill
grestore
gsave
410.06 139.037 39.94 195.763 clipbox
66.034727 195.762784 m
73.490364 195.762784 l
73.490364 195.961607 l
66.034727 195.961607 l
cl
0.275 0.195 0.496 setrgbcolor
fill
grestore
gsave
410.06 139.037 39.94 195.763 clipbox
73.490364 195.762784 m
80.946 195.762784 l
80.946 196.061019 l
73.490364 196.061019 l
cl
0.275 0.195 0.496 setrgbcolor
fill
grestore
gsave
410.06 139.037 39.94 195.763 clipbox
80.946 195.762784 m
88.401636 195.762784 l
88.401636 196.160431 l
80.946 196.160431 l
cl
0.275 0.195 0.496 setrgbcolor
fill
grestore
gsave
410.06 139.037 39.94 195.763 clipbox
88.401636 195.762784 m
95.857273 195.762784 l
95.857273 196.756901 l
88.401636 196.756901 l
cl
0.275 0.195 0.496 setrgbcolor
fill
grestore
gsave
410.06 139.037 39.94 195.763 clipbox
95.857273 195.762784 m
103.312909 195.762784 l
103.312909 196.756901 l
95.857273 196.756901 l
cl
0.275 0.195 0.496 setrgbcolor
fill
grestore
gsave
410.06 139.037 39.94 195.763 clipbox
103.312909 195.762784 m
110.768545 195.762784 l
110.768545 197.949842 l
103.312909 197.949842 l
cl
0.275 0.195 0.496 setrgbcolor
fill
grestore
gsave
410.06 139.037 39.94 195.763 clipbox
110.768545 195.762784 m
118.224182 195.762784 l
118.224182 197.949842 l
110.768545 197.949842 l
cl
0.275 0.195 0.496 setrgbcolor
fill
grestore
gsave
410.06 139.037 39.94 195.763 clipbox
118.224182 195.762784 m
125.679818 195.762784 l
125.679818 201.230428 l
118.224182 201.230428 l
cl
0.275 0.195 0.496 setrgbcolor
fill
grestore
gsave
410.06 139.037 39.94 195.763 clipbox
125.679818 195.762784 m
133.135455 195.762784 l
133.135455 203.616309 l
125.679818 203.616309 l
cl
0.275 0.195 0.496 setrgbcolor
fill
grestore
gsave
410.06 139.037 39.94 195.763 clipbox
133.135455 195.762784 m
140.591091 195.762784 l
140.591091 207.393954 l
133.135455 207.393954 l
cl
0.275 0.195 0.496 setrgbcolor
fill
grestore
gsave
410.06 139.037 39.94 195.763 clipbox
140.591091 195.762784 m
148.046727 195.762784 l
148.046727 214.253362 l
140.591091 214.253362 l
cl
0.275 0.195 0.496 setrgbcolor
fill
grestore
gsave
410.06 139.037 39.94 195.763 clipbox
148.046727 195.762784 m
155.502364 195.762784 l
155.502364 218.528065 l
148.046727 218.528065 l
cl
0.275 0.195 0.496 setrgbcolor
fill
grestore
gsave
410.06 139.037 39.94 195.763 clipbox
155.502364 195.762784 m
162.958 195.762784 l
162.958 225.78512 l
155.502364 225.78512 l
cl
0.275 0.195 0.496 setrgbcolor
fill
grestore
gsave
410.06 139.037 39.94 195.763 clipbox
162.958 195.762784 m
170.413636 195.762784 l
170.413636 236.024526 l
162.958 236.024526 l
cl
0.275 0.195 0.496 setrgbcolor
fill
grestore
gsave
410.06 139.037 39.94 195.763 clipbox
170.413636 195.762784 m
177.869273 195.762784 l
177.869273 244.474521 l
170.413636 244.474521 l
cl
0.275 0.195 0.496 setrgbcolor
fill
grestore
gsave
410.06 139.037 39.94 195.763 clipbox
177.869273 195.762784 m
185.324909 195.762784 l
185.324909 255.708044 l
177.869273 255.708044 l
cl
0.275 0.195 0.496 setrgbcolor
fill
grestore
gsave
410.06 139.037 39.94 195.763 clipbox
185.324909 195.762784 m
192.780545 195.762784 l
192.780545 265.450392 l
185.324909 265.450392 l
cl
0.275 0.195 0.496 setrgbcolor
fill
grestore
gsave
410.06 139.037 39.94 195.763 clipbox
192.780545 195.762784 m
200.236182 195.762784 l
200.236182 280.759795 l
192.780545 280.759795 l
cl
0.275 0.195 0.496 setrgbcolor
fill
grestore
gsave
410.06 139.037 39.94 195.763 clipbox
200.236182 195.762784 m
207.691818 195.762784 l
207.691818 289.010967 l
200.236182 289.010967 l
cl
0.275 0.195 0.496 setrgbcolor
fill
grestore
gsave
410.06 139.037 39.94 195.763 clipbox
207.691818 195.762784 m
215.147455 195.762784 l
215.147455 298.753314 l
207.691818 298.753314 l
cl
0.275 0.195 0.496 setrgbcolor
fill
grestore
gsave
410.06 139.037 39.94 195.763 clipbox
215.147455 195.762784 m
222.603091 195.762784 l
222.603091 308.893309 l
215.147455 308.893309 l
cl
0.275 0.195 0.496 setrgbcolor
fill
grestore
gsave
410.06 139.037 39.94 195.763 clipbox
222.603091 195.762784 m
230.058727 195.762784 l
230.058727 317.343304 l
222.603091 317.343304 l
cl
0.275 0.195 0.496 setrgbcolor
fill
grestore
gsave
410.06 139.037 39.94 195.763 clipbox
230.058727 195.762784 m
237.514364 195.762784 l
237.514364 325.097417 l
230.058727 325.097417 l
cl
0.275 0.195 0.496 setrgbcolor
fill
grestore
gsave
410.06 139.037 39.94 195.763 clipbox
237.514364 195.762784 m
244.97 195.762784 l
244.97 328.17918 l
237.514364 328.17918 l
cl
0.275 0.195 0.496 setrgbcolor
fill
grestore
gsave
410.06 139.037 39.94 195.763 clipbox
244.97 195.762784 m
252.425636 195.762784 l
252.425636 315.752717 l
244.97 315.752717 l
cl
0.275 0.195 0.496 setrgbcolor
fill
grestore
gsave
410.06 139.037 39.94 195.763 clipbox
252.425636 195.762784 m
259.881273 195.762784 l
259.881273 317.740951 l
252.425636 317.740951 l
cl
0.275 0.195 0.496 setrgbcolor
fill
grestore
gsave
410.06 139.037 39.94 195.763 clipbox
259.881273 195.762784 m
267.336909 195.762784 l
267.336909 308.296838 l
259.881273 308.296838 l
cl
0.275 0.195 0.496 setrgbcolor
fill
grestore
gsave
410.06 139.037 39.94 195.763 clipbox
267.336909 195.762784 m
274.792545 195.762784 l
274.792545 295.373316 l
267.336909 295.373316 l
cl
0.275 0.195 0.496 setrgbcolor
fill
grestore
gsave
410.06 139.037 39.94 195.763 clipbox
274.792545 195.762784 m
282.248182 195.762784 l
282.248182 285.432145 l
274.792545 285.432145 l
cl
0.275 0.195 0.496 setrgbcolor
fill
grestore
gsave
410.06 139.037 39.94 195.763 clipbox
282.248182 195.762784 m
289.703818 195.762784 l
289.703818 277.379797 l
282.248182 277.379797 l
cl
0.275 0.195 0.496 setrgbcolor
fill
grestore
gsave
410.06 139.037 39.94 195.763 clipbox
289.703818 195.762784 m
297.159455 195.762784 l
297.159455 256.105691 l
289.703818 256.105691 l
cl
0.275 0.195 0.496 setrgbcolor
fill
grestore
gsave
410.06 139.037 39.94 195.763 clipbox
297.159455 195.762784 m
304.615091 195.762784 l
304.615091 246.562167 l
297.159455 246.562167 l
cl
0.275 0.195 0.496 setrgbcolor
fill
grestore
gsave
410.06 139.037 39.94 195.763 clipbox
304.615091 195.762784 m
312.070727 195.762784 l
312.070727 235.229232 l
304.615091 235.229232 l
cl
0.275 0.195 0.496 setrgbcolor
fill
grestore
gsave
410.06 139.037 39.94 195.763 clipbox
312.070727 195.762784 m
319.526364 195.762784 l
319.526364 225.486885 l
312.070727 225.486885 l
cl
0.275 0.195 0.496 setrgbcolor
fill
grestore
gsave
410.06 139.037 39.94 195.763 clipbox
319.526364 195.762784 m
326.982 195.762784 l
326.982 222.30571 l
319.526364 222.30571 l
cl
0.275 0.195 0.496 setrgbcolor
fill
grestore
gsave
410.06 139.037 39.94 195.763 clipbox
326.982 195.762784 m
334.437636 195.762784 l
334.437636 214.054538 l
326.982 214.054538 l
cl
0.275 0.195 0.496 setrgbcolor
fill
grestore
gsave
410.06 139.037 39.94 195.763 clipbox
334.437636 195.762784 m
341.893273 195.762784 l
341.893273 207.791601 l
334.437636 207.791601 l
cl
0.275 0.195 0.496 setrgbcolor
fill
grestore
gsave
410.06 139.037 39.94 195.763 clipbox
341.893273 195.762784 m
349.348909 195.762784 l
349.348909 205.008073 l
341.893273 205.008073 l
cl
0.275 0.195 0.496 setrgbcolor
fill
grestore
gsave
410.06 139.037 39.94 195.763 clipbox
349.348909 195.762784 m
356.804545 195.762784 l
356.804545 201.031605 l
349.348909 201.031605 l
cl
0.275 0.195 0.496 setrgbcolor
fill
grestore
gsave
410.06 139.037 39.94 195.763 clipbox
356.804545 195.762784 m
364.260182 195.762784 l
364.260182 199.341606 l
356.804545 199.341606 l
cl
0.275 0.195 0.496 setrgbcolor
fill
grestore
gsave
410.06 139.037 39.94 195.763 clipbox
364.260182 195.762784 m
371.715818 195.762784 l
371.715818 198.148665 l
364.260182 198.148665 l
cl
0.275 0.195 0.496 setrgbcolor
fill
grestore
gsave
410.06 139.037 39.94 195.763 clipbox
371.715818 195.762784 m
379.171455 195.762784 l
379.171455 198.049253 l
371.715818 198.049253 l
cl
0.275 0.195 0.496 setrgbcolor
fill
grestore
gsave
410.06 139.037 39.94 195.763 clipbox
379.171455 195.762784 m
386.627091 195.762784 l
386.627091 197.055136 l
379.171455 197.055136 l
cl
0.275 0.195 0.496 setrgbcolor
fill
grestore
gsave
410.06 139.037 39.94 195.763 clipbox
386.627091 195.762784 m
394.082727 195.762784 l
394.082727 196.259843 l
386.627091 196.259843 l
cl
0.275 0.195 0.496 setrgbcolor
fill
grestore
gsave
410.06 139.037 39.94 195.763 clipbox
394.082727 195.762784 m
401.538364 195.762784 l
401.538364 196.458666 l
394.082727 196.458666 l
cl
0.275 0.195 0.496 setrgbcolor
fill
grestore
gsave
410.06 139.037 39.94 195.763 clipbox
401.538364 195.762784 m
408.994 195.762784 l
408.994 195.961607 l
401.538364 195.961607 l
cl
0.275 0.195 0.496 setrgbcolor
fill
grestore
gsave
410.06 139.037 39.94 195.763 clipbox
408.994 195.762784 m
416.449636 195.762784 l
416.449636 195.862196 l
408.994 195.862196 l
cl
0.275 0.195 0.496 setrgbcolor
fill
grestore
gsave
410.06 139.037 39.94 195.763 clipbox
416.449636 195.762784 m
423.905273 195.762784 l
423.905273 195.762784 l
416.449636 195.762784 l
cl
0.275 0.195 0.496 setrgbcolor
fill
grestore
gsave
410.06 139.037 39.94 195.763 clipbox
423.905273 195.762784 m
431.360909 195.762784 l
431.360909 195.862196 l
423.905273 195.862196 l
cl
0.275 0.195 0.496 setrgbcolor
fill
grestore
0.800 setlinewidth
1 setlinejoin
0 setlinecap
[] 0 setdash
0.000 setgray
gsave
/o {
gsave
newpath
translate
0.8 setlinewidth
1 setlinejoin

0 setlinecap

0 0 m
0 -3.5 l

gsave
0.000 setgray
fill
grestore
stroke
grestore
} bind def
55.2607 195.763 o
grestore
/DejaVuSans 10.000 selectfont
gsave

52.081 181.169 translate
0 rotate
0 0 m /two glyphshow
grestore
gsave
/o {
gsave
newpath
translate
0.8 setlinewidth
1 setlinejoin

0 setlinecap

0 0 m
0 -3.5 l

gsave
0.000 setgray
fill
grestore
stroke
grestore
} bind def
101.04 195.763 o
grestore
/DejaVuSans 10.000 selectfont
gsave

97.8599 181.169 translate
0 rotate
0 0 m /four glyphshow
grestore
gsave
/o {
gsave
newpath
translate
0.8 setlinewidth
1 setlinejoin

0 setlinecap

0 0 m
0 -3.5 l

gsave
0.000 setgray
fill
grestore
stroke
grestore
} bind def
146.818 195.763 o
grestore
/DejaVuSans 10.000 selectfont
gsave

143.639 181.169 translate
0 rotate
0 0 m /six glyphshow
grestore
gsave
/o {
gsave
newpath
translate
0.8 setlinewidth
1 setlinejoin

0 setlinecap

0 0 m
0 -3.5 l

gsave
0.000 setgray
fill
grestore
stroke
grestore
} bind def
192.597 195.763 o
grestore
/DejaVuSans 10.000 selectfont
gsave

189.418 181.169 translate
0 rotate
0 0 m /eight glyphshow
grestore
gsave
/o {
gsave
newpath
translate
0.8 setlinewidth
1 setlinejoin

0 setlinecap

0 0 m
0 -3.5 l

gsave
0.000 setgray
fill
grestore
stroke
grestore
} bind def
238.376 195.763 o
grestore
/DejaVuSans 10.000 selectfont
gsave

232.017 181.169 translate
0 rotate
0 0 m /one glyphshow
6.3623 0 m /zero glyphshow
grestore
gsave
/o {
gsave
newpath
translate
0.8 setlinewidth
1 setlinejoin

0 setlinecap

0 0 m
0 -3.5 l

gsave
0.000 setgray
fill
grestore
stroke
grestore
} bind def
284.155 195.763 o
grestore
/DejaVuSans 10.000 selectfont
gsave

277.796 181.169 translate
0 rotate
0 0 m /one glyphshow
6.3623 0 m /two glyphshow
grestore
gsave
/o {
gsave
newpath
translate
0.8 setlinewidth
1 setlinejoin

0 setlinecap

0 0 m
0 -3.5 l

gsave
0.000 setgray
fill
grestore
stroke
grestore
} bind def
329.934 195.763 o
grestore
/DejaVuSans 10.000 selectfont
gsave

323.575 181.169 translate
0 rotate
0 0 m /one glyphshow
6.3623 0 m /four glyphshow
grestore
gsave
/o {
gsave
newpath
translate
0.8 setlinewidth
1 setlinejoin

0 setlinecap

0 0 m
0 -3.5 l

gsave
0.000 setgray
fill
grestore
stroke
grestore
} bind def
375.713 195.763 o
grestore
/DejaVuSans 10.000 selectfont
gsave

369.353 181.169 translate
0 rotate
0 0 m /one glyphshow
6.3623 0 m /six glyphshow
grestore
gsave
/o {
gsave
newpath
translate
0.8 setlinewidth
1 setlinejoin

0 setlinecap

0 0 m
0 -3.5 l

gsave
0.000 setgray
fill
grestore
stroke
grestore
} bind def
421.492 195.763 o
grestore
/DejaVuSans 10.000 selectfont
gsave

415.132 181.169 translate
0 rotate
0 0 m /one glyphshow
6.3623 0 m /eight glyphshow
grestore
gsave
/o {
gsave
newpath
translate
0.8 setlinewidth
1 setlinejoin

0 setlinecap

-0 0 m
-3.5 0 l

gsave
0.000 setgray
fill
grestore
stroke
grestore
} bind def
39.94 195.763 o
grestore
/DejaVuSans 10.000 selectfont
gsave

10.6744 191.966 translate
0 rotate
0 0 m /zero glyphshow
6.3623 0 m /period glyphshow
9.54102 0 m /zero glyphshow
15.9033 0 m /zero glyphshow
grestore
gsave
/o {
gsave
newpath
translate
0.8 setlinewidth
1 setlinejoin

0 setlinecap

-0 0 m
-3.5 0 l

gsave
0.000 setgray
fill
grestore
stroke
grestore
} bind def
39.94 228.144 o
grestore
/DejaVuSans 10.000 selectfont
gsave

10.6744 224.347 translate
0 rotate
0 0 m /zero glyphshow
6.3623 0 m /period glyphshow
9.54102 0 m /zero glyphshow
15.9033 0 m /five glyphshow
grestore
gsave
/o {
gsave
newpath
translate
0.8 setlinewidth
1 setlinejoin

0 setlinecap

-0 0 m
-3.5 0 l

gsave
0.000 setgray
fill
grestore
stroke
grestore
} bind def
39.94 260.524 o
grestore
/DejaVuSans 10.000 selectfont
gsave

10.6744 256.727 translate
0 rotate
0 0 m /zero glyphshow
6.3623 0 m /period glyphshow
9.54102 0 m /one glyphshow
15.9033 0 m /zero glyphshow
grestore
gsave
/o {
gsave
newpath
translate
0.8 setlinewidth
1 setlinejoin

0 setlinecap

-0 0 m
-3.5 0 l

gsave
0.000 setgray
fill
grestore
stroke
grestore
} bind def
39.94 292.905 o
grestore
/DejaVuSans 10.000 selectfont
gsave

10.6744 289.108 translate
0 rotate
0 0 m /zero glyphshow
6.3623 0 m /period glyphshow
9.54102 0 m /one glyphshow
15.9033 0 m /five glyphshow
grestore
gsave
/o {
gsave
newpath
translate
0.8 setlinewidth
1 setlinejoin

0 setlinecap

-0 0 m
-3.5 0 l

gsave
0.000 setgray
fill
grestore
stroke
grestore
} bind def
39.94 325.286 o
grestore
/DejaVuSans 10.000 selectfont
gsave

10.6744 321.489 translate
0 rotate
0 0 m /zero glyphshow
6.3623 0 m /period glyphshow
9.54102 0 m /two glyphshow
15.9033 0 m /zero glyphshow
grestore
0 setlinejoin
2 setlinecap
gsave
39.94 195.762784 m
39.94 334.8 l
stroke
grestore
gsave
450 195.762784 m
450 334.8 l
stroke
grestore
gsave
39.94 195.762784 m
450 195.762784 l
stroke
grestore
gsave
39.94 334.8 m
450 334.8 l
stroke
grestore
gsave
39.94 27.88 m
450 27.88 l
450 166.917216 l
39.94 166.917216 l
cl
1.000 setgray
fill
grestore
gsave
410.06 139.037 39.94 27.88 clipbox
58.579091 27.88 m
66.034727 27.88 l
66.034727 29.856364 l
58.579091 29.856364 l
cl
0.502 setgray
fill
grestore
gsave
410.06 139.037 39.94 27.88 clipbox
66.034727 27.88 m
73.490364 27.88 l
73.490364 27.88 l
66.034727 27.88 l
cl
0.502 setgray
fill
grestore
gsave
410.06 139.037 39.94 27.88 clipbox
73.490364 27.88 m
80.946 27.88 l
80.946 29.856364 l
73.490364 29.856364 l
cl
0.502 setgray
fill
grestore
gsave
410.06 139.037 39.94 27.88 clipbox
80.946 27.88 m
88.401636 27.88 l
88.401636 27.88 l
80.946 27.88 l
cl
0.502 setgray
fill
grestore
gsave
410.06 139.037 39.94 27.88 clipbox
88.401636 27.88 m
95.857273 27.88 l
95.857273 31.832728 l
88.401636 31.832728 l
cl
0.502 setgray
fill
grestore
gsave
410.06 139.037 39.94 27.88 clipbox
95.857273 27.88 m
103.312909 27.88 l
103.312909 31.832728 l
95.857273 31.832728 l
cl
0.502 setgray
fill
grestore
gsave
410.06 139.037 39.94 27.88 clipbox
103.312909 27.88 m
110.768545 27.88 l
110.768545 31.832728 l
103.312909 31.832728 l
cl
0.502 setgray
fill
grestore
gsave
410.06 139.037 39.94 27.88 clipbox
110.768545 27.88 m
118.224182 27.88 l
118.224182 33.809092 l
110.768545 33.809092 l
cl
0.502 setgray
fill
grestore
gsave
410.06 139.037 39.94 27.88 clipbox
118.224182 27.88 m
125.679818 27.88 l
125.679818 35.785456 l
118.224182 35.785456 l
cl
0.502 setgray
fill
grestore
gsave
410.06 139.037 39.94 27.88 clipbox
125.679818 27.88 m
133.135455 27.88 l
133.135455 37.761821 l
125.679818 37.761821 l
cl
0.502 setgray
fill
grestore
gsave
410.06 139.037 39.94 27.88 clipbox
133.135455 27.88 m
140.591091 27.88 l
140.591091 39.738185 l
133.135455 39.738185 l
cl
0.502 setgray
fill
grestore
gsave
410.06 139.037 39.94 27.88 clipbox
140.591091 27.88 m
148.046727 27.88 l
148.046727 43.690913 l
140.591091 43.690913 l
cl
0.502 setgray
fill
grestore
gsave
410.06 139.037 39.94 27.88 clipbox
148.046727 27.88 m
155.502364 27.88 l
155.502364 49.620005 l
148.046727 49.620005 l
cl
0.502 setgray
fill
grestore
gsave
410.06 139.037 39.94 27.88 clipbox
155.502364 27.88 m
162.958 27.88 l
162.958 67.407282 l
155.502364 67.407282 l
cl
0.502 setgray
fill
grestore
gsave
410.06 139.037 39.94 27.88 clipbox
162.958 27.88 m
170.413636 27.88 l
170.413636 65.430918 l
162.958 65.430918 l
cl
0.502 setgray
fill
grestore
gsave
410.06 139.037 39.94 27.88 clipbox
170.413636 27.88 m
177.869273 27.88 l
177.869273 75.312739 l
170.413636 75.312739 l
cl
0.502 setgray
fill
grestore
gsave
410.06 139.037 39.94 27.88 clipbox
177.869273 27.88 m
185.324909 27.88 l
185.324909 95.07638 l
177.869273 95.07638 l
cl
0.502 setgray
fill
grestore
gsave
410.06 139.037 39.94 27.88 clipbox
185.324909 27.88 m
192.780545 27.88 l
192.780545 102.981837 l
185.324909 102.981837 l
cl
0.502 setgray
fill
grestore
gsave
410.06 139.037 39.94 27.88 clipbox
192.780545 27.88 m
200.236182 27.88 l
200.236182 99.029108 l
192.780545 99.029108 l
cl
0.502 setgray
fill
grestore
gsave
410.06 139.037 39.94 27.88 clipbox
200.236182 27.88 m
207.691818 27.88 l
207.691818 102.981837 l
200.236182 102.981837 l
cl
0.502 setgray
fill
grestore
gsave
410.06 139.037 39.94 27.88 clipbox
207.691818 27.88 m
215.147455 27.88 l
215.147455 136.580027 l
207.691818 136.580027 l
cl
0.502 setgray
fill
grestore
gsave
410.06 139.037 39.94 27.88 clipbox
215.147455 27.88 m
222.603091 27.88 l
222.603091 112.863657 l
215.147455 112.863657 l
cl
0.502 setgray
fill
grestore
gsave
410.06 139.037 39.94 27.88 clipbox
222.603091 27.88 m
230.058727 27.88 l
230.058727 160.296396 l
222.603091 160.296396 l
cl
0.502 setgray
fill
grestore
gsave
410.06 139.037 39.94 27.88 clipbox
230.058727 27.88 m
237.514364 27.88 l
237.514364 132.627298 l
230.058727 132.627298 l
cl
0.502 setgray
fill
grestore
gsave
410.06 139.037 39.94 27.88 clipbox
237.514364 27.88 m
244.97 27.88 l
244.97 134.603663 l
237.514364 134.603663 l
cl
0.502 setgray
fill
grestore
gsave
410.06 139.037 39.94 27.88 clipbox
244.97 27.88 m
252.425636 27.88 l
252.425636 138.556391 l
244.97 138.556391 l
cl
0.502 setgray
fill
grestore
gsave
410.06 139.037 39.94 27.88 clipbox
252.425636 27.88 m
259.881273 27.88 l
259.881273 101.005472 l
252.425636 101.005472 l
cl
0.502 setgray
fill
grestore
gsave
410.06 139.037 39.94 27.88 clipbox
259.881273 27.88 m
267.336909 27.88 l
267.336909 116.816385 l
259.881273 116.816385 l
cl
0.502 setgray
fill
grestore
gsave
410.06 139.037 39.94 27.88 clipbox
267.336909 27.88 m
274.792545 27.88 l
274.792545 138.556391 l
267.336909 138.556391 l
cl
0.502 setgray
fill
grestore
gsave
410.06 139.037 39.94 27.88 clipbox
274.792545 27.88 m
282.248182 27.88 l
282.248182 102.981837 l
274.792545 102.981837 l
cl
0.502 setgray
fill
grestore
gsave
410.06 139.037 39.94 27.88 clipbox
282.248182 27.88 m
289.703818 27.88 l
289.703818 128.67457 l
282.248182 128.67457 l
cl
0.502 setgray
fill
grestore
gsave
410.06 139.037 39.94 27.88 clipbox
289.703818 27.88 m
297.159455 27.88 l
297.159455 89.147288 l
289.703818 89.147288 l
cl
0.502 setgray
fill
grestore
gsave
410.06 139.037 39.94 27.88 clipbox
297.159455 27.88 m
304.615091 27.88 l
304.615091 83.218195 l
297.159455 83.218195 l
cl
0.502 setgray
fill
grestore
gsave
410.06 139.037 39.94 27.88 clipbox
304.615091 27.88 m
312.070727 27.88 l
312.070727 73.336375 l
304.615091 73.336375 l
cl
0.502 setgray
fill
grestore
gsave
410.06 139.037 39.94 27.88 clipbox
312.070727 27.88 m
319.526364 27.88 l
319.526364 67.407282 l
312.070727 67.407282 l
cl
0.502 setgray
fill
grestore
gsave
410.06 139.037 39.94 27.88 clipbox
319.526364 27.88 m
326.982 27.88 l
326.982 69.383647 l
319.526364 69.383647 l
cl
0.502 setgray
fill
grestore
gsave
410.06 139.037 39.94 27.88 clipbox
326.982 27.88 m
334.437636 27.88 l
334.437636 67.407282 l
326.982 67.407282 l
cl
0.502 setgray
fill
grestore
gsave
410.06 139.037 39.94 27.88 clipbox
334.437636 27.88 m
341.893273 27.88 l
341.893273 53.572734 l
334.437636 53.572734 l
cl
0.502 setgray
fill
grestore
gsave
410.06 139.037 39.94 27.88 clipbox
341.893273 27.88 m
349.348909 27.88 l
349.348909 41.714549 l
341.893273 41.714549 l
cl
0.502 setgray
fill
grestore
gsave
410.06 139.037 39.94 27.88 clipbox
349.348909 27.88 m
356.804545 27.88 l
356.804545 39.738185 l
349.348909 39.738185 l
cl
0.502 setgray
fill
grestore
gsave
410.06 139.037 39.94 27.88 clipbox
356.804545 27.88 m
364.260182 27.88 l
364.260182 35.785456 l
356.804545 35.785456 l
cl
0.502 setgray
fill
grestore
gsave
410.06 139.037 39.94 27.88 clipbox
364.260182 27.88 m
371.715818 27.88 l
371.715818 35.785456 l
364.260182 35.785456 l
cl
0.502 setgray
fill
grestore
gsave
410.06 139.037 39.94 27.88 clipbox
371.715818 27.88 m
379.171455 27.88 l
379.171455 39.738185 l
371.715818 39.738185 l
cl
0.502 setgray
fill
grestore
gsave
410.06 139.037 39.94 27.88 clipbox
379.171455 27.88 m
386.627091 27.88 l
386.627091 29.856364 l
379.171455 29.856364 l
cl
0.502 setgray
fill
grestore
gsave
410.06 139.037 39.94 27.88 clipbox
386.627091 27.88 m
394.082727 27.88 l
394.082727 33.809092 l
386.627091 33.809092 l
cl
0.502 setgray
fill
grestore
gsave
410.06 139.037 39.94 27.88 clipbox
394.082727 27.88 m
401.538364 27.88 l
401.538364 29.856364 l
394.082727 29.856364 l
cl
0.502 setgray
fill
grestore
gsave
410.06 139.037 39.94 27.88 clipbox
401.538364 27.88 m
408.994 27.88 l
408.994 27.88 l
401.538364 27.88 l
cl
0.502 setgray
fill
grestore
gsave
410.06 139.037 39.94 27.88 clipbox
408.994 27.88 m
416.449636 27.88 l
416.449636 29.856364 l
408.994 29.856364 l
cl
0.502 setgray
fill
grestore
gsave
410.06 139.037 39.94 27.88 clipbox
416.449636 27.88 m
423.905273 27.88 l
423.905273 27.88 l
416.449636 27.88 l
cl
0.502 setgray
fill
grestore
gsave
410.06 139.037 39.94 27.88 clipbox
423.905273 27.88 m
431.360909 27.88 l
431.360909 31.832728 l
423.905273 31.832728 l
cl
0.502 setgray
fill
grestore
1 setlinejoin
0 setlinecap
gsave
/o {
gsave
newpath
translate
0.8 setlinewidth
1 setlinejoin

0 setlinecap

0 0 m
0 -3.5 l

gsave
0.000 setgray
fill
grestore
stroke
grestore
} bind def
80.2225 27.88 o
grestore
/DejaVuSans 10.000 selectfont
gsave

77.0428 13.2863 translate
0 rotate
0 0 m /four glyphshow
grestore
gsave
/o {
gsave
newpath
translate
0.8 setlinewidth
1 setlinejoin

0 setlinecap

0 0 m
0 -3.5 l

gsave
0.000 setgray
fill
grestore
stroke
grestore
} bind def
134.557 27.88 o
grestore
/DejaVuSans 10.000 selectfont
gsave

131.377 13.2863 translate
0 rotate
0 0 m /six glyphshow
grestore
gsave
/o {
gsave
newpath
translate
0.8 setlinewidth
1 setlinejoin

0 setlinecap

0 0 m
0 -3.5 l

gsave
0.000 setgray
fill
grestore
stroke
grestore
} bind def
188.892 27.88 o
grestore
/DejaVuSans 10.000 selectfont
gsave

185.712 13.2863 translate
0 rotate
0 0 m /eight glyphshow
grestore
gsave
/o {
gsave
newpath
translate
0.8 setlinewidth
1 setlinejoin

0 setlinecap

0 0 m
0 -3.5 l

gsave
0.000 setgray
fill
grestore
stroke
grestore
} bind def
243.227 27.88 o
grestore
/DejaVuSans 10.000 selectfont
gsave

236.867 13.2863 translate
0 rotate
0 0 m /one glyphshow
6.3623 0 m /zero glyphshow
grestore
gsave
/o {
gsave
newpath
translate
0.8 setlinewidth
1 setlinejoin

0 setlinecap

0 0 m
0 -3.5 l

gsave
0.000 setgray
fill
grestore
stroke
grestore
} bind def
297.561 27.88 o
grestore
/DejaVuSans 10.000 selectfont
gsave

291.202 13.2863 translate
0 rotate
0 0 m /one glyphshow
6.3623 0 m /two glyphshow
grestore
gsave
/o {
gsave
newpath
translate
0.8 setlinewidth
1 setlinejoin

0 setlinecap

0 0 m
0 -3.5 l

gsave
0.000 setgray
fill
grestore
stroke
grestore
} bind def
351.896 27.88 o
grestore
/DejaVuSans 10.000 selectfont
gsave

345.536 13.2863 translate
0 rotate
0 0 m /one glyphshow
6.3623 0 m /four glyphshow
grestore
gsave
/o {
gsave
newpath
translate
0.8 setlinewidth
1 setlinejoin

0 setlinecap

0 0 m
0 -3.5 l

gsave
0.000 setgray
fill
grestore
stroke
grestore
} bind def
406.231 27.88 o
grestore
/DejaVuSans 10.000 selectfont
gsave

399.871 13.2863 translate
0 rotate
0 0 m /one glyphshow
6.3623 0 m /six glyphshow
grestore
gsave
/o {
gsave
newpath
translate
0.8 setlinewidth
1 setlinejoin

0 setlinecap

-0 0 m
-3.5 0 l

gsave
0.000 setgray
fill
grestore
stroke
grestore
} bind def
39.94 27.88 o
grestore
/DejaVuSans 10.000 selectfont
gsave

10.6744 24.0831 translate
0 rotate
0 0 m /zero glyphshow
6.3623 0 m /period glyphshow
9.54102 0 m /zero glyphshow
15.9033 0 m /zero glyphshow
grestore
gsave
/o {
gsave
newpath
translate
0.8 setlinewidth
1 setlinejoin

0 setlinecap

-0 0 m
-3.5 0 l

gsave
0.000 setgray
fill
grestore
stroke
grestore
} bind def
39.94 54.9991 o
grestore
/DejaVuSans 10.000 selectfont
gsave

10.6744 51.2022 translate
0 rotate
0 0 m /zero glyphshow
6.3623 0 m /period glyphshow
9.54102 0 m /zero glyphshow
15.9033 0 m /five glyphshow
grestore
gsave
/o {
gsave
newpath
translate
0.8 setlinewidth
1 setlinejoin

0 setlinecap

-0 0 m
-3.5 0 l

gsave
0.000 setgray
fill
grestore
stroke
grestore
} bind def
39.94 82.1181 o
grestore
/DejaVuSans 10.000 selectfont
gsave

10.6744 78.3212 translate
0 rotate
0 0 m /zero glyphshow
6.3623 0 m /period glyphshow
9.54102 0 m /one glyphshow
15.9033 0 m /zero glyphshow
grestore
gsave
/o {
gsave
newpath
translate
0.8 setlinewidth
1 setlinejoin

0 setlinecap

-0 0 m
-3.5 0 l

gsave
0.000 setgray
fill
grestore
stroke
grestore
} bind def
39.94 109.237 o
grestore
/DejaVuSans 10.000 selectfont
gsave

10.6744 105.44 translate
0 rotate
0 0 m /zero glyphshow
6.3623 0 m /period glyphshow
9.54102 0 m /one glyphshow
15.9033 0 m /five glyphshow
grestore
gsave
/o {
gsave
newpath
translate
0.8 setlinewidth
1 setlinejoin

0 setlinecap

-0 0 m
-3.5 0 l

gsave
0.000 setgray
fill
grestore
stroke
grestore
} bind def
39.94 136.356 o
grestore
/DejaVuSans 10.000 selectfont
gsave

10.6744 132.559 translate
0 rotate
0 0 m /zero glyphshow
6.3623 0 m /period glyphshow
9.54102 0 m /two glyphshow
15.9033 0 m /zero glyphshow
grestore
gsave
/o {
gsave
newpath
translate
0.8 setlinewidth
1 setlinejoin

0 setlinecap

-0 0 m
-3.5 0 l

gsave
0.000 setgray
fill
grestore
stroke
grestore
} bind def
39.94 163.475 o
grestore
/DejaVuSans 10.000 selectfont
gsave

10.6744 159.678 translate
0 rotate
0 0 m /zero glyphshow
6.3623 0 m /period glyphshow
9.54102 0 m /two glyphshow
15.9033 0 m /five glyphshow
grestore
0 setlinejoin
2 setlinecap
gsave
39.94 27.88 m
39.94 166.917216 l
stroke
grestore
gsave
450 27.88 m
450 166.917216 l
stroke
grestore
gsave
39.94 27.88 m
450 27.88 l
stroke
grestore
gsave
39.94 166.917216 m
450 166.917216 l
stroke
grestore
1.000 setlinewidth
0 setlinecap
0.800 setgray
gsave
399.284375 308.25625 m
453.8 308.25625 l
455.133333 308.25625 455.8 308.922917 455.8 310.25625 c
455.8 338.6 l
455.8 339.933333 455.133333 340.6 453.8 340.6 c
399.284375 340.6 l
397.951042 340.6 397.284375 339.933333 397.284375 338.6 c
397.284375 310.25625 l
397.284375 308.922917 397.951042 308.25625 399.284375 308.25625 c
cl
gsave
1.000 setgray
fill
grestore
stroke
grestore
gsave
401.284375 329.00625 m
421.284375 329.00625 l
421.284375 336.00625 l
401.284375 336.00625 l
cl
0.275 0.195 0.496 setrgbcolor
fill
grestore
0.000 setgray
/DejaVuSans 10.000 selectfont
gsave

429.284 329.006 translate
0 rotate
0 0 m /x glyphshow
grestore
gsave
401.284375 314.334375 m
421.284375 314.334375 l
421.284375 321.334375 l
401.284375 321.334375 l
cl
0.502 setgray
fill
grestore
/DejaVuSans 10.000 selectfont
gsave

429.284 314.334 translate
0 rotate
0 0 m /d glyphshow
6.34766 0 m /a glyphshow
12.4756 0 m /t glyphshow
16.3965 0 m /a glyphshow
grestore

end
showpage
