%!PS-Adobe-3.0 EPSF-3.0
%%Title: posterior_predictive.eps
%%Creator: Matplotlib v3.6.2, https://matplotlib.org/
%%CreationDate: Tue Feb 14 19:58:19 2023
%%Orientation: portrait
%%BoundingBox: 75 223 537 569
%%HiResBoundingBox: 75.600000 223.200000 536.400000 568.800000
%%EndComments
%%BeginProlog
/mpldict 11 dict def
mpldict begin
/_d { bind def } bind def
/m { moveto } _d
/l { lineto } _d
/r { rlineto } _d
/c { curveto } _d
/cl { closepath } _d
/ce { closepath eofill } _d
/box {
      m
      1 index 0 r
      0 exch r
      neg 0 r
      cl
    } _d
/clipbox {
      box
      clip
      newpath
    } _d
/sc { setcachedevice } _d
%!PS-Adobe-3.0 Resource-Font
%%Creator: Converted from TrueType to Type 3 by Matplotlib.
10 dict begin
/FontName /DejaVuSans def
/PaintType 0 def
/FontMatrix [0.00048828125 0 0 0.00048828125 0 0] def
/FontBBox [-2090 -948 3673 2524] def
/FontType 3 def
/Encoding [/period /zero /one /two /three /four /five /six /seven] def
/CharStrings 10 dict dup begin
/.notdef 0 def
/period{651 0 219 0 430 254 sc
219 254 m
430 254 l
430 0 l
219 0 l
219 254 l

ce} _d
/zero{1303 0 135 -29 1167 1520 sc
651 1360 m
547 1360 469 1309 416 1206 c
364 1104 338 950 338 745 c
338 540 364 387 416 284 c
469 182 547 131 651 131 c
756 131 834 182 886 284 c
939 387 965 540 965 745 c
965 950 939 1104 886 1206 c
834 1309 756 1360 651 1360 c

651 1520 m
818 1520 946 1454 1034 1321 c
1123 1189 1167 997 1167 745 c
1167 494 1123 302 1034 169 c
946 37 818 -29 651 -29 c
484 -29 356 37 267 169 c
179 302 135 494 135 745 c
135 997 179 1189 267 1321 c
356 1454 484 1520 651 1520 c

ce} _d
/one{1303 0 225 0 1114 1493 sc
254 170 m
584 170 l
584 1309 l
225 1237 l
225 1421 l
582 1493 l
784 1493 l
784 170 l
1114 170 l
1114 0 l
254 0 l
254 170 l

ce} _d
/two{1303 0 150 0 1098 1520 sc
393 170 m
1098 170 l
1098 0 l
150 0 l
150 170 l
227 249 331 356 463 489 c
596 623 679 709 713 748 c
778 821 823 882 848 932 c
874 983 887 1032 887 1081 c
887 1160 859 1225 803 1275 c
748 1325 675 1350 586 1350 c
523 1350 456 1339 385 1317 c
315 1295 240 1262 160 1217 c
160 1421 l
241 1454 317 1478 388 1495 c
459 1512 523 1520 582 1520 c
737 1520 860 1481 952 1404 c
1044 1327 1090 1223 1090 1094 c
1090 1033 1078 974 1055 919 c
1032 864 991 800 930 725 c
913 706 860 650 771 557 c
682 465 556 336 393 170 c

ce} _d
/three{1303 0 156 -29 1139 1520 sc
831 805 m
928 784 1003 741 1057 676 c
1112 611 1139 530 1139 434 c
1139 287 1088 173 987 92 c
886 11 742 -29 555 -29 c
492 -29 428 -23 361 -10 c
295 2 227 20 156 45 c
156 240 l
212 207 273 183 340 166 c
407 149 476 141 549 141 c
676 141 772 166 838 216 c
905 266 938 339 938 434 c
938 522 907 591 845 640 c
784 690 698 715 588 715 c
414 715 l
414 881 l
596 881 l
695 881 771 901 824 940 c
877 980 903 1037 903 1112 c
903 1189 876 1247 821 1288 c
767 1329 689 1350 588 1350 c
533 1350 473 1344 410 1332 c
347 1320 277 1301 201 1276 c
201 1456 l
278 1477 349 1493 416 1504 c
483 1515 547 1520 606 1520 c
759 1520 881 1485 970 1415 c
1059 1346 1104 1252 1104 1133 c
1104 1050 1080 980 1033 923 c
986 866 918 827 831 805 c

ce} _d
/four{1303 0 100 0 1188 1493 sc
774 1317 m
264 520 l
774 520 l
774 1317 l

721 1493 m
975 1493 l
975 520 l
1188 520 l
1188 352 l
975 352 l
975 0 l
774 0 l
774 352 l
100 352 l
100 547 l
721 1493 l

ce} _d
/five{1303 0 158 -29 1124 1493 sc
221 1493 m
1014 1493 l
1014 1323 l
406 1323 l
406 957 l
435 967 465 974 494 979 c
523 984 553 987 582 987 c
749 987 881 941 978 850 c
1075 759 1124 635 1124 479 c
1124 318 1074 193 974 104 c
874 15 733 -29 551 -29 c
488 -29 424 -24 359 -13 c
294 -2 227 14 158 35 c
158 238 l
218 205 280 181 344 165 c
408 149 476 141 547 141 c
662 141 754 171 821 232 c
888 293 922 375 922 479 c
922 583 888 665 821 726 c
754 787 662 817 547 817 c
493 817 439 811 385 799 c
332 787 277 768 221 743 c
221 1493 l

ce} _d
/six{1303 0 143 -29 1174 1520 sc
676 827 m
585 827 513 796 460 734 c
407 672 381 587 381 479 c
381 372 407 287 460 224 c
513 162 585 131 676 131 c
767 131 838 162 891 224 c
944 287 971 372 971 479 c
971 587 944 672 891 734 c
838 796 767 827 676 827 c

1077 1460 m
1077 1276 l
1026 1300 975 1318 923 1331 c
872 1344 821 1350 770 1350 c
637 1350 535 1305 464 1215 c
394 1125 354 989 344 807 c
383 865 433 909 492 940 c
551 971 617 987 688 987 c
838 987 956 941 1043 850 c
1130 759 1174 636 1174 479 c
1174 326 1129 203 1038 110 c
947 17 827 -29 676 -29 c
503 -29 371 37 280 169 c
189 302 143 494 143 745 c
143 981 199 1169 311 1309 c
423 1450 573 1520 762 1520 c
813 1520 864 1515 915 1505 c
967 1495 1021 1480 1077 1460 c

ce} _d
/seven{1303 0 168 0 1128 1493 sc
168 1493 m
1128 1493 l
1128 1407 l
586 0 l
375 0 l
885 1323 l
168 1323 l
168 1493 l

ce} _d
end readonly def

/BuildGlyph {
 exch begin
 CharStrings exch
 2 copy known not {pop /.notdef} if
 true 3 1 roll get exec
 end
} _d

/BuildChar {
 1 index /Encoding get exch get
 1 index /BuildGlyph get exec
} _d

FontName currentdict end definefont pop
end
%%EndProlog
mpldict begin
75.6 223.2 translate
460.8 345.6 0 0 clipbox
gsave
0 0 m
460.8 0 l
460.8 345.6 l
0 345.6 l
cl
1.000 setgray
fill
grestore
gsave
39.94 195.28 m
450 195.28 l
450 334.8 l
39.94 334.8 l
cl
1.000 setgray
fill
grestore
gsave
410.06 139.52 39.94 195.28 clipbox
58.579091 195.28 m
77.218182 195.28 l
77.218182 196.369149 l
58.579091 196.369149 l
cl
0.275 0.195 0.496 setrgbcolor
fill
grestore
gsave
410.06 139.52 39.94 195.28 clipbox
77.218182 195.28 m
95.857273 195.28 l
95.857273 203.993193 l
77.218182 203.993193 l
cl
0.275 0.195 0.496 setrgbcolor
fill
grestore
gsave
410.06 139.52 39.94 195.28 clipbox
95.857273 195.28 m
114.496364 195.28 l
114.496364 225.776175 l
95.857273 225.776175 l
cl
0.275 0.195 0.496 setrgbcolor
fill
grestore
gsave
410.06 139.52 39.94 195.28 clipbox
114.496364 195.28 m
133.135455 195.28 l
133.135455 256.27235 l
114.496364 256.27235 l
cl
0.275 0.195 0.496 setrgbcolor
fill
grestore
gsave
410.06 139.52 39.94 195.28 clipbox
133.135455 195.28 m
151.774545 195.28 l
151.774545 299.838314 l
133.135455 299.838314 l
cl
0.275 0.195 0.496 setrgbcolor
fill
grestore
gsave
410.06 139.52 39.94 195.28 clipbox
151.774545 195.28 m
170.413636 195.28 l
170.413636 319.442998 l
151.774545 319.442998 l
cl
0.275 0.195 0.496 setrgbcolor
fill
grestore
gsave
410.06 139.52 39.94 195.28 clipbox
170.413636 195.28 m
189.052727 195.28 l
189.052727 322.710445 l
170.413636 322.710445 l
cl
0.275 0.195 0.496 setrgbcolor
fill
grestore
gsave
410.06 139.52 39.94 195.28 clipbox
189.052727 195.28 m
207.691818 195.28 l
207.691818 328.15619 l
189.052727 328.15619 l
cl
0.275 0.195 0.496 setrgbcolor
fill
grestore
gsave
410.06 139.52 39.94 195.28 clipbox
207.691818 195.28 m
226.330909 195.28 l
226.330909 279.144481 l
207.691818 279.144481 l
cl
0.275 0.195 0.496 setrgbcolor
fill
grestore
gsave
410.06 139.52 39.94 195.28 clipbox
226.330909 195.28 m
244.97 195.28 l
244.97 260.628946 l
226.330909 260.628946 l
cl
0.275 0.195 0.496 setrgbcolor
fill
grestore
gsave
410.06 139.52 39.94 195.28 clipbox
244.97 195.28 m
263.609091 195.28 l
263.609091 244.29171 l
244.97 244.29171 l
cl
0.275 0.195 0.496 setrgbcolor
fill
grestore
gsave
410.06 139.52 39.94 195.28 clipbox
263.609091 195.28 m
282.248182 195.28 l
282.248182 218.152131 l
263.609091 218.152131 l
cl
0.275 0.195 0.496 setrgbcolor
fill
grestore
gsave
410.06 139.52 39.94 195.28 clipbox
282.248182 195.28 m
300.887273 195.28 l
300.887273 221.419578 l
282.248182 221.419578 l
cl
0.275 0.195 0.496 setrgbcolor
fill
grestore
gsave
410.06 139.52 39.94 195.28 clipbox
300.887273 195.28 m
319.526364 195.28 l
319.526364 211.617237 l
300.887273 211.617237 l
cl
0.275 0.195 0.496 setrgbcolor
fill
grestore
gsave
410.06 139.52 39.94 195.28 clipbox
319.526364 195.28 m
338.165455 195.28 l
338.165455 200.725746 l
319.526364 200.725746 l
cl
0.275 0.195 0.496 setrgbcolor
fill
grestore
gsave
410.06 139.52 39.94 195.28 clipbox
338.165455 195.28 m
356.804545 195.28 l
356.804545 200.725746 l
338.165455 200.725746 l
cl
0.275 0.195 0.496 setrgbcolor
fill
grestore
gsave
410.06 139.52 39.94 195.28 clipbox
356.804545 195.28 m
375.443636 195.28 l
375.443636 199.636596 l
356.804545 199.636596 l
cl
0.275 0.195 0.496 setrgbcolor
fill
grestore
gsave
410.06 139.52 39.94 195.28 clipbox
375.443636 195.28 m
394.082727 195.28 l
394.082727 196.369149 l
375.443636 196.369149 l
cl
0.275 0.195 0.496 setrgbcolor
fill
grestore
gsave
410.06 139.52 39.94 195.28 clipbox
394.082727 195.28 m
412.721818 195.28 l
412.721818 195.28 l
394.082727 195.28 l
cl
0.275 0.195 0.496 setrgbcolor
fill
grestore
gsave
410.06 139.52 39.94 195.28 clipbox
412.721818 195.28 m
431.360909 195.28 l
431.360909 196.369149 l
412.721818 196.369149 l
cl
0.275 0.195 0.496 setrgbcolor
fill
grestore
0.800 setlinewidth
1 setlinejoin
0 setlinecap
[] 0 setdash
0.000 setgray
gsave
/o {
gsave
newpath
translate
0.8 setlinewidth
1 setlinejoin

0 setlinecap

0 0 m
0 -3.5 l

gsave
0.000 setgray
fill
grestore
stroke
grestore
} bind def
46.153 195.28 o
grestore
/DejaVuSans 10.000 selectfont
gsave

42.9733 180.686 translate
0 rotate
0 0 m /zero glyphshow
grestore
gsave
/o {
gsave
newpath
translate
0.8 setlinewidth
1 setlinejoin

0 setlinecap

0 0 m
0 -3.5 l

gsave
0.000 setgray
fill
grestore
stroke
grestore
} bind def
108.283 195.28 o
grestore
/DejaVuSans 10.000 selectfont
gsave

101.924 180.686 translate
0 rotate
0 0 m /one glyphshow
6.3623 0 m /zero glyphshow
grestore
gsave
/o {
gsave
newpath
translate
0.8 setlinewidth
1 setlinejoin

0 setlinecap

0 0 m
0 -3.5 l

gsave
0.000 setgray
fill
grestore
stroke
grestore
} bind def
170.414 195.28 o
grestore
/DejaVuSans 10.000 selectfont
gsave

164.054 180.686 translate
0 rotate
0 0 m /two glyphshow
6.3623 0 m /zero glyphshow
grestore
gsave
/o {
gsave
newpath
translate
0.8 setlinewidth
1 setlinejoin

0 setlinecap

0 0 m
0 -3.5 l

gsave
0.000 setgray
fill
grestore
stroke
grestore
} bind def
232.544 195.28 o
grestore
/DejaVuSans 10.000 selectfont
gsave

226.185 180.686 translate
0 rotate
0 0 m /three glyphshow
6.3623 0 m /zero glyphshow
grestore
gsave
/o {
gsave
newpath
translate
0.8 setlinewidth
1 setlinejoin

0 setlinecap

0 0 m
0 -3.5 l

gsave
0.000 setgray
fill
grestore
stroke
grestore
} bind def
294.674 195.28 o
grestore
/DejaVuSans 10.000 selectfont
gsave

288.315 180.686 translate
0 rotate
0 0 m /four glyphshow
6.3623 0 m /zero glyphshow
grestore
gsave
/o {
gsave
newpath
translate
0.8 setlinewidth
1 setlinejoin

0 setlinecap

0 0 m
0 -3.5 l

gsave
0.000 setgray
fill
grestore
stroke
grestore
} bind def
356.805 195.28 o
grestore
/DejaVuSans 10.000 selectfont
gsave

350.445 180.686 translate
0 rotate
0 0 m /five glyphshow
6.3623 0 m /zero glyphshow
grestore
gsave
/o {
gsave
newpath
translate
0.8 setlinewidth
1 setlinejoin

0 setlinecap

0 0 m
0 -3.5 l

gsave
0.000 setgray
fill
grestore
stroke
grestore
} bind def
418.935 195.28 o
grestore
/DejaVuSans 10.000 selectfont
gsave

412.575 180.686 translate
0 rotate
0 0 m /six glyphshow
6.3623 0 m /zero glyphshow
grestore
gsave
/o {
gsave
newpath
translate
0.8 setlinewidth
1 setlinejoin

0 setlinecap

-0 0 m
-3.5 0 l

gsave
0.000 setgray
fill
grestore
stroke
grestore
} bind def
39.94 195.28 o
grestore
/DejaVuSans 10.000 selectfont
gsave

10.6744 191.483 translate
0 rotate
0 0 m /zero glyphshow
6.3623 0 m /period glyphshow
9.54102 0 m /zero glyphshow
15.9033 0 m /zero glyphshow
grestore
gsave
/o {
gsave
newpath
translate
0.8 setlinewidth
1 setlinejoin

0 setlinecap

-0 0 m
-3.5 0 l

gsave
0.000 setgray
fill
grestore
stroke
grestore
} bind def
39.94 221.42 o
grestore
/DejaVuSans 10.000 selectfont
gsave

10.6744 217.623 translate
0 rotate
0 0 m /zero glyphshow
6.3623 0 m /period glyphshow
9.54102 0 m /zero glyphshow
15.9033 0 m /one glyphshow
grestore
gsave
/o {
gsave
newpath
translate
0.8 setlinewidth
1 setlinejoin

0 setlinecap

-0 0 m
-3.5 0 l

gsave
0.000 setgray
fill
grestore
stroke
grestore
} bind def
39.94 247.559 o
grestore
/DejaVuSans 10.000 selectfont
gsave

10.6744 243.762 translate
0 rotate
0 0 m /zero glyphshow
6.3623 0 m /period glyphshow
9.54102 0 m /zero glyphshow
15.9033 0 m /two glyphshow
grestore
gsave
/o {
gsave
newpath
translate
0.8 setlinewidth
1 setlinejoin

0 setlinecap

-0 0 m
-3.5 0 l

gsave
0.000 setgray
fill
grestore
stroke
grestore
} bind def
39.94 273.699 o
grestore
/DejaVuSans 10.000 selectfont
gsave

10.6744 269.902 translate
0 rotate
0 0 m /zero glyphshow
6.3623 0 m /period glyphshow
9.54102 0 m /zero glyphshow
15.9033 0 m /three glyphshow
grestore
gsave
/o {
gsave
newpath
translate
0.8 setlinewidth
1 setlinejoin

0 setlinecap

-0 0 m
-3.5 0 l

gsave
0.000 setgray
fill
grestore
stroke
grestore
} bind def
39.94 299.838 o
grestore
/DejaVuSans 10.000 selectfont
gsave

10.6744 296.041 translate
0 rotate
0 0 m /zero glyphshow
6.3623 0 m /period glyphshow
9.54102 0 m /zero glyphshow
15.9033 0 m /four glyphshow
grestore
gsave
/o {
gsave
newpath
translate
0.8 setlinewidth
1 setlinejoin

0 setlinecap

-0 0 m
-3.5 0 l

gsave
0.000 setgray
fill
grestore
stroke
grestore
} bind def
39.94 325.978 o
grestore
/DejaVuSans 10.000 selectfont
gsave

10.6744 322.181 translate
0 rotate
0 0 m /zero glyphshow
6.3623 0 m /period glyphshow
9.54102 0 m /zero glyphshow
15.9033 0 m /five glyphshow
grestore
0 setlinejoin
2 setlinecap
gsave
39.94 195.28 m
39.94 334.8 l
stroke
grestore
gsave
450 195.28 m
450 334.8 l
stroke
grestore
gsave
39.94 195.28 m
450 195.28 l
stroke
grestore
gsave
39.94 334.8 m
450 334.8 l
stroke
grestore
gsave
39.94 27.88 m
450 27.88 l
450 167.4 l
39.94 167.4 l
cl
1.000 setgray
fill
grestore
gsave
410.06 139.52 39.94 27.88 clipbox
58.579091 27.88 m
77.218182 27.88 l
77.218182 29.513412 l
58.579091 29.513412 l
cl
0.275 0.195 0.496 setrgbcolor
fill
grestore
gsave
410.06 139.52 39.94 27.88 clipbox
77.218182 27.88 m
95.857273 27.88 l
95.857273 37.642487 l
77.218182 37.642487 l
cl
0.275 0.195 0.496 setrgbcolor
fill
grestore
gsave
410.06 139.52 39.94 27.88 clipbox
95.857273 27.88 m
114.496364 27.88 l
114.496364 74.907079 l
95.857273 74.907079 l
cl
0.275 0.195 0.496 setrgbcolor
fill
grestore
gsave
410.06 139.52 39.94 27.88 clipbox
114.496364 27.88 m
133.135455 27.88 l
133.135455 97.546933 l
114.496364 97.546933 l
cl
0.275 0.195 0.496 setrgbcolor
fill
grestore
gsave
410.06 139.52 39.94 27.88 clipbox
133.135455 27.88 m
151.774545 27.88 l
151.774545 160.414313 l
133.135455 160.414313 l
cl
0.275 0.195 0.496 setrgbcolor
fill
grestore
gsave
410.06 139.52 39.94 27.88 clipbox
151.774545 27.88 m
170.413636 27.88 l
170.413636 134.507635 l
151.774545 134.507635 l
cl
0.275 0.195 0.496 setrgbcolor
fill
grestore
gsave
410.06 139.52 39.94 27.88 clipbox
170.413636 27.88 m
189.052727 27.88 l
189.052727 160.75619 l
170.413636 160.75619 l
cl
0.275 0.195 0.496 setrgbcolor
fill
grestore
gsave
410.06 139.52 39.94 27.88 clipbox
189.052727 27.88 m
207.691818 27.88 l
207.691818 108.297066 l
189.052727 108.297066 l
cl
0.275 0.195 0.496 setrgbcolor
fill
grestore
gsave
410.06 139.52 39.94 27.88 clipbox
207.691818 27.88 m
226.330909 27.88 l
226.330909 106.28379 l
207.691818 106.28379 l
cl
0.275 0.195 0.496 setrgbcolor
fill
grestore
gsave
410.06 139.52 39.94 27.88 clipbox
226.330909 27.88 m
244.97 27.88 l
244.97 66.853977 l
226.330909 66.853977 l
cl
0.275 0.195 0.496 setrgbcolor
fill
grestore
gsave
410.06 139.52 39.94 27.88 clipbox
244.97 27.88 m
263.609091 27.88 l
263.609091 52.912993 l
244.97 52.912993 l
cl
0.275 0.195 0.496 setrgbcolor
fill
grestore
gsave
410.06 139.52 39.94 27.88 clipbox
263.609091 27.88 m
282.248182 27.88 l
282.248182 46.379344 l
263.609091 46.379344 l
cl
0.275 0.195 0.496 setrgbcolor
fill
grestore
gsave
410.06 139.52 39.94 27.88 clipbox
282.248182 27.88 m
300.887273 27.88 l
300.887273 36.009075 l
282.248182 36.009075 l
cl
0.275 0.195 0.496 setrgbcolor
fill
grestore
gsave
410.06 139.52 39.94 27.88 clipbox
300.887273 27.88 m
319.526364 27.88 l
319.526364 33.426005 l
300.887273 33.426005 l
cl
0.275 0.195 0.496 setrgbcolor
fill
grestore
gsave
410.06 139.52 39.94 27.88 clipbox
319.526364 27.88 m
338.165455 27.88 l
338.165455 29.893276 l
319.526364 29.893276 l
cl
0.275 0.195 0.496 setrgbcolor
fill
grestore
gsave
410.06 139.52 39.94 27.88 clipbox
338.165455 27.88 m
356.804545 27.88 l
356.804545 29.285494 l
338.165455 29.285494 l
cl
0.275 0.195 0.496 setrgbcolor
fill
grestore
gsave
410.06 139.52 39.94 27.88 clipbox
356.804545 27.88 m
375.443636 27.88 l
375.443636 28.29785 l
356.804545 28.29785 l
cl
0.275 0.195 0.496 setrgbcolor
fill
grestore
gsave
410.06 139.52 39.94 27.88 clipbox
375.443636 27.88 m
394.082727 27.88 l
394.082727 28.373822 l
375.443636 28.373822 l
cl
0.275 0.195 0.496 setrgbcolor
fill
grestore
gsave
410.06 139.52 39.94 27.88 clipbox
394.082727 27.88 m
412.721818 27.88 l
412.721818 28.069932 l
394.082727 28.069932 l
cl
0.275 0.195 0.496 setrgbcolor
fill
grestore
gsave
410.06 139.52 39.94 27.88 clipbox
412.721818 27.88 m
431.360909 27.88 l
431.360909 27.955973 l
412.721818 27.955973 l
cl
0.275 0.195 0.496 setrgbcolor
fill
grestore
1 setlinejoin
0 setlinecap
gsave
/o {
gsave
newpath
translate
0.8 setlinewidth
1 setlinejoin

0 setlinecap

0 0 m
0 -3.5 l

gsave
0.000 setgray
fill
grestore
stroke
grestore
} bind def
53.1765 27.88 o
grestore
/DejaVuSans 10.000 selectfont
gsave

49.9968 13.2863 translate
0 rotate
0 0 m /zero glyphshow
grestore
gsave
/o {
gsave
newpath
translate
0.8 setlinewidth
1 setlinejoin

0 setlinecap

0 0 m
0 -3.5 l

gsave
0.000 setgray
fill
grestore
stroke
grestore
} bind def
107.203 27.88 o
grestore
/DejaVuSans 10.000 selectfont
gsave

100.843 13.2863 translate
0 rotate
0 0 m /one glyphshow
6.3623 0 m /zero glyphshow
grestore
gsave
/o {
gsave
newpath
translate
0.8 setlinewidth
1 setlinejoin

0 setlinecap

0 0 m
0 -3.5 l

gsave
0.000 setgray
fill
grestore
stroke
grestore
} bind def
161.229 27.88 o
grestore
/DejaVuSans 10.000 selectfont
gsave

154.87 13.2863 translate
0 rotate
0 0 m /two glyphshow
6.3623 0 m /zero glyphshow
grestore
gsave
/o {
gsave
newpath
translate
0.8 setlinewidth
1 setlinejoin

0 setlinecap

0 0 m
0 -3.5 l

gsave
0.000 setgray
fill
grestore
stroke
grestore
} bind def
215.256 27.88 o
grestore
/DejaVuSans 10.000 selectfont
gsave

208.896 13.2863 translate
0 rotate
0 0 m /three glyphshow
6.3623 0 m /zero glyphshow
grestore
gsave
/o {
gsave
newpath
translate
0.8 setlinewidth
1 setlinejoin

0 setlinecap

0 0 m
0 -3.5 l

gsave
0.000 setgray
fill
grestore
stroke
grestore
} bind def
269.282 27.88 o
grestore
/DejaVuSans 10.000 selectfont
gsave

262.922 13.2863 translate
0 rotate
0 0 m /four glyphshow
6.3623 0 m /zero glyphshow
grestore
gsave
/o {
gsave
newpath
translate
0.8 setlinewidth
1 setlinejoin

0 setlinecap

0 0 m
0 -3.5 l

gsave
0.000 setgray
fill
grestore
stroke
grestore
} bind def
323.308 27.88 o
grestore
/DejaVuSans 10.000 selectfont
gsave

316.949 13.2863 translate
0 rotate
0 0 m /five glyphshow
6.3623 0 m /zero glyphshow
grestore
gsave
/o {
gsave
newpath
translate
0.8 setlinewidth
1 setlinejoin

0 setlinecap

0 0 m
0 -3.5 l

gsave
0.000 setgray
fill
grestore
stroke
grestore
} bind def
377.335 27.88 o
grestore
/DejaVuSans 10.000 selectfont
gsave

370.975 13.2863 translate
0 rotate
0 0 m /six glyphshow
6.3623 0 m /zero glyphshow
grestore
gsave
/o {
gsave
newpath
translate
0.8 setlinewidth
1 setlinejoin

0 setlinecap

0 0 m
0 -3.5 l

gsave
0.000 setgray
fill
grestore
stroke
grestore
} bind def
431.361 27.88 o
grestore
/DejaVuSans 10.000 selectfont
gsave

425.002 13.2863 translate
0 rotate
0 0 m /seven glyphshow
6.3623 0 m /zero glyphshow
grestore
gsave
/o {
gsave
newpath
translate
0.8 setlinewidth
1 setlinejoin

0 setlinecap

-0 0 m
-3.5 0 l

gsave
0.000 setgray
fill
grestore
stroke
grestore
} bind def
39.94 27.88 o
grestore
/DejaVuSans 10.000 selectfont
gsave

10.6744 24.0831 translate
0 rotate
0 0 m /zero glyphshow
6.3623 0 m /period glyphshow
9.54102 0 m /zero glyphshow
15.9033 0 m /zero glyphshow
grestore
gsave
/o {
gsave
newpath
translate
0.8 setlinewidth
1 setlinejoin

0 setlinecap

-0 0 m
-3.5 0 l

gsave
0.000 setgray
fill
grestore
stroke
grestore
} bind def
39.94 54.0906 o
grestore
/DejaVuSans 10.000 selectfont
gsave

10.6744 50.2937 translate
0 rotate
0 0 m /zero glyphshow
6.3623 0 m /period glyphshow
9.54102 0 m /zero glyphshow
15.9033 0 m /one glyphshow
grestore
gsave
/o {
gsave
newpath
translate
0.8 setlinewidth
1 setlinejoin

0 setlinecap

-0 0 m
-3.5 0 l

gsave
0.000 setgray
fill
grestore
stroke
grestore
} bind def
39.94 80.3011 o
grestore
/DejaVuSans 10.000 selectfont
gsave

10.6744 76.5043 translate
0 rotate
0 0 m /zero glyphshow
6.3623 0 m /period glyphshow
9.54102 0 m /zero glyphshow
15.9033 0 m /two glyphshow
grestore
gsave
/o {
gsave
newpath
translate
0.8 setlinewidth
1 setlinejoin

0 setlinecap

-0 0 m
-3.5 0 l

gsave
0.000 setgray
fill
grestore
stroke
grestore
} bind def
39.94 106.512 o
grestore
/DejaVuSans 10.000 selectfont
gsave

10.6744 102.715 translate
0 rotate
0 0 m /zero glyphshow
6.3623 0 m /period glyphshow
9.54102 0 m /zero glyphshow
15.9033 0 m /three glyphshow
grestore
gsave
/o {
gsave
newpath
translate
0.8 setlinewidth
1 setlinejoin

0 setlinecap

-0 0 m
-3.5 0 l

gsave
0.000 setgray
fill
grestore
stroke
grestore
} bind def
39.94 132.722 o
grestore
/DejaVuSans 10.000 selectfont
gsave

10.6744 128.925 translate
0 rotate
0 0 m /zero glyphshow
6.3623 0 m /period glyphshow
9.54102 0 m /zero glyphshow
15.9033 0 m /four glyphshow
grestore
gsave
/o {
gsave
newpath
translate
0.8 setlinewidth
1 setlinejoin

0 setlinecap

-0 0 m
-3.5 0 l

gsave
0.000 setgray
fill
grestore
stroke
grestore
} bind def
39.94 158.933 o
grestore
/DejaVuSans 10.000 selectfont
gsave

10.6744 155.136 translate
0 rotate
0 0 m /zero glyphshow
6.3623 0 m /period glyphshow
9.54102 0 m /zero glyphshow
15.9033 0 m /five glyphshow
grestore
0 setlinejoin
2 setlinecap
gsave
39.94 27.88 m
39.94 167.4 l
stroke
grestore
gsave
450 27.88 m
450 167.4 l
stroke
grestore
gsave
39.94 27.88 m
450 27.88 l
stroke
grestore
gsave
39.94 167.4 m
450 167.4 l
stroke
grestore
1.000 setlinewidth
0 setlinecap
0.800 setgray
gsave
449.8 332.6 m
453.8 332.6 l
455.133333 332.6 455.8 333.266667 455.8 334.6 c
455.8 338.6 l
455.8 339.933333 455.133333 340.6 453.8 340.6 c
449.8 340.6 l
448.466667 340.6 447.8 339.933333 447.8 338.6 c
447.8 334.6 l
447.8 333.266667 448.466667 332.6 449.8 332.6 c
cl
gsave
1.000 setgray
fill
grestore
stroke
grestore

end
showpage
