%!PS-Adobe-3.0 EPSF-3.0
%%Title: kde_Rosenbrock_HMC.eps
%%Creator: Matplotlib v3.6.2, https://matplotlib.org/
%%CreationDate: Sun Dec  4 09:06:46 2022
%%Orientation: portrait
%%BoundingBox: 90 180 522 612
%%HiResBoundingBox: 90.000000 180.000000 522.000000 612.000000
%%EndComments
%%BeginProlog
/mpldict 12 dict def
mpldict begin
/_d { bind def } bind def
/m { moveto } _d
/l { lineto } _d
/r { rlineto } _d
/c { curveto } _d
/cl { closepath } _d
/ce { closepath eofill } _d
/box {
      m
      1 index 0 r
      0 exch r
      neg 0 r
      cl
    } _d
/clipbox {
      box
      clip
      newpath
    } _d
/sc { setcachedevice } _d
%!PS-Adobe-3.0 Resource-Font
%%Creator: Converted from TrueType to Type 3 by Matplotlib.
10 dict begin
/FontName /DejaVuSans def
/PaintType 0 def
/FontMatrix [0.00048828125 0 0 0.00048828125 0 0] def
/FontBBox [-2090 -948 3673 2524] def
/FontType 3 def
/Encoding [/zero /one /minus /five] def
/CharStrings 5 dict dup begin
/.notdef 0 def
/zero{1303 0 135 -29 1167 1520 sc
651 1360 m
547 1360 469 1309 416 1206 c
364 1104 338 950 338 745 c
338 540 364 387 416 284 c
469 182 547 131 651 131 c
756 131 834 182 886 284 c
939 387 965 540 965 745 c
965 950 939 1104 886 1206 c
834 1309 756 1360 651 1360 c

651 1520 m
818 1520 946 1454 1034 1321 c
1123 1189 1167 997 1167 745 c
1167 494 1123 302 1034 169 c
946 37 818 -29 651 -29 c
484 -29 356 37 267 169 c
179 302 135 494 135 745 c
135 997 179 1189 267 1321 c
356 1454 484 1520 651 1520 c

ce} _d
/one{1303 0 225 0 1114 1493 sc
254 170 m
584 170 l
584 1309 l
225 1237 l
225 1421 l
582 1493 l
784 1493 l
784 170 l
1114 170 l
1114 0 l
254 0 l
254 170 l

ce} _d
/minus{1716 0 217 557 1499 727 sc
217 727 m
1499 727 l
1499 557 l
217 557 l
217 727 l

ce} _d
/five{1303 0 158 -29 1124 1493 sc
221 1493 m
1014 1493 l
1014 1323 l
406 1323 l
406 957 l
435 967 465 974 494 979 c
523 984 553 987 582 987 c
749 987 881 941 978 850 c
1075 759 1124 635 1124 479 c
1124 318 1074 193 974 104 c
874 15 733 -29 551 -29 c
488 -29 424 -24 359 -13 c
294 -2 227 14 158 35 c
158 238 l
218 205 280 181 344 165 c
408 149 476 141 547 141 c
662 141 754 171 821 232 c
888 293 922 375 922 479 c
922 583 888 665 821 726 c
754 787 662 817 547 817 c
493 817 439 811 385 799 c
332 787 277 768 221 743 c
221 1493 l

ce} _d
end readonly def

/BuildGlyph {
 exch begin
 CharStrings exch
 2 copy known not {pop /.notdef} if
 true 3 1 roll get exec
 end
} _d

/BuildChar {
 1 index /Encoding get exch get
 1 index /BuildGlyph get exec
} _d

FontName currentdict end definefont pop
%!PS-Adobe-3.0 Resource-Font
%%Creator: Converted from TrueType to Type 3 by Matplotlib.
10 dict begin
/FontName /DejaVuSans-Oblique def
/PaintType 0 def
/FontMatrix [0.00048828125 0 0 0.00048828125 0 0] def
/FontBBox [-2080 -717 3398 2187] def
/FontType 3 def
/Encoding [/x /y] def
/CharStrings 3 dict dup begin
/.notdef 0 def
/x{1212 0 -53 0 1229 1120 sc
1229 1120 m
715 571 l
1030 0 l
819 0 l
582 444 l
170 0 l
-53 0 l
498 590 l
205 1120 l
416 1120 l
631 715 l
1006 1120 l
1229 1120 l

ce} _d
/y{1212 0 -51 -426 1235 1120 sc
508 -104 m
423 -247 353 -337 299 -372 c
246 -408 177 -426 94 -426 c
-51 -426 l
-20 -272 l
86 -272 l
137 -272 181 -258 217 -230 c
253 -202 293 -147 338 -66 c
395 41 l
147 1120 l
342 1120 l
528 262 l
1042 1120 l
1235 1120 l
508 -104 l

ce} _d
end readonly def

/BuildGlyph {
 exch begin
 CharStrings exch
 2 copy known not {pop /.notdef} if
 true 3 1 roll get exec
 end
} _d

/BuildChar {
 1 index /Encoding get exch get
 1 index /BuildGlyph get exec
} _d

FontName currentdict end definefont pop
end
%%EndProlog
mpldict begin
90 180 translate
432 432 0 0 clipbox
gsave
0 0 m
432 0 l
432 432 l
0 432 l
cl
1.000 setgray
fill
grestore
gsave
33.73 27.88 m
354.776571 27.88 l
354.776571 353.773714 l
33.73 353.773714 l
cl
1.000 setgray
fill
grestore
0.800 setlinewidth
1 setlinejoin
0 setlinecap
[] 0 setdash
0.000 setgray
gsave
/o {
gsave
newpath
translate
0.8 setlinewidth
1 setlinejoin

0 setlinecap

0 0 m
0 -3.5 l

gsave
0.000 setgray
fill
grestore
stroke
grestore
} bind def
72.4605 27.88 o
grestore
/DejaVuSans 10.000 selectfont
gsave

61.9136 13.2863 translate
0 rotate
0 0 m /minus glyphshow
8.37891 0 m /one glyphshow
14.7412 0 m /zero glyphshow
grestore
gsave
/o {
gsave
newpath
translate
0.8 setlinewidth
1 setlinejoin

0 setlinecap

0 0 m
0 -3.5 l

gsave
0.000 setgray
fill
grestore
stroke
grestore
} bind def
132.59 27.88 o
grestore
/DejaVuSans 10.000 selectfont
gsave

125.222 13.2863 translate
0 rotate
0 0 m /minus glyphshow
8.37891 0 m /five glyphshow
grestore
gsave
/o {
gsave
newpath
translate
0.8 setlinewidth
1 setlinejoin

0 setlinecap

0 0 m
0 -3.5 l

gsave
0.000 setgray
fill
grestore
stroke
grestore
} bind def
192.719 27.88 o
grestore
/DejaVuSans 10.000 selectfont
gsave

189.539 13.2863 translate
0 rotate
0 0 m /zero glyphshow
grestore
gsave
/o {
gsave
newpath
translate
0.8 setlinewidth
1 setlinejoin

0 setlinecap

0 0 m
0 -3.5 l

gsave
0.000 setgray
fill
grestore
stroke
grestore
} bind def
252.848 27.88 o
grestore
/DejaVuSans 10.000 selectfont
gsave

249.668 13.2863 translate
0 rotate
0 0 m /five glyphshow
grestore
gsave
/o {
gsave
newpath
translate
0.8 setlinewidth
1 setlinejoin

0 setlinecap

0 0 m
0 -3.5 l

gsave
0.000 setgray
fill
grestore
stroke
grestore
} bind def
312.977 27.88 o
grestore
/DejaVuSans 10.000 selectfont
gsave

306.618 13.2863 translate
0 rotate
0 0 m /one glyphshow
6.3623 0 m /zero glyphshow
grestore
gsave
191.253 -0.385625 translate
0 rotate
/DejaVuSans-Oblique 10.0 selectfont
0 0.53125 moveto
/x glyphshow
grestore
gsave
/o {
gsave
newpath
translate
0.8 setlinewidth
1 setlinejoin

0 setlinecap

-0 0 m
-3.5 0 l

gsave
0.000 setgray
fill
grestore
stroke
grestore
} bind def
33.73 67.8852 o
grestore
/DejaVuSans 10.000 selectfont
gsave

5.63625 64.0884 translate
0 rotate
0 0 m /minus glyphshow
8.37891 0 m /one glyphshow
14.7412 0 m /zero glyphshow
grestore
gsave
/o {
gsave
newpath
translate
0.8 setlinewidth
1 setlinejoin

0 setlinecap

-0 0 m
-3.5 0 l

gsave
0.000 setgray
fill
grestore
stroke
grestore
} bind def
33.73 128.428 o
grestore
/DejaVuSans 10.000 selectfont
gsave

11.9956 124.631 translate
0 rotate
0 0 m /minus glyphshow
8.37891 0 m /five glyphshow
grestore
gsave
/o {
gsave
newpath
translate
0.8 setlinewidth
1 setlinejoin

0 setlinecap

-0 0 m
-3.5 0 l

gsave
0.000 setgray
fill
grestore
stroke
grestore
} bind def
33.73 188.971 o
grestore
/DejaVuSans 10.000 selectfont
gsave

20.3706 185.174 translate
0 rotate
0 0 m /zero glyphshow
grestore
gsave
/o {
gsave
newpath
translate
0.8 setlinewidth
1 setlinejoin

0 setlinecap

-0 0 m
-3.5 0 l

gsave
0.000 setgray
fill
grestore
stroke
grestore
} bind def
33.73 249.513 o
grestore
/DejaVuSans 10.000 selectfont
gsave

20.3706 245.716 translate
0 rotate
0 0 m /five glyphshow
grestore
gsave
/o {
gsave
newpath
translate
0.8 setlinewidth
1 setlinejoin

0 setlinecap

-0 0 m
-3.5 0 l

gsave
0.000 setgray
fill
grestore
stroke
grestore
} bind def
33.73 310.056 o
grestore
/DejaVuSans 10.000 selectfont
gsave

14.0113 306.259 translate
0 rotate
0 0 m /one glyphshow
6.3623 0 m /zero glyphshow
grestore
gsave
-1.36375 187.827 translate
90 rotate
/DejaVuSans-Oblique 10.0 selectfont
0 0.53125 moveto
/y glyphshow
grestore
1.500 setlinewidth
0.000 0.000 1.000 setrgbcolor
gsave
321.047 325.894 33.73 27.88 clipbox
111.168369 105.112643 m
112.781668 105.807524 l
113.832093 106.487529 l
114.394968 106.795962 l
116.008267 107.937551 l
116.224072 108.125186 l
117.621566 109.192169 l
118.281186 109.762843 l
119.234866 110.497349 l
120.282101 111.4005 l
120.848165 111.839441 l
122.237623 113.038156 l
122.461464 113.212949 l
124.074764 114.580479 l
124.178257 114.675813 l
125.688063 115.903106 l
126.129754 116.31347 l
127.301363 117.284648 l
128.013029 117.951127 l
128.914662 118.712213 l
129.84323 119.588784 l
130.527961 120.176342 l
131.631487 121.226441 l
132.141261 121.670377 l
133.38646 122.864098 l
133.75456 123.188931 l
135.116201 124.501754 l
135.367859 124.726408 l
136.829304 126.139411 l
136.981159 126.276224 l
138.534969 127.777068 l
138.594458 127.83099 l
140.207757 129.363082 l
140.260444 129.414725 l
141.821057 130.850092 l
142.029612 131.052382 l
143.434356 132.328539 l
143.811456 132.690039 l
145.047655 133.802756 l
145.601339 134.327696 l
146.660955 135.278032 l
147.392416 135.965352 l
148.274254 136.758208 l
149.178812 137.603009 l
149.887553 138.244596 l
150.95745 139.240666 l
151.500853 139.736423 l
152.72783 140.878323 l
153.114152 141.232439 l
154.490238 142.51598 l
154.727452 142.733057 l
156.243547 144.153637 l
156.340751 144.241777 l
157.95405 145.744559 l
158.000581 145.791294 l
159.56735 147.219253 l
159.773728 147.42895 l
161.180649 148.726307 l
161.513823 149.066607 l
162.793948 150.255002 l
163.234484 150.704264 l
164.407248 151.795955 l
164.946551 152.341921 l
166.020547 153.342076 l
166.657321 153.979578 l
167.633846 154.888903 l
168.37047 155.617235 l
169.247146 156.43435 l
170.086495 157.254892 l
170.860445 157.978257 l
171.803383 158.892548 l
172.473744 159.522051 l
173.517337 160.530205 l
174.087044 161.068548 l
175.223602 162.167862 l
175.700343 162.621613 l
176.917543 163.805519 l
177.313642 164.185372 l
178.595937 165.443176 l
178.926942 165.762972 l
180.257988 167.080833 l
180.540241 167.355436 l
181.905489 168.71849 l
182.153541 168.961308 l
183.542002 170.356146 l
183.76684 170.577334 l
185.171518 171.993803 l
185.380139 172.199735 l
186.797286 173.63146 l
186.993439 173.825425 l
188.421189 175.269117 l
188.606738 175.452682 l
190.043757 176.906774 l
190.220037 177.081147 l
191.664703 178.544431 l
191.833337 178.711257 l
193.283692 180.182088 l
193.446636 180.343431 l
194.901002 181.819744 l
195.059935 181.977392 l
196.517812 183.457401 l
196.673235 183.611905 l
198.136058 185.095058 l
198.286534 185.244941 l
199.758041 186.732715 l
199.899833 186.874106 l
201.385991 188.370372 l
201.513133 188.497126 l
203.021716 190.008029 l
203.126432 190.11224 l
204.666397 191.645686 l
204.739732 191.71843 l
206.320461 193.283342 l
206.353031 193.315512 l
207.96633 194.878179 l
208.008479 194.920999 l
209.57963 196.388451 l
209.748212 196.558656 l
211.192929 197.908166 l
211.480434 198.196313 l
212.806228 199.440637 l
213.201253 199.83397 l
214.419528 200.988622 l
214.906612 201.471627 l
216.032827 202.555132 l
216.592145 203.109284 l
217.646126 204.143524 l
218.253705 204.74694 l
219.259426 205.757174 l
219.888025 206.384597 l
220.872725 207.399025 l
221.493053 208.022254 l
222.486024 209.071219 l
223.06787 209.659911 l
224.099324 210.774939 l
224.612357 211.297568 l
225.712623 212.51042 l
226.126941 212.935225 l
227.325922 214.276911 l
227.612755 214.572882 l
228.939222 216.072228 l
229.072379 216.210538 l
230.537805 217.848195 l
230.552521 217.864457 l
232.08718 219.485852 l
232.165821 219.573236 l
233.636868 221.123509 l
233.77912 221.281784 l
235.187105 222.761166 l
235.392419 222.988954 l
236.738309 224.398823 l
237.005719 224.693652 l
238.291004 226.03648 l
238.619018 226.395202 l
239.845635 227.674136 l
240.232317 228.093664 l
241.402306 229.311793 l
241.845617 229.789934 l
242.960526 230.94945 l
243.458916 231.48566 l
244.519033 232.587107 l
245.072215 233.183048 l
246.075796 234.224764 l
246.685515 234.884663 l
247.628209 235.862421 l
248.298814 236.593179 l
249.173457 237.500078 l
249.912113 238.310969 l
250.709068 239.137734 l
251.525413 240.039446 l
252.233669 240.775391 l
253.138712 241.778174 l
253.747929 242.413048 l
254.752011 243.524107 l
255.255287 244.050705 l
256.365311 245.271706 l
256.761674 245.688362 l
257.97861 247.014669 l
258.27355 247.326019 l
259.59191 248.748874 l
259.794847 248.963676 l
261.205209 250.474669 l
261.324831 250.601332 l
262.818508 252.196916 l
262.85832 252.238989 l
264.406923 253.876646 l
264.431808 253.903616 l
265.96557 255.514303 l
266.045107 255.600275 l
267.51537 257.15196 l
267.658406 257.306392 l
269.056959 258.789617 l
269.271706 259.021866 l
270.591523 260.427274 l
270.885005 260.746323 l
272.119603 262.06493 l
272.498304 262.480239 l
273.640325 263.702587 l
274.111604 264.225681 l
275.151118 265.340244 l
275.724903 265.986704 l
276.647705 266.977901 l
277.338202 267.769563 l
278.124106 268.615558 l
278.951502 269.582936 l
279.572497 270.253215 l
280.564801 271.438358 l
280.982745 271.890872 l
282.178101 273.351091 l
282.341443 273.528528 l
283.650237 275.166185 l
283.7914 275.374574 l
284.905138 276.803842 l
285.404699 277.566923 l
286.071516 278.441499 l
287.017999 279.922944 l
287.135227 280.079156 l
288.375911 281.716813 l
288.631298 282.061192 l
289.673954 283.354469 l
290.244597 284.126501 l
290.955799 284.992126 l
291.857897 286.215153 l
292.20394 286.629783 l
293.416883 288.26744 l
293.471196 288.344602 l
294.669004 289.905097 l
295.084495 290.500937 l
295.897109 291.542754 l
296.697795 292.709702 l
297.068065 293.180411 l
297.346334 294.818067 l
296.697795 294.932999 l
296.533383 294.818067 l
295.084495 293.808756 l
294.108518 293.180411 l
293.471196 292.771081 l
291.857897 291.75086 l
291.617135 291.542754 l
290.244597 290.555831 l
289.491249 289.905097 l
288.631298 289.265303 l
287.472185 288.26744 l
287.017999 287.919453 l
285.511968 286.629783 l
285.404699 286.545552 l
283.7914 285.304214 l
283.401431 284.992126 l
282.178101 284.100283 l
281.239672 283.354469 l
280.564801 282.862769 l
279.124806 281.716813 l
278.951502 281.590292 l
277.338202 280.318806 l
277.063287 280.079156 l
275.724903 279.014155 l
275.071926 278.441499 l
274.111604 277.659596 l
273.144021 276.803842 l
272.498304 276.265412 l
271.268398 275.166185 l
270.885005 274.838637 l
269.437142 273.528528 l
269.271706 273.383751 l
267.658406 271.904167 l
267.64468 271.890872 l
266.045107 270.407258 l
265.886542 270.253215 l
264.431808 268.880723 l
264.159752 268.615558 l
262.818508 267.331579 l
262.456888 266.977901 l
261.205209 265.766869 l
260.770569 265.340244 l
259.59191 264.19356 l
259.093566 263.702587 l
257.97861 262.617903 l
257.419332 262.06493 l
256.365311 261.044572 l
255.74274 260.427274 l
254.752011 259.4761 l
254.060601 258.789617 l
253.138712 257.91306 l
252.37161 257.15196 l
251.525413 256.354869 l
250.675799 255.514303 l
249.912113 254.800612 l
248.973987 253.876646 l
248.298814 253.249415 l
247.267545 252.238989 l
246.685515 251.700333 l
245.558443 250.601332 l
245.072215 250.15209 l
243.849268 248.963676 l
243.458916 248.602944 l
242.142997 247.326019 l
241.845617 247.050788 l
240.442574 245.688362 l
240.232317 245.493379 l
238.750504 244.050705 l
238.619018 243.92859 l
237.068621 242.413048 l
237.005719 242.354615 l
235.397962 240.775391 l
235.392419 240.770248 l
233.77912 239.225825 l
233.689943 239.137734 l
232.165821 237.673618 l
231.991225 237.500078 l
230.552521 236.112405 l
230.302469 235.862421 l
228.939222 234.548812 l
228.616013 234.224764 l
227.325922 232.990064 l
226.923328 232.587107 l
225.712623 231.44191 l
225.217569 230.94945 l
224.099324 229.906368 l
223.496385 229.311793 l
222.486024 228.380806 l
221.763342 227.674136 l
220.872725 226.858952 l
220.026932 226.03648 l
219.259426 225.333012 l
218.297612 224.398823 l
217.646126 223.795712 l
216.584523 222.761166 l
216.032827 222.24155 l
214.893463 221.123509 l
214.419528 220.667238 l
213.226524 219.485852 l
212.806228 219.071607 l
211.582866 217.848195 l
211.192929 217.455306 l
209.959802 216.210538 l
209.57963 215.820457 l
208.353694 214.572882 l
207.96633 214.170317 l
206.760483 212.935225 l
206.353031 212.50894 l
205.175941 211.297568 l
204.739732 210.840818 l
203.595788 209.659911 l
203.126432 209.170483 l
202.015848 208.022254 l
201.513133 207.502049 l
200.432371 206.384597 l
199.899833 205.838691 l
198.842537 204.74694 l
198.286534 204.182166 l
197.244945 203.109284 l
196.673235 202.532616 l
195.639816 201.471627 l
195.059935 200.888775 l
194.028758 199.83397 l
193.446636 199.248506 l
192.414192 198.196313 l
191.833337 197.609432 l
190.798725 196.558656 l
190.220037 195.969425 l
189.184668 194.920999 l
188.606738 194.326925 l
187.573766 193.283342 l
186.993439 192.681077 l
185.967097 191.645686 l
185.380139 191.031747 l
184.365065 190.008029 l
183.76684 189.379367 l
182.76751 188.370372 l
182.153541 187.724549 l
181.173963 186.732715 l
180.540241 186.06752 l
179.584037 185.095058 l
178.926942 184.407679 l
177.997744 183.457401 l
177.313642 182.74367 l
176.415467 181.819744 l
175.700343 181.074074 l
174.837556 180.182088 l
174.087044 179.398269 l
173.263881 178.544431 l
172.473744 177.716848 l
171.693724 176.906774 l
170.860445 176.031267 l
170.126177 175.269117 l
169.247146 174.34287 l
168.560845 173.63146 l
167.633846 172.651806 l
166.998491 171.993803 l
166.020547 170.956439 l
165.441204 170.356146 l
164.407248 169.253617 l
163.8919 168.71849 l
162.793948 167.539708 l
162.353415 167.080833 l
161.180649 165.81177 l
160.827797 165.443176 l
159.56735 164.068021 l
159.316393 163.805519 l
157.95405 162.307087 l
157.820843 162.167862 l
156.342748 160.530205 l
156.340751 160.527924 l
154.813279 158.892548 l
154.727452 158.793998 l
153.297831 157.254892 l
153.114152 157.042587 l
151.797586 155.617235 l
151.500853 155.271291 l
150.313544 153.979578 l
149.887553 153.478067 l
148.846391 152.341921 l
148.274254 151.662502 l
147.396148 150.704264 l
146.660955 149.827257 l
145.961386 149.066607 l
145.047655 147.979311 l
144.537931 147.42895 l
143.434356 146.130362 l
143.117476 145.791294 l
141.821057 144.295399 l
141.687405 144.153637 l
140.218848 142.51598 l
140.207757 142.5036 l
138.660951 140.878323 l
138.594458 140.804547 l
137.093635 139.240666 l
136.981159 139.116555 l
135.522617 137.603009 l
135.367859 137.432945 l
133.954411 135.965352 l
133.75456 135.746118 l
132.395095 134.327696 l
132.141261 134.04883 l
130.849211 132.690039 l
130.527961 132.335246 l
129.319473 131.052382 l
128.914662 130.601173 l
127.807452 129.414725 l
127.301363 128.843375 l
126.314698 127.777068 l
125.688063 127.058573 l
124.843595 126.139411 l
124.074764 125.24288 l
123.39756 124.501754 l
122.461464 123.392116 l
121.980637 122.864098 l
120.848165 121.502922 l
120.596655 121.226441 l
119.245732 119.588784 l
119.234866 119.575151 l
117.865317 117.951127 l
117.621566 117.64239 l
116.492761 116.31347 l
116.008267 115.690662 l
115.140214 114.675813 l
114.394968 113.697334 l
113.829202 113.038156 l
112.781668 111.624012 l
112.590412 111.4005 l
111.993929 109.762843 l
111.545567 108.125186 l
111.168369 107.482701 l
110.542214 106.487529 l
111.168369 105.112643 l
cl
stroke
grestore
gsave
321.047 325.894 33.73 27.88 clipbox
128.914662 123.849385 m
130.527961 124.211057 l
130.880991 124.501754 l
132.141261 125.459487 l
132.949395 126.139411 l
133.75456 126.766394 l
134.935487 127.777068 l
135.367859 128.121228 l
136.859203 129.414725 l
136.981159 129.513603 l
138.594458 130.935432 l
138.721187 131.052382 l
140.207757 132.373639 l
140.551629 132.690039 l
141.821057 133.820161 l
142.376029 134.327696 l
143.434356 135.267673 l
144.203502 135.965352 l
145.047655 136.70959 l
146.040885 137.603009 l
146.660955 138.142994 l
147.889235 139.240666 l
148.274254 139.570809 l
149.742151 140.878323 l
149.887553 141.001086 l
151.500853 142.436384 l
151.584015 142.51598 l
153.114152 143.878163 l
153.401316 144.153637 l
154.727452 145.334893 l
155.20432 145.791294 l
156.340751 146.801632 l
157.000198 147.42895 l
157.95405 148.273656 l
158.794424 149.066607 l
159.56735 149.748086 l
160.589133 150.704264 l
161.180649 151.22423 l
162.383206 152.341921 l
162.793948 152.702956 l
164.173497 153.979578 l
164.407248 154.185808 l
165.956292 155.617235 l
166.020547 155.674357 l
167.633846 157.12259 l
167.770782 157.254892 l
169.247146 158.571592 l
169.578264 158.892548 l
170.860445 160.053903 l
171.349793 160.530205 l
172.473744 161.564483 l
173.090779 162.167862 l
174.087044 163.098676 l
174.8065 163.805519 l
175.700343 164.652353 l
176.50173 165.443176 l
177.313642 166.222058 l
178.18044 167.080833 l
178.926942 167.805104 l
179.845677 168.71849 l
180.540241 169.399503 l
181.499714 170.356146 l
182.153541 171.003675 l
183.144413 171.993803 l
183.76684 172.616027 l
184.781634 173.63146 l
185.380139 174.234584 l
186.413496 175.269117 l
186.993439 175.85684 l
188.042422 176.906774 l
188.606738 177.479945 l
189.67091 178.544431 l
190.220037 179.101244 l
191.301101 180.182088 l
191.833337 180.719015 l
192.934256 181.819744 l
193.446636 182.333045 l
194.570397 183.457401 l
195.059935 183.944612 l
196.208442 185.095058 l
196.673235 185.555729 l
197.846866 186.732715 l
198.286534 187.168056 l
199.484582 188.370372 l
199.899833 188.782089 l
201.121559 190.008029 l
201.513133 190.396961 l
202.758916 191.645686 l
203.126432 192.010838 l
204.398471 193.283342 l
204.739732 193.621741 l
206.041882 194.920999 l
206.353031 195.228478 l
207.689695 196.558656 l
207.96633 196.83126 l
209.340814 198.196313 l
209.57963 198.431666 l
210.99275 199.83397 l
211.192929 200.032075 l
212.642433 201.471627 l
212.806228 201.635026 l
214.286985 203.109284 l
214.419528 203.242865 l
215.92404 204.74694 l
216.032827 204.857739 l
217.551628 206.384597 l
217.646126 206.481746 l
219.16791 208.022254 l
219.259426 208.117061 l
220.771083 209.659911 l
220.872725 209.765892 l
222.359596 211.297568 l
222.486024 211.430212 l
223.932594 212.935225 l
224.099324 213.111302 l
225.490357 214.572882 l
225.712623 214.809226 l
227.034502 216.210538 l
227.325922 216.522455 l
228.567863 217.848195 l
228.939222 218.247846 l
230.09405 219.485852 l
230.552521 219.981188 l
231.616778 221.123509 l
232.165821 221.718189 l
233.139089 222.761166 l
233.77912 223.455596 l
234.66268 224.398823 l
235.392419 225.191977 l
236.187548 226.03648 l
237.005719 226.927957 l
237.712018 227.674136 l
238.619018 228.665941 l
239.233124 229.311793 l
240.232317 230.409492 l
240.747233 230.94945 l
241.845617 232.162465 l
242.250889 232.587107 l
243.458916 233.927934 l
243.741806 234.224764 l
245.072215 235.706984 l
245.21987 235.862421 l
246.685515 237.497721 l
246.687744 237.500078 l
248.222884 239.137734 l
248.298814 239.222457 l
249.758542 240.775391 l
249.912113 240.948198 l
251.291911 242.413048 l
251.525413 242.678107 l
252.820206 244.050705 l
253.138712 244.415184 l
254.340157 245.688362 l
254.752011 246.162581 l
255.848947 247.326019 l
256.365311 247.922428 l
257.345321 248.963676 l
257.97861 249.694656 l
258.830359 250.601332 l
259.59191 251.476634 l
260.307235 252.238989 l
261.205209 253.264317 l
261.779737 253.876646 l
262.818508 255.054559 l
263.250217 255.514303 l
264.431808 256.847223 l
264.718158 257.15196 l
266.045107 258.645944 l
266.180019 258.789617 l
267.630306 260.427274 l
267.658406 260.461466 l
269.061463 262.06493 l
269.271706 262.323539 l
270.46329 263.702587 l
270.885005 264.23085 l
271.826613 265.340244 l
272.498304 266.201606 l
273.142027 266.977901 l
274.111604 268.25269 l
274.404284 268.615558 l
275.62526 270.253215 l
275.724903 270.397832 l
276.8232 271.890872 l
277.338202 272.654368 l
277.970843 273.528528 l
278.951502 275.00268 l
279.068233 275.166185 l
279.665576 276.803842 l
278.951502 277.108281 l
278.570813 276.803842 l
277.338202 275.893741 l
276.431807 275.166185 l
275.724903 274.632625 l
274.344174 273.528528 l
274.111604 273.350972 l
272.498304 272.101417 l
272.211717 271.890872 l
270.885005 270.911875 l
269.970128 270.253215 l
269.271706 269.747725 l
267.681819 268.615558 l
267.658406 268.598832 l
266.045107 267.240137 l
265.775318 266.977901 l
264.431808 265.81035 l
263.951147 265.340244 l
262.818508 264.333993 l
262.173494 263.702587 l
261.205209 262.827191 l
260.423707 262.06493 l
259.59191 261.303216 l
258.687599 260.427274 l
257.97861 259.772359 l
256.955017 258.789617 l
256.365311 258.241978 l
255.219513 257.15196 l
254.752011 256.716593 l
253.478038 255.514303 l
253.138712 255.198028 l
251.730558 253.876646 l
251.525413 253.685587 l
249.979522 252.238989 l
249.912113 252.17636 l
248.298814 250.703127 l
248.192588 250.601332 l
246.685515 249.243655 l
246.393187 248.963676 l
245.072215 247.761885 l
244.617209 247.326019 l
243.458916 246.263616 l
242.858816 245.688362 l
241.845617 244.753541 l
241.112978 244.050705 l
240.232317 243.235369 l
239.375331 242.413048 l
238.619018 241.712115 l
237.642036 240.775391 l
237.005719 240.186263 l
235.90994 239.137734 l
235.392419 238.659721 l
234.177002 237.500078 l
233.77912 237.13358 l
232.442739 235.862421 l
232.165821 235.607895 l
230.708364 234.224764 l
230.552521 234.08163 l
228.976446 232.587107 l
228.939222 232.55288 l
227.325922 231.040513 l
227.233723 230.94945 l
225.712623 229.523825 l
225.496725 229.311793 l
224.099324 227.993328 l
223.772446 227.674136 l
222.486024 226.451676 l
222.05901 226.03648 l
220.872725 224.900538 l
220.356009 224.398823 l
219.259426 223.339778 l
218.664966 222.761166 l
217.646126 221.767248 l
216.988982 221.123509 l
216.032827 220.179355 l
215.331626 219.485852 l
214.419528 218.57229 l
213.695545 217.848195 l
212.806228 216.943474 l
212.081445 216.210538 l
211.192929 215.292687 l
210.487746 214.572882 l
209.57963 213.622617 l
208.910672 212.935225 l
207.96633 211.938851 l
207.344475 211.297568 l
206.353031 210.249306 l
205.781812 209.659911 l
204.739732 208.562883 l
204.214699 208.022254 l
203.126432 206.887364 l
202.636223 206.384597 l
201.513133 205.227301 l
201.042428 204.74694 l
199.899833 203.583077 l
199.433258 203.109284 l
198.286534 201.951613 l
197.812011 201.471627 l
196.673235 200.328014 l
196.183819 199.83397 l
195.059935 198.707089 l
194.554092 198.196313 l
193.446636 197.084228 l
192.927497 196.558656 l
191.833337 195.455755 l
191.307455 194.920999 l
190.220037 193.819076 l
189.695975 193.283342 l
188.606738 192.172782 l
188.093706 191.645686 l
186.993439 190.516695 l
186.500176 190.008029 l
185.380139 188.851752 l
184.914164 188.370372 l
183.76684 187.179693 l
183.334101 186.732715 l
182.153541 185.502617 l
181.758382 185.095058 l
180.540241 183.822522 l
180.185573 183.457401 l
178.926942 182.140916 l
178.614558 181.819744 l
177.313642 180.458526 l
177.044709 180.182088 l
175.700343 178.775131 l
175.476098 178.544431 l
174.087044 177.089522 l
173.909674 176.906774 l
172.473744 175.399561 l
172.347343 175.269117 l
170.860445 173.702259 l
170.791943 173.63146 l
169.247146 171.993803 l
169.247146 171.993803 l
167.686898 170.356146 l
167.633846 170.296186 l
166.142641 168.71849 l
166.020547 168.579655 l
164.616508 167.080833 l
164.407248 166.841582 l
163.109033 165.443176 l
162.793948 165.081212 l
161.619083 163.805519 l
161.180649 163.300004 l
160.144333 162.167862 l
159.56735 161.501267 l
158.682013 160.530205 l
157.95405 159.689155 l
157.229514 158.892548 l
156.340751 157.867518 l
155.784586 157.254892 l
154.727452 156.039196 l
154.345219 155.617235 l
153.114152 154.206026 l
152.909565 153.979578 l
151.500853 152.369293 l
151.476178 152.341921 l
150.001158 150.704264 l
149.887553 150.570766 l
148.528966 149.066607 l
148.274254 148.769028 l
147.064652 147.42895 l
146.660955 146.959995 l
145.605217 145.791294 l
145.047655 145.146644 l
144.148416 144.153637 l
143.434356 143.330652 l
142.693684 142.51598 l
141.821057 141.511608 l
141.242467 140.878323 l
140.207757 139.686722 l
139.79816 139.240666 l
138.594458 137.850771 l
138.365963 137.603009 l
136.981159 135.996155 l
136.952676 135.965352 l
135.592513 134.327696 l
135.367859 134.0287 l
134.27511 132.690039 l
133.75456 131.993371 l
132.995364 131.052382 l
132.141261 129.910205 l
131.74503 129.414725 l
130.527961 127.796105 l
130.512815 127.777068 l
129.55074 126.139411 l
128.914662 124.879603 l
128.703466 124.501754 l
128.914662 123.849385 l
cl
stroke
grestore
gsave
321.047 325.894 33.73 27.88 clipbox
141.821057 136.796318 m
143.434356 137.424701 l
143.634845 137.603009 l
145.047655 138.788648 l
145.559775 139.240666 l
146.660955 140.163391 l
147.480933 140.878323 l
148.274254 141.540475 l
149.410702 142.51598 l
149.887553 142.911438 l
151.359795 144.153637 l
151.500853 144.269599 l
153.114152 145.606706 l
153.321065 145.791294 l
154.727452 146.954152 l
155.260518 147.42895 l
156.340751 148.324014 l
157.177614 149.066607 l
157.95405 149.712699 l
159.076934 150.704264 l
159.56735 151.114484 l
160.963279 152.341921 l
161.180649 152.524776 l
162.793948 153.941085 l
162.835545 153.979578 l
164.407248 155.366237 l
164.67887 155.617235 l
166.020547 156.809975 l
166.501285 157.254892 l
167.633846 158.272765 l
168.300711 158.892548 l
169.247146 159.754454 l
170.076492 160.530205 l
170.860445 161.254374 l
171.829323 162.167862 l
172.473744 162.771406 l
173.561003 163.805519 l
174.087044 164.304056 l
175.273984 165.443176 l
175.700343 165.85071 l
176.970688 167.080833 l
177.313642 167.410107 l
178.652816 168.71849 l
178.926942 168.981801 l
180.321062 170.356146 l
180.540241 170.566185 l
181.975583 171.993803 l
182.153541 172.163804 l
183.617045 173.63146 l
183.76684 173.774298 l
185.247507 175.269117 l
185.380139 175.395704 l
186.870465 176.906774 l
186.993439 177.024604 l
188.490088 178.544431 l
188.606738 178.656903 l
190.110234 180.182088 l
190.220037 180.288754 l
191.733694 181.819744 l
191.833337 181.917284 l
193.361774 183.457401 l
193.446636 183.541066 l
194.994201 185.095058 l
195.059935 185.160272 l
196.629389 186.732715 l
196.673235 186.776451 l
198.26516 188.370372 l
198.286534 188.391791 l
199.899833 190.008029 l
199.899833 190.008029 l
201.513133 191.610445 l
201.54829 191.645686 l
203.126432 193.213678 l
203.196071 193.283342 l
204.739732 194.814057 l
204.846912 194.920999 l
206.353031 196.409354 l
206.503061 196.558656 l
207.96633 198.0006 l
208.163395 198.196313 l
209.57963 199.592013 l
209.823453 199.83397 l
211.192929 201.189264 l
211.477244 201.471627 l
212.806228 202.797398 l
213.119488 203.109284 l
214.419528 204.419511 l
214.747053 204.74694 l
216.032827 206.056492 l
216.359201 206.384597 l
217.646126 207.707616 l
217.95694 208.022254 l
219.259426 209.371576 l
219.541931 209.659911 l
220.872725 211.047516 l
221.115462 211.297568 l
222.486024 212.735513 l
222.677981 212.935225 l
224.099324 214.436247 l
224.229363 214.572882 l
225.712623 216.150092 l
225.769643 216.210538 l
227.310859 217.848195 l
227.325922 217.864153 l
228.871082 219.485852 l
228.939222 219.558502 l
230.426577 221.123509 l
230.552521 221.258699 l
231.977776 222.761166 l
232.165821 222.96438 l
233.524513 224.398823 l
233.77912 224.675628 l
235.066174 226.03648 l
235.392419 226.392769 l
236.602144 227.674136 l
237.005719 228.115996 l
238.132266 229.311793 l
238.619018 229.845132 l
239.657014 230.94945 l
240.232317 231.579737 l
241.177216 232.587107 l
241.845617 233.319532 l
242.693461 234.224764 l
243.458916 235.06487 l
244.205509 235.862421 l
245.072215 236.817054 l
245.71195 237.500078 l
246.685515 238.578447 l
247.210143 239.137734 l
248.298814 240.352463 l
248.696358 240.775391 l
249.912113 242.143417 l
250.166089 242.413048 l
251.525413 243.956081 l
251.614673 244.050705 l
253.039386 245.688362 l
253.138712 245.808611 l
254.450272 247.326019 l
254.752011 247.694869 l
255.849257 248.963676 l
256.365311 249.598984 l
257.234818 250.601332 l
257.97861 251.520255 l
258.605259 252.238989 l
259.59191 253.457556 l
259.959477 253.876646 l
261.205209 255.409367 l
261.297739 255.514303 l
262.604385 257.15196 l
262.818508 257.429903 l
263.907565 258.789617 l
264.431808 259.460504 l
265.214976 260.427274 l
266.045107 261.48502 l
266.516451 262.06493 l
267.658406 263.529781 l
267.79807 263.702587 l
268.318433 265.340244 l
267.658406 265.495988 l
267.459625 265.340244 l
266.045107 264.253961 l
265.342795 263.702587 l
264.431808 263.001509 l
263.240003 262.06493 l
262.818508 261.740522 l
261.205209 260.4869 l
261.129468 260.427274 l
259.59191 259.299154 l
258.963095 258.789617 l
257.97861 258.057299 l
256.889467 257.15196 l
256.365311 256.756637 l
254.903413 255.514303 l
254.752011 255.39852 l
253.138712 253.946144 l
253.064651 253.876646 l
251.525413 252.443096 l
251.307296 252.238989 l
249.912113 250.942722 l
249.547326 250.601332 l
248.298814 249.44593 l
247.784754 248.963676 l
246.685515 247.951673 l
246.021184 247.326019 l
245.072215 246.457268 l
244.25935 245.688362 l
243.458916 244.959266 l
242.502262 244.050705 l
241.845617 243.454624 l
240.752192 242.413048 l
240.232317 241.941685 l
239.009977 240.775391 l
238.619018 240.420521 l
237.274961 239.137734 l
237.005719 238.892615 l
235.545526 237.500078 l
235.392419 237.360108 l
233.819887 235.862421 l
233.77912 235.82498 l
232.165821 234.323339 l
232.061948 234.224764 l
230.552521 232.838434 l
230.28748 232.587107 l
228.939222 231.347421 l
228.520005 230.94945 l
227.325922 229.848169 l
226.762598 229.311793 l
225.712623 228.338766 l
225.017753 227.674136 l
224.099324 226.81767 l
223.287211 226.03648 l
222.486024 225.283726 l
221.572137 224.398823 l
220.872725 223.736049 l
219.873466 222.761166 l
219.259426 222.173802 l
218.192182 221.123509 l
217.646126 220.595988 l
216.529302 219.485852 l
216.032827 219.001476 l
214.885426 217.848195 l
214.419528 217.389417 l
213.259992 216.210538 l
212.806228 215.760032 l
211.650617 214.572882 l
211.192929 214.115342 l
210.053081 212.935225 l
209.57963 212.459279 l
208.462099 211.297568 l
207.96633 210.796958 l
206.872519 209.659911 l
206.353031 209.133489 l
205.280315 208.022254 l
204.739732 207.472949 l
203.683036 206.384597 l
203.126432 205.817884 l
202.079762 204.74694 l
201.513133 204.169291 l
200.470791 203.109284 l
199.899833 202.526878 l
198.857251 201.471627 l
198.286534 200.889434 l
197.240745 199.83397 l
196.673235 199.255219 l
195.623029 198.196313 l
195.059935 197.622355 l
194.00574 196.558656 l
193.446636 195.989148 l
192.390195 194.920999 l
191.833337 194.354296 l
190.777268 193.283342 l
190.220037 192.716932 l
189.167387 191.645686 l
188.606738 191.07651 l
187.560646 190.008029 l
186.993439 189.432601 l
185.957022 188.370372 l
185.380139 187.784701 l
184.35662 186.732715 l
183.76684 186.1321 l
182.759889 185.095058 l
182.153541 184.473849 l
181.167727 183.457401 l
180.540241 182.808742 l
179.581504 181.819744 l
178.926942 181.135309 l
178.003012 180.182088 l
177.313642 179.451787 l
176.434382 178.544431 l
175.700343 177.756132 l
174.877954 176.906774 l
174.087044 176.046093 l
173.3361 175.269117 l
172.473744 174.319358 l
171.810989 173.63146 l
170.860445 172.57374 l
170.304353 171.993803 l
169.247146 170.807326 l
168.817293 170.356146 l
167.633846 169.018589 l
167.350199 168.71849 l
166.020547 167.206527 l
165.902801 167.080833 l
164.449309 165.443176 l
164.407248 165.395429 l
162.959183 163.805519 l
162.793948 163.615998 l
161.476482 162.167862 l
161.180649 161.825095 l
160.003813 160.530205 l
159.56735 160.019932 l
158.543461 158.892548 l
157.95405 158.19856 l
157.097324 157.254892 l
156.340751 156.3599 l
155.666716 155.617235 l
154.727452 154.50389 l
154.251888 153.979578 l
153.114152 152.63188 l
152.851457 152.341921 l
151.500853 150.747002 l
151.462194 150.704264 l
150.095662 149.066607 l
149.887553 148.80931 l
148.728267 147.42895 l
148.274254 146.868459 l
147.36233 145.791294 l
146.660955 144.925081 l
146.00451 144.153637 l
145.047655 142.968314 l
144.661901 142.51598 l
143.434356 140.985343 l
143.343145 140.878323 l
142.370168 139.240666 l
141.821057 138.131762 l
141.55292 137.603009 l
141.821057 136.796318 l
cl
stroke
grestore
gsave
321.047 325.894 33.73 27.88 clipbox
153.114152 148.211441 m
154.727452 148.848353 l
154.997566 149.066607 l
156.340751 150.133264 l
157.052563 150.704264 l
157.95405 151.411693 l
159.116202 152.341921 l
159.56735 152.692267 l
161.170109 153.979578 l
161.180649 153.987701 l
162.793948 155.351717 l
163.095864 155.617235 l
164.407248 156.734718 l
164.994758 157.254892 l
166.020547 158.135768 l
166.865587 158.892548 l
167.633846 159.558039 l
168.703085 160.530205 l
169.247146 161.006068 l
170.503342 162.167862 l
170.860445 162.483504 l
172.266155 163.805519 l
172.473744 163.991043 l
173.99586 165.443176 l
174.087044 165.52557 l
175.700343 167.080833 l
175.700343 167.080833 l
177.313642 168.62978 l
177.40444 168.71849 l
178.926942 170.180926 l
179.104683 170.356146 l
180.540241 171.731831 l
180.803631 171.993803 l
182.153541 173.283354 l
182.500662 173.63146 l
183.76684 174.838829 l
184.193054 175.269117 l
185.380139 176.4021 l
185.877885 176.906774 l
186.993439 177.975667 l
187.553529 178.544431 l
188.606738 179.559921 l
189.220058 180.182088 l
190.220037 181.153497 l
190.878741 181.819744 l
191.833337 182.754191 l
192.531214 183.457401 l
193.446636 184.359899 l
194.178754 185.095058 l
195.059935 185.96927 l
195.821929 186.732715 l
196.673235 187.581882 l
197.460737 188.370372 l
198.286534 189.197914 l
199.095176 190.008029 l
199.899833 190.817441 l
200.7259 191.645686 l
201.513133 192.439757 l
202.354503 193.283342 l
203.126432 194.063186 l
203.983152 194.920999 l
204.739732 195.68559 l
205.613698 196.558656 l
206.353031 197.305357 l
207.246731 198.196313 l
207.96633 198.922314 l
208.881082 199.83397 l
209.57963 200.538113 l
210.514099 201.471627 l
211.192929 202.155812 l
212.142644 203.109284 l
212.806228 203.778817 l
213.764281 204.74694 l
214.419528 205.409698 l
215.377938 206.384597 l
216.032827 207.04957 l
216.983698 208.022254 l
217.646126 208.698325 l
218.582052 209.659911 l
219.259426 210.355382 l
220.17325 211.297568 l
220.872725 212.020361 l
221.757111 212.935225 l
222.486024 213.693324 l
223.333253 214.572882 l
224.099324 215.37463 l
224.901421 216.210538 l
225.712623 217.064684 l
226.46161 217.848195 l
227.325922 218.763832 l
228.013865 219.485852 l
228.939222 220.472458 l
229.557969 221.123509 l
230.552521 222.191072 l
231.093317 222.761166 l
232.165821 223.920186 l
232.619181 224.398823 l
233.77912 225.659892 l
234.135285 226.03648 l
235.392419 227.409384 l
235.642369 227.674136 l
237.005719 229.16682 l
237.142297 229.311793 l
238.619018 230.92985 l
238.637441 230.94945 l
240.124625 232.587107 l
240.232317 232.712288 l
241.601415 234.224764 l
241.845617 234.509643 l
243.065266 235.862421 l
243.458916 236.322268 l
244.514542 237.500078 l
245.072215 238.151902 l
245.949271 239.137734 l
246.685515 239.999821 l
247.370013 240.775391 l
248.298814 241.867974 l
248.776217 242.413048 l
249.912113 243.759733 l
250.165321 244.050705 l
251.525413 245.679621 l
251.532984 245.688362 l
252.807383 247.326019 l
253.138712 247.783265 l
254.041177 248.963676 l
254.752011 249.951956 l
255.244054 250.601332 l
256.365311 252.159799 l
256.42528 252.238989 l
256.798035 253.876646 l
256.365311 254.026364 l
256.170536 253.876646 l
254.752011 252.853959 l
253.951618 252.238989 l
253.138712 251.660989 l
251.766449 250.601332 l
251.525413 250.430933 l
249.912113 249.155525 l
249.698002 248.963676 l
248.298814 247.829575 l
247.738983 247.326019 l
246.685515 246.460766 l
245.827807 245.688362 l
245.072215 245.060653 l
243.950424 244.050705 l
243.458916 243.638529 l
242.097102 242.413048 l
241.845617 242.200511 l
240.26264 240.775391 l
240.232317 240.749588 l
238.619018 239.286492 l
238.463156 239.137734 l
237.005719 237.810877 l
236.679819 237.500078 l
235.392419 236.323141 l
234.908675 235.862421 l
233.77912 234.825026 l
233.148071 234.224764 l
232.165821 233.318615 l
231.396314 232.587107 l
230.552521 231.805563 l
229.652292 230.94945 l
228.939222 230.286705 l
227.915699 229.311793 l
227.325922 228.762016 l
226.186979 227.674136 l
225.712623 227.230753 l
224.467167 226.03648 l
224.099324 225.691673 l
222.757686 224.398823 l
222.486024 224.143276 l
221.060061 222.761166 l
220.872725 222.584104 l
219.375505 221.123509 l
219.259426 221.013102 l
217.704471 219.485852 l
217.646126 219.429925 l
216.046415 217.848195 l
216.032827 217.835057 l
214.419528 216.23983 l
214.390717 216.210538 l
212.806228 214.637426 l
212.743399 214.572882 l
211.192929 213.022916 l
211.10823 212.935225 l
209.57963 211.398569 l
209.48247 211.297568 l
207.96633 209.766623 l
207.863676 209.659911 l
206.353031 208.129104 l
206.249885 208.022254 l
204.739732 206.487736 l
204.639593 206.384597 l
203.126432 204.843953 l
203.031618 204.74694 l
201.513133 203.198922 l
201.424988 203.109284 l
199.899833 201.553548 l
199.818896 201.471627 l
198.286534 199.908452 l
198.212734 199.83397 l
196.673235 198.26398 l
196.606124 198.196313 l
195.059935 196.620292 l
194.99885 196.558656 l
193.446636 194.977556 l
193.390699 194.920999 l
191.833337 193.336103 l
191.78131 193.283342 l
190.220037 191.69635 l
190.170253 191.645686 l
188.606738 190.058391 l
188.557431 190.008029 l
186.993439 188.421372 l
186.943678 188.370372 l
185.380139 186.783013 l
185.331203 186.732715 l
183.76684 185.139614 l
183.723577 185.095058 l
182.153541 183.486541 l
182.125279 183.457401 l
180.541015 181.819744 l
180.540241 181.818919 l
178.972183 180.182088 l
178.926942 180.133444 l
177.42351 178.544431 l
177.313642 178.425502 l
175.893984 176.906774 l
175.700343 176.696015 l
174.380042 175.269117 l
174.087044 174.948822 l
172.876988 173.63146 l
172.473744 173.188948 l
171.380713 171.993803 l
170.860445 171.420519 l
169.888946 170.356146 l
169.247146 169.645314 l
168.401716 168.71849 l
167.633846 167.862357 l
166.92111 167.080833 l
166.020547 166.068377 l
165.450628 165.443176 l
164.407248 164.258761 l
163.994442 163.805519 l
162.793948 162.428579 l
162.556757 162.167862 l
161.180649 160.573435 l
161.14136 160.530205 l
159.825531 158.892548 l
159.56735 158.553374 l
158.544374 157.254892 l
157.95405 156.490675 l
157.263441 155.617235 l
156.340751 154.440875 l
155.972403 153.979578 l
154.727452 152.412455 l
154.670386 152.341921 l
153.645294 150.704264 l
153.114152 149.638099 l
152.795313 149.066607 l
153.114152 148.211441 l
cl
stroke
grestore
gsave
321.047 325.894 33.73 27.88 clipbox
159.56735 155.439947 m
161.180649 155.598932 l
161.203232 155.617235 l
162.793948 156.839806 l
163.299111 157.254892 l
164.407248 158.10927 l
165.344687 158.892548 l
166.020547 159.418601 l
167.327586 160.530205 l
167.633846 160.772174 l
169.247146 162.167862 l
169.247146 162.167862 l
170.860445 163.593849 l
171.085515 163.805519 l
172.473744 165.046186 l
172.889866 165.443176 l
174.087044 166.524952 l
174.663668 167.080833 l
175.700343 168.027295 l
176.413043 168.71849 l
177.313642 169.54817 l
178.145147 170.356146 l
178.926942 171.081745 l
179.866533 171.993803 l
180.540241 172.622806 l
181.581937 173.63146 l
182.153541 174.167761 l
183.293653 175.269117 l
183.76684 175.71511 l
185.001533 176.906774 l
185.380139 177.265363 l
186.703631 178.544431 l
186.993439 178.82046 l
188.397291 180.182088 l
188.606738 180.382859 l
190.080304 181.819744 l
190.220037 181.954613 l
191.751638 183.457401 l
191.833337 183.536788 l
193.411489 185.095058 l
193.446636 185.12941 l
195.059935 186.731765 l
195.060883 186.732715 l
196.673235 188.341016 l
196.702554 188.370372 l
198.286534 189.957699 l
198.336772 190.008029 l
199.899833 191.580326 l
199.965021 191.645686 l
201.513133 193.207245 l
201.58903 193.283342 l
203.126432 194.836505 l
203.210819 194.920999 l
204.739732 196.466101 l
204.832382 196.558656 l
206.353031 198.094459 l
206.455199 198.196313 l
207.96633 199.720889 l
208.079795 199.83397 l
209.57963 201.345817 l
209.705568 201.471627 l
211.192929 202.970721 l
211.330945 203.109284 l
212.806228 204.597792 l
212.953825 204.74694 l
214.419528 206.229444 l
214.572057 206.384597 l
216.032827 207.867861 l
216.183758 208.022254 l
217.646126 209.514739 l
217.787424 209.659911 l
219.259426 211.171241 l
219.38195 211.297568 l
220.872725 212.838042 l
220.96667 212.935225 l
222.486024 214.515415 l
222.541379 214.572882 l
224.099324 216.203383 l
224.10619 216.210538 l
225.662745 217.848195 l
225.712623 217.902663 l
227.207107 219.485852 l
227.325922 219.616424 l
228.738057 221.123509 l
228.939222 221.345864 l
230.25515 222.761166 l
230.552521 223.091759 l
231.758744 224.398823 l
232.165821 224.854241 l
233.249841 226.03648 l
233.77912 226.632947 l
234.729303 227.674136 l
235.392419 228.427629 l
236.196972 229.311793 l
237.005719 230.238735 l
237.651402 230.94945 l
238.619018 232.067339 l
239.090583 232.587107 l
240.232317 233.914255 l
240.513391 234.224764 l
241.845617 235.778906 l
241.920912 235.862421 l
243.308439 237.500078 l
243.458916 237.691156 l
244.673026 239.137734 l
245.072215 239.650451 l
246.009585 240.775391 l
246.685515 241.655153 l
247.309261 242.413048 l
248.298814 243.720321 l
248.566014 244.050705 l
249.61023 245.688362 l
248.298814 246.220203 l
247.637283 245.688362 l
246.685515 244.985765 l
245.538407 244.050705 l
245.072215 243.696471 l
243.513737 242.413048 l
243.458916 242.370103 l
241.845617 241.010544 l
241.584416 240.775391 l
240.232317 239.624816 l
239.692359 239.137734 l
238.619018 238.21812 l
237.825951 237.500078 l
237.005719 236.792118 l
235.984027 235.862421 l
235.392419 235.347608 l
234.165517 234.224764 l
233.77912 233.885534 l
232.368517 232.587107 l
232.165821 232.407486 l
230.590155 230.94945 l
230.552521 230.915778 l
228.939222 229.41631 l
228.829493 229.311793 l
227.325922 227.910195 l
227.078783 227.674136 l
225.712623 226.397177 l
225.336467 226.03648 l
224.099324 224.876815 l
223.603294 224.398823 l
222.486024 223.347828 l
221.880748 222.761166 l
220.872725 221.808427 l
220.170632 221.123509 l
219.259426 220.256829 l
218.474463 219.485852 l
217.646126 218.691835 l
216.792896 217.848195 l
216.032827 217.113243 l
215.125458 216.210538 l
214.419528 215.521923 l
213.470673 214.572882 l
212.806228 213.91955 l
211.826484 212.935225 l
211.192929 212.308129 l
210.190746 211.297568 l
209.57963 210.689485 l
208.561643 209.659911 l
207.96633 209.064924 l
206.937915 208.022254 l
206.353031 207.43513 l
205.318875 206.384597 l
204.739732 205.800315 l
203.704263 204.74694 l
203.126432 204.160501 l
202.094023 203.109284 l
201.513133 202.515804 l
200.488074 201.471627 l
199.899833 200.866625 l
198.886132 199.83397 l
198.286534 199.213731 l
197.287593 198.196313 l
196.673235 197.558236 l
195.691478 196.558656 l
195.059935 195.901471 l
194.096504 194.920999 l
193.446636 194.244762 l
192.501317 193.283342 l
191.833337 192.589106 l
190.904909 191.645686 l
190.220037 190.934817 l
189.307112 190.008029 l
188.606738 189.281224 l
187.709001 188.370372 l
186.993439 187.62652 l
186.113026 186.732715 l
185.380139 185.967778 l
184.522787 185.095058 l
183.76684 184.301195 l
182.942443 183.457401 l
182.153541 182.622607 l
181.375814 181.819744 l
180.540241 180.928324 l
179.825359 180.182088 l
178.926942 179.21612 l
178.291429 178.544431 l
177.313642 177.485998 l
176.772202 176.906774 l
175.700343 175.740159 l
175.26449 175.269117 l
174.087044 173.981976 l
173.76508 173.63146 l
172.473744 172.214372 l
172.272021 171.993803 l
170.860445 170.438383 l
170.785384 170.356146 l
169.317066 168.71849 l
169.247146 168.632549 l
167.889408 167.080833 l
167.633846 166.75849 l
166.505253 165.443176 l
166.020547 164.817232 l
165.171939 163.805519 l
164.407248 162.800004 l
163.889299 162.167862 l
162.793948 160.713912 l
162.646482 160.530205 l
161.505966 158.892548 l
161.180649 158.353253 l
160.458072 157.254892 l
159.56735 155.730433 l
159.493693 155.617235 l
159.56735 155.439947 l
cl
stroke
grestore
gsave
321.047 325.894 33.73 27.88 clipbox
249.912113 246.803598 m
250.078448 247.326019 l
249.912113 247.388987 l
249.832569 247.326019 l
249.912113 246.803598 l
cl
stroke
grestore
gsave
321.047 325.894 33.73 27.88 clipbox
166.020547 161.613603 m
167.633846 162.112253 l
167.698126 162.167862 l
169.247146 163.415033 l
169.691557 163.805519 l
170.860445 164.766749 l
171.619818 165.443176 l
172.473744 166.161039 l
173.49424 167.080833 l
174.087044 167.590214 l
175.326646 168.71849 l
175.700343 169.04643 l
177.128219 170.356146 l
177.313642 170.522094 l
178.909069 171.993803 l
178.926942 172.010086 l
180.540241 173.514936 l
180.660582 173.63146 l
182.153541 175.032212 l
182.398782 175.269117 l
183.76684 176.558552 l
184.127636 176.906774 l
185.380139 178.093059 l
185.847188 178.544431 l
186.993439 179.636184 l
187.556271 180.182088 l
188.606738 181.189039 l
189.253544 181.819744 l
190.220037 182.752594 l
190.938357 183.457401 l
191.833337 184.327056 l
192.611138 185.095058 l
193.446636 185.91167 l
194.273265 186.732715 l
195.059935 187.504954 l
195.926659 188.370372 l
196.673235 189.105173 l
197.573354 190.008029 l
198.286534 190.710787 l
199.215165 191.645686 l
199.899833 192.320701 l
200.853484 193.283342 l
201.513133 193.934295 l
202.48916 194.920999 l
203.126432 195.551315 l
204.122471 196.558656 l
204.739732 197.171744 l
205.753203 198.196313 l
206.353031 198.795707 l
207.380807 199.83397 l
207.96633 200.423428 l
209.004576 201.471627 l
209.57963 202.055216 l
210.623765 203.109284 l
211.192929 203.6915 l
212.237602 204.74694 l
212.806228 205.332935 l
213.84521 206.384597 l
214.419528 206.980531 l
215.445509 208.022254 l
216.032827 208.635721 l
217.037199 209.659911 l
217.646126 210.300286 l
218.618888 211.297568 l
219.259426 211.976106 l
220.189295 212.935225 l
220.872725 213.664833 l
221.747424 214.572882 l
222.486024 215.367662 l
223.292623 216.210538 l
224.099324 217.085282 l
224.824532 217.848195 l
225.712623 218.81801 l
226.343046 219.485852 l
227.325922 220.565982 l
227.848324 221.123509 l
228.939222 222.329317 l
229.340749 222.761166 l
230.552521 224.108313 l
230.820618 224.398823 l
232.165821 225.903775 l
232.2875 226.03648 l
233.738172 227.674136 l
233.77912 227.723077 l
235.164048 229.311793 l
235.392419 229.588466 l
236.565997 230.94945 l
237.005719 231.48819 l
237.944318 232.587107 l
238.619018 233.421426 l
239.300431 234.224764 l
240.232317 235.386717 l
240.634148 235.862421 l
241.845617 237.385914 l
241.941788 237.500078 l
242.961871 239.137734 l
241.845617 239.651748 l
241.225792 239.137734 l
240.232317 238.318119 l
239.243606 237.500078 l
238.619018 236.976678 l
237.266193 235.862421 l
237.005719 235.642666 l
235.392419 234.295671 l
235.314941 234.224764 l
233.77912 232.876419 l
233.464813 232.587107 l
232.165821 231.435993 l
231.640025 230.94945 l
230.552521 229.976426 l
229.837475 229.311793 l
228.939222 228.500176 l
228.053678 227.674136 l
227.325922 227.010077 l
226.285024 226.03648 l
225.712623 225.509191 l
224.528119 224.398823 l
224.099324 224.00041 l
222.780383 222.761166 l
222.486024 222.48574 l
221.040853 221.123509 l
220.872725 220.965421 l
219.310798 219.485852 l
219.259426 219.43741 l
217.646126 217.894606 l
217.599188 217.848195 l
216.032827 216.333595 l
215.909135 216.210538 l
214.419528 214.757466 l
214.234979 214.572882 l
212.806228 213.168028 l
212.574508 212.935225 l
211.192929 211.567729 l
210.925007 211.297568 l
209.57963 209.958869 l
209.284037 209.659911 l
207.96633 208.342927 l
207.650041 208.022254 l
206.353031 206.720278 l
206.022583 206.384597 l
204.739732 205.090362 l
204.402148 204.74694 l
203.126432 203.452219 l
202.789632 203.109284 l
201.513133 201.805118 l
201.185747 201.471627 l
199.899833 200.149071 l
199.590515 199.83397 l
198.286534 198.485101 l
198.002991 198.196313 l
196.673235 196.815218 l
196.421248 196.558656 l
195.059935 195.142071 l
194.842706 194.920999 l
193.446636 193.468283 l
193.264793 193.283342 l
191.833337 191.795622 l
191.685783 191.645686 l
190.220037 190.1243 l
190.105505 190.008029 l
188.606738 188.452702 l
188.525593 188.370372 l
186.993439 186.777646 l
186.94918 186.732715 l
185.380139 185.095058 l
185.380139 185.095058 l
183.828851 183.457401 l
183.76684 183.392684 l
182.286799 181.819744 l
182.153541 181.679286 l
180.754358 180.182088 l
180.540241 179.953555 l
179.231745 178.544431 l
178.926942 178.214348 l
177.71974 176.906774 l
177.313642 176.459793 l
176.220315 175.269117 l
175.700343 174.686376 l
174.737135 173.63146 l
174.087044 172.888136 l
173.275899 171.993803 l
172.473744 171.056002 l
171.844478 170.356146 l
170.860445 169.177424 l
170.4526 168.71849 l
169.247146 167.236849 l
169.110633 167.080833 l
167.917611 165.443176 l
167.633846 165.006532 l
166.832596 163.805519 l
166.020547 162.534231 l
165.778287 162.167862 l
166.020547 161.613603 l
cl
stroke
grestore
gsave
321.047 325.894 33.73 27.88 clipbox
243.458916 240.061936 m
243.852114 240.775391 l
243.458916 240.956949 l
243.239702 240.775391 l
243.458916 240.061936 l
cl
stroke
grestore
gsave
321.047 325.894 33.73 27.88 clipbox
172.473744 167.607754 m
174.087044 168.599418 l
174.217864 168.71849 l
175.700343 170.01945 l
176.067416 170.356146 l
177.313642 171.471476 l
177.879879 171.993803 l
178.926942 172.947664 l
179.66537 173.63146 l
180.540241 174.440871 l
181.432335 175.269117 l
182.153541 175.945073 l
183.187146 176.906774 l
183.76684 177.455871 l
184.933777 178.544431 l
185.380139 178.970851 l
186.673765 180.182088 l
186.993439 180.4896 l
188.406687 181.819744 l
188.606738 182.013263 l
190.131146 183.457401 l
190.220037 183.543738 l
191.833337 185.08648 l
191.842024 185.095058 l
193.446636 186.663398 l
193.516425 186.732715 l
195.059935 188.247909 l
195.182583 188.370372 l
196.673235 189.837515 l
196.843231 190.008029 l
198.286534 191.43024 l
198.500535 191.645686 l
199.899833 193.025256 l
200.15551 193.283342 l
201.513133 194.623069 l
201.807839 194.920999 l
203.126432 196.225199 l
203.456148 196.558656 l
204.739732 197.833561 l
205.098554 198.196313 l
206.353031 199.449881 l
206.73324 199.83397 l
207.96633 201.075347 l
208.358847 201.471627 l
209.57963 202.710528 l
209.974627 203.109284 l
211.192929 204.355523 l
211.580353 204.74694 l
212.806228 206.01026 l
213.176052 206.384597 l
214.419528 207.674876 l
214.761657 208.022254 l
216.032827 209.35002 l
216.336722 209.659911 l
217.646126 211.036941 l
217.900346 211.297568 l
219.259426 212.737277 l
219.451336 212.935225 l
220.872725 214.452654 l
220.988537 214.572882 l
222.486024 216.184273 l
222.51116 216.210538 l
224.012255 217.848195 l
224.099324 217.944708 l
225.500654 219.485852 l
225.712623 219.722564 l
226.97994 221.123509 l
227.325922 221.513611 l
228.448987 222.761166 l
228.939222 223.320812 l
229.904294 224.398823 l
230.552521 225.149819 l
231.340697 226.03648 l
232.165821 227.007662 l
232.752962 227.674136 l
233.77912 228.900601 l
234.137567 229.311793 l
235.392419 230.832056 l
235.493648 230.94945 l
236.348745 232.587107 l
235.392419 232.920967 l
234.983661 232.587107 l
233.77912 231.578718 l
233.008533 230.94945 l
232.165821 230.248756 l
231.02315 229.311793 l
230.552521 228.921618 l
229.044121 227.674136 l
228.939222 227.586901 l
227.325922 226.151708 l
227.202729 226.03648 l
225.712623 224.663812 l
225.429941 224.398823 l
224.099324 223.162485 l
223.672195 222.761166 l
222.486024 221.651285 l
221.926114 221.123509 l
220.872725 220.133021 l
220.189533 219.485852 l
219.259426 218.608801 l
218.462109 217.848195 l
217.646126 217.077537 l
216.74524 216.210538 l
216.032827 215.536451 l
215.041085 214.572882 l
214.419528 213.982514 l
213.35125 212.935225 l
212.806228 212.413901 l
211.676051 211.297568 l
211.192929 210.830482 l
210.014796 209.659911 l
209.57963 209.233225 l
208.366645 208.022254 l
207.96633 207.62312 l
206.731417 206.384597 l
206.353031 206.000325 l
205.109892 204.74694 l
204.739732 204.363845 l
203.503553 203.109284 l
203.126432 202.711862 l
201.913855 201.471627 l
201.513133 201.042652 l
200.341232 199.83397 l
199.899833 199.355906 l
198.784193 198.196313 l
198.286534 197.653951 l
197.238898 196.558656 l
196.673235 195.942168 l
195.699514 194.920999 l
195.059935 194.228048 l
194.159393 193.283342 l
193.446636 192.51903 l
192.612781 191.645686 l
191.833337 190.820072 l
191.056457 190.008029 l
190.220037 189.132143 l
189.490633 188.370372 l
188.606738 187.452281 l
187.918665 186.732715 l
186.993439 185.77492 l
186.345769 185.095058 l
185.380139 184.093668 l
184.777428 183.457401 l
183.76684 182.402722 l
183.218293 181.819744 l
182.153541 180.697461 l
181.671907 180.182088 l
180.540241 178.974226 l
180.141138 178.544431 l
178.926942 177.229534 l
178.628958 176.906774 l
177.313642 175.45904 l
177.139248 175.269117 l
175.700343 173.656512 l
175.677469 173.63146 l
174.373924 171.993803 l
174.087044 171.603075 l
173.148708 170.356146 l
172.473744 169.401661 l
171.979762 168.71849 l
172.473744 167.607754 l
cl
stroke
grestore
gsave
321.047 325.894 33.73 27.88 clipbox
237.005719 233.905908 m
237.144234 234.224764 l
237.005719 234.278706 l
236.939902 234.224764 l
237.005719 233.905908 l
cl
stroke
grestore
gsave
321.047 325.894 33.73 27.88 clipbox
177.313642 172.873187 m
178.560394 173.63146 l
177.313642 174.051229 l
176.970452 173.63146 l
177.313642 172.873187 l
cl
stroke
grestore
gsave
321.047 325.894 33.73 27.88 clipbox
178.926942 173.845799 m
180.540241 175.181037 l
180.635111 175.269117 l
182.153541 176.692278 l
182.384075 176.906774 l
183.76684 178.216556 l
184.118322 178.544431 l
185.380139 179.749873 l
185.841753 180.182088 l
186.993439 181.28996 l
187.556323 181.819744 l
188.606738 182.835859 l
189.262827 183.457401 l
190.220037 184.387105 l
190.962041 185.095058 l
191.833337 185.942804 l
192.655726 186.732715 l
193.446636 187.50111 l
194.34692 188.370372 l
195.059935 189.059495 l
196.039171 190.008029 l
196.673235 190.61582 l
197.734884 191.645686 l
198.286534 192.169669 l
199.433649 193.283342 l
199.899833 193.723064 l
201.131642 194.920999 l
201.513133 195.280114 l
202.822668 196.558656 l
203.126432 196.845893 l
204.500242 198.196313 l
204.739732 198.425212 l
206.159528 199.83397 l
206.353031 200.021739 l
207.798275 201.471627 l
207.96633 201.637524 l
209.416707 203.109284 l
209.57963 203.272866 l
211.016739 204.74694 l
211.192929 204.926612 l
212.60091 206.384597 l
212.806228 206.596902 l
214.171353 208.022254 l
214.419528 208.282162 l
215.729133 209.659911 l
216.032827 209.981834 l
217.274177 211.297568 l
217.646126 211.696403 l
218.805848 212.935225 l
219.259426 213.426691 l
220.323822 214.572882 l
220.872725 215.172921 l
221.828735 216.210538 l
222.486024 216.934315 l
223.322045 217.848195 l
224.099324 218.709778 l
224.804991 219.485852 l
225.712623 220.499429 l
226.277175 221.123509 l
227.325922 222.305993 l
227.735675 222.761166 l
228.939222 224.135121 l
229.175297 224.398823 l
230.552521 225.994391 l
230.589934 226.03648 l
230.898471 227.674136 l
230.552521 227.752569 l
230.457684 227.674136 l
228.939222 226.411357 l
228.491464 226.03648 l
227.325922 225.058933 l
226.548903 224.398823 l
225.712623 223.689376 l
224.636361 222.761166 l
224.099324 222.300311 l
222.753129 221.123509 l
222.486024 220.892085 l
220.893809 219.485852 l
220.872725 219.467452 l
219.259426 217.954066 l
219.148445 217.848195 l
217.646126 216.429325 l
217.418788 216.210538 l
216.032827 214.899137 l
215.697032 214.572882 l
214.419528 213.359482 l
213.986768 212.935225 l
212.806228 211.806015 l
212.291476 211.297568 l
211.192929 210.235486 l
210.613635 209.659911 l
209.57963 208.646054 l
208.954792 208.022254 l
207.96633 207.036709 l
207.316119 206.384597 l
206.353031 205.406529 l
205.698834 204.74694 l
204.739732 203.754323 l
204.104144 203.109284 l
203.126432 202.078941 l
202.532661 201.471627 l
201.513133 200.380218 l
200.983507 199.83397 l
199.899833 198.660279 l
199.453453 198.196313 l
198.286534 196.924572 l
197.93654 196.558656 l
196.673235 195.181842 l
196.424512 194.920999 l
195.059935 193.442548 l
194.908172 193.283342 l
193.446636 191.716091 l
193.379414 191.645686 l
191.833337 190.008029 l
191.833337 190.008029 l
190.28246 188.370372 l
190.220037 188.304147 l
188.716911 186.732715 l
188.606738 186.615349 l
187.147329 185.095058 l
186.993439 184.929336 l
185.58555 183.457401 l
185.380139 183.232435 l
184.043614 181.819744 l
183.76684 181.50994 l
182.532934 180.182088 l
182.153541 179.74639 l
181.063533 178.544431 l
180.540241 177.925937 l
179.643387 176.906774 l
178.926942 176.032732 l
178.27801 175.269117 l
178.926942 173.845799 l
cl
stroke
grestore
gsave
321.047 325.894 33.73 27.88 clipbox
185.380139 181.774192 m
185.433476 181.819744 l
185.380139 181.841315 l
185.359731 181.819744 l
185.380139 181.774192 l
cl
stroke
grestore
gsave
321.047 325.894 33.73 27.88 clipbox
186.993439 183.141456 m
187.354344 183.457401 l
186.993439 183.601366 l
186.855738 183.457401 l
186.993439 183.141456 l
cl
stroke
grestore
gsave
321.047 325.894 33.73 27.88 clipbox
188.606738 184.558193 m
189.210269 185.095058 l
188.606738 185.330749 l
188.380486 185.095058 l
188.606738 184.558193 l
cl
stroke
grestore
gsave
321.047 325.894 33.73 27.88 clipbox
190.220037 186.003354 m
191.034561 186.732715 l
190.220037 187.043469 l
189.922791 186.732715 l
190.220037 186.003354 l
cl
stroke
grestore
gsave
321.047 325.894 33.73 27.88 clipbox
191.833337 187.456632 m
192.858534 188.370372 l
191.833337 188.753232 l
191.470764 188.370372 l
191.833337 187.456632 l
cl
stroke
grestore
gsave
321.047 325.894 33.73 27.88 clipbox
193.446636 188.898795 m
194.712934 190.008029 l
193.446636 190.472651 l
193.013156 190.008029 l
193.446636 188.898795 l
cl
stroke
grestore
gsave
321.047 325.894 33.73 27.88 clipbox
195.059935 190.312958 m
196.625906 191.645686 l
196.673235 191.686035 l
198.286534 193.191666 l
198.380964 193.283342 l
199.899833 194.715991 l
200.110639 194.920999 l
201.513133 196.241233 l
201.838251 196.558656 l
203.126432 197.77675 l
203.553262 198.196313 l
204.739732 199.330314 l
205.247334 199.83397 l
206.353031 200.906906 l
206.915943 201.471627 l
207.96633 202.508524 l
208.558361 203.109284 l
209.57963 204.13469 l
210.176527 204.74694 l
211.192929 205.78343 l
211.773478 206.384597 l
212.806228 207.452489 l
213.351919 208.022254 l
214.419528 209.140338 l
214.913402 209.659911 l
216.032827 210.846527 l
216.458368 211.297568 l
217.646126 212.57118 l
217.986927 212.935225 l
219.259426 214.314019 l
219.499816 214.572882 l
220.872725 216.073694 l
220.998807 216.210538 l
222.486024 217.848195 l
220.872725 218.079449 l
220.61255 217.848195 l
219.259426 216.660508 l
218.754847 216.210538 l
217.646126 215.231462 l
216.909429 214.572882 l
216.032827 213.792368 l
215.078496 212.935225 l
214.419528 212.341391 l
213.268916 211.297568 l
212.806228 210.873533 l
211.491762 209.659911 l
211.192929 209.379936 l
209.759997 208.022254 l
209.57963 207.848663 l
208.084477 206.384597 l
207.96633 206.267379 l
206.469845 204.74694 l
206.353031 204.627332 l
204.912572 203.109284 l
204.739732 202.927 l
203.402089 201.471627 l
203.126432 201.173766 l
201.923818 199.83397 l
201.513133 199.382869 l
200.462241 198.196313 l
199.899833 197.574041 l
199.003037 196.558656 l
198.286534 195.766943 l
197.534448 194.920999 l
196.673235 193.976844 l
196.048306 193.283342 l
195.059935 192.211905 l
194.540858 191.645686 l
195.059935 190.312958 l
cl
stroke
grestore
gsave
321.047 325.894 33.73 27.88 clipbox
222.486024 217.848195 m
222.496774 219.485852 l
222.486024 219.487384 l
222.48429 219.485852 l
222.486024 217.848195 l
cl
stroke
grestore
0.800 setlinewidth
0 setlinejoin
2 setlinecap
0.000 setgray
gsave
33.73 27.88 m
33.73 353.773714 l
stroke
grestore
gsave
33.73 27.88 m
354.776571 27.88 l
stroke
grestore
gsave
33.73 365.011429 m
354.776571 365.011429 l
354.776571 421.2 l
33.73 421.2 l
cl
1.000 setgray
fill
grestore
1 setlinejoin
0 setlinecap
gsave
/o {
gsave
newpath
translate
0.8 setlinewidth
1 setlinejoin

0 setlinecap

0 0 m
0 -3.5 l

gsave
0.000 setgray
fill
grestore
stroke
grestore
} bind def
72.4605 365.011 o
grestore
gsave
/o {
gsave
newpath
translate
0.8 setlinewidth
1 setlinejoin

0 setlinecap

0 0 m
0 -3.5 l

gsave
0.000 setgray
fill
grestore
stroke
grestore
} bind def
132.59 365.011 o
grestore
gsave
/o {
gsave
newpath
translate
0.8 setlinewidth
1 setlinejoin

0 setlinecap

0 0 m
0 -3.5 l

gsave
0.000 setgray
fill
grestore
stroke
grestore
} bind def
192.719 365.011 o
grestore
gsave
/o {
gsave
newpath
translate
0.8 setlinewidth
1 setlinejoin

0 setlinecap

0 0 m
0 -3.5 l

gsave
0.000 setgray
fill
grestore
stroke
grestore
} bind def
252.848 365.011 o
grestore
gsave
/o {
gsave
newpath
translate
0.8 setlinewidth
1 setlinejoin

0 setlinecap

0 0 m
0 -3.5 l

gsave
0.000 setgray
fill
grestore
stroke
grestore
} bind def
312.977 365.011 o
grestore
1.500 setlinewidth
2 setlinecap
0.000 0.000 1.000 setrgbcolor
gsave
321.047 56.189 33.73 365.011 clipbox
39.237784 365.011534 m
68.838734 365.12671 l
78.186403 365.287107 l
84.418182 365.597325 l
92.207905 366.041203 l
98.439684 366.336129 l
104.671463 366.924595 l
109.345297 367.560169 l
112.461187 368.142997 l
115.577076 368.901926 l
118.692966 369.862753 l
138.946247 377.10183 l
142.062137 378.378889 l
145.178026 379.903994 l
148.293916 381.698206 l
151.409805 383.741629 l
154.525695 385.986393 l
157.641584 388.54712 l
160.757474 391.589586 l
173.221032 404.81375 l
174.778976 406.185009 l
176.336921 407.387337 l
179.452811 409.343239 l
182.5687 410.915089 l
185.68459 412.153891 l
188.800479 412.998195 l
195.032258 414.242978 l
198.148148 415.261736 l
202.821982 417.1464 l
205.937871 418.079843 l
207.495816 418.364649 l
209.053761 418.513847 l
210.611705 418.524359 l
212.16965 418.392078 l
213.727595 418.10499 l
215.28554 417.646941 l
216.843484 417.012449 l
219.959374 415.30804 l
224.633208 412.234774 l
227.749098 409.869552 l
230.864987 407.041933 l
237.096766 401.010819 l
248.002379 391.396106 l
254.234158 386.21189 l
257.350048 383.96818 l
260.465937 382.203662 l
263.581827 380.826038 l
268.255661 378.773455 l
272.929495 376.367663 l
277.603329 373.961524 l
282.277164 371.793193 l
286.950998 369.865587 l
290.066887 368.802536 l
293.182777 367.973972 l
296.298666 367.397212 l
304.08839 366.435949 l
308.762224 365.924417 l
313.436058 365.643939 l
324.341672 365.328394 l
346.152898 365.012647 l
349.268787 365.011561 l
349.268787 365.011561 l
stroke
grestore
0.800 setlinewidth
0 setlinejoin
0.000 setgray
gsave
33.73 365.011429 m
354.776571 365.011429 l
stroke
grestore
gsave
365.847143 27.88 m
421.2 27.88 l
421.2 353.773714 l
365.847143 353.773714 l
cl
1.000 setgray
fill
grestore
1 setlinejoin
0 setlinecap
gsave
/o {
gsave
newpath
translate
0.8 setlinewidth
1 setlinejoin

0 setlinecap

-0 0 m
-3.5 0 l

gsave
0.000 setgray
fill
grestore
stroke
grestore
} bind def
365.847 67.8852 o
grestore
gsave
/o {
gsave
newpath
translate
0.8 setlinewidth
1 setlinejoin

0 setlinecap

-0 0 m
-3.5 0 l

gsave
0.000 setgray
fill
grestore
stroke
grestore
} bind def
365.847 128.428 o
grestore
gsave
/o {
gsave
newpath
translate
0.8 setlinewidth
1 setlinejoin

0 setlinecap

-0 0 m
-3.5 0 l

gsave
0.000 setgray
fill
grestore
stroke
grestore
} bind def
365.847 188.971 o
grestore
gsave
/o {
gsave
newpath
translate
0.8 setlinewidth
1 setlinejoin

0 setlinecap

-0 0 m
-3.5 0 l

gsave
0.000 setgray
fill
grestore
stroke
grestore
} bind def
365.847 249.513 o
grestore
gsave
/o {
gsave
newpath
translate
0.8 setlinewidth
1 setlinejoin

0 setlinecap

-0 0 m
-3.5 0 l

gsave
0.000 setgray
fill
grestore
stroke
grestore
} bind def
365.847 310.056 o
grestore
1.500 setlinewidth
2 setlinecap
0.000 0.000 1.000 setrgbcolor
gsave
55.353 325.894 365.847 27.88 clipbox
365.847279 33.453831 m
365.952375 60.341685 l
366.171285 74.576431 l
366.472233 80.902985 l
367.095715 91.974454 l
367.382779 96.719369 l
367.917737 101.464285 l
368.653002 106.2092 l
369.344283 109.372477 l
370.665178 114.117392 l
372.864956 120.443946 l
377.20553 133.097054 l
378.528941 136.260331 l
381.585287 142.586884 l
383.272768 145.750161 l
385.331355 148.913438 l
387.845041 152.076715 l
390.733208 155.239992 l
393.901194 158.403269 l
402.181383 166.311461 l
404.917105 169.474738 l
407.295654 172.638015 l
409.364386 175.801292 l
411.123412 178.964569 l
411.850126 180.546207 l
412.447951 182.127846 l
413.267311 185.291123 l
414.708664 193.199315 l
415.22593 194.780953 l
416.647521 197.94423 l
417.403822 199.525869 l
418.028526 201.107507 l
418.42367 202.689146 l
418.564154 204.270784 l
418.498302 205.852422 l
418.026237 209.015699 l
417.664996 210.597338 l
417.185135 212.178976 l
416.563021 213.760615 l
414.950997 216.923892 l
413.027266 220.087169 l
410.777929 223.250445 l
408.105993 226.413722 l
400.920785 234.321915 l
387.336231 250.138299 l
385.090965 253.301576 l
383.239411 256.464853 l
381.777865 259.62813 l
379.157194 265.954684 l
377.579953 269.117961 l
374.270683 275.444514 l
372.194988 280.18943 l
370.366466 284.934345 l
369.375601 288.097622 l
368.645121 291.260899 l
367.891542 296.005814 l
367.164615 302.332368 l
366.588594 308.658922 l
366.316468 314.985476 l
365.894565 335.546776 l
365.84724 348.199883 l
365.84724 348.199883 l
stroke
grestore
0.800 setlinewidth
0 setlinejoin
0.000 setgray
gsave
365.847143 27.88 m
365.847143 353.773714 l
stroke
grestore

end
showpage
