%!PS-Adobe-3.0 EPSF-3.0
%%Title: kde_Rosenbrock_Gibbs.eps
%%Creator: Matplotlib v3.6.2, https://matplotlib.org/
%%CreationDate: Sat Nov 19 10:29:14 2022
%%Orientation: portrait
%%BoundingBox: 90 180 522 612
%%HiResBoundingBox: 90.000000 180.000000 522.000000 612.000000
%%EndComments
%%BeginProlog
/mpldict 12 dict def
mpldict begin
/_d { bind def } bind def
/m { moveto } _d
/l { lineto } _d
/r { rlineto } _d
/c { curveto } _d
/cl { closepath } _d
/ce { closepath eofill } _d
/box {
      m
      1 index 0 r
      0 exch r
      neg 0 r
      cl
    } _d
/clipbox {
      box
      clip
      newpath
    } _d
/sc { setcachedevice } _d
%!PS-Adobe-3.0 Resource-Font
%%Creator: Converted from TrueType to Type 3 by Matplotlib.
10 dict begin
/FontName /DejaVuSans def
/PaintType 0 def
/FontMatrix [0.00048828125 0 0 0.00048828125 0 0] def
/FontBBox [-2090 -948 3673 2524] def
/FontType 3 def
/Encoding [/zero /one /minus /five] def
/CharStrings 5 dict dup begin
/.notdef 0 def
/zero{1303 0 135 -29 1167 1520 sc
651 1360 m
547 1360 469 1309 416 1206 c
364 1104 338 950 338 745 c
338 540 364 387 416 284 c
469 182 547 131 651 131 c
756 131 834 182 886 284 c
939 387 965 540 965 745 c
965 950 939 1104 886 1206 c
834 1309 756 1360 651 1360 c

651 1520 m
818 1520 946 1454 1034 1321 c
1123 1189 1167 997 1167 745 c
1167 494 1123 302 1034 169 c
946 37 818 -29 651 -29 c
484 -29 356 37 267 169 c
179 302 135 494 135 745 c
135 997 179 1189 267 1321 c
356 1454 484 1520 651 1520 c

ce} _d
/one{1303 0 225 0 1114 1493 sc
254 170 m
584 170 l
584 1309 l
225 1237 l
225 1421 l
582 1493 l
784 1493 l
784 170 l
1114 170 l
1114 0 l
254 0 l
254 170 l

ce} _d
/minus{1716 0 217 557 1499 727 sc
217 727 m
1499 727 l
1499 557 l
217 557 l
217 727 l

ce} _d
/five{1303 0 158 -29 1124 1493 sc
221 1493 m
1014 1493 l
1014 1323 l
406 1323 l
406 957 l
435 967 465 974 494 979 c
523 984 553 987 582 987 c
749 987 881 941 978 850 c
1075 759 1124 635 1124 479 c
1124 318 1074 193 974 104 c
874 15 733 -29 551 -29 c
488 -29 424 -24 359 -13 c
294 -2 227 14 158 35 c
158 238 l
218 205 280 181 344 165 c
408 149 476 141 547 141 c
662 141 754 171 821 232 c
888 293 922 375 922 479 c
922 583 888 665 821 726 c
754 787 662 817 547 817 c
493 817 439 811 385 799 c
332 787 277 768 221 743 c
221 1493 l

ce} _d
end readonly def

/BuildGlyph {
 exch begin
 CharStrings exch
 2 copy known not {pop /.notdef} if
 true 3 1 roll get exec
 end
} _d

/BuildChar {
 1 index /Encoding get exch get
 1 index /BuildGlyph get exec
} _d

FontName currentdict end definefont pop
%!PS-Adobe-3.0 Resource-Font
%%Creator: Converted from TrueType to Type 3 by Matplotlib.
10 dict begin
/FontName /DejaVuSans-Oblique def
/PaintType 0 def
/FontMatrix [0.00048828125 0 0 0.00048828125 0 0] def
/FontBBox [-2080 -717 3398 2187] def
/FontType 3 def
/Encoding [/x /y] def
/CharStrings 3 dict dup begin
/.notdef 0 def
/x{1212 0 -53 0 1229 1120 sc
1229 1120 m
715 571 l
1030 0 l
819 0 l
582 444 l
170 0 l
-53 0 l
498 590 l
205 1120 l
416 1120 l
631 715 l
1006 1120 l
1229 1120 l

ce} _d
/y{1212 0 -51 -426 1235 1120 sc
508 -104 m
423 -247 353 -337 299 -372 c
246 -408 177 -426 94 -426 c
-51 -426 l
-20 -272 l
86 -272 l
137 -272 181 -258 217 -230 c
253 -202 293 -147 338 -66 c
395 41 l
147 1120 l
342 1120 l
528 262 l
1042 1120 l
1235 1120 l
508 -104 l

ce} _d
end readonly def

/BuildGlyph {
 exch begin
 CharStrings exch
 2 copy known not {pop /.notdef} if
 true 3 1 roll get exec
 end
} _d

/BuildChar {
 1 index /Encoding get exch get
 1 index /BuildGlyph get exec
} _d

FontName currentdict end definefont pop
end
%%EndProlog
mpldict begin
90 180 translate
432 432 0 0 clipbox
gsave
0 0 m
432 0 l
432 432 l
0 432 l
cl
1.000 setgray
fill
grestore
gsave
33.73 27.88 m
354.776571 27.88 l
354.776571 353.773714 l
33.73 353.773714 l
cl
1.000 setgray
fill
grestore
0.800 setlinewidth
1 setlinejoin
0 setlinecap
[] 0 setdash
0.000 setgray
gsave
/o {
gsave
newpath
translate
0.8 setlinewidth
1 setlinejoin

0 setlinecap

0 0 m
0 -3.5 l

gsave
0.000 setgray
fill
grestore
stroke
grestore
} bind def
45.7907 27.88 o
grestore
/DejaVuSans 10.000 selectfont
gsave

35.2438 13.2863 translate
0 rotate
0 0 m /minus glyphshow
8.37891 0 m /one glyphshow
14.7412 0 m /zero glyphshow
grestore
gsave
/o {
gsave
newpath
translate
0.8 setlinewidth
1 setlinejoin

0 setlinecap

0 0 m
0 -3.5 l

gsave
0.000 setgray
fill
grestore
stroke
grestore
} bind def
114.146 27.88 o
grestore
/DejaVuSans 10.000 selectfont
gsave

106.778 13.2863 translate
0 rotate
0 0 m /minus glyphshow
8.37891 0 m /five glyphshow
grestore
gsave
/o {
gsave
newpath
translate
0.8 setlinewidth
1 setlinejoin

0 setlinecap

0 0 m
0 -3.5 l

gsave
0.000 setgray
fill
grestore
stroke
grestore
} bind def
182.501 27.88 o
grestore
/DejaVuSans 10.000 selectfont
gsave

179.321 13.2863 translate
0 rotate
0 0 m /zero glyphshow
grestore
gsave
/o {
gsave
newpath
translate
0.8 setlinewidth
1 setlinejoin

0 setlinecap

0 0 m
0 -3.5 l

gsave
0.000 setgray
fill
grestore
stroke
grestore
} bind def
250.856 27.88 o
grestore
/DejaVuSans 10.000 selectfont
gsave

247.676 13.2863 translate
0 rotate
0 0 m /five glyphshow
grestore
gsave
/o {
gsave
newpath
translate
0.8 setlinewidth
1 setlinejoin

0 setlinecap

0 0 m
0 -3.5 l

gsave
0.000 setgray
fill
grestore
stroke
grestore
} bind def
319.21 27.88 o
grestore
/DejaVuSans 10.000 selectfont
gsave

312.851 13.2863 translate
0 rotate
0 0 m /one glyphshow
6.3623 0 m /zero glyphshow
grestore
gsave
191.253 -0.385625 translate
0 rotate
/DejaVuSans-Oblique 10.0 selectfont
0 0.53125 moveto
/x glyphshow
grestore
gsave
/o {
gsave
newpath
translate
0.8 setlinewidth
1 setlinejoin

0 setlinecap

-0 0 m
-3.5 0 l

gsave
0.000 setgray
fill
grestore
stroke
grestore
} bind def
33.73 42.6065 o
grestore
/DejaVuSans 10.000 selectfont
gsave

5.63625 38.8096 translate
0 rotate
0 0 m /minus glyphshow
8.37891 0 m /one glyphshow
14.7412 0 m /zero glyphshow
grestore
gsave
/o {
gsave
newpath
translate
0.8 setlinewidth
1 setlinejoin

0 setlinecap

-0 0 m
-3.5 0 l

gsave
0.000 setgray
fill
grestore
stroke
grestore
} bind def
33.73 110.031 o
grestore
/DejaVuSans 10.000 selectfont
gsave

11.9956 106.235 translate
0 rotate
0 0 m /minus glyphshow
8.37891 0 m /five glyphshow
grestore
gsave
/o {
gsave
newpath
translate
0.8 setlinewidth
1 setlinejoin

0 setlinecap

-0 0 m
-3.5 0 l

gsave
0.000 setgray
fill
grestore
stroke
grestore
} bind def
33.73 177.456 o
grestore
/DejaVuSans 10.000 selectfont
gsave

20.3706 173.66 translate
0 rotate
0 0 m /zero glyphshow
grestore
gsave
/o {
gsave
newpath
translate
0.8 setlinewidth
1 setlinejoin

0 setlinecap

-0 0 m
-3.5 0 l

gsave
0.000 setgray
fill
grestore
stroke
grestore
} bind def
33.73 244.881 o
grestore
/DejaVuSans 10.000 selectfont
gsave

20.3706 241.085 translate
0 rotate
0 0 m /five glyphshow
grestore
gsave
/o {
gsave
newpath
translate
0.8 setlinewidth
1 setlinejoin

0 setlinecap

-0 0 m
-3.5 0 l

gsave
0.000 setgray
fill
grestore
stroke
grestore
} bind def
33.73 312.306 o
grestore
/DejaVuSans 10.000 selectfont
gsave

14.0113 308.51 translate
0 rotate
0 0 m /one glyphshow
6.3623 0 m /zero glyphshow
grestore
gsave
-1.36375 187.827 translate
90 rotate
/DejaVuSans-Oblique 10.0 selectfont
0 0.53125 moveto
/y glyphshow
grestore
1.500 setlinewidth
0.000 0.000 1.000 setrgbcolor
gsave
321.047 325.894 33.73 27.88 clipbox
109.55507 104.834997 m
109.590463 104.849872 l
111.168369 105.561972 l
112.781668 105.969671 l
113.973847 106.487529 l
114.394968 106.628944 l
116.008267 107.490962 l
116.998137 108.125186 l
117.621566 108.466601 l
119.234866 109.48163 l
119.603813 109.762843 l
120.848165 110.558617 l
121.908487 111.4005 l
122.461464 111.771128 l
123.995675 113.038156 l
124.074764 113.093988 l
125.688063 114.399479 l
126.005729 114.675813 l
127.301363 115.729369 l
127.966648 116.31347 l
128.914662 117.096354 l
129.876875 117.951127 l
130.527961 118.495057 l
131.743031 119.588784 l
132.141261 119.924639 l
133.568559 121.226441 l
133.75456 121.384807 l
135.35742 122.864098 l
135.367859 122.873085 l
136.981159 124.28558 l
137.195177 124.501754 l
138.594458 125.748229 l
138.984011 126.139411 l
140.207757 127.245524 l
140.743309 127.777068 l
141.821057 128.760437 l
142.489056 129.414725 l
143.434356 130.282246 l
144.229907 131.052382 l
145.047655 131.805148 l
145.969505 132.690039 l
146.660955 133.32704 l
147.708306 134.327696 l
148.274254 134.848327 l
149.445357 135.965352 l
149.887553 136.370564 l
151.180003 137.603009 l
151.500853 137.895062 l
152.912975 139.240666 l
153.114152 139.422015 l
154.646289 140.878323 l
154.727452 140.950583 l
156.340751 142.446863 l
156.412128 142.51598 l
157.95405 143.880443 l
158.233877 144.153637 l
159.56735 145.324972 l
160.042259 145.791294 l
161.180649 146.787936 l
161.831827 147.42895 l
162.793948 148.272643 l
163.600951 149.066607 l
164.407248 149.777974 l
165.351398 150.704264 l
166.020547 151.300072 l
167.086634 152.341921 l
167.633846 152.834343 l
168.810116 153.979578 l
169.247146 154.376989 l
170.524092 155.617235 l
170.860445 155.925943 l
172.229012 157.254892 l
172.473744 157.481224 l
173.923618 158.892548 l
174.087044 159.04463 l
175.605742 160.530205 l
175.700343 160.618741 l
177.273595 162.167862 l
177.313642 162.205574 l
178.926942 163.805519 l
178.926942 163.805519 l
180.540241 165.373921 l
180.609112 165.443176 l
182.153541 166.963112 l
182.270116 167.080833 l
183.76684 168.564309 l
183.919391 168.71849 l
185.380139 170.168402 l
185.566325 170.356146 l
186.993439 171.767582 l
187.218822 171.993803 l
188.606738 173.357124 l
188.881676 173.63146 l
190.220037 174.936515 l
190.555427 175.269117 l
191.833337 176.509116 l
192.23658 176.906774 l
193.446636 178.080426 l
193.91931 178.544431 l
195.059935 179.655878 l
195.597701 180.182088 l
196.673235 181.239274 l
197.267379 181.819744 l
198.286534 182.832227 l
198.926119 183.457401 l
199.899833 184.434384 l
200.573672 185.095058 l
201.513133 186.044067 l
202.211265 186.732715 l
203.126432 187.659126 l
203.840994 188.370372 l
204.739732 189.277823 l
205.465198 190.008029 l
206.353031 190.899383 l
207.085991 191.645686 l
207.96633 192.52378 l
208.7052 193.283342 l
209.57963 194.150819 l
210.324725 194.920999 l
211.192929 195.779182 l
211.946988 196.558656 l
212.806228 197.406102 l
213.575089 198.196313 l
214.419528 199.027787 l
215.212551 199.83397 l
216.032827 200.640255 l
216.862705 201.471627 l
217.646126 202.240239 l
218.527814 203.109284 l
219.259426 203.826016 l
220.207991 204.74694 l
220.872725 205.398132 l
221.90003 206.384597 l
222.486024 206.960088 l
223.596537 208.022254 l
224.099324 208.518912 l
225.286102 209.659911 l
225.712623 210.085153 l
226.955441 211.297568 l
227.325922 211.671389 l
228.593602 212.935225 l
228.939222 213.288661 l
230.196348 214.572882 l
230.552521 214.942078 l
231.767538 216.210538 l
232.165821 216.628836 l
233.316232 217.848195 l
233.77912 218.340634 l
234.851774 219.485852 l
235.392419 220.068528 l
236.380229 221.123509 l
237.005719 221.806426 l
237.903595 222.761166 l
238.619018 223.551465 l
239.421273 224.398823 l
240.232317 225.301755 l
240.932881 226.03648 l
241.845617 227.052732 l
242.441814 227.674136 l
243.458916 228.793869 l
243.958247 229.311793 l
245.072215 230.50904 l
245.498437 230.94945 l
246.685515 232.183571 l
247.077447 232.587107 l
248.298814 233.814213 l
248.69915 234.224764 l
249.912113 235.41188 l
250.35341 235.862421 l
251.525413 236.994295 l
252.023046 237.500078 l
253.138712 238.577075 l
253.692508 239.137734 l
254.752011 240.169986 l
255.351758 240.775391 l
256.365311 241.777529 l
256.995966 242.413048 l
257.97861 243.400717 l
258.623882 244.050705 l
259.59191 245.038442 l
260.236478 245.688362 l
261.205209 246.688236 l
261.836144 247.326019 l
262.818508 248.346793 l
263.426158 248.963676 l
264.431808 250.010627 l
265.010105 250.601332 l
266.045107 251.676949 l
266.591088 252.238989 l
267.658406 253.344551 l
268.17088 253.876646 l
269.271706 255.014207 l
269.749415 255.514303 l
270.885005 256.688383 l
271.324877 257.15196 l
272.498304 258.370498 l
272.894251 258.789617 l
274.111604 260.064235 l
274.453931 260.427274 l
275.724903 261.773205 l
276.000108 262.06493 l
277.338202 263.500947 l
277.52887 263.702587 l
278.951502 265.25119 l
279.036031 265.340244 l
280.520561 266.977901 l
280.564801 267.030097 l
281.984741 268.615558 l
282.178101 268.850125 l
283.417927 270.253215 l
283.7914 270.718782 l
284.81333 271.890872 l
285.404699 272.646201 l
286.163585 273.528528 l
287.017999 274.641863 l
287.462827 275.166185 l
288.631298 276.712638 l
288.707654 276.803842 l
290.040769 278.441499 l
290.244597 278.704613 l
291.385813 280.079156 l
291.857897 280.712382 l
292.686344 281.716813 l
293.471196 282.82011 l
293.905707 283.354469 l
295.008163 284.992126 l
295.084495 285.116569 l
296.081524 286.629783 l
296.697795 287.637285 l
297.115003 288.26744 l
296.697795 288.859027 l
296.110357 289.905097 l
296.697795 290.88587 l
297.164916 291.542754 l
296.697795 292.404675 l
295.084495 291.802965 l
294.560994 291.542754 l
293.471196 291.040518 l
291.857897 290.137184 l
291.537785 289.905097 l
290.244597 289.04708 l
289.189297 288.26744 l
288.631298 287.888107 l
287.017999 286.672909 l
286.965406 286.629783 l
285.404699 285.443687 l
284.868356 284.992126 l
283.7914 284.154293 l
282.864412 283.354469 l
282.178101 282.80774 l
280.936308 281.716813 l
280.564801 281.414258 l
279.058835 280.079156 l
278.951502 279.990111 l
277.338202 278.549827 l
277.224287 278.441499 l
275.724903 277.103221 l
275.406182 276.803842 l
274.111604 275.657631 l
273.581739 275.166185 l
272.498304 274.213839 l
271.751656 273.528528 l
270.885005 272.769264 l
269.922167 271.890872 l
269.271706 271.319474 l
268.102435 270.253215 l
267.658406 269.859517 l
266.301434 268.615558 l
266.045107 268.384901 l
264.525262 266.977901 l
264.431808 266.892307 l
262.818508 265.397173 l
262.759138 265.340244 l
261.205209 263.905049 l
260.993562 263.702587 l
259.59191 262.389407 l
259.252205 262.06493 l
257.97861 260.863459 l
257.521732 260.427274 l
256.365311 259.336451 l
255.792804 258.789617 l
254.752011 257.812847 l
254.061016 257.15196 l
253.138712 256.2923 l
252.326972 255.514303 l
251.525413 254.771189 l
250.594612 253.876646 l
249.912113 253.245104 l
248.868438 252.238989 l
248.298814 251.710944 l
247.151196 250.601332 l
246.685515 250.167806 l
245.442999 248.963676 l
245.072215 248.616816 l
243.741809 247.326019 l
243.458916 247.060362 l
242.044644 245.688362 l
241.845617 245.501097 l
240.348944 244.050705 l
240.232317 243.940971 l
238.653659 242.413048 l
238.619018 242.380501 l
237.005719 240.856359 l
236.92334 240.775391 l
235.392419 239.349216 l
235.178325 239.137734 l
233.77912 237.826605 l
233.450266 237.500078 l
232.165821 236.288192 l
231.738869 235.862421 l
230.552521 234.736108 l
230.041131 234.224764 l
228.939222 233.174196 l
228.352481 232.587107 l
227.325922 231.60669 l
226.668317 230.94945 l
225.712623 230.036922 l
224.985319 229.311793 l
224.099324 228.466577 l
223.302114 227.674136 l
222.486024 226.895728 l
221.619155 226.03648 l
220.872725 225.323409 l
219.938082 224.398823 l
219.259426 223.748279 l
218.260968 222.761166 l
217.646126 222.169055 l
216.589739 221.123509 l
216.032827 220.584705 l
214.925726 219.485852 l
214.419528 218.994592 l
213.269259 217.848195 l
212.806228 217.39873 l
211.61932 216.210538 l
211.192929 215.79806 l
209.973529 214.572882 l
209.57963 214.194439 l
208.32871 212.935225 l
207.96633 212.590139 l
206.681926 211.297568 l
206.353031 210.987057 l
205.031439 209.659911 l
204.739732 209.386147 l
203.377028 208.022254 l
203.126432 207.787427 l
201.719555 206.384597 l
201.513133 206.190451 l
200.060168 204.74694 l
199.899833 204.594858 l
198.399631 203.109284 l
198.286534 203.000713 l
196.738043 201.471627 l
196.673235 201.408551 l
195.074935 199.83397 l
195.059935 199.819171 l
193.446636 198.316078 l
193.327332 198.196313 l
191.833337 196.825608 l
191.569398 196.558656 l
190.220037 195.308358 l
189.838332 194.920999 l
188.606738 193.767079 l
188.129994 193.283342 l
186.993439 192.206108 l
186.439608 191.645686 l
185.380139 190.629872 l
184.762891 190.008029 l
183.76684 189.042212 l
183.096459 188.370372 l
182.153541 187.446156 l
181.437897 186.732715 l
180.540241 185.843844 l
179.785726 185.095058 l
178.926942 184.23649 l
178.139326 183.457401 l
177.313642 182.624382 l
176.498791 181.819744 l
175.700343 181.007046 l
174.864666 180.182088 l
174.087044 179.383613 l
173.237588 178.544431 l
172.473744 177.753363 l
171.617921 176.906774 l
170.860445 176.116242 l
170.005519 175.269117 l
169.247146 174.473147 l
168.399679 173.63146 l
167.633846 172.82581 l
166.799295 171.993803 l
166.020547 171.176226 l
165.203164 170.356146 l
164.407248 169.525759 l
163.610292 168.71849 l
162.793948 167.874435 l
162.019987 167.080833 l
161.180649 166.221067 l
160.431599 165.443176 l
159.56735 164.564337 l
158.844184 163.805519 l
157.95405 162.903941 l
157.256525 162.167862 l
156.340751 161.240752 l
155.667656 160.530205 l
154.727452 159.575933 l
154.077547 158.892548 l
153.114152 157.909822 l
152.487554 157.254892 l
151.500853 156.241319 l
150.900409 155.617235 l
149.887553 154.568033 l
149.319629 153.979578 l
148.274254 152.887156 l
147.748355 152.341921 l
146.660955 151.196938 l
146.187782 150.704264 l
145.047655 149.498345 l
144.635781 149.066607 l
143.434356 147.795956 l
143.086689 147.42895 l
141.821057 146.096866 l
141.533062 145.791294 l
140.207757 144.407363 l
139.969021 144.153637 l
138.594458 142.729246 l
138.39336 142.51598 l
136.981159 141.058334 l
136.810528 140.878323 l
135.367859 139.385686 l
135.229432 139.240666 l
133.75456 137.699736 l
133.661554 137.603009 l
132.141261 135.987489 l
132.119841 135.965352 l
130.608192 134.327696 l
130.527961 134.232899 l
129.139586 132.690039 l
128.914662 132.416926 l
127.718258 131.052382 l
127.301363 130.53089 l
126.344312 129.414725 l
125.688063 128.568677 l
125.02046 127.777068 l
124.074764 126.521606 l
123.755795 126.139411 l
122.504179 124.501754 l
122.461464 124.450233 l
121.079197 122.864098 l
120.848165 122.579874 l
119.665928 121.226441 l
119.234866 120.686617 l
118.271824 119.588784 l
117.621566 118.762205 l
116.905767 117.951127 l
116.008267 116.796123 l
115.579189 116.31347 l
114.394968 114.772139 l
114.308697 114.675813 l
113.04182 113.038156 l
112.781668 112.651489 l
111.815369 111.4005 l
111.168369 110.424867 l
110.662141 109.762843 l
109.633156 108.125186 l
109.556923 106.487529 l
109.55507 106.385189 l
109.52473 104.849872 l
109.55507 104.834997 l
cl
stroke
grestore
gsave
321.047 325.894 33.73 27.88 clipbox
295.084495 288.003372 m
294.940128 288.26744 l
295.084495 288.494585 l
295.620303 288.26744 l
295.084495 288.003372 l
cl
stroke
grestore
gsave
321.047 325.894 33.73 27.88 clipbox
122.461464 116.707698 m
124.074764 117.366465 l
125.088513 117.951127 l
125.688063 118.271025 l
127.301363 119.302977 l
127.688357 119.588784 l
128.914662 120.438243 l
129.94965 121.226441 l
130.527961 121.641254 l
132.089507 122.864098 l
132.141261 122.902425 l
133.75456 124.280724 l
133.994019 124.501754 l
135.367859 125.704537 l
135.836256 126.139411 l
136.981159 127.157013 l
137.645026 127.777068 l
138.594458 128.631626 l
139.428547 129.414725 l
140.207757 130.12216 l
141.19552 131.052382 l
141.821057 131.622088 l
142.955205 132.690039 l
143.434356 133.12505 l
144.715938 134.327696 l
145.047655 134.626209 l
146.482895 135.965352 l
146.660955 136.123618 l
148.256436 137.603009 l
148.274254 137.618643 l
149.887553 139.051603 l
150.086244 139.240666 l
151.500853 140.488697 l
151.912035 140.878323 l
153.114152 141.93808 l
153.727984 142.51598 l
154.727452 143.396314 l
155.538693 144.153637 l
156.340751 144.858548 l
157.349467 145.791294 l
157.95405 146.320723 l
159.163528 147.42895 l
159.56735 147.781157 l
160.980069 149.066607 l
161.180649 149.241099 l
162.793948 150.704264 l
162.793948 150.704264 l
164.407248 152.095622 l
164.671022 152.341921 l
166.020547 153.52183 l
166.508208 153.979578 l
167.633846 154.98072 l
168.308172 155.617235 l
169.247146 156.467949 l
170.076734 157.254892 l
170.860445 157.977841 l
171.821189 158.892548 l
172.473744 159.504183 l
173.548843 160.530205 l
174.087044 161.041076 l
175.265804 162.167862 l
175.700343 162.58388 l
176.976 163.805519 l
177.313642 164.130152 l
178.680552 165.443176 l
178.926942 165.680214 l
180.377853 167.080833 l
180.540241 167.236815 l
182.064729 168.71849 l
182.153541 168.803661 l
183.738395 170.356146 l
183.76684 170.383433 l
185.380139 171.974156 l
185.399681 171.993803 l
186.993439 173.573537 l
187.051201 173.63146 l
188.606738 175.18155 l
188.694319 175.269117 l
190.220037 176.795257 l
190.331818 176.906774 l
191.833337 178.412815 l
191.965339 178.544431 l
193.446636 180.033448 l
193.595481 180.182088 l
195.059935 181.657064 l
195.222288 181.819744 l
196.673235 183.283677 l
196.845857 183.457401 l
198.286534 184.912973 l
198.466732 185.095058 l
199.899833 186.544281 l
200.08581 186.732715 l
201.513133 188.176932 l
201.703892 188.370372 l
203.126432 189.810696 l
203.321209 190.008029 l
204.739732 191.445908 l
204.937334 191.645686 l
206.353031 193.083114 l
206.551582 193.283342 l
207.96633 194.722376 l
208.163765 194.920999 l
209.57963 196.362562 l
209.774944 196.558656 l
211.192929 198.001006 l
211.387781 198.196313 l
212.806228 199.633894 l
213.006129 199.83397 l
214.419528 201.257482 l
214.633787 201.471627 l
216.032827 202.869748 l
216.272789 203.109284 l
217.646126 204.47163 l
217.922124 204.74694 l
219.259426 206.06706 l
219.577653 206.384597 l
220.872725 207.661831 l
221.233305 208.022254 l
222.486024 209.261965 l
222.882862 209.659911 l
224.099324 210.872348 l
224.521472 211.297568 l
225.712623 212.495956 l
226.146444 212.935225 l
227.325922 214.133665 l
227.757302 214.572882 l
228.939222 215.784539 l
229.35532 216.210538 l
230.552521 217.446454 l
230.942798 217.848195 l
232.165821 219.116901 l
232.522304 219.485852 l
233.77912 220.793663 l
234.096115 221.123509 l
235.392419 222.475091 l
235.666008 222.761166 l
237.005719 224.159923 l
237.233379 224.398823 l
238.619018 225.846914 l
238.799454 226.03648 l
240.232317 227.534671 l
240.365342 227.674136 l
241.845617 229.221906 l
241.931835 229.311793 l
243.458916 230.907934 l
243.499084 230.94945 l
245.067213 232.587107 l
245.072215 232.592429 l
246.640307 234.224764 l
246.685515 234.273085 l
248.211903 235.862421 l
248.298814 235.955653 l
249.781348 237.500078 l
249.912113 237.640783 l
251.348401 239.137734 l
251.525413 239.328882 l
252.912949 240.775391 l
253.138712 241.020554 l
254.47423 242.413048 l
254.752011 242.7175 l
256.029862 244.050705 l
256.365311 244.42355 l
257.575076 245.688362 l
257.97861 246.145448 l
259.102519 247.326019 l
259.59191 247.893003 l
260.6029 248.963676 l
261.205209 249.67786 l
262.066996 250.601332 l
262.818508 251.509517 l
263.489661 252.238989 l
264.431808 253.387682 l
264.875502 253.876646 l
266.045107 255.294373 l
266.242734 255.514303 l
267.636512 257.15196 l
267.658406 257.1778 l
269.130742 258.789617 l
269.271706 258.956523 l
270.628143 260.427274 l
270.885005 260.733388 l
272.114494 262.06493 l
272.498304 262.526736 l
273.573473 263.702587 l
274.111604 264.357482 l
274.992439 265.340244 l
275.724903 266.24165 l
276.368216 266.977901 l
277.338202 268.182804 l
277.707406 268.615558 l
278.951502 270.172664 l
279.019069 270.253215 l
280.149312 271.890872 l
280.564801 272.857502 l
280.942507 273.528528 l
281.286252 275.166185 l
280.564801 275.685445 l
279.681291 275.166185 l
278.951502 274.699562 l
277.338202 273.773439 l
276.979638 273.528528 l
275.724903 272.722373 l
274.505531 271.890872 l
274.111604 271.631408 l
272.498304 270.441441 l
272.281104 270.253215 l
270.885005 269.137948 l
270.282116 268.615558 l
269.271706 267.806134 l
268.315448 266.977901 l
267.658406 266.449415 l
266.377628 265.340244 l
266.045107 265.071356 l
264.46465 263.702587 l
264.431808 263.675867 l
262.818508 262.327328 l
262.542734 262.06493 l
261.205209 260.937522 l
260.674701 260.427274 l
259.59191 259.503112 l
258.852143 258.789617 l
257.97861 258.035349 l
257.060315 257.15196 l
256.365311 256.545207 l
255.288358 255.514303 l
254.752011 255.040957 l
253.529979 253.876646 l
253.138712 253.527567 l
251.78262 252.238989 l
251.525413 252.007074 l
250.045948 250.601332 l
249.912113 250.4795 l
248.320099 248.963676 l
248.298814 248.944151 l
246.685515 247.455662 l
246.550641 247.326019 l
245.072215 245.96808 l
244.782144 245.688362 l
243.458916 244.471989 l
243.022974 244.050705 l
241.845617 242.97127 l
241.268636 242.413048 l
240.232317 241.466846 l
239.517993 240.775391 l
238.619018 239.956877 l
237.772978 239.137734 l
237.005719 238.43844 l
236.036676 237.500078 l
235.392419 236.909373 l
234.311332 235.862421 l
233.77912 235.369203 l
232.597461 234.224764 l
232.165821 233.819028 l
230.894081 232.587107 l
230.552521 232.260845 l
229.199423 230.94945 l
228.939222 230.69685 l
227.511523 229.311793 l
227.325922 229.128986 l
225.828442 227.674136 l
225.712623 227.558805 l
224.148194 226.03648 l
224.099324 225.987544 l
222.486024 224.422268 l
222.462047 224.398823 l
220.872725 222.871126 l
220.760444 222.761166 l
219.259426 221.317955 l
219.061392 221.123509 l
217.646126 219.765504 l
217.36214 219.485852 l
216.032827 218.215091 l
215.661045 217.848195 l
214.419528 216.666939 l
213.957246 216.210538 l
212.806228 215.120808 l
212.250193 214.572882 l
211.192929 213.576456 l
210.539478 212.935225 l
209.57963 212.033687 l
208.825072 211.297568 l
207.96633 210.492136 l
207.107756 209.659911 l
206.353031 208.951039 l
205.389431 208.022254 l
204.739732 207.409109 l
203.673128 206.384597 l
203.126432 205.864484 l
201.962738 204.74694 l
201.513133 204.314678 l
200.26252 203.109284 l
199.899833 202.756604 l
198.576385 201.471627 l
198.286534 201.186897 l
196.906971 199.83397 l
196.673235 199.602746 l
195.254731 198.196313 l
195.059935 198.003068 l
193.617538 196.558656 l
193.446636 196.389296 l
191.991298 194.920999 l
191.833337 194.764995 l
190.371406 193.283342 l
190.220037 193.134396 l
188.754208 191.645686 l
188.606738 191.500914 l
187.137593 190.008029 l
186.993439 189.866561 l
185.520631 188.370372 l
185.380139 188.232303 l
183.902757 186.732715 l
183.76684 186.598802 l
182.283164 185.095058 l
182.153541 184.966947 l
180.660703 183.457401 l
180.540241 183.337918 l
179.03422 181.819744 l
178.926942 181.712876 l
177.40303 180.182088 l
177.313642 180.092545 l
175.767262 178.544431 l
175.700343 178.476916 l
174.127957 176.906774 l
174.087044 176.865139 l
172.487039 175.269117 l
172.473744 175.255457 l
170.860445 173.651918 l
170.840556 173.63146 l
169.247146 172.044501 l
169.197842 171.993803 l
167.633846 170.421452 l
167.570234 170.356146 l
166.020547 168.780812 l
165.959685 168.71849 l
164.407248 167.121896 l
164.367027 167.080833 l
162.793948 165.445404 l
162.79176 165.443176 l
161.220572 163.805519 l
161.180649 163.76349 l
159.654582 162.167862 l
159.56735 162.076051 l
158.088915 160.530205 l
157.95405 160.387847 l
156.520513 158.892548 l
156.340751 158.701434 l
154.949436 157.254892 l
154.727452 157.016087 l
153.378741 155.617235 l
153.114152 155.328004 l
151.813854 153.979578 l
151.500853 153.630938 l
150.261704 152.341921 l
149.887553 151.917159 l
148.729502 150.704264 l
148.274254 150.179214 l
147.222724 149.066607 l
146.660955 148.413046 l
145.742169 147.42895 l
145.047655 146.62178 l
144.281459 145.791294 l
143.434356 144.816842 l
142.827996 144.153637 l
141.821057 143.013025 l
141.368754 142.51598 l
140.207757 141.220132 l
139.896993 140.878323 l
138.594458 139.438735 l
138.41422 139.240666 l
136.981159 137.662783 l
136.926755 137.603009 l
135.403576 135.965352 l
135.367859 135.927294 l
133.855907 134.327696 l
133.75456 134.217833 l
132.315238 132.690039 l
132.141261 132.497287 l
130.786925 131.052382 l
130.527961 130.757748 l
129.27906 129.414725 l
128.914662 128.987028 l
127.802978 127.777068 l
127.301363 127.167477 l
126.37285 126.139411 l
125.688063 125.276071 l
125.004162 124.501754 l
124.074764 123.286877 l
123.711027 122.864098 l
122.543894 121.226441 l
122.461464 121.03408 l
121.819552 119.588784 l
121.259569 117.951127 l
122.461464 116.707698 l
cl
stroke
grestore
gsave
321.047 325.894 33.73 27.88 clipbox
128.914662 124.345366 m
129.306155 124.501754 l
130.527961 124.973166 l
132.141261 125.829616 l
132.54259 126.139411 l
133.75456 126.967702 l
134.759441 127.777068 l
135.367859 128.213548 l
136.812961 129.414725 l
136.981159 129.540945 l
138.594458 130.876919 l
138.794674 131.052382 l
140.207757 132.209228 l
140.751253 132.690039 l
141.821057 133.571533 l
142.674869 134.327696 l
143.434356 134.955368 l
144.582403 135.965352 l
145.047655 136.349766 l
146.490109 137.603009 l
146.660955 137.743652 l
148.274254 139.13972 l
148.383672 139.240666 l
149.887553 140.545873 l
150.24898 140.878323 l
151.500853 141.957086 l
152.109217 142.51598 l
153.114152 143.379324 l
153.957475 144.153637 l
154.727452 144.815541 l
155.791149 145.791294 l
156.340751 146.265496 l
157.611293 147.42895 l
157.95405 147.726556 l
159.420819 149.066607 l
159.56735 149.194942 l
161.180649 150.650301 l
161.240149 150.704264 l
162.793948 152.056819 l
163.107876 152.341921 l
164.407248 153.478477 l
164.955691 153.979578 l
166.020547 154.919265 l
166.776911 155.617235 l
167.633846 156.382215 l
168.567831 157.254892 l
169.247146 157.868816 l
170.328272 158.892548 l
170.860445 159.378842 l
172.061088 160.530205 l
172.473744 160.910432 l
173.771165 162.167862 l
174.087044 162.460358 l
175.464274 163.805519 l
175.700343 164.024562 l
177.145911 165.443176 l
177.313642 165.598899 l
178.820337 167.080833 l
178.926942 167.179909 l
180.490043 168.71849 l
180.540241 168.7653 l
182.153541 170.35204 l
182.157732 170.356146 l
183.76684 171.899747 l
183.862117 171.993803 l
185.380139 173.454837 l
185.557872 173.63146 l
186.993439 175.021855 l
187.240996 175.269117 l
188.606738 176.603074 l
188.909708 176.906774 l
190.220037 178.198619 l
190.564137 178.544431 l
191.833337 179.807188 l
192.205642 180.182088 l
193.446636 181.426753 l
193.836249 181.819744 l
195.059935 183.054975 l
195.458324 183.457401 l
196.673235 184.689407 l
197.07437 185.095058 l
198.286534 186.32763 l
198.686825 186.732715 l
199.899833 187.967489 l
200.297769 188.370372 l
201.513133 189.60738 l
201.908654 190.008029 l
203.126432 191.24643 l
203.520214 191.645686 l
204.739732 192.884353 l
205.132706 193.283342 l
206.353031 194.520982 l
206.746445 194.920999 l
207.96633 196.155706 l
208.362332 196.558656 l
209.57963 197.787224 l
209.981985 198.196313 l
211.192929 199.413869 l
211.607286 199.83397 l
212.806228 201.034421 l
213.239485 201.471627 l
214.419528 202.648953 l
214.878316 203.109284 l
216.032827 204.259228 l
216.521563 204.74694 l
217.646126 205.868494 l
218.165296 206.384597 l
219.259426 207.480838 l
219.804675 208.022254 l
220.872725 209.10035 l
221.435073 209.659911 l
222.486024 210.730264 l
223.053226 211.297568 l
224.099324 212.372162 l
224.658151 212.935225 l
225.712623 214.02542 l
226.251499 214.572882 l
227.325922 215.687275 l
227.837025 216.210538 l
228.939222 217.3538 l
229.419187 217.848195 l
230.552521 219.021494 l
231.00145 219.485852 l
232.165821 220.688625 l
232.585185 221.123509 l
233.77912 222.355546 l
234.169656 222.761166 l
235.392419 224.024069 l
235.752848 224.398823 l
237.005719 225.696498 l
237.332435 226.03648 l
238.619018 227.374925 l
238.906401 227.674136 l
240.232317 229.060949 l
240.473201 229.311793 l
241.845617 230.755688 l
242.031706 230.94945 l
243.458916 232.459831 l
243.581177 232.587107 l
245.072215 234.173588 l
245.121377 234.224764 l
246.664028 235.862421 l
246.685515 235.886305 l
248.216378 237.500078 l
248.298814 237.592886 l
249.759264 239.137734 l
249.912113 239.311468 l
251.29036 240.775391 l
251.525413 241.044543 l
252.806338 242.413048 l
253.138712 242.796041 l
254.303084 244.050705 l
254.752011 244.571081 l
255.776844 245.688362 l
256.365311 246.374444 l
257.226024 247.326019 l
257.97861 248.208116 l
258.652515 248.963676 l
259.59191 250.069343 l
260.061284 250.601332 l
261.205209 251.951086 l
261.45801 252.238989 l
262.818508 253.845413 l
262.846006 253.876646 l
264.022019 255.514303 l
264.431808 256.146339 l
265.13071 257.15196 l
266.045107 258.51651 l
266.23603 258.789617 l
267.360215 260.427274 l
267.658406 261.104944 l
268.240325 262.06493 l
267.658406 262.492646 l
266.951112 262.06493 l
266.045107 261.587544 l
264.431808 260.608834 l
264.121302 260.427274 l
262.818508 259.717115 l
261.283562 258.789617 l
261.205209 258.746141 l
259.59191 257.432399 l
259.267132 257.15196 l
257.97861 256.07984 l
257.324245 255.514303 l
256.365311 254.713435 l
255.400803 253.876646 l
254.752011 253.333476 l
253.499932 252.238989 l
253.138712 251.936297 l
251.628033 250.601332 l
251.525413 250.51536 l
249.912113 249.057717 l
249.813345 248.963676 l
248.298814 247.574392 l
248.038687 247.326019 l
246.685515 246.078371 l
246.277798 245.688362 l
245.072215 244.573819 l
244.525148 244.050705 l
243.458916 243.063987 l
242.776244 242.413048 l
241.845617 241.551284 l
241.028272 240.775391 l
240.232317 240.037227 l
239.280513 239.137734 l
238.619018 238.522277 l
237.534423 237.500078 l
237.005719 237.005617 l
235.793412 235.862421 l
235.392419 235.484905 l
234.062339 234.224764 l
233.77912 233.956225 l
232.346654 232.587107 l
232.165821 232.414536 l
230.651064 230.94945 l
230.552521 230.854941 l
228.977913 229.311793 l
228.939222 229.274566 l
227.325922 227.674136 l
227.325922 227.674136 l
225.712623 226.067616 l
225.680625 226.03648 l
224.099324 224.453057 l
224.043656 224.398823 l
222.486024 222.841342 l
222.403743 222.761166 l
220.872725 221.244271 l
220.748633 221.123509 l
219.259426 219.671625 l
219.068017 219.485852 l
217.646126 218.127583 l
217.35721 217.848195 l
216.032827 216.608935 l
215.6192 216.210538 l
214.419528 215.106774 l
213.863132 214.572882 l
212.806228 213.61061 l
212.100148 212.935225 l
211.192929 212.11204 l
210.339622 211.297568 l
209.57963 210.606083 l
208.587785 209.659911 l
207.96633 209.090424 l
206.848436 208.022254 l
206.353031 207.56384 l
205.124218 206.384597 l
204.739732 206.024956 l
203.417257 204.74694 l
203.126432 204.471958 l
201.728813 203.109284 l
201.513133 202.903298 l
200.058375 201.471627 l
199.899833 201.318886 l
198.403091 199.83397 l
198.286534 199.720894 l
196.758146 198.196313 l
196.673235 198.11354 l
195.117998 196.558656 l
195.059935 196.501919 l
193.47785 194.920999 l
193.446636 194.890498 l
191.834766 193.283342 l
191.833337 193.281948 l
190.220037 191.693753 l
190.172708 191.645686 l
188.606738 190.10837 l
188.507993 190.008029 l
186.993439 188.5217 l
186.844475 188.370372 l
185.380139 186.931287 l
185.184508 186.732715 l
183.76684 185.335953 l
183.52916 185.095058 l
182.153541 183.73549 l
181.87853 183.457401 l
180.540241 182.129988 l
180.232481 181.819744 l
178.926942 180.519193 l
178.591351 180.182088 l
177.313642 178.902163 l
176.956311 178.544431 l
175.700343 177.27729 l
175.329298 176.906774 l
174.087044 175.642612 l
173.712617 175.269117 l
172.473744 173.996265 l
172.108384 173.63146 l
170.860445 172.336972 l
170.517925 171.993803 l
169.247146 170.664538 l
168.941175 170.356146 l
167.633846 168.980278 l
167.376237 168.71849 l
166.020547 167.287169 l
165.819404 167.080833 l
164.407248 165.589336 l
164.266034 165.443176 l
162.793948 163.890705 l
162.712198 163.805519 l
161.180649 162.1932 l
161.156416 162.167862 l
159.587373 160.530205 l
159.56735 160.508355 l
158.014063 158.892548 l
157.95405 158.825801 l
156.45284 157.254892 l
156.340751 157.127581 l
154.911309 155.617235 l
154.727452 155.404303 l
153.396687 153.979578 l
153.114152 153.647931 l
151.912461 152.341921 l
151.500853 151.857356 l
150.454211 150.704264 l
149.887553 150.043902 l
149.007737 149.066607 l
148.274254 148.230143 l
147.553082 147.42895 l
146.660955 146.43926 l
146.073288 145.791294 l
145.047655 144.683397 l
144.561351 144.153637 l
143.434356 142.960968 l
143.020683 142.51598 l
141.821057 141.261899 l
141.460858 140.878323 l
140.207757 139.573816 l
139.892963 139.240666 l
138.594458 137.885402 l
138.326956 137.603009 l
136.981159 136.187057 l
136.771192 135.965352 l
135.367859 134.469999 l
135.233353 134.327696 l
133.75456 132.724648 l
133.721954 132.690039 l
132.424591 131.052382 l
132.141261 130.592351 l
131.345986 129.414725 l
130.527961 127.920656 l
130.443282 127.777068 l
129.543483 126.139411 l
128.914662 124.777844 l
128.775191 124.501754 l
128.914662 124.345366 l
cl
stroke
grestore
gsave
321.047 325.894 33.73 27.88 clipbox
136.981159 131.641172 m
138.594458 132.434952 l
138.891773 132.690039 l
140.207757 133.750425 l
140.878271 134.327696 l
141.821057 135.104691 l
142.822994 135.965352 l
143.434356 136.47554 l
144.755411 137.603009 l
145.047655 137.847583 l
146.660955 139.20722 l
146.700058 139.240666 l
148.274254 140.52703 l
148.691626 140.878323 l
149.887553 141.845112 l
150.695977 142.51598 l
151.500853 143.158499 l
152.712536 144.153637 l
153.114152 144.470561 l
154.727452 145.789053 l
154.729894 145.791294 l
156.340751 147.181159 l
156.61135 147.42895 l
157.95405 148.594775 l
158.4705 149.066607 l
159.56735 150.02725 l
160.309907 150.704264 l
161.180649 151.475029 l
162.132301 152.341921 l
162.793948 152.934586 l
163.93996 153.979578 l
164.407248 154.403142 l
165.734554 155.617235 l
166.020547 155.879149 l
167.517199 157.254892 l
167.633846 157.362481 l
169.247146 158.845291 l
169.297053 158.892548 l
170.860445 160.32116 l
171.078438 160.530205 l
172.473744 161.815856 l
172.836946 162.167862 l
174.087044 163.325423 l
174.578586 163.805519 l
175.700343 164.846369 l
176.30849 165.443176 l
177.313642 166.376369 l
178.029877 167.080833 l
178.926942 167.914547 l
179.743697 168.71849 l
180.540241 169.461284 l
181.449004 170.356146 l
182.153541 171.0177 l
183.143856 171.993803 l
183.76684 172.585071 l
184.826298 173.63146 l
185.380139 174.16438 l
186.49509 175.269117 l
186.993439 175.756029 l
188.150035 176.906774 l
188.606738 177.359739 l
189.791965 178.544431 l
190.220037 178.974558 l
191.422527 180.182088 l
191.833337 180.598985 l
193.043881 181.819744 l
193.446636 182.231203 l
194.658351 183.457401 l
195.059935 183.869365 l
196.268084 185.095058 l
196.673235 185.511843 l
197.874785 186.732715 l
198.286534 187.157313 l
199.479643 188.370372 l
199.899833 188.804662 l
201.083478 190.008029 l
201.513133 190.452778 l
202.687055 191.645686 l
203.126432 192.100371 l
204.291396 193.283342 l
204.739732 193.745955 l
205.897927 194.920999 l
206.353031 195.388061 l
207.508278 196.558656 l
207.96633 197.025617 l
209.123766 198.196313 l
209.57963 198.658318 l
210.744786 199.83397 l
211.192929 200.286786 l
212.370434 201.471627 l
212.806228 201.912533 l
213.998497 203.109284 l
214.419528 203.537847 l
215.625709 204.74694 l
216.032827 205.165717 l
217.248122 206.384597 l
217.646126 206.799728 l
218.861589 208.022254 l
219.259426 208.443748 l
220.46243 209.659911 l
220.872725 210.101174 l
222.048366 211.297568 l
222.486024 211.7736 l
223.619654 212.935225 l
224.099324 213.459063 l
225.180159 214.572882 l
225.712623 215.150742 l
226.737753 216.210538 l
227.325922 216.837703 l
228.302996 217.848195 l
228.939222 218.50887 l
229.885483 219.485852 l
230.552521 220.158595 l
231.489182 221.123509 l
232.165821 221.78957 l
233.110309 222.761166 l
233.77912 223.410655 l
234.739705 224.398823 l
235.392419 225.03214 l
236.367389 226.03648 l
237.005719 226.662333 l
237.985623 227.674136 l
238.619018 228.306739 l
239.589477 229.311793 l
240.232317 229.96874 l
241.176055 230.94945 l
241.845617 231.650508 l
242.743633 232.587107 l
243.458916 233.353532 l
244.291173 234.224764 l
245.072215 235.078757 l
245.818147 235.862421 l
246.685515 236.826588 l
247.324403 237.500078 l
248.298814 238.5971 l
248.809913 239.137734 l
249.912113 240.390531 l
250.274449 240.775391 l
251.525413 242.207828 l
251.7175 242.413048 l
253.138712 244.050705 l
253.138712 244.050705 l
254.4473 245.688362 l
254.752011 246.105802 l
255.71406 247.326019 l
256.365311 248.248733 l
256.918275 248.963676 l
257.97861 250.521813 l
258.038612 250.601332 l
259.165366 252.238989 l
259.59191 252.862318 l
260.304399 253.876646 l
259.59191 254.737021 l
258.221359 253.876646 l
257.97861 253.722923 l
256.365311 252.727918 l
255.681144 252.238989 l
254.752011 251.640935 l
253.335684 250.601332 l
253.138712 250.470278 l
251.525413 249.163373 l
251.302282 248.963676 l
249.912113 247.799167 l
249.389976 247.326019 l
248.298814 246.410266 l
247.510425 245.688362 l
246.685515 244.992172 l
245.665275 244.050705 l
245.072215 243.545075 l
243.852215 242.413048 l
243.458916 242.072851 l
242.066682 240.775391 l
241.845617 240.580776 l
240.303792 239.137734 l
240.232317 239.073587 l
238.619018 237.563755 l
238.551454 237.500078 l
237.005719 236.054458 l
236.802072 235.862421 l
235.392419 234.535299 l
235.064649 234.224764 l
233.77912 233.005869 l
233.340983 232.587107 l
232.165821 231.465638 l
231.632132 230.94945 l
230.552521 229.914031 l
229.938006 229.311793 l
228.939222 228.350807 l
228.25711 227.674136 l
227.325922 226.776658 l
226.586553 226.03648 l
225.712623 225.19366 l
224.922333 224.398823 l
224.099324 223.60528 l
223.259791 222.761166 l
222.486024 222.015909 l
221.594122 221.123509 l
220.872725 220.430136 l
219.920901 219.485852 l
219.259426 218.851999 l
218.236635 217.848195 l
217.646126 217.284391 l
216.539303 216.210538 l
216.032827 215.728695 l
214.828757 214.572882 l
214.419528 214.184656 l
213.106863 212.935225 l
212.806228 212.650455 l
211.377265 211.297568 l
211.192929 211.122946 l
209.644784 209.659911 l
209.57963 209.598081 l
207.96633 208.092689 l
207.892616 208.022254 l
206.353031 206.597627 l
206.131046 206.384597 l
204.739732 205.083189 l
204.391786 204.74694 l
203.126432 203.550517 l
202.673884 203.109284 l
201.513133 202.000706 l
200.975521 201.471627 l
199.899833 200.435295 l
199.293719 199.83397 l
198.286534 198.856861 l
197.624336 198.196313 l
196.673235 197.269165 l
195.962565 196.558656 l
195.059935 195.676635 l
194.303743 194.920999 l
193.446636 194.083454 l
192.644177 193.283342 l
191.833337 192.492627 l
190.981757 191.645686 l
190.220037 190.90537 l
189.316185 190.008029 l
188.606738 189.321029 l
187.648749 188.370372 l
186.993439 187.737559 l
185.98167 186.732715 l
185.380139 186.152346 l
184.31736 185.095058 l
183.76684 184.562964 l
182.65794 183.457401 l
182.153541 182.967534 l
181.005171 181.819744 l
180.540241 181.364642 l
179.360638 180.182088 l
178.926942 179.753034 l
177.725897 178.544431 l
177.313642 178.131416 l
176.102398 176.906774 l
175.700343 176.498496 l
174.491188 175.269117 l
174.087044 174.853334 l
172.892488 173.63146 l
172.473744 173.195835 l
171.305358 171.993803 l
170.860445 171.527177 l
169.727623 170.356146 l
169.247146 169.84982 l
168.156237 168.71849 l
167.633846 168.166878 l
166.588117 167.080833 l
166.020547 166.480959 l
165.021244 165.443176 l
164.407248 164.792925 l
163.455648 163.805519 l
162.793948 163.101078 l
161.893938 162.167862 l
161.180649 161.400971 l
160.341279 160.530205 l
159.56735 159.685646 l
158.804939 158.892548 l
157.95405 157.946182 l
157.293432 157.254892 l
156.340751 156.17284 l
155.814908 155.617235 l
154.727452 154.35781 l
154.374164 153.979578 l
153.114152 152.500539 l
152.968204 152.341921 l
151.572145 150.704264 l
151.500853 150.619769 l
150.148859 149.066607 l
149.887553 148.757271 l
148.708918 147.42895 l
148.274254 146.914623 l
147.256386 145.791294 l
146.660955 145.086086 l
145.799227 144.153637 l
145.047655 143.261244 l
144.348049 142.51598 l
143.434356 141.426455 l
142.915115 140.878323 l
141.821057 139.56503 l
141.513736 139.240666 l
140.207757 137.655522 l
140.158544 137.603009 l
138.922511 135.965352 l
138.594458 135.509282 l
137.726725 134.327696 l
136.981159 133.272927 l
136.564931 132.690039 l
136.981159 131.641172 l
cl
stroke
grestore
gsave
321.047 325.894 33.73 27.88 clipbox
261.205209 255.224517 m
261.411353 255.514303 l
261.205209 255.752816 l
260.83207 255.514303 l
261.205209 255.224517 l
cl
stroke
grestore
gsave
321.047 325.894 33.73 27.88 clipbox
146.660955 140.791841 m
146.764617 140.878323 l
148.274254 142.123145 l
148.752864 142.51598 l
149.887553 143.440856 l
150.773345 144.153637 l
151.500853 144.740078 l
152.837514 145.791294 l
153.114152 146.012149 l
154.727452 147.261657 l
154.932198 147.42895 l
156.340751 148.532712 l
156.990268 149.066607 l
157.95405 149.827977 l
159.007969 150.704264 l
159.56735 151.152847 l
160.974659 152.341921 l
161.180649 152.510349 l
162.793948 153.91768 l
162.86183 153.979578 l
164.407248 155.380394 l
164.666173 155.617235 l
166.020547 156.857577 l
166.45278 157.254892 l
167.633846 158.344241 l
168.226865 158.892548 l
169.247146 159.836267 l
169.993513 160.530205 l
170.860445 161.33081 l
171.757115 162.167862 l
172.473744 162.826369 l
173.520809 163.805519 l
174.087044 164.322479 l
175.286067 165.443176 l
175.700343 165.819264 l
177.052454 167.080833 l
177.313642 167.317269 l
178.817444 168.71849 l
178.926942 168.817744 l
180.540241 170.322376 l
180.574536 170.356146 l
182.153541 171.838817 l
182.310783 171.993803 l
183.76684 173.375734 l
184.02576 173.63146 l
185.380139 174.934676 l
185.717672 175.269117 l
186.993439 176.515606 l
187.386596 176.906774 l
188.606738 178.116932 l
189.03443 178.544431 l
190.220037 179.73573 l
190.664532 180.182088 l
191.833337 181.368215 l
192.281088 181.819744 l
193.446636 183.010479 l
193.888279 183.457401 l
195.059935 184.65934 l
195.489416 185.095058 l
196.673235 186.312869 l
197.086436 186.732715 l
198.286534 187.970262 l
198.680063 188.370372 l
199.899833 189.631072 l
200.270612 190.008029 l
201.513133 191.294202 l
201.859022 191.645686 l
203.126432 192.957251 l
203.44756 193.283342 l
204.739732 194.616662 l
205.039705 194.920999 l
206.353031 196.268832 l
206.639055 196.558656 l
207.96633 197.911746 l
208.247674 198.196313 l
209.57963 199.546213 l
209.864818 199.83397 l
211.192929 201.175932 l
211.486793 201.471627 l
212.806228 202.806537 l
213.107841 203.109284 l
214.419528 204.444437 l
214.721303 204.74694 l
216.032827 206.096021 l
216.320555 206.384597 l
217.646126 207.767211 l
217.899696 208.022254 l
219.259426 209.462839 l
219.454366 209.659911 l
220.872725 211.185325 l
220.983021 211.297568 l
222.486024 212.932355 l
222.488825 212.935225 l
223.977616 214.572882 l
224.099324 214.698185 l
225.494471 216.210538 l
225.712623 216.430438 l
227.049577 217.848195 l
227.325922 218.122882 l
228.643586 219.485852 l
228.939222 219.778021 l
230.271645 221.123509 l
230.552521 221.401736 l
231.926252 222.761166 l
232.165821 223.000827 l
233.598195 224.398823 l
233.77912 224.582879 l
235.276015 226.03648 l
235.392419 226.157655 l
236.944962 227.674136 l
237.005719 227.739196 l
238.586856 229.311793 l
238.619018 229.347351 l
240.182395 230.94945 l
240.232317 231.006504 l
241.716398 232.587107 l
241.845617 232.739476 l
243.183559 234.224764 l
243.458916 234.558193 l
244.590196 235.862421 l
245.072215 236.458126 l
245.94992 237.500078 l
246.685515 238.422794 l
247.276178 239.137734 l
248.298814 240.435719 l
248.57626 240.775391 l
249.797535 242.413048 l
249.912113 242.58024 l
250.831825 244.050705 l
251.525413 245.040665 l
251.944084 245.688362 l
251.525413 246.414012 l
249.912113 245.810947 l
249.749051 245.688362 l
248.298814 244.652171 l
247.497751 244.050705 l
246.685515 243.460405 l
245.293102 242.413048 l
245.072215 242.24992 l
243.458916 240.921826 l
243.301785 240.775391 l
241.845617 239.493447 l
241.465554 239.137734 l
240.232317 238.030933 l
239.667958 237.500078 l
238.619018 236.540214 l
237.902729 235.862421 l
237.005719 235.026337 l
236.164145 234.224764 l
235.392419 233.493375 l
234.446919 232.587107 l
233.77912 231.944961 l
232.74585 230.94945 l
232.165821 230.384966 l
231.055575 229.311793 l
230.552521 228.817898 l
229.370581 227.674136 l
228.939222 227.248775 l
227.68546 226.03648 l
227.325922 225.682462 l
225.995417 224.398823 l
225.712623 224.122641 l
224.296995 222.761166 l
224.099324 222.570846 l
222.588848 221.123509 l
222.486024 221.026245 l
220.872725 219.486479 l
220.872093 219.485852 l
219.259426 217.940527 l
219.165347 217.848195 l
217.646126 216.397679 l
217.45324 216.210538 l
216.032827 214.859206 l
215.734548 214.572882 l
214.419528 213.325354 l
214.009654 212.935225 l
212.806228 211.795308 l
212.280499 211.297568 l
211.192929 210.267311 l
210.550195 209.659911 l
209.57963 208.738875 l
208.82241 208.022254 l
207.96633 207.207133 l
207.100672 206.384597 l
206.353031 205.669343 l
205.387721 204.74694 l
204.739732 204.123455 l
203.685076 203.109284 l
203.126432 202.568496 l
201.992903 201.471627 l
201.513133 201.004634 l
200.310158 199.83397 l
199.899833 199.432968 l
198.634862 198.196313 l
198.286534 197.855228 l
196.964414 196.558656 l
196.673235 196.27355 l
195.295877 194.920999 l
195.059935 194.690331 l
193.626279 193.283342 l
193.446636 193.10809 l
191.952928 191.645686 l
191.833337 191.529251 l
190.273739 190.008029 l
190.220037 189.95582 l
188.606738 188.39019 l
188.586767 188.370372 l
186.993439 186.831744 l
186.893728 186.732715 l
185.380139 185.272373 l
185.201903 185.095058 l
183.76684 183.708026 l
183.515458 183.457401 l
182.153541 182.134723 l
181.838403 181.819744 l
180.540241 180.549021 l
180.174223 180.182088 l
178.926942 178.948159 l
178.525738 178.544431 l
177.313642 177.330098 l
176.89495 176.906774 l
175.700343 175.69368 l
175.282765 175.269117 l
174.087044 174.038959 l
173.688655 173.63146 l
172.473744 172.367569 l
172.11044 171.993803 l
170.860445 170.682806 l
170.544444 170.356146 l
169.247146 168.989055 l
168.986247 168.71849 l
167.633846 167.290439 l
167.432021 167.080833 l
166.020547 165.589023 l
165.880108 165.443176 l
164.407248 163.883346 l
164.332243 163.805519 l
162.793948 162.167862 l
162.793948 162.167862 l
161.290149 160.530205 l
161.180649 160.40486 l
159.816704 158.892548 l
159.56735 158.603495 l
158.375896 157.254892 l
157.95405 156.760665 l
156.962808 155.617235 l
156.340751 154.882994 l
155.567446 153.979578 l
154.727452 152.984207 l
154.179578 152.341921 l
153.114152 151.078202 l
152.793208 150.704264 l
151.500853 149.172572 l
151.408613 149.066607 l
150.079031 147.42895 l
149.887553 147.149969 l
148.833715 145.791294 l
148.274254 144.96092 l
147.658529 144.153637 l
146.660955 142.658377 l
146.553806 142.51598 l
146.254505 140.878323 l
146.660955 140.791841 l
cl
stroke
grestore
gsave
321.047 325.894 33.73 27.88 clipbox
151.500853 146.705234 m
153.114152 147.198192 l
153.414948 147.42895 l
154.727452 148.468279 l
155.527024 149.066607 l
156.340751 149.706514 l
157.70492 150.704264 l
157.95405 150.899027 l
159.56735 152.137466 l
159.809329 152.341921 l
161.180649 153.463184 l
161.780243 153.979578 l
162.793948 154.825864 l
163.694766 155.617235 l
164.407248 156.223783 l
165.560236 157.254892 l
166.020547 157.653311 l
167.387988 158.892548 l
167.633846 159.108143 l
169.191792 160.530205 l
169.247146 160.579228 l
170.860445 162.064285 l
170.9714 162.167862 l
172.473744 163.548358 l
172.748742 163.805519 l
174.087044 165.027357 l
174.531924 165.443176 l
175.700343 166.50389 l
176.318693 167.080833 l
177.313642 167.981491 l
178.104595 168.71849 l
178.926942 169.463905 l
179.88358 170.356146 l
180.540241 170.955068 l
181.648576 171.993803 l
182.153541 172.459396 l
183.392411 173.63146 l
183.76684 173.981771 l
185.109259 175.269117 l
185.380139 175.526837 l
186.796234 176.906774 l
186.993439 177.097646 l
188.454357 178.544431 l
188.606738 178.694305 l
190.08819 180.182088 l
190.220037 180.31362 l
191.70418 181.819744 l
191.833337 181.950207 l
193.308507 183.457401 l
193.446636 183.598525 l
194.905441 185.095058 l
195.059935 185.254637 l
196.496861 186.732715 l
196.673235 186.916827 l
198.082916 188.370372 l
198.286534 188.584968 l
199.663397 190.008029 l
199.899833 190.259084 l
201.239144 191.645686 l
201.513133 191.937888 l
202.812783 193.283342 l
203.126432 193.618153 l
204.388342 194.920999 l
204.739732 195.295438 l
205.969851 196.558656 l
206.353031 196.965854 l
207.559568 198.196313 l
207.96633 198.627881 l
209.156631 199.83397 l
209.57963 200.283407 l
210.756573 201.471627 l
211.192929 201.937812 l
212.35176 203.109284 l
212.806228 203.599364 l
213.932684 204.74694 l
214.419528 205.277893 l
215.490284 206.384597 l
216.032827 206.982112 l
217.019532 208.022254 l
217.646126 208.71496 l
218.523631 209.659911 l
219.259426 210.468502 l
220.016059 211.297568 l
220.872725 212.223604 l
221.516981 212.935225 l
222.486024 213.958232 l
223.044698 214.572882 l
224.099324 215.658659 l
224.608433 216.210538 l
225.712623 217.323572 l
226.207346 217.848195 l
227.325922 218.960057 l
227.83424 219.485852 l
228.939222 220.577874 l
229.479558 221.123509 l
230.552521 222.186353 l
231.133381 222.761166 l
232.165821 223.794003 l
232.785513 224.398823 l
233.77912 225.409629 l
234.424641 226.03648 l
235.392419 227.043924 l
236.037618 227.674136 l
237.005719 228.710812 l
237.609964 229.311793 l
238.619018 230.427389 l
239.128461 230.94945 l
240.232317 232.210992 l
240.585465 232.587107 l
241.845617 234.073027 l
241.982301 234.224764 l
243.114423 235.862421 l
243.458916 236.517893 l
243.9724 237.500078 l
244.818292 239.137734 l
243.458916 239.563577 l
242.909225 239.137734 l
241.845617 238.322843 l
240.815441 237.500078 l
240.232317 237.042355 l
238.809273 235.862421 l
238.619018 235.708625 l
237.005719 234.275114 l
236.952856 234.224764 l
235.392419 232.745888 l
235.226765 232.587107 l
233.77912 231.195072 l
233.524181 230.94945 l
232.165821 229.627495 l
231.839213 229.311793 l
230.552521 228.048528 l
230.165633 227.674136 l
228.939222 226.464776 l
228.496275 226.03648 l
227.325922 224.884095 l
226.822932 224.398823 l
225.712623 223.314472 l
225.137309 222.761166 l
224.099324 221.761784 l
223.433204 221.123509 l
222.486024 220.22754 l
221.708877 219.485852 l
220.872725 218.708432 l
219.96773 217.848195 l
219.259426 217.198297 l
218.216541 216.210538 l
217.646126 215.690916 l
216.462613 214.572882 l
216.032827 214.181728 l
214.711745 212.935225 l
214.419528 212.668076 l
212.967589 211.297568 l
212.806228 211.148756 l
211.231844 209.659911 l
211.192929 209.623592 l
209.57963 208.092856 l
209.505028 208.022254 l
207.96633 206.557174 l
207.784706 206.384597 l
206.353031 205.014941 l
206.072564 204.74694 l
204.739732 203.46451 l
204.370326 203.109284 l
203.126432 201.90515 l
202.678419 201.471627 l
201.513133 200.337376 l
200.995832 199.83397 l
199.899833 198.76287 l
199.320303 198.196313 l
198.286534 197.184039 l
197.648829 196.558656 l
196.673235 195.603412 l
195.978306 194.920999 l
195.059935 194.023156 l
194.3061 193.283342 l
193.446636 192.444885 l
192.630329 191.645686 l
191.833337 190.869731 l
190.949897 190.008029 l
190.220037 189.298457 l
189.26443 188.370372 l
188.606738 187.731405 l
187.574364 186.732715 l
186.993439 186.16822 l
185.881243 185.095058 l
185.380139 184.607452 l
184.188091 183.457401 l
183.76684 183.046219 l
182.499608 181.819744 l
182.153541 181.480104 l
180.821856 180.182088 l
180.540241 179.903425 l
179.161274 178.544431 l
178.926942 178.310004 l
177.52316 176.906774 l
177.313642 176.694407 l
175.910168 175.269117 l
175.700343 175.053387 l
174.32154 173.63146 l
174.087044 173.386911 l
172.753548 171.993803 l
172.473744 171.698106 l
171.200974 170.356146 l
170.860445 169.991961 l
169.659008 168.71849 l
169.247146 168.273273 l
168.124861 167.080833 l
167.633846 166.544648 l
166.598753 165.443176 l
166.020547 164.805198 l
165.084072 163.805519 l
164.407248 163.050255 l
163.586581 162.167862 l
162.793948 161.27232 l
162.112492 160.530205 l
161.180649 159.463521 l
160.665692 158.892548 l
159.56735 157.619342 l
159.245368 157.254892 l
157.95405 155.742007 l
157.845885 155.617235 l
156.459447 153.979578 l
156.340751 153.825905 l
155.104474 152.341921 l
154.727452 151.83682 l
153.799769 150.704264 l
153.114152 149.756304 l
152.559256 149.066607 l
151.500853 147.561348 l
151.396275 147.42895 l
151.500853 146.705234 l
cl
stroke
grestore
gsave
321.047 325.894 33.73 27.88 clipbox
157.95405 152.960994 m
159.56735 153.951315 l
159.607375 153.979578 l
161.180649 155.197191 l
161.784024 155.617235 l
162.793948 156.39304 l
164.051918 157.254892 l
164.407248 157.524007 l
166.020547 158.768212 l
166.157747 158.892548 l
167.633846 160.186949 l
168.009902 160.530205 l
169.247146 161.62595 l
169.840358 162.167862 l
170.860445 163.078262 l
171.66031 163.805519 l
172.473744 164.536295 l
173.479873 165.443176 l
174.087044 165.992287 l
175.307845 167.080833 l
175.700343 167.438575 l
177.151639 168.71849 l
177.313642 168.867622 l
178.926942 170.295518 l
178.991947 170.356146 l
180.540241 171.768302 l
180.780852 171.993803 l
182.153541 173.259463 l
182.546741 173.63146 l
183.76684 174.772969 l
184.284214 175.269117 l
185.380139 176.311801 l
185.990702 176.906774 l
186.993439 177.877314 l
187.667073 178.544431 l
188.606738 179.468638 l
189.317152 180.182088 l
190.220037 181.082812 l
190.946214 181.819744 l
191.833337 182.715837 l
192.559144 183.457401 l
193.446636 184.364131 l
194.159136 185.095058 l
195.059935 186.025501 l
195.74746 186.732715 l
196.673235 187.699109 l
197.324241 188.370372 l
198.286534 189.384548 l
198.889775 190.008029 l
199.899833 191.080538 l
200.445706 191.645686 l
201.513133 192.78407 l
201.995408 193.283342 l
203.126432 194.490675 l
203.543235 194.920999 l
204.739732 196.195981 l
205.092904 196.558656 l
206.353031 197.897767 l
206.645773 198.196313 l
207.96633 199.597405 l
208.199798 199.83397 l
209.57963 201.300045 l
209.749583 201.471627 l
211.192929 203.01364 l
211.28754 203.109284 l
212.806193 204.74694 l
212.806228 204.746979 l
214.29816 206.384597 l
214.419528 206.51902 l
215.780695 208.022254 l
216.032827 208.302733 l
217.261032 209.659911 l
217.646126 210.087389 l
218.749127 211.297568 l
219.259426 211.859154 l
220.255171 212.935225 l
220.872725 213.605889 l
221.787072 214.572882 l
222.486024 215.320996 l
223.348449 216.210538 l
224.099324 217.004734 l
224.937547 217.848195 l
225.712623 218.663401 l
226.546982 219.485852 l
227.325922 220.308079 l
228.163767 221.123509 l
228.939222 221.954574 l
229.768928 222.761166 l
230.552521 223.625578 l
231.336604 224.398823 l
232.165821 225.355556 l
232.833406 226.03648 l
233.77912 227.198716 l
234.219609 227.674136 l
235.392419 229.239674 l
235.454005 229.311793 l
236.183757 230.94945 l
235.392419 231.188159 l
235.133572 230.94945 l
233.77912 229.726926 l
233.339648 229.311793 l
232.165821 228.211936 l
231.605839 227.674136 l
230.552521 226.653627 l
229.914929 226.03648 l
228.939222 225.065411 l
228.248524 224.398823 l
227.325922 223.463977 l
226.585782 222.761166 l
225.712623 221.87025 l
224.900516 221.123509 l
224.099324 220.3111 l
223.154951 219.485852 l
222.486024 218.822739 l
221.286104 217.848195 l
220.872725 217.456278 l
219.259426 216.231638 l
219.237149 216.210538 l
217.646126 214.761187 l
217.446793 214.572882 l
216.032827 213.286014 l
215.66105 212.935225 l
214.419528 211.800212 l
213.887018 211.297568 l
212.806228 210.30083 l
212.128487 209.659911 l
211.192929 208.786778 l
210.386929 208.022254 l
209.57963 207.258095 l
208.662344 206.384597 l
207.96633 205.715588 l
206.953772 204.74694 l
206.353031 204.160647 l
205.259505 203.109284 l
204.739732 202.595172 l
203.577039 201.471627 l
203.126432 201.021617 l
201.902897 199.83397 l
201.513133 199.443096 l
200.232646 198.196313 l
199.899833 197.863285 l
198.561429 196.558656 l
198.286534 196.285829 l
196.885115 194.920999 l
196.673235 194.713321 l
195.201627 193.283342 l
195.059935 193.146396 l
193.511637 191.645686 l
193.446636 191.583642 l
191.833337 190.020923 l
191.820117 190.008029 l
190.220037 188.452427 l
190.135549 188.370372 l
188.606738 186.885088 l
188.449226 186.732715 l
186.993439 185.318103 l
186.762281 185.095058 l
185.380139 183.750146 l
185.076705 183.457401 l
183.76684 182.178846 l
183.395805 181.819744 l
182.153541 180.600552 l
181.724222 180.182088 l
180.540241 179.010521 l
180.067301 178.544431 l
178.926942 177.403612 l
178.429909 176.906774 l
177.313642 175.775326 l
176.815181 175.269117 l
175.700343 174.122906 l
175.223802 173.63146 l
174.087044 172.445971 l
173.654224 171.993803 l
172.473744 170.746265 l
172.103739 170.356146 l
170.860445 169.026482 l
170.569874 168.71849 l
169.247146 167.288641 l
169.051564 167.080833 l
167.633846 165.532695 l
167.549722 165.443176 l
166.072309 163.805519 l
166.020547 163.748828 l
164.615636 162.167862 l
164.407248 161.936649 l
163.165701 160.530205 l
162.793948 160.108774 l
161.728669 158.892548 l
161.180649 158.253367 l
160.314403 157.254892 l
159.56735 156.354187 l
158.935335 155.617235 l
157.95405 154.391356 l
157.605671 153.979578 l
157.95405 152.960994 l
cl
stroke
grestore
gsave
321.047 325.894 33.73 27.88 clipbox
237.005719 232.574127 m
237.011466 232.587107 l
237.005719 232.589147 l
237.003437 232.587107 l
237.005719 232.574127 l
cl
stroke
grestore
gsave
321.047 325.894 33.73 27.88 clipbox
161.180649 156.894193 m
161.670149 157.254892 l
161.180649 157.421632 l
161.03599 157.254892 l
161.180649 156.894193 l
cl
stroke
grestore
gsave
321.047 325.894 33.73 27.88 clipbox
162.793948 158.044884 m
163.902762 158.892548 l
162.793948 159.294618 l
162.44178 158.892548 l
162.793948 158.044884 l
cl
stroke
grestore
gsave
321.047 325.894 33.73 27.88 clipbox
164.407248 159.278489 m
166.020547 160.519129 l
166.037492 160.530205 l
167.633846 161.660683 l
168.430054 162.167862 l
169.247146 162.717023 l
170.860445 163.781797 l
170.886536 163.805519 l
172.473744 165.231442 l
172.70865 165.443176 l
174.087044 166.689762 l
174.525628 167.080833 l
175.700343 168.151524 l
176.343225 168.71849 l
177.313642 169.611804 l
178.16551 170.356146 l
178.926942 171.066148 l
179.994612 171.993803 l
180.540241 172.510822 l
181.830323 173.63146 l
182.153541 173.943541 l
183.669393 175.269117 l
183.76684 175.365097 l
185.380139 176.851843 l
185.43651 176.906774 l
186.993439 178.413712 l
187.125435 178.544431 l
188.606738 180.001366 l
188.78669 180.182088 l
190.220037 181.612003 l
190.424747 181.819744 l
191.833337 183.242578 l
192.043596 183.457401 l
193.446636 184.890856 l
193.64569 185.095058 l
195.059935 186.555842 l
195.231884 186.732715 l
196.673235 188.237306 l
196.802285 188.370372 l
198.286534 189.934645 l
198.357535 190.008029 l
199.899833 191.645686 l
199.899833 191.645686 l
201.365136 193.283342 l
201.513133 193.436467 l
202.851844 194.920999 l
203.126432 195.206718 l
204.358435 196.558656 l
204.739732 196.957632 l
205.879784 198.196313 l
206.353031 198.694692 l
207.408639 199.83397 l
207.96633 200.426034 l
208.936915 201.471627 l
209.57963 202.160849 l
210.457146 203.109284 l
211.192929 203.907478 l
211.964109 204.74694 l
212.806228 205.6711 l
213.456251 206.384597 l
214.419528 207.451493 l
214.936347 208.022254 l
216.032827 209.242006 l
216.411018 209.659911 l
217.646126 211.030957 l
217.889125 211.297568 l
217.646126 212.456415 l
216.032827 211.480481 l
215.621284 211.297568 l
214.419528 210.661828 l
212.806228 209.717471 l
212.745362 209.659911 l
211.192929 208.211063 l
210.993877 208.022254 l
209.57963 206.683581 l
209.265658 206.384597 l
207.96633 205.135682 l
207.559967 204.74694 l
206.353031 203.569031 l
205.874846 203.109284 l
204.739732 201.986534 l
204.206883 201.471627 l
203.126432 200.392606 l
202.550915 199.83397 l
201.513133 198.793233 l
200.900077 198.196313 l
199.899833 197.195421 l
199.246583 196.558656 l
198.286534 195.605829 l
197.583345 194.920999 l
196.673235 194.02894 l
195.905932 193.283342 l
195.059935 192.465677 l
194.213942 191.645686 l
193.446636 190.913285 l
192.510937 190.008029 l
191.833337 189.36659 l
190.802865 188.370372 l
190.220037 187.819955 l
189.09587 186.732715 l
188.606738 186.26891 l
187.394708 185.095058 l
186.993439 184.71077 l
185.702409 183.457401 l
185.380139 183.144227 l
184.020943 181.819744 l
183.76684 181.568357 l
182.35224 180.182088 l
182.153541 179.981583 l
180.698973 178.544431 l
180.540241 178.380941 l
179.06479 176.906774 l
178.926942 176.761923 l
177.453889 175.269117 l
177.313642 175.119044 l
175.869989 173.63146 l
175.700343 173.447251 l
174.31494 171.993803 l
174.087044 171.744015 l
172.787375 170.356146 l
172.473744 170.011306 l
171.282122 168.71849 l
170.860445 168.255856 l
169.791268 167.080833 l
169.247146 166.486424 l
168.307115 165.443176 l
167.633846 164.709098 l
166.825717 163.805519 l
166.020547 162.923689 l
165.348888 162.167862 l
164.407248 161.12308 l
163.883884 160.530205 l
164.407248 159.278489 l
cl
stroke
grestore
gsave
321.047 325.894 33.73 27.88 clipbox
219.259426 212.805589 m
219.379385 212.935225 l
219.259426 213.510836 l
218.388468 212.935225 l
219.259426 212.805589 l
cl
stroke
grestore
gsave
321.047 325.894 33.73 27.88 clipbox
220.872725 214.556995 m
220.887747 214.572882 l
220.872725 214.647763 l
220.772707 214.572882 l
220.872725 214.556995 l
cl
stroke
grestore
gsave
321.047 325.894 33.73 27.88 clipbox
170.860445 166.753594 m
171.471604 167.080833 l
170.860445 167.184886 l
170.765765 167.080833 l
170.860445 166.753594 l
cl
stroke
grestore
gsave
321.047 325.894 33.73 27.88 clipbox
172.473744 167.767339 m
174.087044 168.513461 l
174.376147 168.71849 l
175.700343 169.591061 l
176.69824 170.356146 l
177.313642 170.789151 l
178.76786 171.993803 l
178.926942 172.114067 l
180.540241 173.586121 l
180.592436 173.63146 l
182.153541 175.138772 l
182.302596 175.269117 l
183.76684 176.711323 l
183.987131 176.906774 l
185.380139 178.304036 l
185.64512 178.544431 l
186.993439 179.91476 l
187.279727 180.182088 l
188.606738 181.538321 l
188.898243 181.819744 l
190.220037 183.16836 l
190.509061 183.457401 l
191.833337 184.801216 l
192.117178 185.095058 l
193.446636 186.438249 l
193.722373 186.732715 l
195.059935 188.08383 l
195.321699 188.370372 l
196.673235 189.741185 l
196.913119 190.008029 l
198.286534 191.410158 l
198.496878 191.645686 l
199.899833 193.088029 l
200.074591 193.283342 l
201.513133 194.771726 l
201.647744 194.920999 l
203.126432 196.459623 l
203.21668 196.558656 l
204.739732 198.152328 l
204.780214 198.196313 l
204.739732 199.83397 l
203.126432 198.612955 l
202.687849 198.196313 l
201.513133 197.28332 l
200.753485 196.558656 l
199.899833 195.889736 l
198.866915 194.920999 l
198.286534 194.463735 l
196.997257 193.283342 l
196.673235 193.025334 l
195.130046 191.645686 l
195.059935 191.588823 l
193.446636 190.081006 l
193.371205 190.008029 l
191.833337 188.552232 l
191.645224 188.370372 l
190.220037 187.02444 l
189.918404 186.732715 l
188.606738 185.488968 l
188.200017 185.095058 l
186.993439 183.939543 l
186.49681 183.457401 l
185.380139 182.372244 l
184.813159 181.819744 l
183.76684 180.784607 l
183.152007 180.182088 l
182.153541 179.174548 l
181.515787 178.544431 l
180.540241 177.539642 l
179.906822 176.906774 l
178.926942 175.877119 l
178.326986 175.269117 l
177.313642 174.184773 l
176.77667 173.63146 l
175.700343 172.462736 l
175.253364 171.993803 l
174.087044 170.715445 l
173.750579 170.356146 l
172.473744 168.952252 l
172.258279 168.71849 l
172.473744 167.767339 l
cl
stroke
grestore
0.800 setlinewidth
0 setlinejoin
2 setlinecap
0.000 setgray
gsave
33.73 27.88 m
33.73 353.773714 l
stroke
grestore
gsave
33.73 27.88 m
354.776571 27.88 l
stroke
grestore
gsave
33.73 365.011429 m
354.776571 365.011429 l
354.776571 421.2 l
33.73 421.2 l
cl
1.000 setgray
fill
grestore
1 setlinejoin
0 setlinecap
gsave
/o {
gsave
newpath
translate
0.8 setlinewidth
1 setlinejoin

0 setlinecap

0 0 m
0 -3.5 l

gsave
0.000 setgray
fill
grestore
stroke
grestore
} bind def
45.7907 365.011 o
grestore
gsave
/o {
gsave
newpath
translate
0.8 setlinewidth
1 setlinejoin

0 setlinecap

0 0 m
0 -3.5 l

gsave
0.000 setgray
fill
grestore
stroke
grestore
} bind def
114.146 365.011 o
grestore
gsave
/o {
gsave
newpath
translate
0.8 setlinewidth
1 setlinejoin

0 setlinecap

0 0 m
0 -3.5 l

gsave
0.000 setgray
fill
grestore
stroke
grestore
} bind def
182.501 365.011 o
grestore
gsave
/o {
gsave
newpath
translate
0.8 setlinewidth
1 setlinejoin

0 setlinecap

0 0 m
0 -3.5 l

gsave
0.000 setgray
fill
grestore
stroke
grestore
} bind def
250.856 365.011 o
grestore
gsave
/o {
gsave
newpath
translate
0.8 setlinewidth
1 setlinejoin

0 setlinecap

0 0 m
0 -3.5 l

gsave
0.000 setgray
fill
grestore
stroke
grestore
} bind def
319.21 365.011 o
grestore
1.500 setlinewidth
2 setlinecap
0.000 0.000 1.000 setrgbcolor
gsave
321.047 56.189 33.73 365.011 clipbox
39.706613 365.012165 m
50.579243 365.129093 l
58.345407 365.304458 l
75.430969 365.304144 l
83.197134 365.636638 l
87.856832 365.963914 l
95.622997 366.647015 l
104.942394 366.962255 l
108.04886 367.482692 l
111.155326 368.29993 l
114.261792 369.455158 l
115.815025 370.223444 l
117.368257 371.151952 l
120.474723 373.447046 l
128.240888 379.781596 l
132.900586 383.253408 l
136.007052 385.192683 l
139.113518 386.624923 l
142.219984 387.882235 l
143.773217 388.639663 l
145.32645 389.559174 l
146.879682 390.655029 l
149.986148 393.284856 l
153.092614 396.283363 l
156.19908 399.57838 l
160.858778 404.695257 l
162.412011 406.159823 l
163.965244 407.410924 l
167.07171 409.431177 l
170.178176 411.392532 l
174.837875 414.640331 l
177.94434 416.370661 l
181.050806 417.681086 l
182.604039 418.176769 l
184.157272 418.48112 l
185.710505 418.524389 l
187.263738 418.299639 l
195.029902 416.333465 l
198.136368 415.506673 l
204.3493 413.490372 l
207.455765 412.516114 l
210.562231 411.254797 l
213.668697 409.551646 l
216.775163 407.648185 l
218.328396 406.811687 l
219.881628 406.129718 l
221.434861 405.611775 l
222.988094 405.238202 l
226.09456 404.815328 l
232.307492 404.381458 l
233.860725 404.045235 l
235.413957 403.503499 l
236.96719 402.736247 l
238.520423 401.758741 l
241.626889 399.395438 l
244.733355 396.970764 l
257.159218 388.089445 l
264.925382 383.032938 l
268.031848 381.090696 l
271.138314 379.421293 l
274.24478 378.100686 l
278.904478 376.234916 l
294.436807 369.135542 l
297.543273 368.030762 l
300.649739 367.147293 l
303.756205 366.428524 l
306.862671 365.885123 l
309.969136 365.527508 l
313.075602 365.347729 l
319.288534 365.28096 l
336.374096 365.208542 l
344.14026 365.026019 l
348.799959 365.012321 l
348.799959 365.012321 l
stroke
grestore
0.800 setlinewidth
0 setlinejoin
0.000 setgray
gsave
33.73 365.011429 m
354.776571 365.011429 l
stroke
grestore
gsave
365.847143 27.88 m
421.2 27.88 l
421.2 353.773714 l
365.847143 353.773714 l
cl
1.000 setgray
fill
grestore
1 setlinejoin
0 setlinecap
gsave
/o {
gsave
newpath
translate
0.8 setlinewidth
1 setlinejoin

0 setlinecap

-0 0 m
-3.5 0 l

gsave
0.000 setgray
fill
grestore
stroke
grestore
} bind def
365.847 42.6065 o
grestore
gsave
/o {
gsave
newpath
translate
0.8 setlinewidth
1 setlinejoin

0 setlinecap

-0 0 m
-3.5 0 l

gsave
0.000 setgray
fill
grestore
stroke
grestore
} bind def
365.847 110.031 o
grestore
gsave
/o {
gsave
newpath
translate
0.8 setlinewidth
1 setlinejoin

0 setlinecap

-0 0 m
-3.5 0 l

gsave
0.000 setgray
fill
grestore
stroke
grestore
} bind def
365.847 177.456 o
grestore
gsave
/o {
gsave
newpath
translate
0.8 setlinewidth
1 setlinejoin

0 setlinecap

-0 0 m
-3.5 0 l

gsave
0.000 setgray
fill
grestore
stroke
grestore
} bind def
365.847 244.881 o
grestore
gsave
/o {
gsave
newpath
translate
0.8 setlinewidth
1 setlinejoin

0 setlinecap

-0 0 m
-3.5 0 l

gsave
0.000 setgray
fill
grestore
stroke
grestore
} bind def
365.847 312.306 o
grestore
1.500 setlinewidth
2 setlinecap
0.000 0.000 1.000 setrgbcolor
gsave
55.353 325.894 365.847 27.88 clipbox
365.847687 33.80981 m
365.938314 44.856235 l
366.146322 59.058782 l
366.16162 71.683269 l
366.56695 81.151633 l
367.119784 87.463876 l
367.431392 92.198059 l
367.723407 100.088363 l
368.152556 103.244484 l
368.520396 104.822545 l
369.024302 106.400606 l
369.675463 107.978666 l
371.358689 111.134788 l
374.363372 115.86897 l
377.612344 120.603153 l
379.958602 123.759274 l
384.842096 130.071517 l
385.804346 131.649578 l
387.262468 134.8057 l
388.669405 137.961821 l
390.543024 141.117943 l
392.795465 144.274064 l
394.10817 145.852125 l
395.630756 147.430186 l
397.385893 149.008247 l
403.195622 153.742429 l
404.89692 155.32049 l
406.350466 156.89855 l
407.556193 158.476611 l
408.553072 160.054672 l
412.004827 166.366915 l
414.334646 169.523037 l
416.709056 172.679158 l
417.616536 174.257219 l
418.227019 175.83528 l
418.529002 177.413341 l
418.564162 178.991401 l
418.406568 180.569462 l
417.809338 183.725584 l
417.020158 186.881705 l
415.875278 190.037827 l
414.509577 193.193948 l
413.949273 194.772009 l
413.564777 196.35007 l
413.242535 199.506191 l
412.902436 202.662313 l
412.505414 204.240374 l
411.911849 205.818435 l
411.127992 207.396495 l
409.113825 210.552617 l
406.921597 213.708738 l
405.968809 215.286799 l
405.212714 216.86486 l
404.698112 218.442921 l
404.432697 220.020981 l
404.376747 221.599042 l
404.49059 224.755164 l
404.401552 226.333225 l
404.08285 227.911285 l
403.511116 229.489346 l
402.721098 231.067407 l
400.734543 234.223528 l
393.194111 245.269954 l
391.092588 248.426075 l
388.72007 251.582197 l
386.242888 254.738319 l
385.13294 256.316379 l
383.325321 259.472501 l
378.654408 268.940866 l
376.395211 273.675048 l
371.470766 284.721473 l
369.685974 289.455656 l
368.132206 294.189838 l
367.284019 297.345959 l
366.675321 300.502081 l
366.334878 303.658203 l
366.131246 308.392385 l
366.092425 314.704628 l
366.152575 324.172993 l
365.84741 347.843904 l
365.84741 347.843904 l
stroke
grestore
0.800 setlinewidth
0 setlinejoin
0.000 setgray
gsave
365.847143 27.88 m
365.847143 353.773714 l
stroke
grestore

end
showpage
