%!PS-Adobe-3.0 EPSF-3.0
%%Title: autocorr.eps
%%Creator: Matplotlib v3.6.2, https://matplotlib.org/
%%CreationDate: Mon Feb 13 15:37:39 2023
%%Orientation: portrait
%%BoundingBox: -223 197 836 595
%%HiResBoundingBox: -223.920000 197.280000 835.920000 594.720000
%%EndComments
%%BeginProlog
/mpldict 11 dict def
mpldict begin
/_d { bind def } bind def
/m { moveto } _d
/l { lineto } _d
/r { rlineto } _d
/c { curveto } _d
/cl { closepath } _d
/ce { closepath eofill } _d
/box {
      m
      1 index 0 r
      0 exch r
      neg 0 r
      cl
    } _d
/clipbox {
      box
      clip
      newpath
    } _d
/sc { setcachedevice } _d
%!PS-Adobe-3.0 Resource-Font
%%Creator: Converted from TrueType to Type 3 by Matplotlib.
10 dict begin
/FontName /DejaVuSans def
/PaintType 0 def
/FontMatrix [0.00048828125 0 0 0.00048828125 0 0] def
/FontBBox [-2090 -948 3673 2524] def
/FontType 3 def
/Encoding [/minus /period /zero /one /two /four /five /six /seven /eight /underscore /a /e /g /h /i /l /o /p /t] def
/CharStrings 21 dict dup begin
/.notdef 0 def
/minus{1716 0 217 557 1499 727 sc
217 727 m
1499 727 l
1499 557 l
217 557 l
217 727 l

ce} _d
/period{651 0 219 0 430 254 sc
219 254 m
430 254 l
430 0 l
219 0 l
219 254 l

ce} _d
/zero{1303 0 135 -29 1167 1520 sc
651 1360 m
547 1360 469 1309 416 1206 c
364 1104 338 950 338 745 c
338 540 364 387 416 284 c
469 182 547 131 651 131 c
756 131 834 182 886 284 c
939 387 965 540 965 745 c
965 950 939 1104 886 1206 c
834 1309 756 1360 651 1360 c

651 1520 m
818 1520 946 1454 1034 1321 c
1123 1189 1167 997 1167 745 c
1167 494 1123 302 1034 169 c
946 37 818 -29 651 -29 c
484 -29 356 37 267 169 c
179 302 135 494 135 745 c
135 997 179 1189 267 1321 c
356 1454 484 1520 651 1520 c

ce} _d
/one{1303 0 225 0 1114 1493 sc
254 170 m
584 170 l
584 1309 l
225 1237 l
225 1421 l
582 1493 l
784 1493 l
784 170 l
1114 170 l
1114 0 l
254 0 l
254 170 l

ce} _d
/two{1303 0 150 0 1098 1520 sc
393 170 m
1098 170 l
1098 0 l
150 0 l
150 170 l
227 249 331 356 463 489 c
596 623 679 709 713 748 c
778 821 823 882 848 932 c
874 983 887 1032 887 1081 c
887 1160 859 1225 803 1275 c
748 1325 675 1350 586 1350 c
523 1350 456 1339 385 1317 c
315 1295 240 1262 160 1217 c
160 1421 l
241 1454 317 1478 388 1495 c
459 1512 523 1520 582 1520 c
737 1520 860 1481 952 1404 c
1044 1327 1090 1223 1090 1094 c
1090 1033 1078 974 1055 919 c
1032 864 991 800 930 725 c
913 706 860 650 771 557 c
682 465 556 336 393 170 c

ce} _d
/four{1303 0 100 0 1188 1493 sc
774 1317 m
264 520 l
774 520 l
774 1317 l

721 1493 m
975 1493 l
975 520 l
1188 520 l
1188 352 l
975 352 l
975 0 l
774 0 l
774 352 l
100 352 l
100 547 l
721 1493 l

ce} _d
/five{1303 0 158 -29 1124 1493 sc
221 1493 m
1014 1493 l
1014 1323 l
406 1323 l
406 957 l
435 967 465 974 494 979 c
523 984 553 987 582 987 c
749 987 881 941 978 850 c
1075 759 1124 635 1124 479 c
1124 318 1074 193 974 104 c
874 15 733 -29 551 -29 c
488 -29 424 -24 359 -13 c
294 -2 227 14 158 35 c
158 238 l
218 205 280 181 344 165 c
408 149 476 141 547 141 c
662 141 754 171 821 232 c
888 293 922 375 922 479 c
922 583 888 665 821 726 c
754 787 662 817 547 817 c
493 817 439 811 385 799 c
332 787 277 768 221 743 c
221 1493 l

ce} _d
/six{1303 0 143 -29 1174 1520 sc
676 827 m
585 827 513 796 460 734 c
407 672 381 587 381 479 c
381 372 407 287 460 224 c
513 162 585 131 676 131 c
767 131 838 162 891 224 c
944 287 971 372 971 479 c
971 587 944 672 891 734 c
838 796 767 827 676 827 c

1077 1460 m
1077 1276 l
1026 1300 975 1318 923 1331 c
872 1344 821 1350 770 1350 c
637 1350 535 1305 464 1215 c
394 1125 354 989 344 807 c
383 865 433 909 492 940 c
551 971 617 987 688 987 c
838 987 956 941 1043 850 c
1130 759 1174 636 1174 479 c
1174 326 1129 203 1038 110 c
947 17 827 -29 676 -29 c
503 -29 371 37 280 169 c
189 302 143 494 143 745 c
143 981 199 1169 311 1309 c
423 1450 573 1520 762 1520 c
813 1520 864 1515 915 1505 c
967 1495 1021 1480 1077 1460 c

ce} _d
/seven{1303 0 168 0 1128 1493 sc
168 1493 m
1128 1493 l
1128 1407 l
586 0 l
375 0 l
885 1323 l
168 1323 l
168 1493 l

ce} _d
/eight{1303 0 139 -29 1163 1520 sc
651 709 m
555 709 479 683 424 632 c
369 581 342 510 342 420 c
342 330 369 259 424 208 c
479 157 555 131 651 131 c
747 131 823 157 878 208 c
933 260 961 331 961 420 c
961 510 933 581 878 632 c
823 683 748 709 651 709 c

449 795 m
362 816 295 857 246 916 c
198 975 174 1048 174 1133 c
174 1252 216 1347 301 1416 c
386 1485 503 1520 651 1520 c
800 1520 916 1485 1001 1416 c
1086 1347 1128 1252 1128 1133 c
1128 1048 1104 975 1055 916 c
1007 857 940 816 854 795 c
951 772 1027 728 1081 662 c
1136 596 1163 515 1163 420 c
1163 275 1119 164 1030 87 c
942 10 816 -29 651 -29 c
486 -29 360 10 271 87 c
183 164 139 275 139 420 c
139 515 166 596 221 662 c
276 728 352 772 449 795 c

375 1114 m
375 1037 399 976 447 933 c
496 890 564 868 651 868 c
738 868 805 890 854 933 c
903 976 928 1037 928 1114 c
928 1191 903 1252 854 1295 c
805 1338 738 1360 651 1360 c
564 1360 496 1338 447 1295 c
399 1252 375 1191 375 1114 c

ce} _d
/underscore{1024 0 -20 -483 1044 -340 sc
1044 -340 m
1044 -483 l
-20 -483 l
-20 -340 l
1044 -340 l

ce} _d
/a{1255 0 123 -29 1069 1147 sc
702 563 m
553 563 450 546 393 512 c
336 478 307 420 307 338 c
307 273 328 221 371 182 c
414 144 473 125 547 125 c
649 125 731 161 792 233 c
854 306 885 402 885 522 c
885 563 l
702 563 l

1069 639 m
1069 0 l
885 0 l
885 170 l
843 102 791 52 728 19 c
665 -13 589 -29 498 -29 c
383 -29 292 3 224 67 c
157 132 123 218 123 326 c
123 452 165 547 249 611 c
334 675 460 707 627 707 c
885 707 l
885 725 l
885 810 857 875 801 921 c
746 968 668 991 567 991 c
503 991 441 983 380 968 c
319 953 261 930 205 899 c
205 1069 l
272 1095 338 1114 401 1127 c
464 1140 526 1147 586 1147 c
748 1147 869 1105 949 1021 c
1029 937 1069 810 1069 639 c

ce} _d
/e{1260 0 113 -29 1151 1147 sc
1151 606 m
1151 516 l
305 516 l
313 389 351 293 419 226 c
488 160 583 127 705 127 c
776 127 844 136 910 153 c
977 170 1043 196 1108 231 c
1108 57 l
1042 29 974 8 905 -7 c
836 -22 765 -29 694 -29 c
515 -29 374 23 269 127 c
165 231 113 372 113 549 c
113 732 162 878 261 985 c
360 1093 494 1147 662 1147 c
813 1147 932 1098 1019 1001 c
1107 904 1151 773 1151 606 c

967 660 m
966 761 937 841 882 901 c
827 961 755 991 664 991 c
561 991 479 962 417 904 c
356 846 320 764 311 659 c
967 660 l

ce} _d
/g{1300 0 113 -426 1114 1147 sc
930 573 m
930 706 902 810 847 883 c
792 956 715 993 616 993 c
517 993 440 956 385 883 c
330 810 303 706 303 573 c
303 440 330 337 385 264 c
440 191 517 154 616 154 c
715 154 792 191 847 264 c
902 337 930 440 930 573 c

1114 139 m
1114 -52 1072 -193 987 -286 c
902 -379 773 -426 598 -426 c
533 -426 472 -421 415 -411 c
358 -402 302 -387 248 -367 c
248 -188 l
302 -217 355 -239 408 -253 c
461 -267 514 -274 569 -274 c
690 -274 780 -242 840 -179 c
900 -116 930 -21 930 106 c
930 197 l
892 131 843 82 784 49 c
725 16 654 0 571 0 c
434 0 323 52 239 157 c
155 262 113 400 113 573 c
113 746 155 885 239 990 c
323 1095 434 1147 571 1147 c
654 1147 725 1131 784 1098 c
843 1065 892 1016 930 950 c
930 1120 l
1114 1120 l
1114 139 l

ce} _d
/h{1298 0 186 0 1124 1556 sc
1124 676 m
1124 0 l
940 0 l
940 670 l
940 776 919 855 878 908 c
837 961 775 987 692 987 c
593 987 514 955 457 892 c
400 829 371 742 371 633 c
371 0 l
186 0 l
186 1556 l
371 1556 l
371 946 l
415 1013 467 1064 526 1097 c
586 1130 655 1147 733 1147 c
862 1147 959 1107 1025 1027 c
1091 948 1124 831 1124 676 c

ce} _d
/i{569 0 193 0 377 1556 sc
193 1120 m
377 1120 l
377 0 l
193 0 l
193 1120 l

193 1556 m
377 1556 l
377 1323 l
193 1323 l
193 1556 l

ce} _d
/l{569 0 193 0 377 1556 sc
193 1556 m
377 1556 l
377 0 l
193 0 l
193 1556 l

ce} _d
/o{1253 0 113 -29 1141 1147 sc
627 991 m
528 991 450 952 393 875 c
336 798 307 693 307 559 c
307 425 335 319 392 242 c
449 165 528 127 627 127 c
725 127 803 166 860 243 c
917 320 946 426 946 559 c
946 692 917 797 860 874 c
803 952 725 991 627 991 c

627 1147 m
787 1147 913 1095 1004 991 c
1095 887 1141 743 1141 559 c
1141 376 1095 232 1004 127 c
913 23 787 -29 627 -29 c
466 -29 340 23 249 127 c
158 232 113 376 113 559 c
113 743 158 887 249 991 c
340 1095 466 1147 627 1147 c

ce} _d
/p{1300 0 186 -426 1188 1147 sc
371 168 m
371 -426 l
186 -426 l
186 1120 l
371 1120 l
371 950 l
410 1017 458 1066 517 1098 c
576 1131 647 1147 729 1147 c
865 1147 975 1093 1060 985 c
1145 877 1188 735 1188 559 c
1188 383 1145 241 1060 133 c
975 25 865 -29 729 -29 c
647 -29 576 -13 517 19 c
458 52 410 101 371 168 c

997 559 m
997 694 969 800 913 877 c
858 954 781 993 684 993 c
587 993 510 954 454 877 c
399 800 371 694 371 559 c
371 424 399 317 454 240 c
510 163 587 125 684 125 c
781 125 858 163 913 240 c
969 317 997 424 997 559 c

ce} _d
/t{803 0 55 0 754 1438 sc
375 1438 m
375 1120 l
754 1120 l
754 977 l
375 977 l
375 369 l
375 278 387 219 412 193 c
437 167 488 154 565 154 c
754 154 l
754 0 l
565 0 l
423 0 325 26 271 79 c
217 132 190 229 190 369 c
190 977 l
55 977 l
55 1120 l
190 1120 l
190 1438 l
375 1438 l

ce} _d
end readonly def

/BuildGlyph {
 exch begin
 CharStrings exch
 2 copy known not {pop /.notdef} if
 true 3 1 roll get exec
 end
} _d

/BuildChar {
 1 index /Encoding get exch get
 1 index /BuildGlyph get exec
} _d

FontName currentdict end definefont pop
end
%%EndProlog
mpldict begin
-223.92 197.28 translate
1059.84 397.44 0 0 clipbox
gsave
0 0 m
1059.84 0 l
1059.84 397.44 l
0 397.44 l
cl
1.000 setgray
fill
grestore
gsave
60.82 31.48 m
534.05 31.48 l
534.05 351.696 l
60.82 351.696 l
cl
1.000 setgray
fill
grestore
1.000 setlinewidth
1 setlinejoin
0 setlinecap
[] 0 setdash
0.750 setgray
gsave
473.23 320.216 60.82 31.48 clipbox
/o {
gsave
newpath
translate
1.0 setlinewidth
1 setlinejoin

0 setlinecap

60.82 196.025967 m
60.82 187.150033 l
534.05 187.150033 l
534.05 196.025967 l
534.05 196.025967 l
60.82 196.025967 l
cl

gsave
0.750 setgray
fill
grestore
stroke
grestore
} bind def
0 0 o
grestore
0.800 setlinewidth
0.000 setgray
gsave
/o {
gsave
newpath
translate
0.8 setlinewidth
1 setlinejoin

0 setlinecap

0 0 m
0 -3.5 l

gsave
0.000 setgray
fill
grestore
stroke
grestore
} bind def
60.82 31.48 o
grestore
/DejaVuSans 14.000 selectfont
gsave

56.3669 13.8394 translate
0 rotate
0 0 m /zero glyphshow
grestore
gsave
/o {
gsave
newpath
translate
0.8 setlinewidth
1 setlinejoin

0 setlinecap

0 0 m
0 -3.5 l

gsave
0.000 setgray
fill
grestore
stroke
grestore
} bind def
155.466 31.48 o
grestore
/DejaVuSans 14.000 selectfont
gsave

146.56 13.8394 translate
0 rotate
0 0 m /two glyphshow
8.90723 0 m /zero glyphshow
grestore
gsave
/o {
gsave
newpath
translate
0.8 setlinewidth
1 setlinejoin

0 setlinecap

0 0 m
0 -3.5 l

gsave
0.000 setgray
fill
grestore
stroke
grestore
} bind def
250.112 31.48 o
grestore
/DejaVuSans 14.000 selectfont
gsave

241.206 13.8394 translate
0 rotate
0 0 m /four glyphshow
8.90723 0 m /zero glyphshow
grestore
gsave
/o {
gsave
newpath
translate
0.8 setlinewidth
1 setlinejoin

0 setlinecap

0 0 m
0 -3.5 l

gsave
0.000 setgray
fill
grestore
stroke
grestore
} bind def
344.758 31.48 o
grestore
/DejaVuSans 14.000 selectfont
gsave

335.852 13.8394 translate
0 rotate
0 0 m /six glyphshow
8.90723 0 m /zero glyphshow
grestore
gsave
/o {
gsave
newpath
translate
0.8 setlinewidth
1 setlinejoin

0 setlinecap

0 0 m
0 -3.5 l

gsave
0.000 setgray
fill
grestore
stroke
grestore
} bind def
439.404 31.48 o
grestore
/DejaVuSans 14.000 selectfont
gsave

430.498 13.8394 translate
0 rotate
0 0 m /eight glyphshow
8.90723 0 m /zero glyphshow
grestore
gsave
/o {
gsave
newpath
translate
0.8 setlinewidth
1 setlinejoin

0 setlinecap

0 0 m
0 -3.5 l

gsave
0.000 setgray
fill
grestore
stroke
grestore
} bind def
534.05 31.48 o
grestore
/DejaVuSans 14.000 selectfont
gsave

520.691 13.8394 translate
0 rotate
0 0 m /one glyphshow
8.90723 0 m /zero glyphshow
17.8145 0 m /zero glyphshow
grestore
gsave
/o {
gsave
newpath
translate
0.8 setlinewidth
1 setlinejoin

0 setlinecap

-0 0 m
-3.5 0 l

gsave
0.000 setgray
fill
grestore
stroke
grestore
} bind def
60.82 31.48 o
grestore
/DejaVuSans 14.000 selectfont
gsave

10.9138 26.1597 translate
0 rotate
0 0 m /minus glyphshow
11.7305 0 m /one glyphshow
20.6377 0 m /period glyphshow
25.0879 0 m /zero glyphshow
33.9951 0 m /zero glyphshow
grestore
gsave
/o {
gsave
newpath
translate
0.8 setlinewidth
1 setlinejoin

0 setlinecap

-0 0 m
-3.5 0 l

gsave
0.000 setgray
fill
grestore
stroke
grestore
} bind def
60.82 71.507 o
grestore
/DejaVuSans 14.000 selectfont
gsave

10.9138 66.1867 translate
0 rotate
0 0 m /minus glyphshow
11.7305 0 m /zero glyphshow
20.6377 0 m /period glyphshow
25.0879 0 m /seven glyphshow
33.9951 0 m /five glyphshow
grestore
gsave
/o {
gsave
newpath
translate
0.8 setlinewidth
1 setlinejoin

0 setlinecap

-0 0 m
-3.5 0 l

gsave
0.000 setgray
fill
grestore
stroke
grestore
} bind def
60.82 111.534 o
grestore
/DejaVuSans 14.000 selectfont
gsave

10.9138 106.214 translate
0 rotate
0 0 m /minus glyphshow
11.7305 0 m /zero glyphshow
20.6377 0 m /period glyphshow
25.0879 0 m /five glyphshow
33.9951 0 m /zero glyphshow
grestore
gsave
/o {
gsave
newpath
translate
0.8 setlinewidth
1 setlinejoin

0 setlinecap

-0 0 m
-3.5 0 l

gsave
0.000 setgray
fill
grestore
stroke
grestore
} bind def
60.82 151.561 o
grestore
/DejaVuSans 14.000 selectfont
gsave

10.9138 146.241 translate
0 rotate
0 0 m /minus glyphshow
11.7305 0 m /zero glyphshow
20.6377 0 m /period glyphshow
25.0879 0 m /two glyphshow
33.9951 0 m /five glyphshow
grestore
gsave
/o {
gsave
newpath
translate
0.8 setlinewidth
1 setlinejoin

0 setlinecap

-0 0 m
-3.5 0 l

gsave
0.000 setgray
fill
grestore
stroke
grestore
} bind def
60.82 191.588 o
grestore
/DejaVuSans 14.000 selectfont
gsave

22.6481 186.268 translate
0 rotate
0 0 m /zero glyphshow
8.90723 0 m /period glyphshow
13.3574 0 m /zero glyphshow
22.2646 0 m /zero glyphshow
grestore
gsave
/o {
gsave
newpath
translate
0.8 setlinewidth
1 setlinejoin

0 setlinecap

-0 0 m
-3.5 0 l

gsave
0.000 setgray
fill
grestore
stroke
grestore
} bind def
60.82 231.615 o
grestore
/DejaVuSans 14.000 selectfont
gsave

22.6481 226.295 translate
0 rotate
0 0 m /zero glyphshow
8.90723 0 m /period glyphshow
13.3574 0 m /two glyphshow
22.2646 0 m /five glyphshow
grestore
gsave
/o {
gsave
newpath
translate
0.8 setlinewidth
1 setlinejoin

0 setlinecap

-0 0 m
-3.5 0 l

gsave
0.000 setgray
fill
grestore
stroke
grestore
} bind def
60.82 271.642 o
grestore
/DejaVuSans 14.000 selectfont
gsave

22.6481 266.322 translate
0 rotate
0 0 m /zero glyphshow
8.90723 0 m /period glyphshow
13.3574 0 m /five glyphshow
22.2646 0 m /zero glyphshow
grestore
gsave
/o {
gsave
newpath
translate
0.8 setlinewidth
1 setlinejoin

0 setlinecap

-0 0 m
-3.5 0 l

gsave
0.000 setgray
fill
grestore
stroke
grestore
} bind def
60.82 311.669 o
grestore
/DejaVuSans 14.000 selectfont
gsave

22.6481 306.349 translate
0 rotate
0 0 m /zero glyphshow
8.90723 0 m /period glyphshow
13.3574 0 m /seven glyphshow
22.2646 0 m /five glyphshow
grestore
gsave
/o {
gsave
newpath
translate
0.8 setlinewidth
1 setlinejoin

0 setlinecap

-0 0 m
-3.5 0 l

gsave
0.000 setgray
fill
grestore
stroke
grestore
} bind def
60.82 351.696 o
grestore
/DejaVuSans 14.000 selectfont
gsave

22.6481 346.376 translate
0 rotate
0 0 m /one glyphshow
8.90723 0 m /period glyphshow
13.3574 0 m /zero glyphshow
22.2646 0 m /zero glyphshow
grestore
1.500 setlinewidth
0.122 0.467 0.706 setrgbcolor
gsave
473.23 320.216 60.82 31.48 clipbox
60.82 191.588 m
60.82 351.696 l
stroke
grestore
gsave
473.23 320.216 60.82 31.48 clipbox
65.5523 191.588 m
65.5523 338.882833 l
stroke
grestore
gsave
473.23 320.216 60.82 31.48 clipbox
70.2846 191.588 m
70.2846 327.121991 l
stroke
grestore
gsave
473.23 320.216 60.82 31.48 clipbox
75.0169 191.588 m
75.0169 316.432802 l
stroke
grestore
gsave
473.23 320.216 60.82 31.48 clipbox
79.7492 191.588 m
79.7492 306.482601 l
stroke
grestore
gsave
473.23 320.216 60.82 31.48 clipbox
84.4815 191.588 m
84.4815 297.797625 l
stroke
grestore
gsave
473.23 320.216 60.82 31.48 clipbox
89.2138 191.588 m
89.2138 289.257667 l
stroke
grestore
gsave
473.23 320.216 60.82 31.48 clipbox
93.9461 191.588 m
93.9461 281.425504 l
stroke
grestore
gsave
473.23 320.216 60.82 31.48 clipbox
98.6784 191.588 m
98.6784 273.518707 l
stroke
grestore
gsave
473.23 320.216 60.82 31.48 clipbox
103.4107 191.588 m
103.4107 266.360532 l
stroke
grestore
gsave
473.23 320.216 60.82 31.48 clipbox
108.143 191.588 m
108.143 259.4146 l
stroke
grestore
gsave
473.23 320.216 60.82 31.48 clipbox
112.8753 191.588 m
112.8753 253.272889 l
stroke
grestore
gsave
473.23 320.216 60.82 31.48 clipbox
117.6076 191.588 m
117.6076 247.13709 l
stroke
grestore
gsave
473.23 320.216 60.82 31.48 clipbox
122.3399 191.588 m
122.3399 241.515346 l
stroke
grestore
gsave
473.23 320.216 60.82 31.48 clipbox
127.0722 191.588 m
127.0722 236.691124 l
stroke
grestore
gsave
473.23 320.216 60.82 31.48 clipbox
131.8045 191.588 m
131.8045 232.218956 l
stroke
grestore
gsave
473.23 320.216 60.82 31.48 clipbox
136.5368 191.588 m
136.5368 228.282672 l
stroke
grestore
gsave
473.23 320.216 60.82 31.48 clipbox
141.2691 191.588 m
141.2691 225.514513 l
stroke
grestore
gsave
473.23 320.216 60.82 31.48 clipbox
146.0014 191.588 m
146.0014 223.728861 l
stroke
grestore
gsave
473.23 320.216 60.82 31.48 clipbox
150.7337 191.588 m
150.7337 221.905951 l
stroke
grestore
gsave
473.23 320.216 60.82 31.48 clipbox
155.466 191.588 m
155.466 220.267712 l
stroke
grestore
gsave
473.23 320.216 60.82 31.48 clipbox
160.1983 191.588 m
160.1983 218.818312 l
stroke
grestore
gsave
473.23 320.216 60.82 31.48 clipbox
164.9306 191.588 m
164.9306 216.701489 l
stroke
grestore
gsave
473.23 320.216 60.82 31.48 clipbox
169.6629 191.588 m
169.6629 214.735347 l
stroke
grestore
gsave
473.23 320.216 60.82 31.48 clipbox
174.3952 191.588 m
174.3952 213.680814 l
stroke
grestore
gsave
473.23 320.216 60.82 31.48 clipbox
179.1275 191.588 m
179.1275 212.32496 l
stroke
grestore
gsave
473.23 320.216 60.82 31.48 clipbox
183.8598 191.588 m
183.8598 211.150053 l
stroke
grestore
gsave
473.23 320.216 60.82 31.48 clipbox
188.5921 191.588 m
188.5921 209.330052 l
stroke
grestore
gsave
473.23 320.216 60.82 31.48 clipbox
193.3244 191.588 m
193.3244 207.468248 l
stroke
grestore
gsave
473.23 320.216 60.82 31.48 clipbox
198.0567 191.588 m
198.0567 205.735789 l
stroke
grestore
gsave
473.23 320.216 60.82 31.48 clipbox
202.789 191.588 m
202.789 203.951166 l
stroke
grestore
gsave
473.23 320.216 60.82 31.48 clipbox
207.5213 191.588 m
207.5213 203.118003 l
stroke
grestore
gsave
473.23 320.216 60.82 31.48 clipbox
212.2536 191.588 m
212.2536 202.522573 l
stroke
grestore
gsave
473.23 320.216 60.82 31.48 clipbox
216.9859 191.588 m
216.9859 201.960471 l
stroke
grestore
gsave
473.23 320.216 60.82 31.48 clipbox
221.7182 191.588 m
221.7182 201.470894 l
stroke
grestore
gsave
473.23 320.216 60.82 31.48 clipbox
226.4505 191.588 m
226.4505 200.51247 l
stroke
grestore
gsave
473.23 320.216 60.82 31.48 clipbox
231.1828 191.588 m
231.1828 199.3493 l
stroke
grestore
gsave
473.23 320.216 60.82 31.48 clipbox
235.9151 191.588 m
235.9151 198.548977 l
stroke
grestore
gsave
473.23 320.216 60.82 31.48 clipbox
240.6474 191.588 m
240.6474 197.976768 l
stroke
grestore
gsave
473.23 320.216 60.82 31.48 clipbox
245.3797 191.588 m
245.3797 196.998508 l
stroke
grestore
gsave
473.23 320.216 60.82 31.48 clipbox
250.112 191.588 m
250.112 196.569247 l
stroke
grestore
gsave
473.23 320.216 60.82 31.48 clipbox
254.8443 191.588 m
254.8443 196.489537 l
stroke
grestore
gsave
473.23 320.216 60.82 31.48 clipbox
259.5766 191.588 m
259.5766 196.138483 l
stroke
grestore
gsave
473.23 320.216 60.82 31.48 clipbox
264.3089 191.588 m
264.3089 195.966246 l
stroke
grestore
gsave
473.23 320.216 60.82 31.48 clipbox
269.0412 191.588 m
269.0412 195.337107 l
stroke
grestore
gsave
473.23 320.216 60.82 31.48 clipbox
273.7735 191.588 m
273.7735 194.522614 l
stroke
grestore
gsave
473.23 320.216 60.82 31.48 clipbox
278.5058 191.588 m
278.5058 193.19847 l
stroke
grestore
gsave
473.23 320.216 60.82 31.48 clipbox
283.2381 191.588 m
283.2381 192.295236 l
stroke
grestore
gsave
473.23 320.216 60.82 31.48 clipbox
287.9704 191.588 m
287.9704 191.100044 l
stroke
grestore
gsave
473.23 320.216 60.82 31.48 clipbox
292.7027 191.588 m
292.7027 189.857447 l
stroke
grestore
gsave
473.23 320.216 60.82 31.48 clipbox
297.435 191.588 m
297.435 188.871725 l
stroke
grestore
gsave
473.23 320.216 60.82 31.48 clipbox
302.1673 191.588 m
302.1673 188.018202 l
stroke
grestore
gsave
473.23 320.216 60.82 31.48 clipbox
306.8996 191.588 m
306.8996 187.350345 l
stroke
grestore
gsave
473.23 320.216 60.82 31.48 clipbox
311.6319 191.588 m
311.6319 187.017199 l
stroke
grestore
gsave
473.23 320.216 60.82 31.48 clipbox
316.3642 191.588 m
316.3642 186.356293 l
stroke
grestore
gsave
473.23 320.216 60.82 31.48 clipbox
321.0965 191.588 m
321.0965 185.781411 l
stroke
grestore
gsave
473.23 320.216 60.82 31.48 clipbox
325.8288 191.588 m
325.8288 185.405288 l
stroke
grestore
gsave
473.23 320.216 60.82 31.48 clipbox
330.5611 191.588 m
330.5611 185.288675 l
stroke
grestore
gsave
473.23 320.216 60.82 31.48 clipbox
335.2934 191.588 m
335.2934 185.353566 l
stroke
grestore
gsave
473.23 320.216 60.82 31.48 clipbox
340.0257 191.588 m
340.0257 185.461929 l
stroke
grestore
gsave
473.23 320.216 60.82 31.48 clipbox
344.758 191.588 m
344.758 185.918358 l
stroke
grestore
gsave
473.23 320.216 60.82 31.48 clipbox
349.4903 191.588 m
349.4903 186.235504 l
stroke
grestore
gsave
473.23 320.216 60.82 31.48 clipbox
354.2226 191.588 m
354.2226 186.288836 l
stroke
grestore
gsave
473.23 320.216 60.82 31.48 clipbox
358.9549 191.588 m
358.9549 187.026921 l
stroke
grestore
gsave
473.23 320.216 60.82 31.48 clipbox
363.6872 191.588 m
363.6872 187.72165 l
stroke
grestore
gsave
473.23 320.216 60.82 31.48 clipbox
368.4195 191.588 m
368.4195 187.972868 l
stroke
grestore
gsave
473.23 320.216 60.82 31.48 clipbox
373.1518 191.588 m
373.1518 188.014401 l
stroke
grestore
gsave
473.23 320.216 60.82 31.48 clipbox
377.8841 191.588 m
377.8841 188.039725 l
stroke
grestore
gsave
473.23 320.216 60.82 31.48 clipbox
382.6164 191.588 m
382.6164 188.231914 l
stroke
grestore
gsave
473.23 320.216 60.82 31.48 clipbox
387.3487 191.588 m
387.3487 188.752601 l
stroke
grestore
gsave
473.23 320.216 60.82 31.48 clipbox
392.081 191.588 m
392.081 188.960672 l
stroke
grestore
gsave
473.23 320.216 60.82 31.48 clipbox
396.8133 191.588 m
396.8133 189.12201 l
stroke
grestore
gsave
473.23 320.216 60.82 31.48 clipbox
401.5456 191.588 m
401.5456 189.282262 l
stroke
grestore
gsave
473.23 320.216 60.82 31.48 clipbox
406.2779 191.588 m
406.2779 188.433943 l
stroke
grestore
gsave
473.23 320.216 60.82 31.48 clipbox
411.0102 191.588 m
411.0102 187.329355 l
stroke
grestore
gsave
473.23 320.216 60.82 31.48 clipbox
415.7425 191.588 m
415.7425 186.463551 l
stroke
grestore
gsave
473.23 320.216 60.82 31.48 clipbox
420.4748 191.588 m
420.4748 185.444531 l
stroke
grestore
gsave
473.23 320.216 60.82 31.48 clipbox
425.2071 191.588 m
425.2071 184.014193 l
stroke
grestore
gsave
473.23 320.216 60.82 31.48 clipbox
429.9394 191.588 m
429.9394 182.879972 l
stroke
grestore
gsave
473.23 320.216 60.82 31.48 clipbox
434.6717 191.588 m
434.6717 181.520754 l
stroke
grestore
gsave
473.23 320.216 60.82 31.48 clipbox
439.404 191.588 m
439.404 180.331663 l
stroke
grestore
gsave
473.23 320.216 60.82 31.48 clipbox
444.1363 191.588 m
444.1363 179.381931 l
stroke
grestore
gsave
473.23 320.216 60.82 31.48 clipbox
448.8686 191.588 m
448.8686 178.430667 l
stroke
grestore
gsave
473.23 320.216 60.82 31.48 clipbox
453.6009 191.588 m
453.6009 177.157083 l
stroke
grestore
gsave
473.23 320.216 60.82 31.48 clipbox
458.3332 191.588 m
458.3332 176.146388 l
stroke
grestore
gsave
473.23 320.216 60.82 31.48 clipbox
463.0655 191.588 m
463.0655 175.107214 l
stroke
grestore
gsave
473.23 320.216 60.82 31.48 clipbox
467.7978 191.588 m
467.7978 174.337797 l
stroke
grestore
gsave
473.23 320.216 60.82 31.48 clipbox
472.5301 191.588 m
472.5301 174.238181 l
stroke
grestore
gsave
473.23 320.216 60.82 31.48 clipbox
477.2624 191.588 m
477.2624 173.951501 l
stroke
grestore
gsave
473.23 320.216 60.82 31.48 clipbox
481.9947 191.588 m
481.9947 173.824155 l
stroke
grestore
gsave
473.23 320.216 60.82 31.48 clipbox
486.727 191.588 m
486.727 173.701852 l
stroke
grestore
gsave
473.23 320.216 60.82 31.48 clipbox
491.4593 191.588 m
491.4593 173.753393 l
stroke
grestore
gsave
473.23 320.216 60.82 31.48 clipbox
496.1916 191.588 m
496.1916 173.962352 l
stroke
grestore
gsave
473.23 320.216 60.82 31.48 clipbox
500.9239 191.588 m
500.9239 174.037691 l
stroke
grestore
gsave
473.23 320.216 60.82 31.48 clipbox
505.6562 191.588 m
505.6562 174.228114 l
stroke
grestore
gsave
473.23 320.216 60.82 31.48 clipbox
510.3885 191.588 m
510.3885 174.240337 l
stroke
grestore
gsave
473.23 320.216 60.82 31.48 clipbox
515.1208 191.588 m
515.1208 174.439376 l
stroke
grestore
gsave
473.23 320.216 60.82 31.48 clipbox
519.8531 191.588 m
519.8531 174.730995 l
stroke
grestore
gsave
473.23 320.216 60.82 31.48 clipbox
524.5854 191.588 m
524.5854 175.434699 l
stroke
grestore
gsave
473.23 320.216 60.82 31.48 clipbox
529.3177 191.588 m
529.3177 175.350447 l
stroke
grestore
0.800 setlinewidth
0 setlinejoin
2 setlinecap
0.000 setgray
gsave
60.82 31.48 m
60.82 351.696 l
stroke
grestore
gsave
534.05 31.48 m
534.05 351.696 l
stroke
grestore
gsave
60.82 31.48 m
534.05 31.48 l
stroke
grestore
gsave
60.82 351.696 m
534.05 351.696 l
stroke
grestore
/DejaVuSans 16.000 selectfont
gsave

276.255 373.18 translate
0 rotate
0 0 m /t glyphshow
6.27344 0 m /h glyphshow
16.4141 0 m /e glyphshow
26.2578 0 m /t glyphshow
32.5312 0 m /a glyphshow
grestore
/DejaVuSans 16.000 selectfont
gsave

292.341 355.265 translate
0 rotate
0 0 m /zero glyphshow
grestore
gsave
562.535 31.48 m
1035.765 31.48 l
1035.765 351.696 l
562.535 351.696 l
cl
1.000 setgray
fill
grestore
1.000 setlinewidth
1 setlinejoin
0 setlinecap
0.750 setgray
gsave
473.23 320.216 562.535 31.48 clipbox
/o {
gsave
newpath
translate
1.0 setlinewidth
1 setlinejoin

0 setlinecap

562.535 196.025967 m
562.535 187.150033 l
1035.765 187.150033 l
1035.765 196.025967 l
1035.765 196.025967 l
562.535 196.025967 l
cl

gsave
0.750 setgray
fill
grestore
stroke
grestore
} bind def
0 0 o
grestore
0.800 setlinewidth
0.000 setgray
gsave
/o {
gsave
newpath
translate
0.8 setlinewidth
1 setlinejoin

0 setlinecap

0 0 m
0 -3.5 l

gsave
0.000 setgray
fill
grestore
stroke
grestore
} bind def
562.535 31.48 o
grestore
/DejaVuSans 14.000 selectfont
gsave

558.082 13.8394 translate
0 rotate
0 0 m /zero glyphshow
grestore
gsave
/o {
gsave
newpath
translate
0.8 setlinewidth
1 setlinejoin

0 setlinecap

0 0 m
0 -3.5 l

gsave
0.000 setgray
fill
grestore
stroke
grestore
} bind def
657.181 31.48 o
grestore
/DejaVuSans 14.000 selectfont
gsave

648.275 13.8394 translate
0 rotate
0 0 m /two glyphshow
8.90723 0 m /zero glyphshow
grestore
gsave
/o {
gsave
newpath
translate
0.8 setlinewidth
1 setlinejoin

0 setlinecap

0 0 m
0 -3.5 l

gsave
0.000 setgray
fill
grestore
stroke
grestore
} bind def
751.827 31.48 o
grestore
/DejaVuSans 14.000 selectfont
gsave

742.921 13.8394 translate
0 rotate
0 0 m /four glyphshow
8.90723 0 m /zero glyphshow
grestore
gsave
/o {
gsave
newpath
translate
0.8 setlinewidth
1 setlinejoin

0 setlinecap

0 0 m
0 -3.5 l

gsave
0.000 setgray
fill
grestore
stroke
grestore
} bind def
846.473 31.48 o
grestore
/DejaVuSans 14.000 selectfont
gsave

837.567 13.8394 translate
0 rotate
0 0 m /six glyphshow
8.90723 0 m /zero glyphshow
grestore
gsave
/o {
gsave
newpath
translate
0.8 setlinewidth
1 setlinejoin

0 setlinecap

0 0 m
0 -3.5 l

gsave
0.000 setgray
fill
grestore
stroke
grestore
} bind def
941.119 31.48 o
grestore
/DejaVuSans 14.000 selectfont
gsave

932.213 13.8394 translate
0 rotate
0 0 m /eight glyphshow
8.90723 0 m /zero glyphshow
grestore
gsave
/o {
gsave
newpath
translate
0.8 setlinewidth
1 setlinejoin

0 setlinecap

0 0 m
0 -3.5 l

gsave
0.000 setgray
fill
grestore
stroke
grestore
} bind def
1035.76 31.48 o
grestore
/DejaVuSans 14.000 selectfont
gsave

1022.41 13.8394 translate
0 rotate
0 0 m /one glyphshow
8.90723 0 m /zero glyphshow
17.8145 0 m /zero glyphshow
grestore
gsave
/o {
gsave
newpath
translate
0.8 setlinewidth
1 setlinejoin

0 setlinecap

-0 0 m
-3.5 0 l

gsave
0.000 setgray
fill
grestore
stroke
grestore
} bind def
562.535 31.48 o
grestore
gsave
/o {
gsave
newpath
translate
0.8 setlinewidth
1 setlinejoin

0 setlinecap

-0 0 m
-3.5 0 l

gsave
0.000 setgray
fill
grestore
stroke
grestore
} bind def
562.535 71.507 o
grestore
gsave
/o {
gsave
newpath
translate
0.8 setlinewidth
1 setlinejoin

0 setlinecap

-0 0 m
-3.5 0 l

gsave
0.000 setgray
fill
grestore
stroke
grestore
} bind def
562.535 111.534 o
grestore
gsave
/o {
gsave
newpath
translate
0.8 setlinewidth
1 setlinejoin

0 setlinecap

-0 0 m
-3.5 0 l

gsave
0.000 setgray
fill
grestore
stroke
grestore
} bind def
562.535 151.561 o
grestore
gsave
/o {
gsave
newpath
translate
0.8 setlinewidth
1 setlinejoin

0 setlinecap

-0 0 m
-3.5 0 l

gsave
0.000 setgray
fill
grestore
stroke
grestore
} bind def
562.535 191.588 o
grestore
gsave
/o {
gsave
newpath
translate
0.8 setlinewidth
1 setlinejoin

0 setlinecap

-0 0 m
-3.5 0 l

gsave
0.000 setgray
fill
grestore
stroke
grestore
} bind def
562.535 231.615 o
grestore
gsave
/o {
gsave
newpath
translate
0.8 setlinewidth
1 setlinejoin

0 setlinecap

-0 0 m
-3.5 0 l

gsave
0.000 setgray
fill
grestore
stroke
grestore
} bind def
562.535 271.642 o
grestore
gsave
/o {
gsave
newpath
translate
0.8 setlinewidth
1 setlinejoin

0 setlinecap

-0 0 m
-3.5 0 l

gsave
0.000 setgray
fill
grestore
stroke
grestore
} bind def
562.535 311.669 o
grestore
gsave
/o {
gsave
newpath
translate
0.8 setlinewidth
1 setlinejoin

0 setlinecap

-0 0 m
-3.5 0 l

gsave
0.000 setgray
fill
grestore
stroke
grestore
} bind def
562.535 351.696 o
grestore
1.500 setlinewidth
0.122 0.467 0.706 setrgbcolor
gsave
473.23 320.216 562.535 31.48 clipbox
562.535 191.588 m
562.535 351.696 l
stroke
grestore
gsave
473.23 320.216 562.535 31.48 clipbox
567.2673 191.588 m
567.2673 280.442787 l
stroke
grestore
gsave
473.23 320.216 562.535 31.48 clipbox
571.9996 191.588 m
571.9996 240.936022 l
stroke
grestore
gsave
473.23 320.216 562.535 31.48 clipbox
576.7319 191.588 m
576.7319 220.971446 l
stroke
grestore
gsave
473.23 320.216 562.535 31.48 clipbox
581.4642 191.588 m
581.4642 210.137305 l
stroke
grestore
gsave
473.23 320.216 562.535 31.48 clipbox
586.1965 191.588 m
586.1965 206.493773 l
stroke
grestore
gsave
473.23 320.216 562.535 31.48 clipbox
590.9288 191.588 m
590.9288 206.011491 l
stroke
grestore
gsave
473.23 320.216 562.535 31.48 clipbox
595.6611 191.588 m
595.6611 202.407069 l
stroke
grestore
gsave
473.23 320.216 562.535 31.48 clipbox
600.3934 191.588 m
600.3934 199.155759 l
stroke
grestore
gsave
473.23 320.216 562.535 31.48 clipbox
605.1257 191.588 m
605.1257 197.276914 l
stroke
grestore
gsave
473.23 320.216 562.535 31.48 clipbox
609.858 191.588 m
609.858 193.748365 l
stroke
grestore
gsave
473.23 320.216 562.535 31.48 clipbox
614.5903 191.588 m
614.5903 191.860667 l
stroke
grestore
gsave
473.23 320.216 562.535 31.48 clipbox
619.3226 191.588 m
619.3226 189.951208 l
stroke
grestore
gsave
473.23 320.216 562.535 31.48 clipbox
624.0549 191.588 m
624.0549 188.652499 l
stroke
grestore
gsave
473.23 320.216 562.535 31.48 clipbox
628.7872 191.588 m
628.7872 186.200563 l
stroke
grestore
gsave
473.23 320.216 562.535 31.48 clipbox
633.5195 191.588 m
633.5195 184.980765 l
stroke
grestore
gsave
473.23 320.216 562.535 31.48 clipbox
638.2518 191.588 m
638.2518 183.996622 l
stroke
grestore
gsave
473.23 320.216 562.535 31.48 clipbox
642.9841 191.588 m
642.9841 186.10256 l
stroke
grestore
gsave
473.23 320.216 562.535 31.48 clipbox
647.7164 191.588 m
647.7164 187.253983 l
stroke
grestore
gsave
473.23 320.216 562.535 31.48 clipbox
652.4487 191.588 m
652.4487 187.960885 l
stroke
grestore
gsave
473.23 320.216 562.535 31.48 clipbox
657.181 191.588 m
657.181 186.982628 l
stroke
grestore
gsave
473.23 320.216 562.535 31.48 clipbox
661.9133 191.588 m
661.9133 186.167473 l
stroke
grestore
gsave
473.23 320.216 562.535 31.48 clipbox
666.6456 191.588 m
666.6456 186.070939 l
stroke
grestore
gsave
473.23 320.216 562.535 31.48 clipbox
671.3779 191.588 m
671.3779 189.979382 l
stroke
grestore
gsave
473.23 320.216 562.535 31.48 clipbox
676.1102 191.588 m
676.1102 192.412443 l
stroke
grestore
gsave
473.23 320.216 562.535 31.48 clipbox
680.8425 191.588 m
680.8425 193.823741 l
stroke
grestore
gsave
473.23 320.216 562.535 31.48 clipbox
685.5748 191.588 m
685.5748 195.194176 l
stroke
grestore
gsave
473.23 320.216 562.535 31.48 clipbox
690.3071 191.588 m
690.3071 194.902476 l
stroke
grestore
gsave
473.23 320.216 562.535 31.48 clipbox
695.0394 191.588 m
695.0394 193.228362 l
stroke
grestore
gsave
473.23 320.216 562.535 31.48 clipbox
699.7717 191.588 m
699.7717 194.563143 l
stroke
grestore
gsave
473.23 320.216 562.535 31.48 clipbox
704.504 191.588 m
704.504 194.43448 l
stroke
grestore
gsave
473.23 320.216 562.535 31.48 clipbox
709.2363 191.588 m
709.2363 193.366415 l
stroke
grestore
gsave
473.23 320.216 562.535 31.48 clipbox
713.9686 191.588 m
713.9686 193.408773 l
stroke
grestore
gsave
473.23 320.216 562.535 31.48 clipbox
718.7009 191.588 m
718.7009 193.499666 l
stroke
grestore
gsave
473.23 320.216 562.535 31.48 clipbox
723.4332 191.588 m
723.4332 192.876624 l
stroke
grestore
gsave
473.23 320.216 562.535 31.48 clipbox
728.1655 191.588 m
728.1655 191.026258 l
stroke
grestore
gsave
473.23 320.216 562.535 31.48 clipbox
732.8978 191.588 m
732.8978 188.58582 l
stroke
grestore
gsave
473.23 320.216 562.535 31.48 clipbox
737.6301 191.588 m
737.6301 186.54093 l
stroke
grestore
gsave
473.23 320.216 562.535 31.48 clipbox
742.3624 191.588 m
742.3624 186.543863 l
stroke
grestore
gsave
473.23 320.216 562.535 31.48 clipbox
747.0947 191.588 m
747.0947 187.548468 l
stroke
grestore
gsave
473.23 320.216 562.535 31.48 clipbox
751.827 191.588 m
751.827 187.287012 l
stroke
grestore
gsave
473.23 320.216 562.535 31.48 clipbox
756.5593 191.588 m
756.5593 188.850909 l
stroke
grestore
gsave
473.23 320.216 562.535 31.48 clipbox
761.2916 191.588 m
761.2916 189.191106 l
stroke
grestore
gsave
473.23 320.216 562.535 31.48 clipbox
766.0239 191.588 m
766.0239 189.490452 l
stroke
grestore
gsave
473.23 320.216 562.535 31.48 clipbox
770.7562 191.588 m
770.7562 191.240138 l
stroke
grestore
gsave
473.23 320.216 562.535 31.48 clipbox
775.4885 191.588 m
775.4885 190.513719 l
stroke
grestore
gsave
473.23 320.216 562.535 31.48 clipbox
780.2208 191.588 m
780.2208 189.514334 l
stroke
grestore
gsave
473.23 320.216 562.535 31.48 clipbox
784.9531 191.588 m
784.9531 190.030677 l
stroke
grestore
gsave
473.23 320.216 562.535 31.48 clipbox
789.6854 191.588 m
789.6854 191.719365 l
stroke
grestore
gsave
473.23 320.216 562.535 31.48 clipbox
794.4177 191.588 m
794.4177 189.546684 l
stroke
grestore
gsave
473.23 320.216 562.535 31.48 clipbox
799.15 191.588 m
799.15 188.721891 l
stroke
grestore
gsave
473.23 320.216 562.535 31.48 clipbox
803.8823 191.588 m
803.8823 191.20882 l
stroke
grestore
gsave
473.23 320.216 562.535 31.48 clipbox
808.6146 191.588 m
808.6146 195.960321 l
stroke
grestore
gsave
473.23 320.216 562.535 31.48 clipbox
813.3469 191.588 m
813.3469 197.30008 l
stroke
grestore
gsave
473.23 320.216 562.535 31.48 clipbox
818.0792 191.588 m
818.0792 198.005073 l
stroke
grestore
gsave
473.23 320.216 562.535 31.48 clipbox
822.8115 191.588 m
822.8115 196.826831 l
stroke
grestore
gsave
473.23 320.216 562.535 31.48 clipbox
827.5438 191.588 m
827.5438 192.094826 l
stroke
grestore
gsave
473.23 320.216 562.535 31.48 clipbox
832.2761 191.588 m
832.2761 191.649127 l
stroke
grestore
gsave
473.23 320.216 562.535 31.48 clipbox
837.0084 191.588 m
837.0084 192.872185 l
stroke
grestore
gsave
473.23 320.216 562.535 31.48 clipbox
841.7407 191.588 m
841.7407 194.730327 l
stroke
grestore
gsave
473.23 320.216 562.535 31.48 clipbox
846.473 191.588 m
846.473 195.960591 l
stroke
grestore
gsave
473.23 320.216 562.535 31.48 clipbox
851.2053 191.588 m
851.2053 196.382829 l
stroke
grestore
gsave
473.23 320.216 562.535 31.48 clipbox
855.9376 191.588 m
855.9376 194.676138 l
stroke
grestore
gsave
473.23 320.216 562.535 31.48 clipbox
860.6699 191.588 m
860.6699 192.267293 l
stroke
grestore
gsave
473.23 320.216 562.535 31.48 clipbox
865.4022 191.588 m
865.4022 190.564798 l
stroke
grestore
gsave
473.23 320.216 562.535 31.48 clipbox
870.1345 191.588 m
870.1345 188.62134 l
stroke
grestore
gsave
473.23 320.216 562.535 31.48 clipbox
874.8668 191.588 m
874.8668 185.91438 l
stroke
grestore
gsave
473.23 320.216 562.535 31.48 clipbox
879.5991 191.588 m
879.5991 186.658337 l
stroke
grestore
gsave
473.23 320.216 562.535 31.48 clipbox
884.3314 191.588 m
884.3314 186.670195 l
stroke
grestore
gsave
473.23 320.216 562.535 31.48 clipbox
889.0637 191.588 m
889.0637 185.87474 l
stroke
grestore
gsave
473.23 320.216 562.535 31.48 clipbox
893.796 191.588 m
893.796 185.083104 l
stroke
grestore
gsave
473.23 320.216 562.535 31.48 clipbox
898.5283 191.588 m
898.5283 186.922795 l
stroke
grestore
gsave
473.23 320.216 562.535 31.48 clipbox
903.2606 191.588 m
903.2606 189.580937 l
stroke
grestore
gsave
473.23 320.216 562.535 31.48 clipbox
907.9929 191.588 m
907.9929 190.111055 l
stroke
grestore
gsave
473.23 320.216 562.535 31.48 clipbox
912.7252 191.588 m
912.7252 189.102239 l
stroke
grestore
gsave
473.23 320.216 562.535 31.48 clipbox
917.4575 191.588 m
917.4575 187.559376 l
stroke
grestore
gsave
473.23 320.216 562.535 31.48 clipbox
922.1898 191.588 m
922.1898 188.871456 l
stroke
grestore
gsave
473.23 320.216 562.535 31.48 clipbox
926.9221 191.588 m
926.9221 185.759554 l
stroke
grestore
gsave
473.23 320.216 562.535 31.48 clipbox
931.6544 191.588 m
931.6544 185.903261 l
stroke
grestore
gsave
473.23 320.216 562.535 31.48 clipbox
936.3867 191.588 m
936.3867 188.321504 l
stroke
grestore
gsave
473.23 320.216 562.535 31.48 clipbox
941.119 191.588 m
941.119 188.42174 l
stroke
grestore
gsave
473.23 320.216 562.535 31.48 clipbox
945.8513 191.588 m
945.8513 188.654246 l
stroke
grestore
gsave
473.23 320.216 562.535 31.48 clipbox
950.5836 191.588 m
950.5836 192.79792 l
stroke
grestore
gsave
473.23 320.216 562.535 31.48 clipbox
955.3159 191.588 m
955.3159 193.914766 l
stroke
grestore
gsave
473.23 320.216 562.535 31.48 clipbox
960.0482 191.588 m
960.0482 195.188664 l
stroke
grestore
gsave
473.23 320.216 562.535 31.48 clipbox
964.7805 191.588 m
964.7805 195.917438 l
stroke
grestore
gsave
473.23 320.216 562.535 31.48 clipbox
969.5128 191.588 m
969.5128 192.710982 l
stroke
grestore
gsave
473.23 320.216 562.535 31.48 clipbox
974.2451 191.588 m
974.2451 193.395616 l
stroke
grestore
gsave
473.23 320.216 562.535 31.48 clipbox
978.9774 191.588 m
978.9774 193.731042 l
stroke
grestore
gsave
473.23 320.216 562.535 31.48 clipbox
983.7097 191.588 m
983.7097 196.101709 l
stroke
grestore
gsave
473.23 320.216 562.535 31.48 clipbox
988.442 191.588 m
988.442 197.450035 l
stroke
grestore
gsave
473.23 320.216 562.535 31.48 clipbox
993.1743 191.588 m
993.1743 198.519876 l
stroke
grestore
gsave
473.23 320.216 562.535 31.48 clipbox
997.9066 191.588 m
997.9066 200.05703 l
stroke
grestore
gsave
473.23 320.216 562.535 31.48 clipbox
1002.6389 191.588 m
1002.6389 196.550648 l
stroke
grestore
gsave
473.23 320.216 562.535 31.48 clipbox
1007.3712 191.588 m
1007.3712 191.195808 l
stroke
grestore
gsave
473.23 320.216 562.535 31.48 clipbox
1012.1035 191.588 m
1012.1035 188.803086 l
stroke
grestore
gsave
473.23 320.216 562.535 31.48 clipbox
1016.8358 191.588 m
1016.8358 190.397513 l
stroke
grestore
gsave
473.23 320.216 562.535 31.48 clipbox
1021.5681 191.588 m
1021.5681 187.474313 l
stroke
grestore
gsave
473.23 320.216 562.535 31.48 clipbox
1026.3004 191.588 m
1026.3004 184.9562 l
stroke
grestore
gsave
473.23 320.216 562.535 31.48 clipbox
1031.0327 191.588 m
1031.0327 184.056182 l
stroke
grestore
0.800 setlinewidth
0 setlinejoin
2 setlinecap
0.000 setgray
gsave
562.535 31.48 m
562.535 351.696 l
stroke
grestore
gsave
1035.765 31.48 m
1035.765 351.696 l
stroke
grestore
gsave
562.535 31.48 m
1035.765 31.48 l
stroke
grestore
gsave
562.535 351.696 m
1035.765 351.696 l
stroke
grestore
/DejaVuSans 16.000 selectfont
gsave

770.572 373.633 translate
0 rotate
0 0 m /l glyphshow
4.44531 0 m /o glyphshow
14.2344 0 m /g glyphshow
24.3906 0 m /underscore glyphshow
32.3906 0 m /p glyphshow
42.5469 0 m /h glyphshow
52.6875 0 m /i glyphshow
grestore
/DejaVuSans 16.000 selectfont
gsave

794.056 355.265 translate
0 rotate
0 0 m /zero glyphshow
grestore

end
showpage
