%!PS-Adobe-3.0 EPSF-3.0
%%Title: mcse.eps
%%Creator: Matplotlib v3.6.2, https://matplotlib.org/
%%CreationDate: Mon Feb 13 15:37:40 2023
%%Orientation: portrait
%%BoundingBox: -223 197 836 595
%%HiResBoundingBox: -223.920000 197.280000 835.920000 594.720000
%%EndComments
%%BeginProlog
/mpldict 11 dict def
mpldict begin
/_d { bind def } bind def
/m { moveto } _d
/l { lineto } _d
/r { rlineto } _d
/c { curveto } _d
/cl { closepath } _d
/ce { closepath eofill } _d
/box {
      m
      1 index 0 r
      0 exch r
      neg 0 r
      cl
    } _d
/clipbox {
      box
      clip
      newpath
    } _d
/sc { setcachedevice } _d
%!PS-Adobe-3.0 Resource-Font
%%Creator: Converted from TrueType to Type 3 by Matplotlib.
10 dict begin
/FontName /DejaVuSans def
/PaintType 0 def
/FontMatrix [0.00048828125 0 0 0.00048828125 0 0] def
/FontBBox [-2090 -948 3673 2524] def
/FontType 3 def
/Encoding [/space /period /zero /one /two /three /four /five /six /seven /eight /C /E /M /Q /S /underscore /a /e /f /g /h /i /l /n /o /p /q /r /s /t /u] def
/CharStrings 33 dict dup begin
/.notdef 0 def
/space{651 0 0 0 0 0 sc
ce} _d
/period{651 0 219 0 430 254 sc
219 254 m
430 254 l
430 0 l
219 0 l
219 254 l

ce} _d
/zero{1303 0 135 -29 1167 1520 sc
651 1360 m
547 1360 469 1309 416 1206 c
364 1104 338 950 338 745 c
338 540 364 387 416 284 c
469 182 547 131 651 131 c
756 131 834 182 886 284 c
939 387 965 540 965 745 c
965 950 939 1104 886 1206 c
834 1309 756 1360 651 1360 c

651 1520 m
818 1520 946 1454 1034 1321 c
1123 1189 1167 997 1167 745 c
1167 494 1123 302 1034 169 c
946 37 818 -29 651 -29 c
484 -29 356 37 267 169 c
179 302 135 494 135 745 c
135 997 179 1189 267 1321 c
356 1454 484 1520 651 1520 c

ce} _d
/one{1303 0 225 0 1114 1493 sc
254 170 m
584 170 l
584 1309 l
225 1237 l
225 1421 l
582 1493 l
784 1493 l
784 170 l
1114 170 l
1114 0 l
254 0 l
254 170 l

ce} _d
/two{1303 0 150 0 1098 1520 sc
393 170 m
1098 170 l
1098 0 l
150 0 l
150 170 l
227 249 331 356 463 489 c
596 623 679 709 713 748 c
778 821 823 882 848 932 c
874 983 887 1032 887 1081 c
887 1160 859 1225 803 1275 c
748 1325 675 1350 586 1350 c
523 1350 456 1339 385 1317 c
315 1295 240 1262 160 1217 c
160 1421 l
241 1454 317 1478 388 1495 c
459 1512 523 1520 582 1520 c
737 1520 860 1481 952 1404 c
1044 1327 1090 1223 1090 1094 c
1090 1033 1078 974 1055 919 c
1032 864 991 800 930 725 c
913 706 860 650 771 557 c
682 465 556 336 393 170 c

ce} _d
/three{1303 0 156 -29 1139 1520 sc
831 805 m
928 784 1003 741 1057 676 c
1112 611 1139 530 1139 434 c
1139 287 1088 173 987 92 c
886 11 742 -29 555 -29 c
492 -29 428 -23 361 -10 c
295 2 227 20 156 45 c
156 240 l
212 207 273 183 340 166 c
407 149 476 141 549 141 c
676 141 772 166 838 216 c
905 266 938 339 938 434 c
938 522 907 591 845 640 c
784 690 698 715 588 715 c
414 715 l
414 881 l
596 881 l
695 881 771 901 824 940 c
877 980 903 1037 903 1112 c
903 1189 876 1247 821 1288 c
767 1329 689 1350 588 1350 c
533 1350 473 1344 410 1332 c
347 1320 277 1301 201 1276 c
201 1456 l
278 1477 349 1493 416 1504 c
483 1515 547 1520 606 1520 c
759 1520 881 1485 970 1415 c
1059 1346 1104 1252 1104 1133 c
1104 1050 1080 980 1033 923 c
986 866 918 827 831 805 c

ce} _d
/four{1303 0 100 0 1188 1493 sc
774 1317 m
264 520 l
774 520 l
774 1317 l

721 1493 m
975 1493 l
975 520 l
1188 520 l
1188 352 l
975 352 l
975 0 l
774 0 l
774 352 l
100 352 l
100 547 l
721 1493 l

ce} _d
/five{1303 0 158 -29 1124 1493 sc
221 1493 m
1014 1493 l
1014 1323 l
406 1323 l
406 957 l
435 967 465 974 494 979 c
523 984 553 987 582 987 c
749 987 881 941 978 850 c
1075 759 1124 635 1124 479 c
1124 318 1074 193 974 104 c
874 15 733 -29 551 -29 c
488 -29 424 -24 359 -13 c
294 -2 227 14 158 35 c
158 238 l
218 205 280 181 344 165 c
408 149 476 141 547 141 c
662 141 754 171 821 232 c
888 293 922 375 922 479 c
922 583 888 665 821 726 c
754 787 662 817 547 817 c
493 817 439 811 385 799 c
332 787 277 768 221 743 c
221 1493 l

ce} _d
/six{1303 0 143 -29 1174 1520 sc
676 827 m
585 827 513 796 460 734 c
407 672 381 587 381 479 c
381 372 407 287 460 224 c
513 162 585 131 676 131 c
767 131 838 162 891 224 c
944 287 971 372 971 479 c
971 587 944 672 891 734 c
838 796 767 827 676 827 c

1077 1460 m
1077 1276 l
1026 1300 975 1318 923 1331 c
872 1344 821 1350 770 1350 c
637 1350 535 1305 464 1215 c
394 1125 354 989 344 807 c
383 865 433 909 492 940 c
551 971 617 987 688 987 c
838 987 956 941 1043 850 c
1130 759 1174 636 1174 479 c
1174 326 1129 203 1038 110 c
947 17 827 -29 676 -29 c
503 -29 371 37 280 169 c
189 302 143 494 143 745 c
143 981 199 1169 311 1309 c
423 1450 573 1520 762 1520 c
813 1520 864 1515 915 1505 c
967 1495 1021 1480 1077 1460 c

ce} _d
/seven{1303 0 168 0 1128 1493 sc
168 1493 m
1128 1493 l
1128 1407 l
586 0 l
375 0 l
885 1323 l
168 1323 l
168 1493 l

ce} _d
/eight{1303 0 139 -29 1163 1520 sc
651 709 m
555 709 479 683 424 632 c
369 581 342 510 342 420 c
342 330 369 259 424 208 c
479 157 555 131 651 131 c
747 131 823 157 878 208 c
933 260 961 331 961 420 c
961 510 933 581 878 632 c
823 683 748 709 651 709 c

449 795 m
362 816 295 857 246 916 c
198 975 174 1048 174 1133 c
174 1252 216 1347 301 1416 c
386 1485 503 1520 651 1520 c
800 1520 916 1485 1001 1416 c
1086 1347 1128 1252 1128 1133 c
1128 1048 1104 975 1055 916 c
1007 857 940 816 854 795 c
951 772 1027 728 1081 662 c
1136 596 1163 515 1163 420 c
1163 275 1119 164 1030 87 c
942 10 816 -29 651 -29 c
486 -29 360 10 271 87 c
183 164 139 275 139 420 c
139 515 166 596 221 662 c
276 728 352 772 449 795 c

375 1114 m
375 1037 399 976 447 933 c
496 890 564 868 651 868 c
738 868 805 890 854 933 c
903 976 928 1037 928 1114 c
928 1191 903 1252 854 1295 c
805 1338 738 1360 651 1360 c
564 1360 496 1338 447 1295 c
399 1252 375 1191 375 1114 c

ce} _d
/C{1430 0 115 -29 1319 1520 sc
1319 1378 m
1319 1165 l
1251 1228 1178 1276 1101 1307 c
1024 1338 943 1354 856 1354 c
685 1354 555 1302 464 1197 c
373 1093 328 942 328 745 c
328 548 373 398 464 293 c
555 189 685 137 856 137 c
943 137 1024 153 1101 184 c
1178 215 1251 263 1319 326 c
1319 115 l
1248 67 1173 31 1094 7 c
1015 -17 932 -29 844 -29 c
618 -29 440 40 310 178 c
180 317 115 506 115 745 c
115 985 180 1174 310 1312 c
440 1451 618 1520 844 1520 c
933 1520 1017 1508 1096 1484 c
1175 1461 1250 1425 1319 1378 c

ce} _d
/E{1294 0 201 0 1163 1493 sc
201 1493 m
1145 1493 l
1145 1323 l
403 1323 l
403 881 l
1114 881 l
1114 711 l
403 711 l
403 170 l
1163 170 l
1163 0 l
201 0 l
201 1493 l

ce} _d
/M{1767 0 201 0 1567 1493 sc
201 1493 m
502 1493 l
883 477 l
1266 1493 l
1567 1493 l
1567 0 l
1370 0 l
1370 1311 l
985 287 l
782 287 l
397 1311 l
397 0 l
201 0 l
201 1493 l

ce} _d
/Q{1612 0 115 -264 1497 1520 sc
807 1356 m
660 1356 544 1301 457 1192 c
371 1083 328 934 328 745 c
328 557 371 408 457 299 c
544 190 660 135 807 135 c
954 135 1070 190 1155 299 c
1241 408 1284 557 1284 745 c
1284 934 1241 1083 1155 1192 c
1070 1301 954 1356 807 1356 c

1090 27 m
1356 -264 l
1112 -264 l
891 -25 l
869 -26 852 -27 840 -28 c
829 -29 818 -29 807 -29 c
597 -29 429 41 303 181 c
178 322 115 510 115 745 c
115 981 178 1169 303 1309 c
429 1450 597 1520 807 1520 c
1016 1520 1184 1450 1309 1309 c
1434 1169 1497 981 1497 745 c
1497 572 1462 423 1392 300 c
1323 177 1222 86 1090 27 c

ce} _d
/S{1300 0 135 -29 1186 1520 sc
1096 1444 m
1096 1247 l
1019 1284 947 1311 879 1329 c
811 1347 745 1356 682 1356 c
572 1356 487 1335 427 1292 c
368 1249 338 1189 338 1110 c
338 1044 358 994 397 960 c
437 927 512 900 623 879 c
745 854 l
896 825 1007 775 1078 702 c
1150 630 1186 533 1186 412 c
1186 267 1137 158 1040 83 c
943 8 801 -29 614 -29 c
543 -29 468 -21 388 -5 c
309 11 226 35 141 66 c
141 274 l
223 228 303 193 382 170 c
461 147 538 135 614 135 c
729 135 818 158 881 203 c
944 248 975 313 975 397 c
975 470 952 528 907 569 c
862 610 789 641 686 662 c
563 686 l
412 716 303 763 236 827 c
169 891 135 980 135 1094 c
135 1226 181 1330 274 1406 c
367 1482 496 1520 659 1520 c
729 1520 800 1514 873 1501 c
946 1488 1020 1469 1096 1444 c

ce} _d
/underscore{1024 0 -20 -483 1044 -340 sc
1044 -340 m
1044 -483 l
-20 -483 l
-20 -340 l
1044 -340 l

ce} _d
/a{1255 0 123 -29 1069 1147 sc
702 563 m
553 563 450 546 393 512 c
336 478 307 420 307 338 c
307 273 328 221 371 182 c
414 144 473 125 547 125 c
649 125 731 161 792 233 c
854 306 885 402 885 522 c
885 563 l
702 563 l

1069 639 m
1069 0 l
885 0 l
885 170 l
843 102 791 52 728 19 c
665 -13 589 -29 498 -29 c
383 -29 292 3 224 67 c
157 132 123 218 123 326 c
123 452 165 547 249 611 c
334 675 460 707 627 707 c
885 707 l
885 725 l
885 810 857 875 801 921 c
746 968 668 991 567 991 c
503 991 441 983 380 968 c
319 953 261 930 205 899 c
205 1069 l
272 1095 338 1114 401 1127 c
464 1140 526 1147 586 1147 c
748 1147 869 1105 949 1021 c
1029 937 1069 810 1069 639 c

ce} _d
/e{1260 0 113 -29 1151 1147 sc
1151 606 m
1151 516 l
305 516 l
313 389 351 293 419 226 c
488 160 583 127 705 127 c
776 127 844 136 910 153 c
977 170 1043 196 1108 231 c
1108 57 l
1042 29 974 8 905 -7 c
836 -22 765 -29 694 -29 c
515 -29 374 23 269 127 c
165 231 113 372 113 549 c
113 732 162 878 261 985 c
360 1093 494 1147 662 1147 c
813 1147 932 1098 1019 1001 c
1107 904 1151 773 1151 606 c

967 660 m
966 761 937 841 882 901 c
827 961 755 991 664 991 c
561 991 479 962 417 904 c
356 846 320 764 311 659 c
967 660 l

ce} _d
/f{721 0 47 0 760 1556 sc
760 1556 m
760 1403 l
584 1403 l
518 1403 472 1390 446 1363 c
421 1336 408 1288 408 1219 c
408 1120 l
711 1120 l
711 977 l
408 977 l
408 0 l
223 0 l
223 977 l
47 977 l
47 1120 l
223 1120 l
223 1198 l
223 1323 252 1413 310 1470 c
368 1527 460 1556 586 1556 c
760 1556 l

ce} _d
/g{1300 0 113 -426 1114 1147 sc
930 573 m
930 706 902 810 847 883 c
792 956 715 993 616 993 c
517 993 440 956 385 883 c
330 810 303 706 303 573 c
303 440 330 337 385 264 c
440 191 517 154 616 154 c
715 154 792 191 847 264 c
902 337 930 440 930 573 c

1114 139 m
1114 -52 1072 -193 987 -286 c
902 -379 773 -426 598 -426 c
533 -426 472 -421 415 -411 c
358 -402 302 -387 248 -367 c
248 -188 l
302 -217 355 -239 408 -253 c
461 -267 514 -274 569 -274 c
690 -274 780 -242 840 -179 c
900 -116 930 -21 930 106 c
930 197 l
892 131 843 82 784 49 c
725 16 654 0 571 0 c
434 0 323 52 239 157 c
155 262 113 400 113 573 c
113 746 155 885 239 990 c
323 1095 434 1147 571 1147 c
654 1147 725 1131 784 1098 c
843 1065 892 1016 930 950 c
930 1120 l
1114 1120 l
1114 139 l

ce} _d
/h{1298 0 186 0 1124 1556 sc
1124 676 m
1124 0 l
940 0 l
940 670 l
940 776 919 855 878 908 c
837 961 775 987 692 987 c
593 987 514 955 457 892 c
400 829 371 742 371 633 c
371 0 l
186 0 l
186 1556 l
371 1556 l
371 946 l
415 1013 467 1064 526 1097 c
586 1130 655 1147 733 1147 c
862 1147 959 1107 1025 1027 c
1091 948 1124 831 1124 676 c

ce} _d
/i{569 0 193 0 377 1556 sc
193 1120 m
377 1120 l
377 0 l
193 0 l
193 1120 l

193 1556 m
377 1556 l
377 1323 l
193 1323 l
193 1556 l

ce} _d
/l{569 0 193 0 377 1556 sc
193 1556 m
377 1556 l
377 0 l
193 0 l
193 1556 l

ce} _d
/n{1298 0 186 0 1124 1147 sc
1124 676 m
1124 0 l
940 0 l
940 670 l
940 776 919 855 878 908 c
837 961 775 987 692 987 c
593 987 514 955 457 892 c
400 829 371 742 371 633 c
371 0 l
186 0 l
186 1120 l
371 1120 l
371 946 l
415 1013 467 1064 526 1097 c
586 1130 655 1147 733 1147 c
862 1147 959 1107 1025 1027 c
1091 948 1124 831 1124 676 c

ce} _d
/o{1253 0 113 -29 1141 1147 sc
627 991 m
528 991 450 952 393 875 c
336 798 307 693 307 559 c
307 425 335 319 392 242 c
449 165 528 127 627 127 c
725 127 803 166 860 243 c
917 320 946 426 946 559 c
946 692 917 797 860 874 c
803 952 725 991 627 991 c

627 1147 m
787 1147 913 1095 1004 991 c
1095 887 1141 743 1141 559 c
1141 376 1095 232 1004 127 c
913 23 787 -29 627 -29 c
466 -29 340 23 249 127 c
158 232 113 376 113 559 c
113 743 158 887 249 991 c
340 1095 466 1147 627 1147 c

ce} _d
/p{1300 0 186 -426 1188 1147 sc
371 168 m
371 -426 l
186 -426 l
186 1120 l
371 1120 l
371 950 l
410 1017 458 1066 517 1098 c
576 1131 647 1147 729 1147 c
865 1147 975 1093 1060 985 c
1145 877 1188 735 1188 559 c
1188 383 1145 241 1060 133 c
975 25 865 -29 729 -29 c
647 -29 576 -13 517 19 c
458 52 410 101 371 168 c

997 559 m
997 694 969 800 913 877 c
858 954 781 993 684 993 c
587 993 510 954 454 877 c
399 800 371 694 371 559 c
371 424 399 317 454 240 c
510 163 587 125 684 125 c
781 125 858 163 913 240 c
969 317 997 424 997 559 c

ce} _d
/q{1300 0 113 -426 1114 1147 sc
303 559 m
303 424 331 317 386 240 c
442 163 519 125 616 125 c
713 125 790 163 846 240 c
902 317 930 424 930 559 c
930 694 902 800 846 877 c
790 954 713 993 616 993 c
519 993 442 954 386 877 c
331 800 303 694 303 559 c

930 168 m
891 101 842 52 783 19 c
724 -13 654 -29 571 -29 c
436 -29 325 25 240 133 c
155 241 113 383 113 559 c
113 735 155 877 240 985 c
325 1093 436 1147 571 1147 c
654 1147 724 1131 783 1098 c
842 1066 891 1017 930 950 c
930 1120 l
1114 1120 l
1114 -426 l
930 -426 l
930 168 l

ce} _d
/r{842 0 186 0 842 1147 sc
842 948 m
821 960 799 969 774 974 c
750 980 723 983 694 983 c
590 983 510 949 454 881 c
399 814 371 717 371 590 c
371 0 l
186 0 l
186 1120 l
371 1120 l
371 946 l
410 1014 460 1064 522 1097 c
584 1130 659 1147 748 1147 c
761 1147 775 1146 790 1144 c
805 1143 822 1140 841 1137 c
842 948 l

ce} _d
/s{1067 0 111 -29 967 1147 sc
907 1087 m
907 913 l
855 940 801 960 745 973 c
689 986 631 993 571 993 c
480 993 411 979 365 951 c
320 923 297 881 297 825 c
297 782 313 749 346 724 c
379 700 444 677 543 655 c
606 641 l
737 613 829 573 884 522 c
939 471 967 400 967 309 c
967 205 926 123 843 62 c
761 1 648 -29 504 -29 c
444 -29 381 -23 316 -11 c
251 0 183 18 111 41 c
111 231 l
179 196 246 169 312 151 c
378 134 443 125 508 125 c
595 125 661 140 708 169 c
755 199 778 241 778 295 c
778 345 761 383 727 410 c
694 437 620 462 506 487 c
442 502 l
328 526 246 563 195 612 c
144 662 119 730 119 817 c
119 922 156 1004 231 1061 c
306 1118 412 1147 549 1147 c
617 1147 681 1142 741 1132 c
801 1122 856 1107 907 1087 c

ce} _d
/t{803 0 55 0 754 1438 sc
375 1438 m
375 1120 l
754 1120 l
754 977 l
375 977 l
375 369 l
375 278 387 219 412 193 c
437 167 488 154 565 154 c
754 154 l
754 0 l
565 0 l
423 0 325 26 271 79 c
217 132 190 229 190 369 c
190 977 l
55 977 l
55 1120 l
190 1120 l
190 1438 l
375 1438 l

ce} _d
/u{1298 0 174 -29 1112 1147 sc
174 442 m
174 1120 l
358 1120 l
358 449 l
358 343 379 263 420 210 c
461 157 523 131 606 131 c
705 131 784 163 841 226 c
899 289 928 376 928 485 c
928 1120 l
1112 1120 l
1112 0 l
928 0 l
928 172 l
883 104 831 53 772 20 c
713 -13 645 -29 567 -29 c
438 -29 341 11 274 91 c
207 171 174 288 174 442 c

637 1147 m
637 1147 l

ce} _d
end readonly def

/BuildGlyph {
 exch begin
 CharStrings exch
 2 copy known not {pop /.notdef} if
 true 3 1 roll get exec
 end
} _d

/BuildChar {
 1 index /Encoding get exch get
 1 index /BuildGlyph get exec
} _d

FontName currentdict end definefont pop
end
%%EndProlog
mpldict begin
-223.92 197.28 translate
1059.84 397.44 0 0 clipbox
gsave
0 0 m
1059.84 0 l
1059.84 397.44 l
0 397.44 l
cl
1.000 setgray
fill
grestore
gsave
76.16 49.88 m
508.995 49.88 l
508.995 369.12 l
76.16 369.12 l
cl
1.000 setgray
fill
grestore
0.800 setlinewidth
1 setlinejoin
0 setlinecap
[] 0 setdash
0.000 setgray
gsave
/o {
gsave
newpath
translate
0.8 setlinewidth
1 setlinejoin

0 setlinecap

0 0 m
0 -3.5 l

gsave
0.000 setgray
fill
grestore
stroke
grestore
} bind def
76.16 49.88 o
grestore
/DejaVuSans 14.000 selectfont
gsave

65.0272 32.2394 translate
0 rotate
0 0 m /zero glyphshow
8.90723 0 m /period glyphshow
13.3574 0 m /zero glyphshow
grestore
gsave
/o {
gsave
newpath
translate
0.8 setlinewidth
1 setlinejoin

0 setlinecap

0 0 m
0 -3.5 l

gsave
0.000 setgray
fill
grestore
stroke
grestore
} bind def
162.727 49.88 o
grestore
/DejaVuSans 14.000 selectfont
gsave

151.594 32.2394 translate
0 rotate
0 0 m /zero glyphshow
8.90723 0 m /period glyphshow
13.3574 0 m /two glyphshow
grestore
gsave
/o {
gsave
newpath
translate
0.8 setlinewidth
1 setlinejoin

0 setlinecap

0 0 m
0 -3.5 l

gsave
0.000 setgray
fill
grestore
stroke
grestore
} bind def
249.294 49.88 o
grestore
/DejaVuSans 14.000 selectfont
gsave

238.161 32.2394 translate
0 rotate
0 0 m /zero glyphshow
8.90723 0 m /period glyphshow
13.3574 0 m /four glyphshow
grestore
gsave
/o {
gsave
newpath
translate
0.8 setlinewidth
1 setlinejoin

0 setlinecap

0 0 m
0 -3.5 l

gsave
0.000 setgray
fill
grestore
stroke
grestore
} bind def
335.861 49.88 o
grestore
/DejaVuSans 14.000 selectfont
gsave

324.728 32.2394 translate
0 rotate
0 0 m /zero glyphshow
8.90723 0 m /period glyphshow
13.3574 0 m /six glyphshow
grestore
gsave
/o {
gsave
newpath
translate
0.8 setlinewidth
1 setlinejoin

0 setlinecap

0 0 m
0 -3.5 l

gsave
0.000 setgray
fill
grestore
stroke
grestore
} bind def
422.428 49.88 o
grestore
/DejaVuSans 14.000 selectfont
gsave

411.295 32.2394 translate
0 rotate
0 0 m /zero glyphshow
8.90723 0 m /period glyphshow
13.3574 0 m /eight glyphshow
grestore
gsave
/o {
gsave
newpath
translate
0.8 setlinewidth
1 setlinejoin

0 setlinecap

0 0 m
0 -3.5 l

gsave
0.000 setgray
fill
grestore
stroke
grestore
} bind def
508.995 49.88 o
grestore
/DejaVuSans 14.000 selectfont
gsave

497.862 32.2394 translate
0 rotate
0 0 m /one glyphshow
8.90723 0 m /period glyphshow
13.3574 0 m /zero glyphshow
grestore
/DejaVuSans 15.000 selectfont
gsave

260.835 13.9425 translate
0 rotate
0 0 m /Q glyphshow
11.8066 0 m /u glyphshow
21.3135 0 m /a glyphshow
30.5054 0 m /n glyphshow
40.0122 0 m /t glyphshow
45.8936 0 m /i glyphshow
50.061 0 m /l glyphshow
54.2285 0 m /e glyphshow
grestore
gsave
/o {
gsave
newpath
translate
0.8 setlinewidth
1 setlinejoin

0 setlinecap

-0 0 m
-3.5 0 l

gsave
0.000 setgray
fill
grestore
stroke
grestore
} bind def
76.16 49.88 o
grestore
/DejaVuSans 14.000 selectfont
gsave

29.0819 44.5597 translate
0 rotate
0 0 m /zero glyphshow
8.90723 0 m /period glyphshow
13.3574 0 m /zero glyphshow
22.2646 0 m /zero glyphshow
31.1719 0 m /zero glyphshow
grestore
gsave
/o {
gsave
newpath
translate
0.8 setlinewidth
1 setlinejoin

0 setlinecap

-0 0 m
-3.5 0 l

gsave
0.000 setgray
fill
grestore
stroke
grestore
} bind def
76.16 89.042 o
grestore
/DejaVuSans 14.000 selectfont
gsave

29.0819 83.7217 translate
0 rotate
0 0 m /zero glyphshow
8.90723 0 m /period glyphshow
13.3574 0 m /zero glyphshow
22.2646 0 m /zero glyphshow
31.1719 0 m /one glyphshow
grestore
gsave
/o {
gsave
newpath
translate
0.8 setlinewidth
1 setlinejoin

0 setlinecap

-0 0 m
-3.5 0 l

gsave
0.000 setgray
fill
grestore
stroke
grestore
} bind def
76.16 128.204 o
grestore
/DejaVuSans 14.000 selectfont
gsave

29.0819 122.884 translate
0 rotate
0 0 m /zero glyphshow
8.90723 0 m /period glyphshow
13.3574 0 m /zero glyphshow
22.2646 0 m /zero glyphshow
31.1719 0 m /two glyphshow
grestore
gsave
/o {
gsave
newpath
translate
0.8 setlinewidth
1 setlinejoin

0 setlinecap

-0 0 m
-3.5 0 l

gsave
0.000 setgray
fill
grestore
stroke
grestore
} bind def
76.16 167.366 o
grestore
/DejaVuSans 14.000 selectfont
gsave

29.0819 162.046 translate
0 rotate
0 0 m /zero glyphshow
8.90723 0 m /period glyphshow
13.3574 0 m /zero glyphshow
22.2646 0 m /zero glyphshow
31.1719 0 m /three glyphshow
grestore
gsave
/o {
gsave
newpath
translate
0.8 setlinewidth
1 setlinejoin

0 setlinecap

-0 0 m
-3.5 0 l

gsave
0.000 setgray
fill
grestore
stroke
grestore
} bind def
76.16 206.528 o
grestore
/DejaVuSans 14.000 selectfont
gsave

29.0819 201.208 translate
0 rotate
0 0 m /zero glyphshow
8.90723 0 m /period glyphshow
13.3574 0 m /zero glyphshow
22.2646 0 m /zero glyphshow
31.1719 0 m /four glyphshow
grestore
gsave
/o {
gsave
newpath
translate
0.8 setlinewidth
1 setlinejoin

0 setlinecap

-0 0 m
-3.5 0 l

gsave
0.000 setgray
fill
grestore
stroke
grestore
} bind def
76.16 245.69 o
grestore
/DejaVuSans 14.000 selectfont
gsave

29.0819 240.37 translate
0 rotate
0 0 m /zero glyphshow
8.90723 0 m /period glyphshow
13.3574 0 m /zero glyphshow
22.2646 0 m /zero glyphshow
31.1719 0 m /five glyphshow
grestore
gsave
/o {
gsave
newpath
translate
0.8 setlinewidth
1 setlinejoin

0 setlinecap

-0 0 m
-3.5 0 l

gsave
0.000 setgray
fill
grestore
stroke
grestore
} bind def
76.16 284.852 o
grestore
/DejaVuSans 14.000 selectfont
gsave

29.0819 279.532 translate
0 rotate
0 0 m /zero glyphshow
8.90723 0 m /period glyphshow
13.3574 0 m /zero glyphshow
22.2646 0 m /zero glyphshow
31.1719 0 m /six glyphshow
grestore
gsave
/o {
gsave
newpath
translate
0.8 setlinewidth
1 setlinejoin

0 setlinecap

-0 0 m
-3.5 0 l

gsave
0.000 setgray
fill
grestore
stroke
grestore
} bind def
76.16 324.014 o
grestore
/DejaVuSans 14.000 selectfont
gsave

29.0819 318.694 translate
0 rotate
0 0 m /zero glyphshow
8.90723 0 m /period glyphshow
13.3574 0 m /zero glyphshow
22.2646 0 m /zero glyphshow
31.1719 0 m /seven glyphshow
grestore
gsave
/o {
gsave
newpath
translate
0.8 setlinewidth
1 setlinejoin

0 setlinecap

-0 0 m
-3.5 0 l

gsave
0.000 setgray
fill
grestore
stroke
grestore
} bind def
76.16 363.176 o
grestore
/DejaVuSans 14.000 selectfont
gsave

29.0819 357.856 translate
0 rotate
0 0 m /zero glyphshow
8.90723 0 m /period glyphshow
13.3574 0 m /zero glyphshow
22.2646 0 m /zero glyphshow
31.1719 0 m /eight glyphshow
grestore
/DejaVuSans 15.000 selectfont
gsave

21.9569 138.719 translate
90 rotate
0 0 m /M glyphshow
12.9419 0 m /C glyphshow
23.4155 0 m /S glyphshow
32.937 0 m /E glyphshow
42.4146 0 m /space glyphshow
47.1826 0 m /f glyphshow
52.4634 0 m /o glyphshow
61.6406 0 m /r glyphshow
67.8076 0 m /space glyphshow
72.5757 0 m /q glyphshow
82.0972 0 m /u glyphshow
91.604 0 m /a glyphshow
100.796 0 m /n glyphshow
110.303 0 m /t glyphshow
116.184 0 m /i glyphshow
120.352 0 m /l glyphshow
124.519 0 m /e glyphshow
133.748 0 m /s glyphshow
grestore
0 setlinejoin
2 setlinecap
gsave
76.16 49.88 m
76.16 369.12 l
stroke
grestore
gsave
508.995 49.88 m
508.995 369.12 l
stroke
grestore
gsave
76.16 49.88 m
508.995 49.88 l
stroke
grestore
gsave
76.16 369.12 m
508.995 369.12 l
stroke
grestore
1.000 setlinewidth
1 setlinejoin
0 setlinecap
0.122 0.467 0.706 setrgbcolor
gsave
432.835 319.24 76.16 49.88 clipbox
/o {
gsave
newpath
translate
1.0 setlinewidth
1 setlinejoin

0 setlinecap

0 -3 m
0.795609 -3 1.55874 -2.683901 2.12132 -2.12132 c
2.683901 -1.55874 3 -0.795609 3 0 c
3 0.795609 2.683901 1.55874 2.12132 2.12132 c
1.55874 2.683901 0.795609 3 0 3 c
-0.795609 3 -1.55874 2.683901 -2.12132 2.12132 c
-2.683901 1.55874 -3 0.795609 -3 0 c
-3 -0.795609 -2.683901 -1.55874 -2.12132 -2.12132 c
-1.55874 -2.683901 -0.795609 -3 0 -3 c
cl

gsave
0.122 0.467 0.706 setrgbcolor
fill
grestore
stroke
grestore
} bind def
97.8018 258.076 o
118.304 248.29 o
138.807 221.979 o
159.31 254.023 o
179.813 246.778 o
200.315 246.946 o
220.818 212.549 o
241.321 237.665 o
261.823 238.225 o
282.326 218.972 o
302.829 210.905 o
323.332 202.651 o
343.834 234.173 o
364.337 231.334 o
384.84 227.226 o
405.342 223.249 o
425.845 222.707 o
446.348 285.806 o
466.851 244.369 o
487.353 361.193 o
grestore
0.000 setgray
/DejaVuSans 16.000 selectfont
gsave

271.398 375.12 translate
0 rotate
0 0 m /t glyphshow
6.27344 0 m /h glyphshow
16.4141 0 m /e glyphshow
26.2578 0 m /t glyphshow
32.5312 0 m /a glyphshow
grestore
gsave
605.09 49.88 m
1037.925 49.88 l
1037.925 369.12 l
605.09 369.12 l
cl
1.000 setgray
fill
grestore
0.800 setlinewidth
gsave
/o {
gsave
newpath
translate
0.8 setlinewidth
1 setlinejoin

0 setlinecap

0 0 m
0 -3.5 l

gsave
0.000 setgray
fill
grestore
stroke
grestore
} bind def
605.09 49.88 o
grestore
/DejaVuSans 14.000 selectfont
gsave

593.957 32.2394 translate
0 rotate
0 0 m /zero glyphshow
8.90723 0 m /period glyphshow
13.3574 0 m /zero glyphshow
grestore
gsave
/o {
gsave
newpath
translate
0.8 setlinewidth
1 setlinejoin

0 setlinecap

0 0 m
0 -3.5 l

gsave
0.000 setgray
fill
grestore
stroke
grestore
} bind def
691.657 49.88 o
grestore
/DejaVuSans 14.000 selectfont
gsave

680.524 32.2394 translate
0 rotate
0 0 m /zero glyphshow
8.90723 0 m /period glyphshow
13.3574 0 m /two glyphshow
grestore
gsave
/o {
gsave
newpath
translate
0.8 setlinewidth
1 setlinejoin

0 setlinecap

0 0 m
0 -3.5 l

gsave
0.000 setgray
fill
grestore
stroke
grestore
} bind def
778.224 49.88 o
grestore
/DejaVuSans 14.000 selectfont
gsave

767.091 32.2394 translate
0 rotate
0 0 m /zero glyphshow
8.90723 0 m /period glyphshow
13.3574 0 m /four glyphshow
grestore
gsave
/o {
gsave
newpath
translate
0.8 setlinewidth
1 setlinejoin

0 setlinecap

0 0 m
0 -3.5 l

gsave
0.000 setgray
fill
grestore
stroke
grestore
} bind def
864.791 49.88 o
grestore
/DejaVuSans 14.000 selectfont
gsave

853.658 32.2394 translate
0 rotate
0 0 m /zero glyphshow
8.90723 0 m /period glyphshow
13.3574 0 m /six glyphshow
grestore
gsave
/o {
gsave
newpath
translate
0.8 setlinewidth
1 setlinejoin

0 setlinecap

0 0 m
0 -3.5 l

gsave
0.000 setgray
fill
grestore
stroke
grestore
} bind def
951.358 49.88 o
grestore
/DejaVuSans 14.000 selectfont
gsave

940.225 32.2394 translate
0 rotate
0 0 m /zero glyphshow
8.90723 0 m /period glyphshow
13.3574 0 m /eight glyphshow
grestore
gsave
/o {
gsave
newpath
translate
0.8 setlinewidth
1 setlinejoin

0 setlinecap

0 0 m
0 -3.5 l

gsave
0.000 setgray
fill
grestore
stroke
grestore
} bind def
1037.92 49.88 o
grestore
/DejaVuSans 14.000 selectfont
gsave

1026.79 32.2394 translate
0 rotate
0 0 m /one glyphshow
8.90723 0 m /period glyphshow
13.3574 0 m /zero glyphshow
grestore
/DejaVuSans 15.000 selectfont
gsave

789.765 13.9425 translate
0 rotate
0 0 m /Q glyphshow
11.8066 0 m /u glyphshow
21.3135 0 m /a glyphshow
30.5054 0 m /n glyphshow
40.0122 0 m /t glyphshow
45.8936 0 m /i glyphshow
50.061 0 m /l glyphshow
54.2285 0 m /e glyphshow
grestore
gsave
/o {
gsave
newpath
translate
0.8 setlinewidth
1 setlinejoin

0 setlinecap

-0 0 m
-3.5 0 l

gsave
0.000 setgray
fill
grestore
stroke
grestore
} bind def
605.09 49.88 o
grestore
/DejaVuSans 14.000 selectfont
gsave

549.106 44.5597 translate
0 rotate
0 0 m /zero glyphshow
8.90723 0 m /period glyphshow
13.3574 0 m /zero glyphshow
22.2646 0 m /zero glyphshow
31.1719 0 m /zero glyphshow
40.0791 0 m /zero glyphshow
grestore
gsave
/o {
gsave
newpath
translate
0.8 setlinewidth
1 setlinejoin

0 setlinecap

-0 0 m
-3.5 0 l

gsave
0.000 setgray
fill
grestore
stroke
grestore
} bind def
605.09 89.6024 o
grestore
/DejaVuSans 14.000 selectfont
gsave

549.106 84.2821 translate
0 rotate
0 0 m /zero glyphshow
8.90723 0 m /period glyphshow
13.3574 0 m /zero glyphshow
22.2646 0 m /zero glyphshow
31.1719 0 m /zero glyphshow
40.0791 0 m /two glyphshow
grestore
gsave
/o {
gsave
newpath
translate
0.8 setlinewidth
1 setlinejoin

0 setlinecap

-0 0 m
-3.5 0 l

gsave
0.000 setgray
fill
grestore
stroke
grestore
} bind def
605.09 129.325 o
grestore
/DejaVuSans 14.000 selectfont
gsave

549.106 124.005 translate
0 rotate
0 0 m /zero glyphshow
8.90723 0 m /period glyphshow
13.3574 0 m /zero glyphshow
22.2646 0 m /zero glyphshow
31.1719 0 m /zero glyphshow
40.0791 0 m /four glyphshow
grestore
gsave
/o {
gsave
newpath
translate
0.8 setlinewidth
1 setlinejoin

0 setlinecap

-0 0 m
-3.5 0 l

gsave
0.000 setgray
fill
grestore
stroke
grestore
} bind def
605.09 169.047 o
grestore
/DejaVuSans 14.000 selectfont
gsave

549.106 163.727 translate
0 rotate
0 0 m /zero glyphshow
8.90723 0 m /period glyphshow
13.3574 0 m /zero glyphshow
22.2646 0 m /zero glyphshow
31.1719 0 m /zero glyphshow
40.0791 0 m /six glyphshow
grestore
gsave
/o {
gsave
newpath
translate
0.8 setlinewidth
1 setlinejoin

0 setlinecap

-0 0 m
-3.5 0 l

gsave
0.000 setgray
fill
grestore
stroke
grestore
} bind def
605.09 208.77 o
grestore
/DejaVuSans 14.000 selectfont
gsave

549.106 203.449 translate
0 rotate
0 0 m /zero glyphshow
8.90723 0 m /period glyphshow
13.3574 0 m /zero glyphshow
22.2646 0 m /zero glyphshow
31.1719 0 m /zero glyphshow
40.0791 0 m /eight glyphshow
grestore
gsave
/o {
gsave
newpath
translate
0.8 setlinewidth
1 setlinejoin

0 setlinecap

-0 0 m
-3.5 0 l

gsave
0.000 setgray
fill
grestore
stroke
grestore
} bind def
605.09 248.492 o
grestore
/DejaVuSans 14.000 selectfont
gsave

549.106 243.172 translate
0 rotate
0 0 m /zero glyphshow
8.90723 0 m /period glyphshow
13.3574 0 m /zero glyphshow
22.2646 0 m /zero glyphshow
31.1719 0 m /one glyphshow
40.0791 0 m /zero glyphshow
grestore
gsave
/o {
gsave
newpath
translate
0.8 setlinewidth
1 setlinejoin

0 setlinecap

-0 0 m
-3.5 0 l

gsave
0.000 setgray
fill
grestore
stroke
grestore
} bind def
605.09 288.215 o
grestore
/DejaVuSans 14.000 selectfont
gsave

549.106 282.894 translate
0 rotate
0 0 m /zero glyphshow
8.90723 0 m /period glyphshow
13.3574 0 m /zero glyphshow
22.2646 0 m /zero glyphshow
31.1719 0 m /one glyphshow
40.0791 0 m /two glyphshow
grestore
gsave
/o {
gsave
newpath
translate
0.8 setlinewidth
1 setlinejoin

0 setlinecap

-0 0 m
-3.5 0 l

gsave
0.000 setgray
fill
grestore
stroke
grestore
} bind def
605.09 327.937 o
grestore
/DejaVuSans 14.000 selectfont
gsave

549.106 322.617 translate
0 rotate
0 0 m /zero glyphshow
8.90723 0 m /period glyphshow
13.3574 0 m /zero glyphshow
22.2646 0 m /zero glyphshow
31.1719 0 m /one glyphshow
40.0791 0 m /four glyphshow
grestore
gsave
/o {
gsave
newpath
translate
0.8 setlinewidth
1 setlinejoin

0 setlinecap

-0 0 m
-3.5 0 l

gsave
0.000 setgray
fill
grestore
stroke
grestore
} bind def
605.09 367.659 o
grestore
/DejaVuSans 14.000 selectfont
gsave

549.106 362.339 translate
0 rotate
0 0 m /zero glyphshow
8.90723 0 m /period glyphshow
13.3574 0 m /zero glyphshow
22.2646 0 m /zero glyphshow
31.1719 0 m /one glyphshow
40.0791 0 m /six glyphshow
grestore
/DejaVuSans 15.000 selectfont
gsave

541.981 138.719 translate
90 rotate
0 0 m /M glyphshow
12.9419 0 m /C glyphshow
23.4155 0 m /S glyphshow
32.937 0 m /E glyphshow
42.4146 0 m /space glyphshow
47.1826 0 m /f glyphshow
52.4634 0 m /o glyphshow
61.6406 0 m /r glyphshow
67.8076 0 m /space glyphshow
72.5757 0 m /q glyphshow
82.0972 0 m /u glyphshow
91.604 0 m /a glyphshow
100.796 0 m /n glyphshow
110.303 0 m /t glyphshow
116.184 0 m /i glyphshow
120.352 0 m /l glyphshow
124.519 0 m /e glyphshow
133.748 0 m /s glyphshow
grestore
0 setlinejoin
2 setlinecap
gsave
605.09 49.88 m
605.09 369.12 l
stroke
grestore
gsave
1037.925 49.88 m
1037.925 369.12 l
stroke
grestore
gsave
605.09 49.88 m
1037.925 49.88 l
stroke
grestore
gsave
605.09 369.12 m
1037.925 369.12 l
stroke
grestore
1.000 setlinewidth
1 setlinejoin
0 setlinecap
0.122 0.467 0.706 setrgbcolor
gsave
432.835 319.24 605.09 49.88 clipbox
/o {
gsave
newpath
translate
1.0 setlinewidth
1 setlinejoin

0 setlinecap

0 -3 m
0.795609 -3 1.55874 -2.683901 2.12132 -2.12132 c
2.683901 -1.55874 3 -0.795609 3 0 c
3 0.795609 2.683901 1.55874 2.12132 2.12132 c
1.55874 2.683901 0.795609 3 0 3 c
-0.795609 3 -1.55874 2.683901 -2.12132 2.12132 c
-2.683901 1.55874 -3 0.795609 -3 0 c
-3 -0.795609 -2.683901 -1.55874 -2.12132 -2.12132 c
-1.55874 -2.683901 -0.795609 -3 0 -3 c
cl

gsave
0.122 0.467 0.706 setrgbcolor
fill
grestore
stroke
grestore
} bind def
626.732 359.668 o
647.234 233.248 o
667.737 223.002 o
688.24 243.956 o
708.743 177.975 o
729.245 170.63 o
749.748 177.543 o
770.251 185.481 o
790.753 210.826 o
811.256 185.771 o
831.759 201.279 o
852.262 194.365 o
872.764 239.457 o
893.267 249.821 o
913.77 188.801 o
934.272 206.902 o
954.775 229.501 o
975.278 203.078 o
995.781 303.928 o
1016.28 274.67 o
grestore
0.000 setgray
/DejaVuSans 16.000 selectfont
gsave

792.929 375.12 translate
0 rotate
0 0 m /l glyphshow
4.44531 0 m /o glyphshow
14.2344 0 m /g glyphshow
24.3906 0 m /underscore glyphshow
32.3906 0 m /p glyphshow
42.5469 0 m /h glyphshow
52.6875 0 m /i glyphshow
grestore

end
showpage
