%!PS-Adobe-3.0 EPSF-3.0
%%Title: pairplot_multi.eps
%%Creator: Matplotlib v3.6.2, https://matplotlib.org/
%%CreationDate: Tue Feb 14 19:57:00 2023
%%Orientation: portrait
%%BoundingBox: 75 223 537 569
%%HiResBoundingBox: 75.600000 223.200000 536.400000 568.800000
%%EndComments
%%BeginProlog
/mpldict 11 dict def
mpldict begin
/_d { bind def } bind def
/m { moveto } _d
/l { lineto } _d
/r { rlineto } _d
/c { curveto } _d
/cl { closepath } _d
/ce { closepath eofill } _d
/box {
      m
      1 index 0 r
      0 exch r
      neg 0 r
      cl
    } _d
/clipbox {
      box
      clip
      newpath
    } _d
/sc { setcachedevice } _d
%!PS-Adobe-3.0 Resource-Font
%%Creator: Converted from TrueType to Type 3 by Matplotlib.
10 dict begin
/FontName /DejaVuSans def
/PaintType 0 def
/FontMatrix [0.00048828125 0 0 0.00048828125 0 0] def
/FontBBox [-2090 -948 3673 2524] def
/FontType 3 def
/Encoding [/period /zero /one /two /five /six /seven /eight /nine /underscore /a /e /g /h /i /l /o /p /t] def
/CharStrings 20 dict dup begin
/.notdef 0 def
/period{651 0 219 0 430 254 sc
219 254 m
430 254 l
430 0 l
219 0 l
219 254 l

ce} _d
/zero{1303 0 135 -29 1167 1520 sc
651 1360 m
547 1360 469 1309 416 1206 c
364 1104 338 950 338 745 c
338 540 364 387 416 284 c
469 182 547 131 651 131 c
756 131 834 182 886 284 c
939 387 965 540 965 745 c
965 950 939 1104 886 1206 c
834 1309 756 1360 651 1360 c

651 1520 m
818 1520 946 1454 1034 1321 c
1123 1189 1167 997 1167 745 c
1167 494 1123 302 1034 169 c
946 37 818 -29 651 -29 c
484 -29 356 37 267 169 c
179 302 135 494 135 745 c
135 997 179 1189 267 1321 c
356 1454 484 1520 651 1520 c

ce} _d
/one{1303 0 225 0 1114 1493 sc
254 170 m
584 170 l
584 1309 l
225 1237 l
225 1421 l
582 1493 l
784 1493 l
784 170 l
1114 170 l
1114 0 l
254 0 l
254 170 l

ce} _d
/two{1303 0 150 0 1098 1520 sc
393 170 m
1098 170 l
1098 0 l
150 0 l
150 170 l
227 249 331 356 463 489 c
596 623 679 709 713 748 c
778 821 823 882 848 932 c
874 983 887 1032 887 1081 c
887 1160 859 1225 803 1275 c
748 1325 675 1350 586 1350 c
523 1350 456 1339 385 1317 c
315 1295 240 1262 160 1217 c
160 1421 l
241 1454 317 1478 388 1495 c
459 1512 523 1520 582 1520 c
737 1520 860 1481 952 1404 c
1044 1327 1090 1223 1090 1094 c
1090 1033 1078 974 1055 919 c
1032 864 991 800 930 725 c
913 706 860 650 771 557 c
682 465 556 336 393 170 c

ce} _d
/five{1303 0 158 -29 1124 1493 sc
221 1493 m
1014 1493 l
1014 1323 l
406 1323 l
406 957 l
435 967 465 974 494 979 c
523 984 553 987 582 987 c
749 987 881 941 978 850 c
1075 759 1124 635 1124 479 c
1124 318 1074 193 974 104 c
874 15 733 -29 551 -29 c
488 -29 424 -24 359 -13 c
294 -2 227 14 158 35 c
158 238 l
218 205 280 181 344 165 c
408 149 476 141 547 141 c
662 141 754 171 821 232 c
888 293 922 375 922 479 c
922 583 888 665 821 726 c
754 787 662 817 547 817 c
493 817 439 811 385 799 c
332 787 277 768 221 743 c
221 1493 l

ce} _d
/six{1303 0 143 -29 1174 1520 sc
676 827 m
585 827 513 796 460 734 c
407 672 381 587 381 479 c
381 372 407 287 460 224 c
513 162 585 131 676 131 c
767 131 838 162 891 224 c
944 287 971 372 971 479 c
971 587 944 672 891 734 c
838 796 767 827 676 827 c

1077 1460 m
1077 1276 l
1026 1300 975 1318 923 1331 c
872 1344 821 1350 770 1350 c
637 1350 535 1305 464 1215 c
394 1125 354 989 344 807 c
383 865 433 909 492 940 c
551 971 617 987 688 987 c
838 987 956 941 1043 850 c
1130 759 1174 636 1174 479 c
1174 326 1129 203 1038 110 c
947 17 827 -29 676 -29 c
503 -29 371 37 280 169 c
189 302 143 494 143 745 c
143 981 199 1169 311 1309 c
423 1450 573 1520 762 1520 c
813 1520 864 1515 915 1505 c
967 1495 1021 1480 1077 1460 c

ce} _d
/seven{1303 0 168 0 1128 1493 sc
168 1493 m
1128 1493 l
1128 1407 l
586 0 l
375 0 l
885 1323 l
168 1323 l
168 1493 l

ce} _d
/eight{1303 0 139 -29 1163 1520 sc
651 709 m
555 709 479 683 424 632 c
369 581 342 510 342 420 c
342 330 369 259 424 208 c
479 157 555 131 651 131 c
747 131 823 157 878 208 c
933 260 961 331 961 420 c
961 510 933 581 878 632 c
823 683 748 709 651 709 c

449 795 m
362 816 295 857 246 916 c
198 975 174 1048 174 1133 c
174 1252 216 1347 301 1416 c
386 1485 503 1520 651 1520 c
800 1520 916 1485 1001 1416 c
1086 1347 1128 1252 1128 1133 c
1128 1048 1104 975 1055 916 c
1007 857 940 816 854 795 c
951 772 1027 728 1081 662 c
1136 596 1163 515 1163 420 c
1163 275 1119 164 1030 87 c
942 10 816 -29 651 -29 c
486 -29 360 10 271 87 c
183 164 139 275 139 420 c
139 515 166 596 221 662 c
276 728 352 772 449 795 c

375 1114 m
375 1037 399 976 447 933 c
496 890 564 868 651 868 c
738 868 805 890 854 933 c
903 976 928 1037 928 1114 c
928 1191 903 1252 854 1295 c
805 1338 738 1360 651 1360 c
564 1360 496 1338 447 1295 c
399 1252 375 1191 375 1114 c

ce} _d
/nine{1303 0 129 -29 1159 1520 sc
225 31 m
225 215 l
276 191 327 173 379 160 c
431 147 482 141 532 141 c
665 141 767 186 837 275 c
908 365 948 501 958 684 c
919 627 870 583 811 552 c
752 521 686 506 614 506 c
465 506 346 551 259 641 c
172 732 129 855 129 1012 c
129 1165 174 1288 265 1381 c
356 1474 476 1520 627 1520 c
800 1520 931 1454 1022 1321 c
1113 1189 1159 997 1159 745 c
1159 510 1103 322 991 181 c
880 41 730 -29 541 -29 c
490 -29 439 -24 387 -14 c
335 -4 281 11 225 31 c

627 664 m
718 664 789 695 842 757 c
895 819 922 904 922 1012 c
922 1119 895 1204 842 1266 c
789 1329 718 1360 627 1360 c
536 1360 464 1329 411 1266 c
358 1204 332 1119 332 1012 c
332 904 358 819 411 757 c
464 695 536 664 627 664 c

ce} _d
/underscore{1024 0 -20 -483 1044 -340 sc
1044 -340 m
1044 -483 l
-20 -483 l
-20 -340 l
1044 -340 l

ce} _d
/a{1255 0 123 -29 1069 1147 sc
702 563 m
553 563 450 546 393 512 c
336 478 307 420 307 338 c
307 273 328 221 371 182 c
414 144 473 125 547 125 c
649 125 731 161 792 233 c
854 306 885 402 885 522 c
885 563 l
702 563 l

1069 639 m
1069 0 l
885 0 l
885 170 l
843 102 791 52 728 19 c
665 -13 589 -29 498 -29 c
383 -29 292 3 224 67 c
157 132 123 218 123 326 c
123 452 165 547 249 611 c
334 675 460 707 627 707 c
885 707 l
885 725 l
885 810 857 875 801 921 c
746 968 668 991 567 991 c
503 991 441 983 380 968 c
319 953 261 930 205 899 c
205 1069 l
272 1095 338 1114 401 1127 c
464 1140 526 1147 586 1147 c
748 1147 869 1105 949 1021 c
1029 937 1069 810 1069 639 c

ce} _d
/e{1260 0 113 -29 1151 1147 sc
1151 606 m
1151 516 l
305 516 l
313 389 351 293 419 226 c
488 160 583 127 705 127 c
776 127 844 136 910 153 c
977 170 1043 196 1108 231 c
1108 57 l
1042 29 974 8 905 -7 c
836 -22 765 -29 694 -29 c
515 -29 374 23 269 127 c
165 231 113 372 113 549 c
113 732 162 878 261 985 c
360 1093 494 1147 662 1147 c
813 1147 932 1098 1019 1001 c
1107 904 1151 773 1151 606 c

967 660 m
966 761 937 841 882 901 c
827 961 755 991 664 991 c
561 991 479 962 417 904 c
356 846 320 764 311 659 c
967 660 l

ce} _d
/g{1300 0 113 -426 1114 1147 sc
930 573 m
930 706 902 810 847 883 c
792 956 715 993 616 993 c
517 993 440 956 385 883 c
330 810 303 706 303 573 c
303 440 330 337 385 264 c
440 191 517 154 616 154 c
715 154 792 191 847 264 c
902 337 930 440 930 573 c

1114 139 m
1114 -52 1072 -193 987 -286 c
902 -379 773 -426 598 -426 c
533 -426 472 -421 415 -411 c
358 -402 302 -387 248 -367 c
248 -188 l
302 -217 355 -239 408 -253 c
461 -267 514 -274 569 -274 c
690 -274 780 -242 840 -179 c
900 -116 930 -21 930 106 c
930 197 l
892 131 843 82 784 49 c
725 16 654 0 571 0 c
434 0 323 52 239 157 c
155 262 113 400 113 573 c
113 746 155 885 239 990 c
323 1095 434 1147 571 1147 c
654 1147 725 1131 784 1098 c
843 1065 892 1016 930 950 c
930 1120 l
1114 1120 l
1114 139 l

ce} _d
/h{1298 0 186 0 1124 1556 sc
1124 676 m
1124 0 l
940 0 l
940 670 l
940 776 919 855 878 908 c
837 961 775 987 692 987 c
593 987 514 955 457 892 c
400 829 371 742 371 633 c
371 0 l
186 0 l
186 1556 l
371 1556 l
371 946 l
415 1013 467 1064 526 1097 c
586 1130 655 1147 733 1147 c
862 1147 959 1107 1025 1027 c
1091 948 1124 831 1124 676 c

ce} _d
/i{569 0 193 0 377 1556 sc
193 1120 m
377 1120 l
377 0 l
193 0 l
193 1120 l

193 1556 m
377 1556 l
377 1323 l
193 1323 l
193 1556 l

ce} _d
/l{569 0 193 0 377 1556 sc
193 1556 m
377 1556 l
377 0 l
193 0 l
193 1556 l

ce} _d
/o{1253 0 113 -29 1141 1147 sc
627 991 m
528 991 450 952 393 875 c
336 798 307 693 307 559 c
307 425 335 319 392 242 c
449 165 528 127 627 127 c
725 127 803 166 860 243 c
917 320 946 426 946 559 c
946 692 917 797 860 874 c
803 952 725 991 627 991 c

627 1147 m
787 1147 913 1095 1004 991 c
1095 887 1141 743 1141 559 c
1141 376 1095 232 1004 127 c
913 23 787 -29 627 -29 c
466 -29 340 23 249 127 c
158 232 113 376 113 559 c
113 743 158 887 249 991 c
340 1095 466 1147 627 1147 c

ce} _d
/p{1300 0 186 -426 1188 1147 sc
371 168 m
371 -426 l
186 -426 l
186 1120 l
371 1120 l
371 950 l
410 1017 458 1066 517 1098 c
576 1131 647 1147 729 1147 c
865 1147 975 1093 1060 985 c
1145 877 1188 735 1188 559 c
1188 383 1145 241 1060 133 c
975 25 865 -29 729 -29 c
647 -29 576 -13 517 19 c
458 52 410 101 371 168 c

997 559 m
997 694 969 800 913 877 c
858 954 781 993 684 993 c
587 993 510 954 454 877 c
399 800 371 694 371 559 c
371 424 399 317 454 240 c
510 163 587 125 684 125 c
781 125 858 163 913 240 c
969 317 997 424 997 559 c

ce} _d
/t{803 0 55 0 754 1438 sc
375 1438 m
375 1120 l
754 1120 l
754 977 l
375 977 l
375 369 l
375 278 387 219 412 193 c
437 167 488 154 565 154 c
754 154 l
754 0 l
565 0 l
423 0 325 26 271 79 c
217 132 190 229 190 369 c
190 977 l
55 977 l
55 1120 l
190 1120 l
190 1438 l
375 1438 l

ce} _d
end readonly def

/BuildGlyph {
 exch begin
 CharStrings exch
 2 copy known not {pop /.notdef} if
 true 3 1 roll get exec
 end
} _d

/BuildChar {
 1 index /Encoding get exch get
 1 index /BuildGlyph get exec
} _d

FontName currentdict end definefont pop
end
%%EndProlog
mpldict begin
75.6 223.2 translate
460.8 345.6 0 0 clipbox
gsave
0 0 m
460.8 0 l
460.8 345.6 l
0 345.6 l
cl
1.000 setgray
fill
grestore
gsave
77.06 49.88 m
434.748994 49.88 l
434.748994 334.8 l
77.06 334.8 l
cl
1.000 setgray
fill
grestore
/p0_0 {
newpath
translate
-6715.554971 -818.969905 m
-6715.554971 -812.802806 l
-6722.058408 -809.719256 l
-6728.561844 -812.802806 l
-6728.561844 -818.969905 l
-6722.058408 -822.053455 l
cl

} bind def
1.000 setlinewidth
1 setlinejoin
0 setlinecap
[] 0 setdash
0.267 0.005 0.329 setrgbcolor
gsave
357.689 284.92 77.06 49.88 clipbox
6815.38 1008.23 p0_0
gsave
fill
grestore
stroke
grestore
gsave
357.689 284.92 77.06 49.88 clipbox
6828.38 971.224 p0_0
gsave
fill
grestore
stroke
grestore
gsave
357.689 284.92 77.06 49.88 clipbox
6828.38 989.725 p0_0
gsave
fill
grestore
stroke
grestore
0.270 0.015 0.341 setrgbcolor
gsave
357.689 284.92 77.06 49.88 clipbox
6828.38 1008.23 p0_0
gsave
fill
grestore
stroke
grestore
0.267 0.005 0.329 setrgbcolor
gsave
357.689 284.92 77.06 49.88 clipbox
6828.38 1026.73 p0_0
gsave
fill
grestore
stroke
grestore
gsave
357.689 284.92 77.06 49.88 clipbox
6841.39 952.722 p0_0
gsave
fill
grestore
stroke
grestore
gsave
357.689 284.92 77.06 49.88 clipbox
6841.39 971.224 p0_0
gsave
fill
grestore
stroke
grestore
gsave
357.689 284.92 77.06 49.88 clipbox
6841.39 989.725 p0_0
gsave
fill
grestore
stroke
grestore
0.270 0.015 0.341 setrgbcolor
gsave
357.689 284.92 77.06 49.88 clipbox
6841.39 1008.23 p0_0
gsave
fill
grestore
stroke
grestore
0.267 0.005 0.329 setrgbcolor
gsave
357.689 284.92 77.06 49.88 clipbox
6841.39 1026.73 p0_0
gsave
fill
grestore
stroke
grestore
0.271 0.020 0.347 setrgbcolor
gsave
357.689 284.92 77.06 49.88 clipbox
6841.39 1045.23 p0_0
gsave
fill
grestore
stroke
grestore
0.267 0.005 0.329 setrgbcolor
gsave
357.689 284.92 77.06 49.88 clipbox
6854.4 934.221 p0_0
gsave
fill
grestore
stroke
grestore
gsave
357.689 284.92 77.06 49.88 clipbox
6854.4 952.722 p0_0
gsave
fill
grestore
stroke
grestore
0.270 0.015 0.341 setrgbcolor
gsave
357.689 284.92 77.06 49.88 clipbox
6854.4 971.224 p0_0
gsave
fill
grestore
stroke
grestore
0.280 0.073 0.397 setrgbcolor
gsave
357.689 284.92 77.06 49.88 clipbox
6854.4 989.725 p0_0
gsave
fill
grestore
stroke
grestore
0.270 0.015 0.341 setrgbcolor
gsave
357.689 284.92 77.06 49.88 clipbox
6854.4 1008.23 p0_0
gsave
fill
grestore
stroke
grestore
0.274 0.031 0.359 setrgbcolor
gsave
357.689 284.92 77.06 49.88 clipbox
6854.4 1026.73 p0_0
gsave
fill
grestore
stroke
grestore
0.273 0.026 0.353 setrgbcolor
gsave
357.689 284.92 77.06 49.88 clipbox
6854.4 1045.23 p0_0
gsave
fill
grestore
stroke
grestore
0.267 0.005 0.329 setrgbcolor
gsave
357.689 284.92 77.06 49.88 clipbox
6854.4 1063.73 p0_0
gsave
fill
grestore
stroke
grestore
gsave
357.689 284.92 77.06 49.88 clipbox
6867.4 897.219 p0_0
gsave
fill
grestore
stroke
grestore
0.269 0.010 0.335 setrgbcolor
gsave
357.689 284.92 77.06 49.88 clipbox
6867.4 915.72 p0_0
gsave
fill
grestore
stroke
grestore
gsave
357.689 284.92 77.06 49.88 clipbox
6867.4 934.221 p0_0
gsave
fill
grestore
stroke
grestore
0.276 0.044 0.370 setrgbcolor
gsave
357.689 284.92 77.06 49.88 clipbox
6867.4 952.722 p0_0
gsave
fill
grestore
stroke
grestore
0.275 0.038 0.365 setrgbcolor
gsave
357.689 284.92 77.06 49.88 clipbox
6867.4 971.224 p0_0
gsave
fill
grestore
stroke
grestore
0.279 0.062 0.387 setrgbcolor
gsave
357.689 284.92 77.06 49.88 clipbox
6867.4 989.725 p0_0
gsave
fill
grestore
stroke
grestore
0.277 0.050 0.376 setrgbcolor
gsave
357.689 284.92 77.06 49.88 clipbox
6867.4 1008.23 p0_0
gsave
fill
grestore
stroke
grestore
0.279 0.062 0.387 setrgbcolor
gsave
357.689 284.92 77.06 49.88 clipbox
6867.4 1026.73 p0_0
gsave
fill
grestore
stroke
grestore
0.271 0.020 0.347 setrgbcolor
gsave
357.689 284.92 77.06 49.88 clipbox
6867.4 1045.23 p0_0
gsave
fill
grestore
stroke
grestore
gsave
357.689 284.92 77.06 49.88 clipbox
6867.4 1063.73 p0_0
gsave
fill
grestore
stroke
grestore
0.267 0.005 0.329 setrgbcolor
gsave
357.689 284.92 77.06 49.88 clipbox
6867.4 1082.23 p0_0
gsave
fill
grestore
stroke
grestore
gsave
357.689 284.92 77.06 49.88 clipbox
6880.41 878.717 p0_0
gsave
fill
grestore
stroke
grestore
0.269 0.010 0.335 setrgbcolor
gsave
357.689 284.92 77.06 49.88 clipbox
6880.41 915.72 p0_0
gsave
fill
grestore
stroke
grestore
gsave
357.689 284.92 77.06 49.88 clipbox
6880.41 934.221 p0_0
gsave
fill
grestore
stroke
grestore
0.280 0.068 0.392 setrgbcolor
gsave
357.689 284.92 77.06 49.88 clipbox
6880.41 952.722 p0_0
gsave
fill
grestore
stroke
grestore
0.278 0.180 0.487 setrgbcolor
gsave
357.689 284.92 77.06 49.88 clipbox
6880.41 971.224 p0_0
gsave
fill
grestore
stroke
grestore
0.283 0.136 0.453 setrgbcolor
gsave
357.689 284.92 77.06 49.88 clipbox
6880.41 989.725 p0_0
gsave
fill
grestore
stroke
grestore
0.281 0.084 0.407 setrgbcolor
gsave
357.689 284.92 77.06 49.88 clipbox
6880.41 1008.23 p0_0
gsave
fill
grestore
stroke
grestore
0.279 0.062 0.387 setrgbcolor
gsave
357.689 284.92 77.06 49.88 clipbox
6880.41 1026.73 p0_0
gsave
fill
grestore
stroke
grestore
0.278 0.056 0.381 setrgbcolor
gsave
357.689 284.92 77.06 49.88 clipbox
6880.41 1045.23 p0_0
gsave
fill
grestore
stroke
grestore
0.271 0.020 0.347 setrgbcolor
gsave
357.689 284.92 77.06 49.88 clipbox
6880.41 1063.73 p0_0
gsave
fill
grestore
stroke
grestore
0.267 0.005 0.329 setrgbcolor
gsave
357.689 284.92 77.06 49.88 clipbox
6880.41 1082.23 p0_0
gsave
fill
grestore
stroke
grestore
0.269 0.010 0.335 setrgbcolor
gsave
357.689 284.92 77.06 49.88 clipbox
6893.42 897.219 p0_0
gsave
fill
grestore
stroke
grestore
0.273 0.026 0.353 setrgbcolor
gsave
357.689 284.92 77.06 49.88 clipbox
6893.42 915.72 p0_0
gsave
fill
grestore
stroke
grestore
0.277 0.050 0.376 setrgbcolor
gsave
357.689 284.92 77.06 49.88 clipbox
6893.42 934.221 p0_0
gsave
fill
grestore
stroke
grestore
0.283 0.141 0.458 setrgbcolor
gsave
357.689 284.92 77.06 49.88 clipbox
6893.42 952.722 p0_0
gsave
fill
grestore
stroke
grestore
0.245 0.288 0.537 setrgbcolor
gsave
357.689 284.92 77.06 49.88 clipbox
6893.42 971.224 p0_0
gsave
fill
grestore
stroke
grestore
0.239 0.301 0.541 setrgbcolor
gsave
357.689 284.92 77.06 49.88 clipbox
6893.42 989.725 p0_0
gsave
fill
grestore
stroke
grestore
0.252 0.270 0.532 setrgbcolor
gsave
357.689 284.92 77.06 49.88 clipbox
6893.42 1008.23 p0_0
gsave
fill
grestore
stroke
grestore
0.283 0.131 0.449 setrgbcolor
gsave
357.689 284.92 77.06 49.88 clipbox
6893.42 1026.73 p0_0
gsave
fill
grestore
stroke
grestore
0.282 0.090 0.412 setrgbcolor
gsave
357.689 284.92 77.06 49.88 clipbox
6893.42 1045.23 p0_0
gsave
fill
grestore
stroke
grestore
0.271 0.020 0.347 setrgbcolor
gsave
357.689 284.92 77.06 49.88 clipbox
6893.42 1063.73 p0_0
gsave
fill
grestore
stroke
grestore
0.269 0.010 0.335 setrgbcolor
gsave
357.689 284.92 77.06 49.88 clipbox
6893.42 1082.23 p0_0
gsave
fill
grestore
stroke
grestore
0.267 0.005 0.329 setrgbcolor
gsave
357.689 284.92 77.06 49.88 clipbox
6906.43 897.219 p0_0
gsave
fill
grestore
stroke
grestore
0.280 0.068 0.392 setrgbcolor
gsave
357.689 284.92 77.06 49.88 clipbox
6906.43 915.72 p0_0
gsave
fill
grestore
stroke
grestore
0.281 0.156 0.469 setrgbcolor
gsave
357.689 284.92 77.06 49.88 clipbox
6906.43 934.221 p0_0
gsave
fill
grestore
stroke
grestore
0.261 0.247 0.523 setrgbcolor
gsave
357.689 284.92 77.06 49.88 clipbox
6906.43 952.722 p0_0
gsave
fill
grestore
stroke
grestore
0.232 0.318 0.545 setrgbcolor
gsave
357.689 284.92 77.06 49.88 clipbox
6906.43 971.224 p0_0
gsave
fill
grestore
stroke
grestore
0.170 0.456 0.558 setrgbcolor
gsave
357.689 284.92 77.06 49.88 clipbox
6906.43 989.725 p0_0
gsave
fill
grestore
stroke
grestore
0.203 0.380 0.554 setrgbcolor
gsave
357.689 284.92 77.06 49.88 clipbox
6906.43 1008.23 p0_0
gsave
fill
grestore
stroke
grestore
0.257 0.256 0.527 setrgbcolor
gsave
357.689 284.92 77.06 49.88 clipbox
6906.43 1026.73 p0_0
gsave
fill
grestore
stroke
grestore
0.283 0.111 0.432 setrgbcolor
gsave
357.689 284.92 77.06 49.88 clipbox
6906.43 1045.23 p0_0
gsave
fill
grestore
stroke
grestore
0.273 0.026 0.353 setrgbcolor
gsave
357.689 284.92 77.06 49.88 clipbox
6906.43 1063.73 p0_0
gsave
fill
grestore
stroke
grestore
0.267 0.005 0.329 setrgbcolor
gsave
357.689 284.92 77.06 49.88 clipbox
6906.43 1082.23 p0_0
gsave
fill
grestore
stroke
grestore
gsave
357.689 284.92 77.06 49.88 clipbox
6906.43 1100.73 p0_0
gsave
fill
grestore
stroke
grestore
gsave
357.689 284.92 77.06 49.88 clipbox
6919.43 897.219 p0_0
gsave
fill
grestore
stroke
grestore
0.280 0.068 0.392 setrgbcolor
gsave
357.689 284.92 77.06 49.88 clipbox
6919.43 915.72 p0_0
gsave
fill
grestore
stroke
grestore
0.283 0.100 0.422 setrgbcolor
gsave
357.689 284.92 77.06 49.88 clipbox
6919.43 934.221 p0_0
gsave
fill
grestore
stroke
grestore
0.212 0.360 0.552 setrgbcolor
gsave
357.689 284.92 77.06 49.88 clipbox
6919.43 952.722 p0_0
gsave
fill
grestore
stroke
grestore
0.158 0.486 0.558 setrgbcolor
gsave
357.689 284.92 77.06 49.88 clipbox
6919.43 971.224 p0_0
gsave
fill
grestore
stroke
grestore
0.146 0.515 0.557 setrgbcolor
gsave
357.689 284.92 77.06 49.88 clipbox
6919.43 989.725 p0_0
gsave
fill
grestore
stroke
grestore
0.179 0.434 0.557 setrgbcolor
gsave
357.689 284.92 77.06 49.88 clipbox
6919.43 1008.23 p0_0
gsave
fill
grestore
stroke
grestore
0.226 0.331 0.547 setrgbcolor
gsave
357.689 284.92 77.06 49.88 clipbox
6919.43 1026.73 p0_0
gsave
fill
grestore
stroke
grestore
0.281 0.161 0.473 setrgbcolor
gsave
357.689 284.92 77.06 49.88 clipbox
6919.43 1045.23 p0_0
gsave
fill
grestore
stroke
grestore
0.275 0.038 0.365 setrgbcolor
gsave
357.689 284.92 77.06 49.88 clipbox
6919.43 1063.73 p0_0
gsave
fill
grestore
stroke
grestore
0.267 0.005 0.329 setrgbcolor
gsave
357.689 284.92 77.06 49.88 clipbox
6919.43 1082.23 p0_0
gsave
fill
grestore
stroke
grestore
0.270 0.015 0.341 setrgbcolor
gsave
357.689 284.92 77.06 49.88 clipbox
6932.44 897.219 p0_0
gsave
fill
grestore
stroke
grestore
0.280 0.073 0.397 setrgbcolor
gsave
357.689 284.92 77.06 49.88 clipbox
6932.44 915.72 p0_0
gsave
fill
grestore
stroke
grestore
0.268 0.224 0.512 setrgbcolor
gsave
357.689 284.92 77.06 49.88 clipbox
6932.44 934.221 p0_0
gsave
fill
grestore
stroke
grestore
0.181 0.430 0.557 setrgbcolor
gsave
357.689 284.92 77.06 49.88 clipbox
6932.44 952.722 p0_0
gsave
fill
grestore
stroke
grestore
0.162 0.687 0.499 setrgbcolor
gsave
357.689 284.92 77.06 49.88 clipbox
6932.44 971.224 p0_0
gsave
fill
grestore
stroke
grestore
0.121 0.626 0.533 setrgbcolor
gsave
357.689 284.92 77.06 49.88 clipbox
6932.44 989.725 p0_0
gsave
fill
grestore
stroke
grestore
0.120 0.600 0.543 setrgbcolor
gsave
357.689 284.92 77.06 49.88 clipbox
6932.44 1008.23 p0_0
gsave
fill
grestore
stroke
grestore
0.186 0.419 0.557 setrgbcolor
gsave
357.689 284.92 77.06 49.88 clipbox
6932.44 1026.73 p0_0
gsave
fill
grestore
stroke
grestore
0.271 0.214 0.507 setrgbcolor
gsave
357.689 284.92 77.06 49.88 clipbox
6932.44 1045.23 p0_0
gsave
fill
grestore
stroke
grestore
0.278 0.056 0.381 setrgbcolor
gsave
357.689 284.92 77.06 49.88 clipbox
6932.44 1063.73 p0_0
gsave
fill
grestore
stroke
grestore
0.269 0.010 0.335 setrgbcolor
gsave
357.689 284.92 77.06 49.88 clipbox
6932.44 1082.23 p0_0
gsave
fill
grestore
stroke
grestore
0.267 0.005 0.329 setrgbcolor
gsave
357.689 284.92 77.06 49.88 clipbox
6945.45 878.717 p0_0
gsave
fill
grestore
stroke
grestore
0.271 0.020 0.347 setrgbcolor
gsave
357.689 284.92 77.06 49.88 clipbox
6945.45 897.219 p0_0
gsave
fill
grestore
stroke
grestore
0.278 0.056 0.381 setrgbcolor
gsave
357.689 284.92 77.06 49.88 clipbox
6945.45 915.72 p0_0
gsave
fill
grestore
stroke
grestore
0.277 0.185 0.490 setrgbcolor
gsave
357.689 284.92 77.06 49.88 clipbox
6945.45 934.221 p0_0
gsave
fill
grestore
stroke
grestore
0.135 0.545 0.554 setrgbcolor
gsave
357.689 284.92 77.06 49.88 clipbox
6945.45 952.722 p0_0
gsave
fill
grestore
stroke
grestore
0.202 0.715 0.476 setrgbcolor
gsave
357.689 284.92 77.06 49.88 clipbox
6945.45 971.224 p0_0
gsave
fill
grestore
stroke
grestore
0.386 0.795 0.373 setrgbcolor
gsave
357.689 284.92 77.06 49.88 clipbox
6945.45 989.725 p0_0
gsave
fill
grestore
stroke
grestore
0.253 0.742 0.448 setrgbcolor
gsave
357.689 284.92 77.06 49.88 clipbox
6945.45 1008.23 p0_0
gsave
fill
grestore
stroke
grestore
0.179 0.434 0.557 setrgbcolor
gsave
357.689 284.92 77.06 49.88 clipbox
6945.45 1026.73 p0_0
gsave
fill
grestore
stroke
grestore
0.262 0.242 0.521 setrgbcolor
gsave
357.689 284.92 77.06 49.88 clipbox
6945.45 1045.23 p0_0
gsave
fill
grestore
stroke
grestore
0.283 0.100 0.422 setrgbcolor
gsave
357.689 284.92 77.06 49.88 clipbox
6945.45 1063.73 p0_0
gsave
fill
grestore
stroke
grestore
0.274 0.031 0.359 setrgbcolor
gsave
357.689 284.92 77.06 49.88 clipbox
6945.45 1082.23 p0_0
gsave
fill
grestore
stroke
grestore
0.270 0.015 0.341 setrgbcolor
gsave
357.689 284.92 77.06 49.88 clipbox
6958.45 878.717 p0_0
gsave
fill
grestore
stroke
grestore
0.269 0.010 0.335 setrgbcolor
gsave
357.689 284.92 77.06 49.88 clipbox
6958.45 897.219 p0_0
gsave
fill
grestore
stroke
grestore
0.283 0.105 0.427 setrgbcolor
gsave
357.689 284.92 77.06 49.88 clipbox
6958.45 915.72 p0_0
gsave
fill
grestore
stroke
grestore
0.245 0.288 0.537 setrgbcolor
gsave
357.689 284.92 77.06 49.88 clipbox
6958.45 934.221 p0_0
gsave
fill
grestore
stroke
grestore
0.121 0.596 0.544 setrgbcolor
gsave
357.689 284.92 77.06 49.88 clipbox
6958.45 952.722 p0_0
gsave
fill
grestore
stroke
grestore
0.478 0.821 0.318 setrgbcolor
gsave
357.689 284.92 77.06 49.88 clipbox
6958.45 971.224 p0_0
gsave
fill
grestore
stroke
grestore
0.720 0.870 0.163 setrgbcolor
gsave
357.689 284.92 77.06 49.88 clipbox
6958.45 989.725 p0_0
gsave
fill
grestore
stroke
grestore
0.274 0.752 0.437 setrgbcolor
gsave
357.689 284.92 77.06 49.88 clipbox
6958.45 1008.23 p0_0
gsave
fill
grestore
stroke
grestore
0.123 0.582 0.547 setrgbcolor
gsave
357.689 284.92 77.06 49.88 clipbox
6958.45 1026.73 p0_0
gsave
fill
grestore
stroke
grestore
0.234 0.314 0.544 setrgbcolor
gsave
357.689 284.92 77.06 49.88 clipbox
6958.45 1045.23 p0_0
gsave
fill
grestore
stroke
grestore
0.283 0.121 0.441 setrgbcolor
gsave
357.689 284.92 77.06 49.88 clipbox
6958.45 1063.73 p0_0
gsave
fill
grestore
stroke
grestore
0.276 0.044 0.370 setrgbcolor
gsave
357.689 284.92 77.06 49.88 clipbox
6958.45 1082.23 p0_0
gsave
fill
grestore
stroke
grestore
0.271 0.020 0.347 setrgbcolor
gsave
357.689 284.92 77.06 49.88 clipbox
6971.46 897.219 p0_0
gsave
fill
grestore
stroke
grestore
0.283 0.116 0.436 setrgbcolor
gsave
357.689 284.92 77.06 49.88 clipbox
6971.46 915.72 p0_0
gsave
fill
grestore
stroke
grestore
0.250 0.274 0.533 setrgbcolor
gsave
357.689 284.92 77.06 49.88 clipbox
6971.46 934.221 p0_0
gsave
fill
grestore
stroke
grestore
0.149 0.508 0.557 setrgbcolor
gsave
357.689 284.92 77.06 49.88 clipbox
6971.46 952.722 p0_0
gsave
fill
grestore
stroke
grestore
0.794 0.881 0.120 setrgbcolor
gsave
357.689 284.92 77.06 49.88 clipbox
6971.46 971.224 p0_0
gsave
fill
grestore
stroke
grestore
0.965 0.902 0.124 setrgbcolor
gsave
357.689 284.92 77.06 49.88 clipbox
6971.46 989.725 p0_0
gsave
fill
grestore
stroke
grestore
0.606 0.851 0.237 setrgbcolor
gsave
357.689 284.92 77.06 49.88 clipbox
6971.46 1008.23 p0_0
gsave
fill
grestore
stroke
grestore
0.134 0.549 0.554 setrgbcolor
gsave
357.689 284.92 77.06 49.88 clipbox
6971.46 1026.73 p0_0
gsave
fill
grestore
stroke
grestore
0.265 0.233 0.517 setrgbcolor
gsave
357.689 284.92 77.06 49.88 clipbox
6971.46 1045.23 p0_0
gsave
fill
grestore
stroke
grestore
0.280 0.166 0.476 setrgbcolor
gsave
357.689 284.92 77.06 49.88 clipbox
6971.46 1063.73 p0_0
gsave
fill
grestore
stroke
grestore
0.270 0.015 0.341 setrgbcolor
gsave
357.689 284.92 77.06 49.88 clipbox
6971.46 1082.23 p0_0
gsave
fill
grestore
stroke
grestore
0.267 0.005 0.329 setrgbcolor
gsave
357.689 284.92 77.06 49.88 clipbox
6971.46 1119.23 p0_0
gsave
fill
grestore
stroke
grestore
0.269 0.010 0.335 setrgbcolor
gsave
357.689 284.92 77.06 49.88 clipbox
6984.47 878.717 p0_0
gsave
fill
grestore
stroke
grestore
0.270 0.015 0.341 setrgbcolor
gsave
357.689 284.92 77.06 49.88 clipbox
6984.47 897.219 p0_0
gsave
fill
grestore
stroke
grestore
0.282 0.095 0.417 setrgbcolor
gsave
357.689 284.92 77.06 49.88 clipbox
6984.47 915.72 p0_0
gsave
fill
grestore
stroke
grestore
0.254 0.265 0.530 setrgbcolor
gsave
357.689 284.92 77.06 49.88 clipbox
6984.47 934.221 p0_0
gsave
fill
grestore
stroke
grestore
0.131 0.556 0.552 setrgbcolor
gsave
357.689 284.92 77.06 49.88 clipbox
6984.47 952.722 p0_0
gsave
fill
grestore
stroke
grestore
0.526 0.833 0.288 setrgbcolor
gsave
357.689 284.92 77.06 49.88 clipbox
6984.47 971.224 p0_0
gsave
fill
grestore
stroke
grestore
0.422 0.806 0.352 setrgbcolor
gsave
357.689 284.92 77.06 49.88 clipbox
6984.47 989.725 p0_0
gsave
fill
grestore
stroke
grestore
0.239 0.736 0.456 setrgbcolor
gsave
357.689 284.92 77.06 49.88 clipbox
6984.47 1008.23 p0_0
gsave
fill
grestore
stroke
grestore
0.120 0.622 0.535 setrgbcolor
gsave
357.689 284.92 77.06 49.88 clipbox
6984.47 1026.73 p0_0
gsave
fill
grestore
stroke
grestore
0.265 0.233 0.517 setrgbcolor
gsave
357.689 284.92 77.06 49.88 clipbox
6984.47 1045.23 p0_0
gsave
fill
grestore
stroke
grestore
0.283 0.111 0.432 setrgbcolor
gsave
357.689 284.92 77.06 49.88 clipbox
6984.47 1063.73 p0_0
gsave
fill
grestore
stroke
grestore
0.270 0.015 0.341 setrgbcolor
gsave
357.689 284.92 77.06 49.88 clipbox
6984.47 1082.23 p0_0
gsave
fill
grestore
stroke
grestore
0.269 0.010 0.335 setrgbcolor
gsave
357.689 284.92 77.06 49.88 clipbox
6984.47 1100.73 p0_0
gsave
fill
grestore
stroke
grestore
0.270 0.015 0.341 setrgbcolor
gsave
357.689 284.92 77.06 49.88 clipbox
6997.47 897.219 p0_0
gsave
fill
grestore
stroke
grestore
0.283 0.111 0.432 setrgbcolor
gsave
357.689 284.92 77.06 49.88 clipbox
6997.47 915.72 p0_0
gsave
fill
grestore
stroke
grestore
0.269 0.219 0.510 setrgbcolor
gsave
357.689 284.92 77.06 49.88 clipbox
6997.47 934.221 p0_0
gsave
fill
grestore
stroke
grestore
0.150 0.504 0.557 setrgbcolor
gsave
357.689 284.92 77.06 49.88 clipbox
6997.47 952.722 p0_0
gsave
fill
grestore
stroke
grestore
0.137 0.662 0.516 setrgbcolor
gsave
357.689 284.92 77.06 49.88 clipbox
6997.47 971.224 p0_0
gsave
fill
grestore
stroke
grestore
0.226 0.729 0.463 setrgbcolor
gsave
357.689 284.92 77.06 49.88 clipbox
6997.47 989.725 p0_0
gsave
fill
grestore
stroke
grestore
0.186 0.705 0.485 setrgbcolor
gsave
357.689 284.92 77.06 49.88 clipbox
6997.47 1008.23 p0_0
gsave
fill
grestore
stroke
grestore
0.146 0.515 0.557 setrgbcolor
gsave
357.689 284.92 77.06 49.88 clipbox
6997.47 1026.73 p0_0
gsave
fill
grestore
stroke
grestore
0.280 0.171 0.480 setrgbcolor
gsave
357.689 284.92 77.06 49.88 clipbox
6997.47 1045.23 p0_0
gsave
fill
grestore
stroke
grestore
0.283 0.131 0.449 setrgbcolor
gsave
357.689 284.92 77.06 49.88 clipbox
6997.47 1063.73 p0_0
gsave
fill
grestore
stroke
grestore
0.267 0.005 0.329 setrgbcolor
gsave
357.689 284.92 77.06 49.88 clipbox
6997.47 1082.23 p0_0
gsave
fill
grestore
stroke
grestore
0.269 0.010 0.335 setrgbcolor
gsave
357.689 284.92 77.06 49.88 clipbox
6997.47 1100.73 p0_0
gsave
fill
grestore
stroke
grestore
0.267 0.005 0.329 setrgbcolor
gsave
357.689 284.92 77.06 49.88 clipbox
7010.48 897.219 p0_0
gsave
fill
grestore
stroke
grestore
0.282 0.090 0.412 setrgbcolor
gsave
357.689 284.92 77.06 49.88 clipbox
7010.48 915.72 p0_0
gsave
fill
grestore
stroke
grestore
0.280 0.171 0.480 setrgbcolor
gsave
357.689 284.92 77.06 49.88 clipbox
7010.48 934.221 p0_0
gsave
fill
grestore
stroke
grestore
0.218 0.347 0.550 setrgbcolor
gsave
357.689 284.92 77.06 49.88 clipbox
7010.48 952.722 p0_0
gsave
fill
grestore
stroke
grestore
0.129 0.563 0.551 setrgbcolor
gsave
357.689 284.92 77.06 49.88 clipbox
7010.48 971.224 p0_0
gsave
fill
grestore
stroke
grestore
0.120 0.622 0.535 setrgbcolor
gsave
357.689 284.92 77.06 49.88 clipbox
7010.48 989.725 p0_0
gsave
fill
grestore
stroke
grestore
0.119 0.615 0.538 setrgbcolor
gsave
357.689 284.92 77.06 49.88 clipbox
7010.48 1008.23 p0_0
gsave
fill
grestore
stroke
grestore
0.184 0.422 0.557 setrgbcolor
gsave
357.689 284.92 77.06 49.88 clipbox
7010.48 1026.73 p0_0
gsave
fill
grestore
stroke
grestore
0.282 0.151 0.465 setrgbcolor
gsave
357.689 284.92 77.06 49.88 clipbox
7010.48 1045.23 p0_0
gsave
fill
grestore
stroke
grestore
0.282 0.095 0.417 setrgbcolor
gsave
357.689 284.92 77.06 49.88 clipbox
7010.48 1063.73 p0_0
gsave
fill
grestore
stroke
grestore
0.270 0.015 0.341 setrgbcolor
gsave
357.689 284.92 77.06 49.88 clipbox
7010.48 1082.23 p0_0
gsave
fill
grestore
stroke
grestore
0.267 0.005 0.329 setrgbcolor
gsave
357.689 284.92 77.06 49.88 clipbox
7023.49 897.219 p0_0
gsave
fill
grestore
stroke
grestore
0.271 0.020 0.347 setrgbcolor
gsave
357.689 284.92 77.06 49.88 clipbox
7023.49 915.72 p0_0
gsave
fill
grestore
stroke
grestore
0.278 0.180 0.487 setrgbcolor
gsave
357.689 284.92 77.06 49.88 clipbox
7023.49 934.221 p0_0
gsave
fill
grestore
stroke
grestore
0.254 0.265 0.530 setrgbcolor
gsave
357.689 284.92 77.06 49.88 clipbox
7023.49 952.722 p0_0
gsave
fill
grestore
stroke
grestore
0.237 0.305 0.542 setrgbcolor
gsave
357.689 284.92 77.06 49.88 clipbox
7023.49 971.224 p0_0
gsave
fill
grestore
stroke
grestore
0.153 0.497 0.558 setrgbcolor
gsave
357.689 284.92 77.06 49.88 clipbox
7023.49 989.725 p0_0
gsave
fill
grestore
stroke
grestore
0.170 0.456 0.558 setrgbcolor
gsave
357.689 284.92 77.06 49.88 clipbox
7023.49 1008.23 p0_0
gsave
fill
grestore
stroke
grestore
0.232 0.318 0.545 setrgbcolor
gsave
357.689 284.92 77.06 49.88 clipbox
7023.49 1026.73 p0_0
gsave
fill
grestore
stroke
grestore
0.280 0.166 0.476 setrgbcolor
gsave
357.689 284.92 77.06 49.88 clipbox
7023.49 1045.23 p0_0
gsave
fill
grestore
stroke
grestore
0.280 0.068 0.392 setrgbcolor
gsave
357.689 284.92 77.06 49.88 clipbox
7023.49 1063.73 p0_0
gsave
fill
grestore
stroke
grestore
0.269 0.010 0.335 setrgbcolor
gsave
357.689 284.92 77.06 49.88 clipbox
7023.49 1082.23 p0_0
gsave
fill
grestore
stroke
grestore
0.267 0.005 0.329 setrgbcolor
gsave
357.689 284.92 77.06 49.88 clipbox
7023.49 1100.73 p0_0
gsave
fill
grestore
stroke
grestore
0.273 0.026 0.353 setrgbcolor
gsave
357.689 284.92 77.06 49.88 clipbox
7036.49 915.72 p0_0
gsave
fill
grestore
stroke
grestore
0.281 0.084 0.407 setrgbcolor
gsave
357.689 284.92 77.06 49.88 clipbox
7036.49 934.221 p0_0
gsave
fill
grestore
stroke
grestore
0.283 0.111 0.432 setrgbcolor
gsave
357.689 284.92 77.06 49.88 clipbox
7036.49 952.722 p0_0
gsave
fill
grestore
stroke
grestore
0.243 0.292 0.539 setrgbcolor
gsave
357.689 284.92 77.06 49.88 clipbox
7036.49 971.224 p0_0
gsave
fill
grestore
stroke
grestore
0.211 0.364 0.552 setrgbcolor
gsave
357.689 284.92 77.06 49.88 clipbox
7036.49 989.725 p0_0
gsave
fill
grestore
stroke
grestore
0.205 0.376 0.554 setrgbcolor
gsave
357.689 284.92 77.06 49.88 clipbox
7036.49 1008.23 p0_0
gsave
fill
grestore
stroke
grestore
0.252 0.270 0.532 setrgbcolor
gsave
357.689 284.92 77.06 49.88 clipbox
7036.49 1026.73 p0_0
gsave
fill
grestore
stroke
grestore
0.282 0.090 0.412 setrgbcolor
gsave
357.689 284.92 77.06 49.88 clipbox
7036.49 1045.23 p0_0
gsave
fill
grestore
stroke
grestore
0.274 0.031 0.359 setrgbcolor
gsave
357.689 284.92 77.06 49.88 clipbox
7036.49 1063.73 p0_0
gsave
fill
grestore
stroke
grestore
0.270 0.015 0.341 setrgbcolor
gsave
357.689 284.92 77.06 49.88 clipbox
7036.49 1082.23 p0_0
gsave
fill
grestore
stroke
grestore
0.269 0.010 0.335 setrgbcolor
gsave
357.689 284.92 77.06 49.88 clipbox
7036.49 1137.74 p0_0
gsave
fill
grestore
stroke
grestore
0.267 0.005 0.329 setrgbcolor
gsave
357.689 284.92 77.06 49.88 clipbox
7049.5 915.72 p0_0
gsave
fill
grestore
stroke
grestore
0.270 0.015 0.341 setrgbcolor
gsave
357.689 284.92 77.06 49.88 clipbox
7049.5 934.221 p0_0
gsave
fill
grestore
stroke
grestore
0.283 0.105 0.427 setrgbcolor
gsave
357.689 284.92 77.06 49.88 clipbox
7049.5 952.722 p0_0
gsave
fill
grestore
stroke
grestore
0.274 0.200 0.499 setrgbcolor
gsave
357.689 284.92 77.06 49.88 clipbox
7049.5 971.224 p0_0
gsave
fill
grestore
stroke
grestore
0.277 0.185 0.490 setrgbcolor
gsave
357.689 284.92 77.06 49.88 clipbox
7049.5 989.725 p0_0
gsave
fill
grestore
stroke
grestore
0.275 0.195 0.496 setrgbcolor
gsave
357.689 284.92 77.06 49.88 clipbox
7049.5 1008.23 p0_0
gsave
fill
grestore
stroke
grestore
0.283 0.141 0.458 setrgbcolor
gsave
357.689 284.92 77.06 49.88 clipbox
7049.5 1026.73 p0_0
gsave
fill
grestore
stroke
grestore
0.283 0.116 0.436 setrgbcolor
gsave
357.689 284.92 77.06 49.88 clipbox
7049.5 1045.23 p0_0
gsave
fill
grestore
stroke
grestore
0.280 0.068 0.392 setrgbcolor
gsave
357.689 284.92 77.06 49.88 clipbox
7049.5 1063.73 p0_0
gsave
fill
grestore
stroke
grestore
0.267 0.005 0.329 setrgbcolor
gsave
357.689 284.92 77.06 49.88 clipbox
7049.5 1082.23 p0_0
gsave
fill
grestore
stroke
grestore
gsave
357.689 284.92 77.06 49.88 clipbox
7062.51 915.72 p0_0
gsave
fill
grestore
stroke
grestore
0.271 0.020 0.347 setrgbcolor
gsave
357.689 284.92 77.06 49.88 clipbox
7062.51 934.221 p0_0
gsave
fill
grestore
stroke
grestore
0.279 0.062 0.387 setrgbcolor
gsave
357.689 284.92 77.06 49.88 clipbox
7062.51 952.722 p0_0
gsave
fill
grestore
stroke
grestore
0.283 0.111 0.432 setrgbcolor
gsave
357.689 284.92 77.06 49.88 clipbox
7062.51 971.224 p0_0
gsave
fill
grestore
stroke
grestore
0.282 0.090 0.412 setrgbcolor
gsave
357.689 284.92 77.06 49.88 clipbox
7062.51 989.725 p0_0
gsave
fill
grestore
stroke
grestore
0.282 0.095 0.417 setrgbcolor
gsave
357.689 284.92 77.06 49.88 clipbox
7062.51 1008.23 p0_0
gsave
fill
grestore
stroke
grestore
0.283 0.100 0.422 setrgbcolor
gsave
357.689 284.92 77.06 49.88 clipbox
7062.51 1026.73 p0_0
gsave
fill
grestore
stroke
grestore
0.281 0.079 0.402 setrgbcolor
gsave
357.689 284.92 77.06 49.88 clipbox
7062.51 1045.23 p0_0
gsave
fill
grestore
stroke
grestore
0.271 0.020 0.347 setrgbcolor
gsave
357.689 284.92 77.06 49.88 clipbox
7062.51 1063.73 p0_0
gsave
fill
grestore
stroke
grestore
0.269 0.010 0.335 setrgbcolor
gsave
357.689 284.92 77.06 49.88 clipbox
7062.51 1082.23 p0_0
gsave
fill
grestore
stroke
grestore
0.275 0.038 0.365 setrgbcolor
gsave
357.689 284.92 77.06 49.88 clipbox
7075.51 915.72 p0_0
gsave
fill
grestore
stroke
grestore
0.269 0.010 0.335 setrgbcolor
gsave
357.689 284.92 77.06 49.88 clipbox
7075.51 934.221 p0_0
gsave
fill
grestore
stroke
grestore
0.276 0.044 0.370 setrgbcolor
gsave
357.689 284.92 77.06 49.88 clipbox
7075.51 952.722 p0_0
gsave
fill
grestore
stroke
grestore
gsave
357.689 284.92 77.06 49.88 clipbox
7075.51 971.224 p0_0
gsave
fill
grestore
stroke
grestore
0.280 0.068 0.392 setrgbcolor
gsave
357.689 284.92 77.06 49.88 clipbox
7075.51 989.725 p0_0
gsave
fill
grestore
stroke
grestore
gsave
357.689 284.92 77.06 49.88 clipbox
7075.51 1008.23 p0_0
gsave
fill
grestore
stroke
grestore
0.271 0.020 0.347 setrgbcolor
gsave
357.689 284.92 77.06 49.88 clipbox
7075.51 1026.73 p0_0
gsave
fill
grestore
stroke
grestore
0.270 0.015 0.341 setrgbcolor
gsave
357.689 284.92 77.06 49.88 clipbox
7075.51 1045.23 p0_0
gsave
fill
grestore
stroke
grestore
0.267 0.005 0.329 setrgbcolor
gsave
357.689 284.92 77.06 49.88 clipbox
7075.51 1063.73 p0_0
gsave
fill
grestore
stroke
grestore
gsave
357.689 284.92 77.06 49.88 clipbox
7075.51 1082.23 p0_0
gsave
fill
grestore
stroke
grestore
0.269 0.010 0.335 setrgbcolor
gsave
357.689 284.92 77.06 49.88 clipbox
7088.52 934.221 p0_0
gsave
fill
grestore
stroke
grestore
0.267 0.005 0.329 setrgbcolor
gsave
357.689 284.92 77.06 49.88 clipbox
7088.52 952.722 p0_0
gsave
fill
grestore
stroke
grestore
0.271 0.020 0.347 setrgbcolor
gsave
357.689 284.92 77.06 49.88 clipbox
7088.52 971.224 p0_0
gsave
fill
grestore
stroke
grestore
0.275 0.038 0.365 setrgbcolor
gsave
357.689 284.92 77.06 49.88 clipbox
7088.52 989.725 p0_0
gsave
fill
grestore
stroke
grestore
0.274 0.031 0.359 setrgbcolor
gsave
357.689 284.92 77.06 49.88 clipbox
7088.52 1008.23 p0_0
gsave
fill
grestore
stroke
grestore
0.267 0.005 0.329 setrgbcolor
gsave
357.689 284.92 77.06 49.88 clipbox
7088.52 1026.73 p0_0
gsave
fill
grestore
stroke
grestore
gsave
357.689 284.92 77.06 49.88 clipbox
7101.53 934.221 p0_0
gsave
fill
grestore
stroke
grestore
gsave
357.689 284.92 77.06 49.88 clipbox
7101.53 952.722 p0_0
gsave
fill
grestore
stroke
grestore
0.269 0.010 0.335 setrgbcolor
gsave
357.689 284.92 77.06 49.88 clipbox
7101.53 971.224 p0_0
gsave
fill
grestore
stroke
grestore
gsave
357.689 284.92 77.06 49.88 clipbox
7101.53 989.725 p0_0
gsave
fill
grestore
stroke
grestore
0.271 0.020 0.347 setrgbcolor
gsave
357.689 284.92 77.06 49.88 clipbox
7101.53 1008.23 p0_0
gsave
fill
grestore
stroke
grestore
0.267 0.005 0.329 setrgbcolor
gsave
357.689 284.92 77.06 49.88 clipbox
7114.54 989.725 p0_0
gsave
fill
grestore
stroke
grestore
gsave
357.689 284.92 77.06 49.88 clipbox
7127.54 1008.23 p0_0
gsave
fill
grestore
stroke
grestore
gsave
357.689 284.92 77.06 49.88 clipbox
7140.55 1026.73 p0_0
gsave
fill
grestore
stroke
grestore
gsave
357.689 284.92 77.06 49.88 clipbox
6821.88 998.976 p0_0
gsave
fill
grestore
stroke
grestore
gsave
357.689 284.92 77.06 49.88 clipbox
6834.89 980.474 p0_0
gsave
fill
grestore
stroke
grestore
0.269 0.010 0.335 setrgbcolor
gsave
357.689 284.92 77.06 49.88 clipbox
6834.89 998.976 p0_0
gsave
fill
grestore
stroke
grestore
gsave
357.689 284.92 77.06 49.88 clipbox
6834.89 1017.48 p0_0
gsave
fill
grestore
stroke
grestore
0.270 0.015 0.341 setrgbcolor
gsave
357.689 284.92 77.06 49.88 clipbox
6847.89 943.472 p0_0
gsave
fill
grestore
stroke
grestore
0.269 0.010 0.335 setrgbcolor
gsave
357.689 284.92 77.06 49.88 clipbox
6847.89 961.973 p0_0
gsave
fill
grestore
stroke
grestore
0.271 0.020 0.347 setrgbcolor
gsave
357.689 284.92 77.06 49.88 clipbox
6847.89 980.474 p0_0
gsave
fill
grestore
stroke
grestore
0.274 0.031 0.359 setrgbcolor
gsave
357.689 284.92 77.06 49.88 clipbox
6847.89 998.976 p0_0
gsave
fill
grestore
stroke
grestore
0.271 0.020 0.347 setrgbcolor
gsave
357.689 284.92 77.06 49.88 clipbox
6847.89 1017.48 p0_0
gsave
fill
grestore
stroke
grestore
gsave
357.689 284.92 77.06 49.88 clipbox
6847.89 1035.98 p0_0
gsave
fill
grestore
stroke
grestore
0.267 0.005 0.329 setrgbcolor
gsave
357.689 284.92 77.06 49.88 clipbox
6847.89 1054.48 p0_0
gsave
fill
grestore
stroke
grestore
gsave
357.689 284.92 77.06 49.88 clipbox
6847.89 1072.98 p0_0
gsave
fill
grestore
stroke
grestore
0.271 0.020 0.347 setrgbcolor
gsave
357.689 284.92 77.06 49.88 clipbox
6860.9 924.971 p0_0
gsave
fill
grestore
stroke
grestore
0.267 0.005 0.329 setrgbcolor
gsave
357.689 284.92 77.06 49.88 clipbox
6860.9 943.472 p0_0
gsave
fill
grestore
stroke
grestore
gsave
357.689 284.92 77.06 49.88 clipbox
6860.9 961.973 p0_0
gsave
fill
grestore
stroke
grestore
0.270 0.015 0.341 setrgbcolor
gsave
357.689 284.92 77.06 49.88 clipbox
6860.9 980.474 p0_0
gsave
fill
grestore
stroke
grestore
0.276 0.044 0.370 setrgbcolor
gsave
357.689 284.92 77.06 49.88 clipbox
6860.9 998.976 p0_0
gsave
fill
grestore
stroke
grestore
gsave
357.689 284.92 77.06 49.88 clipbox
6860.9 1017.48 p0_0
gsave
fill
grestore
stroke
grestore
0.274 0.031 0.359 setrgbcolor
gsave
357.689 284.92 77.06 49.88 clipbox
6860.9 1035.98 p0_0
gsave
fill
grestore
stroke
grestore
0.271 0.020 0.347 setrgbcolor
gsave
357.689 284.92 77.06 49.88 clipbox
6860.9 1054.48 p0_0
gsave
fill
grestore
stroke
grestore
0.267 0.005 0.329 setrgbcolor
gsave
357.689 284.92 77.06 49.88 clipbox
6860.9 1072.98 p0_0
gsave
fill
grestore
stroke
grestore
0.269 0.010 0.335 setrgbcolor
gsave
357.689 284.92 77.06 49.88 clipbox
6873.91 924.971 p0_0
gsave
fill
grestore
stroke
grestore
0.276 0.044 0.370 setrgbcolor
gsave
357.689 284.92 77.06 49.88 clipbox
6873.91 943.472 p0_0
gsave
fill
grestore
stroke
grestore
0.278 0.056 0.381 setrgbcolor
gsave
357.689 284.92 77.06 49.88 clipbox
6873.91 961.973 p0_0
gsave
fill
grestore
stroke
grestore
0.283 0.105 0.427 setrgbcolor
gsave
357.689 284.92 77.06 49.88 clipbox
6873.91 980.474 p0_0
gsave
fill
grestore
stroke
grestore
0.283 0.131 0.449 setrgbcolor
gsave
357.689 284.92 77.06 49.88 clipbox
6873.91 998.976 p0_0
gsave
fill
grestore
stroke
grestore
0.281 0.084 0.407 setrgbcolor
gsave
357.689 284.92 77.06 49.88 clipbox
6873.91 1017.48 p0_0
gsave
fill
grestore
stroke
grestore
0.276 0.044 0.370 setrgbcolor
gsave
357.689 284.92 77.06 49.88 clipbox
6873.91 1035.98 p0_0
gsave
fill
grestore
stroke
grestore
0.271 0.020 0.347 setrgbcolor
gsave
357.689 284.92 77.06 49.88 clipbox
6873.91 1054.48 p0_0
gsave
fill
grestore
stroke
grestore
0.269 0.010 0.335 setrgbcolor
gsave
357.689 284.92 77.06 49.88 clipbox
6873.91 1072.98 p0_0
gsave
fill
grestore
stroke
grestore
gsave
357.689 284.92 77.06 49.88 clipbox
6886.91 906.469 p0_0
gsave
fill
grestore
stroke
grestore
gsave
357.689 284.92 77.06 49.88 clipbox
6886.91 924.971 p0_0
gsave
fill
grestore
stroke
grestore
0.283 0.116 0.436 setrgbcolor
gsave
357.689 284.92 77.06 49.88 clipbox
6886.91 943.472 p0_0
gsave
fill
grestore
stroke
grestore
0.283 0.136 0.453 setrgbcolor
gsave
357.689 284.92 77.06 49.88 clipbox
6886.91 961.973 p0_0
gsave
fill
grestore
stroke
grestore
0.275 0.195 0.496 setrgbcolor
gsave
357.689 284.92 77.06 49.88 clipbox
6886.91 980.474 p0_0
gsave
fill
grestore
stroke
grestore
0.283 0.111 0.432 setrgbcolor
gsave
357.689 284.92 77.06 49.88 clipbox
6886.91 998.976 p0_0
gsave
fill
grestore
stroke
grestore
gsave
357.689 284.92 77.06 49.88 clipbox
6886.91 1017.48 p0_0
gsave
fill
grestore
stroke
grestore
0.283 0.105 0.427 setrgbcolor
gsave
357.689 284.92 77.06 49.88 clipbox
6886.91 1035.98 p0_0
gsave
fill
grestore
stroke
grestore
0.278 0.056 0.381 setrgbcolor
gsave
357.689 284.92 77.06 49.88 clipbox
6886.91 1054.48 p0_0
gsave
fill
grestore
stroke
grestore
0.267 0.005 0.329 setrgbcolor
gsave
357.689 284.92 77.06 49.88 clipbox
6886.91 1091.48 p0_0
gsave
fill
grestore
stroke
grestore
gsave
357.689 284.92 77.06 49.88 clipbox
6899.92 887.968 p0_0
gsave
fill
grestore
stroke
grestore
0.269 0.010 0.335 setrgbcolor
gsave
357.689 284.92 77.06 49.88 clipbox
6899.92 906.469 p0_0
gsave
fill
grestore
stroke
grestore
0.276 0.044 0.370 setrgbcolor
gsave
357.689 284.92 77.06 49.88 clipbox
6899.92 924.971 p0_0
gsave
fill
grestore
stroke
grestore
0.283 0.126 0.445 setrgbcolor
gsave
357.689 284.92 77.06 49.88 clipbox
6899.92 943.472 p0_0
gsave
fill
grestore
stroke
grestore
0.247 0.283 0.536 setrgbcolor
gsave
357.689 284.92 77.06 49.88 clipbox
6899.92 961.973 p0_0
gsave
fill
grestore
stroke
grestore
0.218 0.347 0.550 setrgbcolor
gsave
357.689 284.92 77.06 49.88 clipbox
6899.92 980.474 p0_0
gsave
fill
grestore
stroke
grestore
0.228 0.327 0.547 setrgbcolor
gsave
357.689 284.92 77.06 49.88 clipbox
6899.92 998.976 p0_0
gsave
fill
grestore
stroke
grestore
0.271 0.214 0.507 setrgbcolor
gsave
357.689 284.92 77.06 49.88 clipbox
6899.92 1017.48 p0_0
gsave
fill
grestore
stroke
grestore
0.281 0.161 0.473 setrgbcolor
gsave
357.689 284.92 77.06 49.88 clipbox
6899.92 1035.98 p0_0
gsave
fill
grestore
stroke
grestore
0.276 0.044 0.370 setrgbcolor
gsave
357.689 284.92 77.06 49.88 clipbox
6899.92 1054.48 p0_0
gsave
fill
grestore
stroke
grestore
0.269 0.010 0.335 setrgbcolor
gsave
357.689 284.92 77.06 49.88 clipbox
6899.92 1072.98 p0_0
gsave
fill
grestore
stroke
grestore
0.267 0.005 0.329 setrgbcolor
gsave
357.689 284.92 77.06 49.88 clipbox
6899.92 1109.98 p0_0
gsave
fill
grestore
stroke
grestore
gsave
357.689 284.92 77.06 49.88 clipbox
6912.93 887.968 p0_0
gsave
fill
grestore
stroke
grestore
0.271 0.020 0.347 setrgbcolor
gsave
357.689 284.92 77.06 49.88 clipbox
6912.93 906.469 p0_0
gsave
fill
grestore
stroke
grestore
0.279 0.062 0.387 setrgbcolor
gsave
357.689 284.92 77.06 49.88 clipbox
6912.93 924.971 p0_0
gsave
fill
grestore
stroke
grestore
0.280 0.171 0.480 setrgbcolor
gsave
357.689 284.92 77.06 49.88 clipbox
6912.93 943.472 p0_0
gsave
fill
grestore
stroke
grestore
0.196 0.395 0.555 setrgbcolor
gsave
357.689 284.92 77.06 49.88 clipbox
6912.93 961.973 p0_0
gsave
fill
grestore
stroke
grestore
0.189 0.411 0.556 setrgbcolor
gsave
357.689 284.92 77.06 49.88 clipbox
6912.93 980.474 p0_0
gsave
fill
grestore
stroke
grestore
0.179 0.434 0.557 setrgbcolor
gsave
357.689 284.92 77.06 49.88 clipbox
6912.93 998.976 p0_0
gsave
fill
grestore
stroke
grestore
0.237 0.305 0.542 setrgbcolor
gsave
357.689 284.92 77.06 49.88 clipbox
6912.93 1017.48 p0_0
gsave
fill
grestore
stroke
grestore
0.274 0.200 0.499 setrgbcolor
gsave
357.689 284.92 77.06 49.88 clipbox
6912.93 1035.98 p0_0
gsave
fill
grestore
stroke
grestore
0.283 0.105 0.427 setrgbcolor
gsave
357.689 284.92 77.06 49.88 clipbox
6912.93 1054.48 p0_0
gsave
fill
grestore
stroke
grestore
0.271 0.020 0.347 setrgbcolor
gsave
357.689 284.92 77.06 49.88 clipbox
6912.93 1072.98 p0_0
gsave
fill
grestore
stroke
grestore
0.269 0.010 0.335 setrgbcolor
gsave
357.689 284.92 77.06 49.88 clipbox
6912.93 1091.48 p0_0
gsave
fill
grestore
stroke
grestore
0.267 0.005 0.329 setrgbcolor
gsave
357.689 284.92 77.06 49.88 clipbox
6912.93 1109.98 p0_0
gsave
fill
grestore
stroke
grestore
0.281 0.084 0.407 setrgbcolor
gsave
357.689 284.92 77.06 49.88 clipbox
6925.94 906.469 p0_0
gsave
fill
grestore
stroke
grestore
0.283 0.116 0.436 setrgbcolor
gsave
357.689 284.92 77.06 49.88 clipbox
6925.94 924.971 p0_0
gsave
fill
grestore
stroke
grestore
0.252 0.270 0.532 setrgbcolor
gsave
357.689 284.92 77.06 49.88 clipbox
6925.94 943.472 p0_0
gsave
fill
grestore
stroke
grestore
0.181 0.430 0.557 setrgbcolor
gsave
357.689 284.92 77.06 49.88 clipbox
6925.94 961.973 p0_0
gsave
fill
grestore
stroke
grestore
0.128 0.567 0.551 setrgbcolor
gsave
357.689 284.92 77.06 49.88 clipbox
6925.94 980.474 p0_0
gsave
fill
grestore
stroke
grestore
0.120 0.618 0.536 setrgbcolor
gsave
357.689 284.92 77.06 49.88 clipbox
6925.94 998.976 p0_0
gsave
fill
grestore
stroke
grestore
0.156 0.490 0.558 setrgbcolor
gsave
357.689 284.92 77.06 49.88 clipbox
6925.94 1017.48 p0_0
gsave
fill
grestore
stroke
grestore
0.254 0.265 0.530 setrgbcolor
gsave
357.689 284.92 77.06 49.88 clipbox
6925.94 1035.98 p0_0
gsave
fill
grestore
stroke
grestore
0.280 0.171 0.480 setrgbcolor
gsave
357.689 284.92 77.06 49.88 clipbox
6925.94 1054.48 p0_0
gsave
fill
grestore
stroke
grestore
0.278 0.056 0.381 setrgbcolor
gsave
357.689 284.92 77.06 49.88 clipbox
6925.94 1072.98 p0_0
gsave
fill
grestore
stroke
grestore
0.267 0.005 0.329 setrgbcolor
gsave
357.689 284.92 77.06 49.88 clipbox
6925.94 1091.48 p0_0
gsave
fill
grestore
stroke
grestore
0.276 0.044 0.370 setrgbcolor
gsave
357.689 284.92 77.06 49.88 clipbox
6938.94 906.469 p0_0
gsave
fill
grestore
stroke
grestore
0.281 0.156 0.469 setrgbcolor
gsave
357.689 284.92 77.06 49.88 clipbox
6938.94 924.971 p0_0
gsave
fill
grestore
stroke
grestore
0.205 0.376 0.554 setrgbcolor
gsave
357.689 284.92 77.06 49.88 clipbox
6938.94 943.472 p0_0
gsave
fill
grestore
stroke
grestore
0.123 0.582 0.547 setrgbcolor
gsave
357.689 284.92 77.06 49.88 clipbox
6938.94 961.973 p0_0
gsave
fill
grestore
stroke
grestore
0.253 0.742 0.448 setrgbcolor
gsave
357.689 284.92 77.06 49.88 clipbox
6938.94 980.474 p0_0
gsave
fill
grestore
stroke
grestore
0.328 0.774 0.407 setrgbcolor
gsave
357.689 284.92 77.06 49.88 clipbox
6938.94 998.976 p0_0
gsave
fill
grestore
stroke
grestore
0.119 0.615 0.538 setrgbcolor
gsave
357.689 284.92 77.06 49.88 clipbox
6938.94 1017.48 p0_0
gsave
fill
grestore
stroke
grestore
0.207 0.372 0.553 setrgbcolor
gsave
357.689 284.92 77.06 49.88 clipbox
6938.94 1035.98 p0_0
gsave
fill
grestore
stroke
grestore
0.282 0.151 0.465 setrgbcolor
gsave
357.689 284.92 77.06 49.88 clipbox
6938.94 1054.48 p0_0
gsave
fill
grestore
stroke
grestore
0.276 0.044 0.370 setrgbcolor
gsave
357.689 284.92 77.06 49.88 clipbox
6938.94 1072.98 p0_0
gsave
fill
grestore
stroke
grestore
0.271 0.020 0.347 setrgbcolor
gsave
357.689 284.92 77.06 49.88 clipbox
6938.94 1091.48 p0_0
gsave
fill
grestore
stroke
grestore
0.267 0.005 0.329 setrgbcolor
gsave
357.689 284.92 77.06 49.88 clipbox
6938.94 1128.48 p0_0
gsave
fill
grestore
stroke
grestore
gsave
357.689 284.92 77.06 49.88 clipbox
6951.95 887.968 p0_0
gsave
fill
grestore
stroke
grestore
0.276 0.044 0.370 setrgbcolor
gsave
357.689 284.92 77.06 49.88 clipbox
6951.95 906.469 p0_0
gsave
fill
grestore
stroke
grestore
0.262 0.242 0.521 setrgbcolor
gsave
357.689 284.92 77.06 49.88 clipbox
6951.95 924.971 p0_0
gsave
fill
grestore
stroke
grestore
0.189 0.411 0.556 setrgbcolor
gsave
357.689 284.92 77.06 49.88 clipbox
6951.95 943.472 p0_0
gsave
fill
grestore
stroke
grestore
0.128 0.648 0.523 setrgbcolor
gsave
357.689 284.92 77.06 49.88 clipbox
6951.95 961.973 p0_0
gsave
fill
grestore
stroke
grestore
0.993 0.906 0.144 setrgbcolor
gsave
357.689 284.92 77.06 49.88 clipbox
6951.95 980.474 p0_0
gsave
fill
grestore
stroke
grestore
0.487 0.824 0.312 setrgbcolor
gsave
357.689 284.92 77.06 49.88 clipbox
6951.95 998.976 p0_0
gsave
fill
grestore
stroke
grestore
0.120 0.600 0.543 setrgbcolor
gsave
357.689 284.92 77.06 49.88 clipbox
6951.95 1017.48 p0_0
gsave
fill
grestore
stroke
grestore
0.203 0.380 0.554 setrgbcolor
gsave
357.689 284.92 77.06 49.88 clipbox
6951.95 1035.98 p0_0
gsave
fill
grestore
stroke
grestore
0.282 0.151 0.465 setrgbcolor
gsave
357.689 284.92 77.06 49.88 clipbox
6951.95 1054.48 p0_0
gsave
fill
grestore
stroke
grestore
0.276 0.044 0.370 setrgbcolor
gsave
357.689 284.92 77.06 49.88 clipbox
6951.95 1072.98 p0_0
gsave
fill
grestore
stroke
grestore
0.271 0.020 0.347 setrgbcolor
gsave
357.689 284.92 77.06 49.88 clipbox
6951.95 1091.48 p0_0
gsave
fill
grestore
stroke
grestore
0.267 0.005 0.329 setrgbcolor
gsave
357.689 284.92 77.06 49.88 clipbox
6951.95 1109.98 p0_0
gsave
fill
grestore
stroke
grestore
gsave
357.689 284.92 77.06 49.88 clipbox
6964.96 887.968 p0_0
gsave
fill
grestore
stroke
grestore
0.273 0.026 0.353 setrgbcolor
gsave
357.689 284.92 77.06 49.88 clipbox
6964.96 906.469 p0_0
gsave
fill
grestore
stroke
grestore
0.272 0.209 0.504 setrgbcolor
gsave
357.689 284.92 77.06 49.88 clipbox
6964.96 924.971 p0_0
gsave
fill
grestore
stroke
grestore
0.189 0.411 0.556 setrgbcolor
gsave
357.689 284.92 77.06 49.88 clipbox
6964.96 943.472 p0_0
gsave
fill
grestore
stroke
grestore
0.281 0.755 0.433 setrgbcolor
gsave
357.689 284.92 77.06 49.88 clipbox
6964.96 961.973 p0_0
gsave
fill
grestore
stroke
grestore
0.926 0.897 0.104 setrgbcolor
gsave
357.689 284.92 77.06 49.88 clipbox
6964.96 980.474 p0_0
gsave
fill
grestore
stroke
grestore
0.866 0.890 0.096 setrgbcolor
gsave
357.689 284.92 77.06 49.88 clipbox
6964.96 998.976 p0_0
gsave
fill
grestore
stroke
grestore
0.162 0.687 0.499 setrgbcolor
gsave
357.689 284.92 77.06 49.88 clipbox
6964.96 1017.48 p0_0
gsave
fill
grestore
stroke
grestore
0.184 0.422 0.557 setrgbcolor
gsave
357.689 284.92 77.06 49.88 clipbox
6964.96 1035.98 p0_0
gsave
fill
grestore
stroke
grestore
0.250 0.274 0.533 setrgbcolor
gsave
357.689 284.92 77.06 49.88 clipbox
6964.96 1054.48 p0_0
gsave
fill
grestore
stroke
grestore
0.271 0.020 0.347 setrgbcolor
gsave
357.689 284.92 77.06 49.88 clipbox
6964.96 1072.98 p0_0
gsave
fill
grestore
stroke
grestore
0.267 0.005 0.329 setrgbcolor
gsave
357.689 284.92 77.06 49.88 clipbox
6964.96 1109.98 p0_0
gsave
fill
grestore
stroke
grestore
0.271 0.020 0.347 setrgbcolor
gsave
357.689 284.92 77.06 49.88 clipbox
6977.96 887.968 p0_0
gsave
fill
grestore
stroke
grestore
0.275 0.038 0.365 setrgbcolor
gsave
357.689 284.92 77.06 49.88 clipbox
6977.96 906.469 p0_0
gsave
fill
grestore
stroke
grestore
0.277 0.185 0.490 setrgbcolor
gsave
357.689 284.92 77.06 49.88 clipbox
6977.96 924.971 p0_0
gsave
fill
grestore
stroke
grestore
0.189 0.411 0.556 setrgbcolor
gsave
357.689 284.92 77.06 49.88 clipbox
6977.96 943.472 p0_0
gsave
fill
grestore
stroke
grestore
0.120 0.618 0.536 setrgbcolor
gsave
357.689 284.92 77.06 49.88 clipbox
6977.96 961.973 p0_0
gsave
fill
grestore
stroke
grestore
0.946 0.900 0.113 setrgbcolor
gsave
357.689 284.92 77.06 49.88 clipbox
6977.96 980.474 p0_0
gsave
fill
grestore
stroke
grestore
0.459 0.816 0.330 setrgbcolor
gsave
357.689 284.92 77.06 49.88 clipbox
6977.96 998.976 p0_0
gsave
fill
grestore
stroke
grestore
0.131 0.556 0.552 setrgbcolor
gsave
357.689 284.92 77.06 49.88 clipbox
6977.96 1017.48 p0_0
gsave
fill
grestore
stroke
grestore
0.170 0.456 0.558 setrgbcolor
gsave
357.689 284.92 77.06 49.88 clipbox
6977.96 1035.98 p0_0
gsave
fill
grestore
stroke
grestore
0.277 0.185 0.490 setrgbcolor
gsave
357.689 284.92 77.06 49.88 clipbox
6977.96 1054.48 p0_0
gsave
fill
grestore
stroke
grestore
0.276 0.044 0.370 setrgbcolor
gsave
357.689 284.92 77.06 49.88 clipbox
6977.96 1072.98 p0_0
gsave
fill
grestore
stroke
grestore
0.270 0.015 0.341 setrgbcolor
gsave
357.689 284.92 77.06 49.88 clipbox
6977.96 1091.48 p0_0
gsave
fill
grestore
stroke
grestore
0.267 0.005 0.329 setrgbcolor
gsave
357.689 284.92 77.06 49.88 clipbox
6977.96 1128.48 p0_0
gsave
fill
grestore
stroke
grestore
0.269 0.010 0.335 setrgbcolor
gsave
357.689 284.92 77.06 49.88 clipbox
6990.97 887.968 p0_0
gsave
fill
grestore
stroke
grestore
0.276 0.044 0.370 setrgbcolor
gsave
357.689 284.92 77.06 49.88 clipbox
6990.97 906.469 p0_0
gsave
fill
grestore
stroke
grestore
0.276 0.190 0.493 setrgbcolor
gsave
357.689 284.92 77.06 49.88 clipbox
6990.97 924.971 p0_0
gsave
fill
grestore
stroke
grestore
0.232 0.318 0.545 setrgbcolor
gsave
357.689 284.92 77.06 49.88 clipbox
6990.97 943.472 p0_0
gsave
fill
grestore
stroke
grestore
0.126 0.644 0.525 setrgbcolor
gsave
357.689 284.92 77.06 49.88 clipbox
6990.97 961.973 p0_0
gsave
fill
grestore
stroke
grestore
0.181 0.701 0.488 setrgbcolor
gsave
357.689 284.92 77.06 49.88 clipbox
6990.97 980.474 p0_0
gsave
fill
grestore
stroke
grestore
0.449 0.814 0.335 setrgbcolor
gsave
357.689 284.92 77.06 49.88 clipbox
6990.97 998.976 p0_0
gsave
fill
grestore
stroke
grestore
0.120 0.622 0.535 setrgbcolor
gsave
357.689 284.92 77.06 49.88 clipbox
6990.97 1017.48 p0_0
gsave
fill
grestore
stroke
grestore
0.194 0.399 0.556 setrgbcolor
gsave
357.689 284.92 77.06 49.88 clipbox
6990.97 1035.98 p0_0
gsave
fill
grestore
stroke
grestore
0.280 0.171 0.480 setrgbcolor
gsave
357.689 284.92 77.06 49.88 clipbox
6990.97 1054.48 p0_0
gsave
fill
grestore
stroke
grestore
0.276 0.044 0.370 setrgbcolor
gsave
357.689 284.92 77.06 49.88 clipbox
6990.97 1072.98 p0_0
gsave
fill
grestore
stroke
grestore
0.269 0.010 0.335 setrgbcolor
gsave
357.689 284.92 77.06 49.88 clipbox
6990.97 1091.48 p0_0
gsave
fill
grestore
stroke
grestore
0.275 0.038 0.365 setrgbcolor
gsave
357.689 284.92 77.06 49.88 clipbox
7003.98 906.469 p0_0
gsave
fill
grestore
stroke
grestore
0.283 0.116 0.436 setrgbcolor
gsave
357.689 284.92 77.06 49.88 clipbox
7003.98 924.971 p0_0
gsave
fill
grestore
stroke
grestore
0.209 0.368 0.553 setrgbcolor
gsave
357.689 284.92 77.06 49.88 clipbox
7003.98 943.472 p0_0
gsave
fill
grestore
stroke
grestore
0.128 0.567 0.551 setrgbcolor
gsave
357.689 284.92 77.06 49.88 clipbox
7003.98 961.973 p0_0
gsave
fill
grestore
stroke
grestore
0.171 0.694 0.494 setrgbcolor
gsave
357.689 284.92 77.06 49.88 clipbox
7003.98 980.474 p0_0
gsave
fill
grestore
stroke
grestore
0.123 0.582 0.547 setrgbcolor
gsave
357.689 284.92 77.06 49.88 clipbox
7003.98 998.976 p0_0
gsave
fill
grestore
stroke
grestore
0.149 0.508 0.557 setrgbcolor
gsave
357.689 284.92 77.06 49.88 clipbox
7003.98 1017.48 p0_0
gsave
fill
grestore
stroke
grestore
0.226 0.331 0.547 setrgbcolor
gsave
357.689 284.92 77.06 49.88 clipbox
7003.98 1035.98 p0_0
gsave
fill
grestore
stroke
grestore
0.282 0.095 0.417 setrgbcolor
gsave
357.689 284.92 77.06 49.88 clipbox
7003.98 1054.48 p0_0
gsave
fill
grestore
stroke
grestore
0.281 0.084 0.407 setrgbcolor
gsave
357.689 284.92 77.06 49.88 clipbox
7003.98 1072.98 p0_0
gsave
fill
grestore
stroke
grestore
0.267 0.005 0.329 setrgbcolor
gsave
357.689 284.92 77.06 49.88 clipbox
7003.98 1091.48 p0_0
gsave
fill
grestore
stroke
grestore
0.269 0.010 0.335 setrgbcolor
gsave
357.689 284.92 77.06 49.88 clipbox
7016.98 887.968 p0_0
gsave
fill
grestore
stroke
grestore
0.270 0.015 0.341 setrgbcolor
gsave
357.689 284.92 77.06 49.88 clipbox
7016.98 906.469 p0_0
gsave
fill
grestore
stroke
grestore
0.282 0.095 0.417 setrgbcolor
gsave
357.689 284.92 77.06 49.88 clipbox
7016.98 924.971 p0_0
gsave
fill
grestore
stroke
grestore
0.256 0.261 0.528 setrgbcolor
gsave
357.689 284.92 77.06 49.88 clipbox
7016.98 943.472 p0_0
gsave
fill
grestore
stroke
grestore
0.158 0.486 0.558 setrgbcolor
gsave
357.689 284.92 77.06 49.88 clipbox
7016.98 961.973 p0_0
gsave
fill
grestore
stroke
grestore
0.136 0.541 0.554 setrgbcolor
gsave
357.689 284.92 77.06 49.88 clipbox
7016.98 980.474 p0_0
gsave
fill
grestore
stroke
grestore
0.141 0.530 0.556 setrgbcolor
gsave
357.689 284.92 77.06 49.88 clipbox
7016.98 998.976 p0_0
gsave
fill
grestore
stroke
grestore
0.136 0.541 0.554 setrgbcolor
gsave
357.689 284.92 77.06 49.88 clipbox
7016.98 1017.48 p0_0
gsave
fill
grestore
stroke
grestore
0.272 0.209 0.504 setrgbcolor
gsave
357.689 284.92 77.06 49.88 clipbox
7016.98 1035.98 p0_0
gsave
fill
grestore
stroke
grestore
0.282 0.095 0.417 setrgbcolor
gsave
357.689 284.92 77.06 49.88 clipbox
7016.98 1054.48 p0_0
gsave
fill
grestore
stroke
grestore
0.280 0.068 0.392 setrgbcolor
gsave
357.689 284.92 77.06 49.88 clipbox
7016.98 1072.98 p0_0
gsave
fill
grestore
stroke
grestore
0.269 0.010 0.335 setrgbcolor
gsave
357.689 284.92 77.06 49.88 clipbox
7016.98 1091.48 p0_0
gsave
fill
grestore
stroke
grestore
0.267 0.005 0.329 setrgbcolor
gsave
357.689 284.92 77.06 49.88 clipbox
7016.98 1109.98 p0_0
gsave
fill
grestore
stroke
grestore
gsave
357.689 284.92 77.06 49.88 clipbox
7029.99 887.968 p0_0
gsave
fill
grestore
stroke
grestore
0.269 0.010 0.335 setrgbcolor
gsave
357.689 284.92 77.06 49.88 clipbox
7029.99 906.469 p0_0
gsave
fill
grestore
stroke
grestore
0.283 0.105 0.427 setrgbcolor
gsave
357.689 284.92 77.06 49.88 clipbox
7029.99 924.971 p0_0
gsave
fill
grestore
stroke
grestore
0.283 0.116 0.436 setrgbcolor
gsave
357.689 284.92 77.06 49.88 clipbox
7029.99 943.472 p0_0
gsave
fill
grestore
stroke
grestore
0.222 0.339 0.549 setrgbcolor
gsave
357.689 284.92 77.06 49.88 clipbox
7029.99 961.973 p0_0
gsave
fill
grestore
stroke
grestore
0.189 0.411 0.556 setrgbcolor
gsave
357.689 284.92 77.06 49.88 clipbox
7029.99 980.474 p0_0
gsave
fill
grestore
stroke
grestore
0.220 0.343 0.549 setrgbcolor
gsave
357.689 284.92 77.06 49.88 clipbox
7029.99 998.976 p0_0
gsave
fill
grestore
stroke
grestore
0.237 0.305 0.542 setrgbcolor
gsave
357.689 284.92 77.06 49.88 clipbox
7029.99 1017.48 p0_0
gsave
fill
grestore
stroke
grestore
0.269 0.219 0.510 setrgbcolor
gsave
357.689 284.92 77.06 49.88 clipbox
7029.99 1035.98 p0_0
gsave
fill
grestore
stroke
grestore
0.281 0.079 0.402 setrgbcolor
gsave
357.689 284.92 77.06 49.88 clipbox
7029.99 1054.48 p0_0
gsave
fill
grestore
stroke
grestore
0.271 0.020 0.347 setrgbcolor
gsave
357.689 284.92 77.06 49.88 clipbox
7029.99 1072.98 p0_0
gsave
fill
grestore
stroke
grestore
0.269 0.010 0.335 setrgbcolor
gsave
357.689 284.92 77.06 49.88 clipbox
7029.99 1091.48 p0_0
gsave
fill
grestore
stroke
grestore
0.273 0.026 0.353 setrgbcolor
gsave
357.689 284.92 77.06 49.88 clipbox
7043 924.971 p0_0
gsave
fill
grestore
stroke
grestore
0.282 0.095 0.417 setrgbcolor
gsave
357.689 284.92 77.06 49.88 clipbox
7043 943.472 p0_0
gsave
fill
grestore
stroke
grestore
0.282 0.151 0.465 setrgbcolor
gsave
357.689 284.92 77.06 49.88 clipbox
7043 961.973 p0_0
gsave
fill
grestore
stroke
grestore
0.267 0.228 0.514 setrgbcolor
gsave
357.689 284.92 77.06 49.88 clipbox
7043 980.474 p0_0
gsave
fill
grestore
stroke
grestore
0.216 0.352 0.551 setrgbcolor
gsave
357.689 284.92 77.06 49.88 clipbox
7043 998.976 p0_0
gsave
fill
grestore
stroke
grestore
0.271 0.214 0.507 setrgbcolor
gsave
357.689 284.92 77.06 49.88 clipbox
7043 1017.48 p0_0
gsave
fill
grestore
stroke
grestore
0.280 0.166 0.476 setrgbcolor
gsave
357.689 284.92 77.06 49.88 clipbox
7043 1035.98 p0_0
gsave
fill
grestore
stroke
grestore
0.278 0.056 0.381 setrgbcolor
gsave
357.689 284.92 77.06 49.88 clipbox
7043 1054.48 p0_0
gsave
fill
grestore
stroke
grestore
0.279 0.062 0.387 setrgbcolor
gsave
357.689 284.92 77.06 49.88 clipbox
7043 1072.98 p0_0
gsave
fill
grestore
stroke
grestore
0.267 0.005 0.329 setrgbcolor
gsave
357.689 284.92 77.06 49.88 clipbox
7043 1091.48 p0_0
gsave
fill
grestore
stroke
grestore
gsave
357.689 284.92 77.06 49.88 clipbox
7056 906.469 p0_0
gsave
fill
grestore
stroke
grestore
gsave
357.689 284.92 77.06 49.88 clipbox
7056 924.971 p0_0
gsave
fill
grestore
stroke
grestore
0.273 0.026 0.353 setrgbcolor
gsave
357.689 284.92 77.06 49.88 clipbox
7056 943.472 p0_0
gsave
fill
grestore
stroke
grestore
0.280 0.068 0.392 setrgbcolor
gsave
357.689 284.92 77.06 49.88 clipbox
7056 961.973 p0_0
gsave
fill
grestore
stroke
grestore
0.283 0.131 0.449 setrgbcolor
gsave
357.689 284.92 77.06 49.88 clipbox
7056 980.474 p0_0
gsave
fill
grestore
stroke
grestore
0.274 0.200 0.499 setrgbcolor
gsave
357.689 284.92 77.06 49.88 clipbox
7056 998.976 p0_0
gsave
fill
grestore
stroke
grestore
0.283 0.126 0.445 setrgbcolor
gsave
357.689 284.92 77.06 49.88 clipbox
7056 1017.48 p0_0
gsave
fill
grestore
stroke
grestore
0.283 0.100 0.422 setrgbcolor
gsave
357.689 284.92 77.06 49.88 clipbox
7056 1035.98 p0_0
gsave
fill
grestore
stroke
grestore
0.270 0.015 0.341 setrgbcolor
gsave
357.689 284.92 77.06 49.88 clipbox
7056 1054.48 p0_0
gsave
fill
grestore
stroke
grestore
0.267 0.005 0.329 setrgbcolor
gsave
357.689 284.92 77.06 49.88 clipbox
7056 1091.48 p0_0
gsave
fill
grestore
stroke
grestore
gsave
357.689 284.92 77.06 49.88 clipbox
7069.01 924.971 p0_0
gsave
fill
grestore
stroke
grestore
0.270 0.015 0.341 setrgbcolor
gsave
357.689 284.92 77.06 49.88 clipbox
7069.01 943.472 p0_0
gsave
fill
grestore
stroke
grestore
0.280 0.068 0.392 setrgbcolor
gsave
357.689 284.92 77.06 49.88 clipbox
7069.01 961.973 p0_0
gsave
fill
grestore
stroke
grestore
0.281 0.079 0.402 setrgbcolor
gsave
357.689 284.92 77.06 49.88 clipbox
7069.01 980.474 p0_0
gsave
fill
grestore
stroke
grestore
0.283 0.111 0.432 setrgbcolor
gsave
357.689 284.92 77.06 49.88 clipbox
7069.01 998.976 p0_0
gsave
fill
grestore
stroke
grestore
0.271 0.020 0.347 setrgbcolor
gsave
357.689 284.92 77.06 49.88 clipbox
7069.01 1017.48 p0_0
gsave
fill
grestore
stroke
grestore
gsave
357.689 284.92 77.06 49.88 clipbox
7069.01 1035.98 p0_0
gsave
fill
grestore
stroke
grestore
0.267 0.005 0.329 setrgbcolor
gsave
357.689 284.92 77.06 49.88 clipbox
7069.01 1054.48 p0_0
gsave
fill
grestore
stroke
grestore
0.269 0.010 0.335 setrgbcolor
gsave
357.689 284.92 77.06 49.88 clipbox
7082.02 906.469 p0_0
gsave
fill
grestore
stroke
grestore
0.267 0.005 0.329 setrgbcolor
gsave
357.689 284.92 77.06 49.88 clipbox
7082.02 943.472 p0_0
gsave
fill
grestore
stroke
grestore
0.271 0.020 0.347 setrgbcolor
gsave
357.689 284.92 77.06 49.88 clipbox
7082.02 961.973 p0_0
gsave
fill
grestore
stroke
grestore
0.275 0.038 0.365 setrgbcolor
gsave
357.689 284.92 77.06 49.88 clipbox
7082.02 980.474 p0_0
gsave
fill
grestore
stroke
grestore
0.273 0.026 0.353 setrgbcolor
gsave
357.689 284.92 77.06 49.88 clipbox
7082.02 998.976 p0_0
gsave
fill
grestore
stroke
grestore
0.276 0.044 0.370 setrgbcolor
gsave
357.689 284.92 77.06 49.88 clipbox
7082.02 1017.48 p0_0
gsave
fill
grestore
stroke
grestore
0.271 0.020 0.347 setrgbcolor
gsave
357.689 284.92 77.06 49.88 clipbox
7082.02 1035.98 p0_0
gsave
fill
grestore
stroke
grestore
0.269 0.010 0.335 setrgbcolor
gsave
357.689 284.92 77.06 49.88 clipbox
7082.02 1054.48 p0_0
gsave
fill
grestore
stroke
grestore
0.267 0.005 0.329 setrgbcolor
gsave
357.689 284.92 77.06 49.88 clipbox
7082.02 1072.98 p0_0
gsave
fill
grestore
stroke
grestore
gsave
357.689 284.92 77.06 49.88 clipbox
7095.02 961.973 p0_0
gsave
fill
grestore
stroke
grestore
0.269 0.010 0.335 setrgbcolor
gsave
357.689 284.92 77.06 49.88 clipbox
7095.02 1035.98 p0_0
gsave
fill
grestore
stroke
grestore
0.267 0.005 0.329 setrgbcolor
gsave
357.689 284.92 77.06 49.88 clipbox
7108.03 961.973 p0_0
gsave
fill
grestore
stroke
grestore
0.274 0.031 0.359 setrgbcolor
gsave
357.689 284.92 77.06 49.88 clipbox
7108.03 998.976 p0_0
gsave
fill
grestore
stroke
grestore
0.269 0.010 0.335 setrgbcolor
gsave
357.689 284.92 77.06 49.88 clipbox
7108.03 1035.98 p0_0
gsave
fill
grestore
stroke
grestore
0.800 setlinewidth
0.000 setgray
gsave
/o {
gsave
newpath
translate
0.8 setlinewidth
1 setlinejoin

0 setlinecap

0 0 m
0 -3.5 l

gsave
0.000 setgray
fill
grestore
stroke
grestore
} bind def
83.6213 49.88 o
grestore
/DejaVuSans 14.000 selectfont
gsave

72.4884 32.2394 translate
0 rotate
0 0 m /nine glyphshow
8.90723 0 m /period glyphshow
13.3574 0 m /seven glyphshow
grestore
gsave
/o {
gsave
newpath
translate
0.8 setlinewidth
1 setlinejoin

0 setlinecap

0 0 m
0 -3.5 l

gsave
0.000 setgray
fill
grestore
stroke
grestore
} bind def
153.783 49.88 o
grestore
/DejaVuSans 14.000 selectfont
gsave

142.65 32.2394 translate
0 rotate
0 0 m /nine glyphshow
8.90723 0 m /period glyphshow
13.3574 0 m /eight glyphshow
grestore
gsave
/o {
gsave
newpath
translate
0.8 setlinewidth
1 setlinejoin

0 setlinecap

0 0 m
0 -3.5 l

gsave
0.000 setgray
fill
grestore
stroke
grestore
} bind def
223.945 49.88 o
grestore
/DejaVuSans 14.000 selectfont
gsave

212.812 32.2394 translate
0 rotate
0 0 m /nine glyphshow
8.90723 0 m /period glyphshow
13.3574 0 m /nine glyphshow
grestore
gsave
/o {
gsave
newpath
translate
0.8 setlinewidth
1 setlinejoin

0 setlinecap

0 0 m
0 -3.5 l

gsave
0.000 setgray
fill
grestore
stroke
grestore
} bind def
294.106 49.88 o
grestore
/DejaVuSans 14.000 selectfont
gsave

278.52 32.2394 translate
0 rotate
0 0 m /one glyphshow
8.90723 0 m /zero glyphshow
17.8145 0 m /period glyphshow
22.2646 0 m /zero glyphshow
grestore
gsave
/o {
gsave
newpath
translate
0.8 setlinewidth
1 setlinejoin

0 setlinecap

0 0 m
0 -3.5 l

gsave
0.000 setgray
fill
grestore
stroke
grestore
} bind def
364.268 49.88 o
grestore
/DejaVuSans 14.000 selectfont
gsave

348.682 32.2394 translate
0 rotate
0 0 m /one glyphshow
8.90723 0 m /zero glyphshow
17.8145 0 m /period glyphshow
22.2646 0 m /one glyphshow
grestore
gsave
/o {
gsave
newpath
translate
0.8 setlinewidth
1 setlinejoin

0 setlinecap

0 0 m
0 -3.5 l

gsave
0.000 setgray
fill
grestore
stroke
grestore
} bind def
434.429 49.88 o
grestore
/DejaVuSans 14.000 selectfont
gsave

418.844 32.2394 translate
0 rotate
0 0 m /one glyphshow
8.90723 0 m /zero glyphshow
17.8145 0 m /period glyphshow
22.2646 0 m /two glyphshow
grestore
/DejaVuSans 15.000 selectfont
gsave

236.061 13.9425 translate
0 rotate
0 0 m /t glyphshow
5.88135 0 m /h glyphshow
15.3882 0 m /e glyphshow
24.6167 0 m /t glyphshow
30.498 0 m /a glyphshow
grestore
gsave
/o {
gsave
newpath
translate
0.8 setlinewidth
1 setlinejoin

0 setlinecap

-0 0 m
-3.5 0 l

gsave
0.000 setgray
fill
grestore
stroke
grestore
} bind def
77.06 61.7688 o
grestore
/DejaVuSans 14.000 selectfont
gsave

29.9819 56.4484 translate
0 rotate
0 0 m /zero glyphshow
8.90723 0 m /period glyphshow
13.3574 0 m /six glyphshow
22.2646 0 m /zero glyphshow
31.1719 0 m /zero glyphshow
grestore
gsave
/o {
gsave
newpath
translate
0.8 setlinewidth
1 setlinejoin

0 setlinecap

-0 0 m
-3.5 0 l

gsave
0.000 setgray
fill
grestore
stroke
grestore
} bind def
77.06 98.3377 o
grestore
/DejaVuSans 14.000 selectfont
gsave

29.9819 93.0174 translate
0 rotate
0 0 m /zero glyphshow
8.90723 0 m /period glyphshow
13.3574 0 m /six glyphshow
22.2646 0 m /two glyphshow
31.1719 0 m /five glyphshow
grestore
gsave
/o {
gsave
newpath
translate
0.8 setlinewidth
1 setlinejoin

0 setlinecap

-0 0 m
-3.5 0 l

gsave
0.000 setgray
fill
grestore
stroke
grestore
} bind def
77.06 134.907 o
grestore
/DejaVuSans 14.000 selectfont
gsave

29.9819 129.586 translate
0 rotate
0 0 m /zero glyphshow
8.90723 0 m /period glyphshow
13.3574 0 m /six glyphshow
22.2646 0 m /five glyphshow
31.1719 0 m /zero glyphshow
grestore
gsave
/o {
gsave
newpath
translate
0.8 setlinewidth
1 setlinejoin

0 setlinecap

-0 0 m
-3.5 0 l

gsave
0.000 setgray
fill
grestore
stroke
grestore
} bind def
77.06 171.476 o
grestore
/DejaVuSans 14.000 selectfont
gsave

29.9819 166.155 translate
0 rotate
0 0 m /zero glyphshow
8.90723 0 m /period glyphshow
13.3574 0 m /six glyphshow
22.2646 0 m /seven glyphshow
31.1719 0 m /five glyphshow
grestore
gsave
/o {
gsave
newpath
translate
0.8 setlinewidth
1 setlinejoin

0 setlinecap

-0 0 m
-3.5 0 l

gsave
0.000 setgray
fill
grestore
stroke
grestore
} bind def
77.06 208.045 o
grestore
/DejaVuSans 14.000 selectfont
gsave

29.9819 202.724 translate
0 rotate
0 0 m /zero glyphshow
8.90723 0 m /period glyphshow
13.3574 0 m /seven glyphshow
22.2646 0 m /zero glyphshow
31.1719 0 m /zero glyphshow
grestore
gsave
/o {
gsave
newpath
translate
0.8 setlinewidth
1 setlinejoin

0 setlinecap

-0 0 m
-3.5 0 l

gsave
0.000 setgray
fill
grestore
stroke
grestore
} bind def
77.06 244.614 o
grestore
/DejaVuSans 14.000 selectfont
gsave

29.9819 239.293 translate
0 rotate
0 0 m /zero glyphshow
8.90723 0 m /period glyphshow
13.3574 0 m /seven glyphshow
22.2646 0 m /two glyphshow
31.1719 0 m /five glyphshow
grestore
gsave
/o {
gsave
newpath
translate
0.8 setlinewidth
1 setlinejoin

0 setlinecap

-0 0 m
-3.5 0 l

gsave
0.000 setgray
fill
grestore
stroke
grestore
} bind def
77.06 281.183 o
grestore
/DejaVuSans 14.000 selectfont
gsave

29.9819 275.862 translate
0 rotate
0 0 m /zero glyphshow
8.90723 0 m /period glyphshow
13.3574 0 m /seven glyphshow
22.2646 0 m /five glyphshow
31.1719 0 m /zero glyphshow
grestore
gsave
/o {
gsave
newpath
translate
0.8 setlinewidth
1 setlinejoin

0 setlinecap

-0 0 m
-3.5 0 l

gsave
0.000 setgray
fill
grestore
stroke
grestore
} bind def
77.06 317.752 o
grestore
/DejaVuSans 14.000 selectfont
gsave

29.9819 312.431 translate
0 rotate
0 0 m /zero glyphshow
8.90723 0 m /period glyphshow
13.3574 0 m /seven glyphshow
22.2646 0 m /seven glyphshow
31.1719 0 m /five glyphshow
grestore
/DejaVuSans 15.000 selectfont
gsave

22.4506 165.559 translate
90 rotate
0 0 m /l glyphshow
4.16748 0 m /o glyphshow
13.3447 0 m /g glyphshow
22.8662 0 m /underscore glyphshow
30.3662 0 m /p glyphshow
39.8877 0 m /h glyphshow
49.3945 0 m /i glyphshow
grestore
0 setlinejoin
2 setlinecap
gsave
77.06 49.88 m
77.06 334.8 l
stroke
grestore
gsave
434.748994 49.88 m
434.748994 334.8 l
stroke
grestore
gsave
77.06 49.88 m
434.748994 49.88 l
stroke
grestore
gsave
77.06 334.8 m
434.748994 334.8 l
stroke
grestore

end
showpage
