%!PS-Adobe-3.0 EPSF-3.0
%%Title: pairplot.eps
%%Creator: Matplotlib v3.6.2, https://matplotlib.org/
%%CreationDate: Mon Feb 13 15:37:40 2023
%%Orientation: portrait
%%BoundingBox: 75 223 537 569
%%HiResBoundingBox: 75.600000 223.200000 536.400000 568.800000
%%EndComments
%%BeginProlog
/mpldict 11 dict def
mpldict begin
/_d { bind def } bind def
/m { moveto } _d
/l { lineto } _d
/r { rlineto } _d
/c { curveto } _d
/cl { closepath } _d
/ce { closepath eofill } _d
/box {
      m
      1 index 0 r
      0 exch r
      neg 0 r
      cl
    } _d
/clipbox {
      box
      clip
      newpath
    } _d
/sc { setcachedevice } _d
%!PS-Adobe-3.0 Resource-Font
%%Creator: Converted from TrueType to Type 3 by Matplotlib.
10 dict begin
/FontName /DejaVuSans def
/PaintType 0 def
/FontMatrix [0.00048828125 0 0 0.00048828125 0 0] def
/FontBBox [-2090 -948 3673 2524] def
/FontType 3 def
/Encoding [/a /e /g /h /i /l /period /o /zero /one /two /p /t /five /six /seven /nine /underscore] def
/CharStrings 19 dict dup begin
/.notdef 0 def
/a{1255 0 123 -29 1069 1147 sc
702 563 m
553 563 450 546 393 512 c
336 478 307 420 307 338 c
307 273 328 221 371 182 c
414 144 473 125 547 125 c
649 125 731 161 792 233 c
854 306 885 402 885 522 c
885 563 l
702 563 l

1069 639 m
1069 0 l
885 0 l
885 170 l
843 102 791 52 728 19 c
665 -13 589 -29 498 -29 c
383 -29 292 3 224 67 c
157 132 123 218 123 326 c
123 452 165 547 249 611 c
334 675 460 707 627 707 c
885 707 l
885 725 l
885 810 857 875 801 921 c
746 968 668 991 567 991 c
503 991 441 983 380 968 c
319 953 261 930 205 899 c
205 1069 l
272 1095 338 1114 401 1127 c
464 1140 526 1147 586 1147 c
748 1147 869 1105 949 1021 c
1029 937 1069 810 1069 639 c

ce} _d
/e{1260 0 113 -29 1151 1147 sc
1151 606 m
1151 516 l
305 516 l
313 389 351 293 419 226 c
488 160 583 127 705 127 c
776 127 844 136 910 153 c
977 170 1043 196 1108 231 c
1108 57 l
1042 29 974 8 905 -7 c
836 -22 765 -29 694 -29 c
515 -29 374 23 269 127 c
165 231 113 372 113 549 c
113 732 162 878 261 985 c
360 1093 494 1147 662 1147 c
813 1147 932 1098 1019 1001 c
1107 904 1151 773 1151 606 c

967 660 m
966 761 937 841 882 901 c
827 961 755 991 664 991 c
561 991 479 962 417 904 c
356 846 320 764 311 659 c
967 660 l

ce} _d
/g{1300 0 113 -426 1114 1147 sc
930 573 m
930 706 902 810 847 883 c
792 956 715 993 616 993 c
517 993 440 956 385 883 c
330 810 303 706 303 573 c
303 440 330 337 385 264 c
440 191 517 154 616 154 c
715 154 792 191 847 264 c
902 337 930 440 930 573 c

1114 139 m
1114 -52 1072 -193 987 -286 c
902 -379 773 -426 598 -426 c
533 -426 472 -421 415 -411 c
358 -402 302 -387 248 -367 c
248 -188 l
302 -217 355 -239 408 -253 c
461 -267 514 -274 569 -274 c
690 -274 780 -242 840 -179 c
900 -116 930 -21 930 106 c
930 197 l
892 131 843 82 784 49 c
725 16 654 0 571 0 c
434 0 323 52 239 157 c
155 262 113 400 113 573 c
113 746 155 885 239 990 c
323 1095 434 1147 571 1147 c
654 1147 725 1131 784 1098 c
843 1065 892 1016 930 950 c
930 1120 l
1114 1120 l
1114 139 l

ce} _d
/h{1298 0 186 0 1124 1556 sc
1124 676 m
1124 0 l
940 0 l
940 670 l
940 776 919 855 878 908 c
837 961 775 987 692 987 c
593 987 514 955 457 892 c
400 829 371 742 371 633 c
371 0 l
186 0 l
186 1556 l
371 1556 l
371 946 l
415 1013 467 1064 526 1097 c
586 1130 655 1147 733 1147 c
862 1147 959 1107 1025 1027 c
1091 948 1124 831 1124 676 c

ce} _d
/i{569 0 193 0 377 1556 sc
193 1120 m
377 1120 l
377 0 l
193 0 l
193 1120 l

193 1556 m
377 1556 l
377 1323 l
193 1323 l
193 1556 l

ce} _d
/l{569 0 193 0 377 1556 sc
193 1556 m
377 1556 l
377 0 l
193 0 l
193 1556 l

ce} _d
/period{651 0 219 0 430 254 sc
219 254 m
430 254 l
430 0 l
219 0 l
219 254 l

ce} _d
/o{1253 0 113 -29 1141 1147 sc
627 991 m
528 991 450 952 393 875 c
336 798 307 693 307 559 c
307 425 335 319 392 242 c
449 165 528 127 627 127 c
725 127 803 166 860 243 c
917 320 946 426 946 559 c
946 692 917 797 860 874 c
803 952 725 991 627 991 c

627 1147 m
787 1147 913 1095 1004 991 c
1095 887 1141 743 1141 559 c
1141 376 1095 232 1004 127 c
913 23 787 -29 627 -29 c
466 -29 340 23 249 127 c
158 232 113 376 113 559 c
113 743 158 887 249 991 c
340 1095 466 1147 627 1147 c

ce} _d
/zero{1303 0 135 -29 1167 1520 sc
651 1360 m
547 1360 469 1309 416 1206 c
364 1104 338 950 338 745 c
338 540 364 387 416 284 c
469 182 547 131 651 131 c
756 131 834 182 886 284 c
939 387 965 540 965 745 c
965 950 939 1104 886 1206 c
834 1309 756 1360 651 1360 c

651 1520 m
818 1520 946 1454 1034 1321 c
1123 1189 1167 997 1167 745 c
1167 494 1123 302 1034 169 c
946 37 818 -29 651 -29 c
484 -29 356 37 267 169 c
179 302 135 494 135 745 c
135 997 179 1189 267 1321 c
356 1454 484 1520 651 1520 c

ce} _d
/one{1303 0 225 0 1114 1493 sc
254 170 m
584 170 l
584 1309 l
225 1237 l
225 1421 l
582 1493 l
784 1493 l
784 170 l
1114 170 l
1114 0 l
254 0 l
254 170 l

ce} _d
/two{1303 0 150 0 1098 1520 sc
393 170 m
1098 170 l
1098 0 l
150 0 l
150 170 l
227 249 331 356 463 489 c
596 623 679 709 713 748 c
778 821 823 882 848 932 c
874 983 887 1032 887 1081 c
887 1160 859 1225 803 1275 c
748 1325 675 1350 586 1350 c
523 1350 456 1339 385 1317 c
315 1295 240 1262 160 1217 c
160 1421 l
241 1454 317 1478 388 1495 c
459 1512 523 1520 582 1520 c
737 1520 860 1481 952 1404 c
1044 1327 1090 1223 1090 1094 c
1090 1033 1078 974 1055 919 c
1032 864 991 800 930 725 c
913 706 860 650 771 557 c
682 465 556 336 393 170 c

ce} _d
/p{1300 0 186 -426 1188 1147 sc
371 168 m
371 -426 l
186 -426 l
186 1120 l
371 1120 l
371 950 l
410 1017 458 1066 517 1098 c
576 1131 647 1147 729 1147 c
865 1147 975 1093 1060 985 c
1145 877 1188 735 1188 559 c
1188 383 1145 241 1060 133 c
975 25 865 -29 729 -29 c
647 -29 576 -13 517 19 c
458 52 410 101 371 168 c

997 559 m
997 694 969 800 913 877 c
858 954 781 993 684 993 c
587 993 510 954 454 877 c
399 800 371 694 371 559 c
371 424 399 317 454 240 c
510 163 587 125 684 125 c
781 125 858 163 913 240 c
969 317 997 424 997 559 c

ce} _d
/t{803 0 55 0 754 1438 sc
375 1438 m
375 1120 l
754 1120 l
754 977 l
375 977 l
375 369 l
375 278 387 219 412 193 c
437 167 488 154 565 154 c
754 154 l
754 0 l
565 0 l
423 0 325 26 271 79 c
217 132 190 229 190 369 c
190 977 l
55 977 l
55 1120 l
190 1120 l
190 1438 l
375 1438 l

ce} _d
/five{1303 0 158 -29 1124 1493 sc
221 1493 m
1014 1493 l
1014 1323 l
406 1323 l
406 957 l
435 967 465 974 494 979 c
523 984 553 987 582 987 c
749 987 881 941 978 850 c
1075 759 1124 635 1124 479 c
1124 318 1074 193 974 104 c
874 15 733 -29 551 -29 c
488 -29 424 -24 359 -13 c
294 -2 227 14 158 35 c
158 238 l
218 205 280 181 344 165 c
408 149 476 141 547 141 c
662 141 754 171 821 232 c
888 293 922 375 922 479 c
922 583 888 665 821 726 c
754 787 662 817 547 817 c
493 817 439 811 385 799 c
332 787 277 768 221 743 c
221 1493 l

ce} _d
/six{1303 0 143 -29 1174 1520 sc
676 827 m
585 827 513 796 460 734 c
407 672 381 587 381 479 c
381 372 407 287 460 224 c
513 162 585 131 676 131 c
767 131 838 162 891 224 c
944 287 971 372 971 479 c
971 587 944 672 891 734 c
838 796 767 827 676 827 c

1077 1460 m
1077 1276 l
1026 1300 975 1318 923 1331 c
872 1344 821 1350 770 1350 c
637 1350 535 1305 464 1215 c
394 1125 354 989 344 807 c
383 865 433 909 492 940 c
551 971 617 987 688 987 c
838 987 956 941 1043 850 c
1130 759 1174 636 1174 479 c
1174 326 1129 203 1038 110 c
947 17 827 -29 676 -29 c
503 -29 371 37 280 169 c
189 302 143 494 143 745 c
143 981 199 1169 311 1309 c
423 1450 573 1520 762 1520 c
813 1520 864 1515 915 1505 c
967 1495 1021 1480 1077 1460 c

ce} _d
/seven{1303 0 168 0 1128 1493 sc
168 1493 m
1128 1493 l
1128 1407 l
586 0 l
375 0 l
885 1323 l
168 1323 l
168 1493 l

ce} _d
/nine{1303 0 129 -29 1159 1520 sc
225 31 m
225 215 l
276 191 327 173 379 160 c
431 147 482 141 532 141 c
665 141 767 186 837 275 c
908 365 948 501 958 684 c
919 627 870 583 811 552 c
752 521 686 506 614 506 c
465 506 346 551 259 641 c
172 732 129 855 129 1012 c
129 1165 174 1288 265 1381 c
356 1474 476 1520 627 1520 c
800 1520 931 1454 1022 1321 c
1113 1189 1159 997 1159 745 c
1159 510 1103 322 991 181 c
880 41 730 -29 541 -29 c
490 -29 439 -24 387 -14 c
335 -4 281 11 225 31 c

627 664 m
718 664 789 695 842 757 c
895 819 922 904 922 1012 c
922 1119 895 1204 842 1266 c
789 1329 718 1360 627 1360 c
536 1360 464 1329 411 1266 c
358 1204 332 1119 332 1012 c
332 904 358 819 411 757 c
464 695 536 664 627 664 c

ce} _d
/underscore{1024 0 -20 -483 1044 -340 sc
1044 -340 m
1044 -483 l
-20 -483 l
-20 -340 l
1044 -340 l

ce} _d
end readonly def

/BuildGlyph {
 exch begin
 CharStrings exch
 2 copy known not {pop /.notdef} if
 true 3 1 roll get exec
 end
} _d

/BuildChar {
 1 index /Encoding get exch get
 1 index /BuildGlyph get exec
} _d

FontName currentdict end definefont pop
end
%%EndProlog
mpldict begin
75.6 223.2 translate
460.8 345.6 0 0 clipbox
gsave
0 0 m
460.8 0 l
460.8 345.6 l
0 345.6 l
cl
1.000 setgray
fill
grestore
gsave
77.15 49.88 m
450 49.88 l
450 334.8 l
77.15 334.8 l
cl
1.000 setgray
fill
grestore
/p0_0 {
newpath
translate
-8929.441601 -819.614733 m
-8929.441601 -810.980794 l
-8938.361457 -806.663824 l
-8947.281313 -810.980794 l
-8947.281313 -819.614733 l
-8938.361457 -823.931703 l
cl

} bind def
1.000 setlinewidth
1 setlinejoin
0 setlinecap
[] 0 setdash
0.273 0.026 0.353 setrgbcolor
gsave
372.85 284.92 77.15 49.88 clipbox
9032.46 1007.64 p0_0
gsave
fill
grestore
stroke
grestore
0.267 0.005 0.329 setrgbcolor
gsave
372.85 284.92 77.15 49.88 clipbox
9032.46 1033.54 p0_0
gsave
fill
grestore
stroke
grestore
gsave
372.85 284.92 77.15 49.88 clipbox
9050.3 955.834 p0_0
gsave
fill
grestore
stroke
grestore
gsave
372.85 284.92 77.15 49.88 clipbox
9050.3 981.736 p0_0
gsave
fill
grestore
stroke
grestore
0.276 0.044 0.370 setrgbcolor
gsave
372.85 284.92 77.15 49.88 clipbox
9050.3 1007.64 p0_0
gsave
fill
grestore
stroke
grestore
0.280 0.073 0.397 setrgbcolor
gsave
372.85 284.92 77.15 49.88 clipbox
9050.3 1033.54 p0_0
gsave
fill
grestore
stroke
grestore
0.267 0.005 0.329 setrgbcolor
gsave
372.85 284.92 77.15 49.88 clipbox
9050.3 1059.44 p0_0
gsave
fill
grestore
stroke
grestore
0.270 0.015 0.341 setrgbcolor
gsave
372.85 284.92 77.15 49.88 clipbox
9068.14 929.932 p0_0
gsave
fill
grestore
stroke
grestore
0.273 0.026 0.353 setrgbcolor
gsave
372.85 284.92 77.15 49.88 clipbox
9068.14 955.834 p0_0
gsave
fill
grestore
stroke
grestore
0.282 0.151 0.465 setrgbcolor
gsave
372.85 284.92 77.15 49.88 clipbox
9068.14 981.736 p0_0
gsave
fill
grestore
stroke
grestore
0.276 0.044 0.370 setrgbcolor
gsave
372.85 284.92 77.15 49.88 clipbox
9068.14 1007.64 p0_0
gsave
fill
grestore
stroke
grestore
0.283 0.136 0.453 setrgbcolor
gsave
372.85 284.92 77.15 49.88 clipbox
9068.14 1033.54 p0_0
gsave
fill
grestore
stroke
grestore
0.278 0.056 0.381 setrgbcolor
gsave
372.85 284.92 77.15 49.88 clipbox
9068.14 1059.44 p0_0
gsave
fill
grestore
stroke
grestore
0.281 0.161 0.473 setrgbcolor
gsave
372.85 284.92 77.15 49.88 clipbox
9085.98 955.834 p0_0
gsave
fill
grestore
stroke
grestore
0.277 0.185 0.490 setrgbcolor
gsave
372.85 284.92 77.15 49.88 clipbox
9085.98 981.736 p0_0
gsave
fill
grestore
stroke
grestore
0.282 0.151 0.465 setrgbcolor
gsave
372.85 284.92 77.15 49.88 clipbox
9085.98 1007.64 p0_0
gsave
fill
grestore
stroke
grestore
0.283 0.111 0.432 setrgbcolor
gsave
372.85 284.92 77.15 49.88 clipbox
9085.98 1033.54 p0_0
gsave
fill
grestore
stroke
grestore
0.270 0.015 0.341 setrgbcolor
gsave
372.85 284.92 77.15 49.88 clipbox
9085.98 1059.44 p0_0
gsave
fill
grestore
stroke
grestore
0.267 0.005 0.329 setrgbcolor
gsave
372.85 284.92 77.15 49.88 clipbox
9085.98 1085.34 p0_0
gsave
fill
grestore
stroke
grestore
gsave
372.85 284.92 77.15 49.88 clipbox
9103.82 929.932 p0_0
gsave
fill
grestore
stroke
grestore
0.278 0.056 0.381 setrgbcolor
gsave
372.85 284.92 77.15 49.88 clipbox
9103.82 955.834 p0_0
gsave
fill
grestore
stroke
grestore
0.245 0.288 0.537 setrgbcolor
gsave
372.85 284.92 77.15 49.88 clipbox
9103.82 981.736 p0_0
gsave
fill
grestore
stroke
grestore
0.198 0.392 0.555 setrgbcolor
gsave
372.85 284.92 77.15 49.88 clipbox
9103.82 1007.64 p0_0
gsave
fill
grestore
stroke
grestore
0.257 0.256 0.527 setrgbcolor
gsave
372.85 284.92 77.15 49.88 clipbox
9103.82 1033.54 p0_0
gsave
fill
grestore
stroke
grestore
0.277 0.185 0.490 setrgbcolor
gsave
372.85 284.92 77.15 49.88 clipbox
9103.82 1059.44 p0_0
gsave
fill
grestore
stroke
grestore
0.278 0.056 0.381 setrgbcolor
gsave
372.85 284.92 77.15 49.88 clipbox
9103.82 1085.34 p0_0
gsave
fill
grestore
stroke
grestore
0.267 0.005 0.329 setrgbcolor
gsave
372.85 284.92 77.15 49.88 clipbox
9121.66 904.03 p0_0
gsave
fill
grestore
stroke
grestore
0.283 0.126 0.445 setrgbcolor
gsave
372.85 284.92 77.15 49.88 clipbox
9121.66 929.932 p0_0
gsave
fill
grestore
stroke
grestore
0.269 0.219 0.510 setrgbcolor
gsave
372.85 284.92 77.15 49.88 clipbox
9121.66 955.834 p0_0
gsave
fill
grestore
stroke
grestore
0.186 0.419 0.557 setrgbcolor
gsave
372.85 284.92 77.15 49.88 clipbox
9121.66 981.736 p0_0
gsave
fill
grestore
stroke
grestore
0.177 0.438 0.558 setrgbcolor
gsave
372.85 284.92 77.15 49.88 clipbox
9121.66 1007.64 p0_0
gsave
fill
grestore
stroke
grestore
0.230 0.322 0.546 setrgbcolor
gsave
372.85 284.92 77.15 49.88 clipbox
9121.66 1033.54 p0_0
gsave
fill
grestore
stroke
grestore
0.283 0.100 0.422 setrgbcolor
gsave
372.85 284.92 77.15 49.88 clipbox
9121.66 1059.44 p0_0
gsave
fill
grestore
stroke
grestore
0.276 0.044 0.370 setrgbcolor
gsave
372.85 284.92 77.15 49.88 clipbox
9121.66 1085.34 p0_0
gsave
fill
grestore
stroke
grestore
0.280 0.073 0.397 setrgbcolor
gsave
372.85 284.92 77.15 49.88 clipbox
9139.5 929.932 p0_0
gsave
fill
grestore
stroke
grestore
0.186 0.419 0.557 setrgbcolor
gsave
372.85 284.92 77.15 49.88 clipbox
9139.5 955.834 p0_0
gsave
fill
grestore
stroke
grestore
0.147 0.673 0.509 setrgbcolor
gsave
372.85 284.92 77.15 49.88 clipbox
9139.5 981.736 p0_0
gsave
fill
grestore
stroke
grestore
0.166 0.691 0.497 setrgbcolor
gsave
372.85 284.92 77.15 49.88 clipbox
9139.5 1007.64 p0_0
gsave
fill
grestore
stroke
grestore
0.186 0.419 0.557 setrgbcolor
gsave
372.85 284.92 77.15 49.88 clipbox
9139.5 1033.54 p0_0
gsave
fill
grestore
stroke
grestore
0.282 0.151 0.465 setrgbcolor
gsave
372.85 284.92 77.15 49.88 clipbox
9139.5 1059.44 p0_0
gsave
fill
grestore
stroke
grestore
0.267 0.005 0.329 setrgbcolor
gsave
372.85 284.92 77.15 49.88 clipbox
9139.5 1085.34 p0_0
gsave
fill
grestore
stroke
grestore
0.273 0.026 0.353 setrgbcolor
gsave
372.85 284.92 77.15 49.88 clipbox
9157.34 878.129 p0_0
gsave
fill
grestore
stroke
grestore
0.276 0.044 0.370 setrgbcolor
gsave
372.85 284.92 77.15 49.88 clipbox
9157.34 904.03 p0_0
gsave
fill
grestore
stroke
grestore
0.282 0.151 0.465 setrgbcolor
gsave
372.85 284.92 77.15 49.88 clipbox
9157.34 929.932 p0_0
gsave
fill
grestore
stroke
grestore
0.167 0.464 0.558 setrgbcolor
gsave
372.85 284.92 77.15 49.88 clipbox
9157.34 955.834 p0_0
gsave
fill
grestore
stroke
grestore
0.220 0.726 0.466 setrgbcolor
gsave
372.85 284.92 77.15 49.88 clipbox
9157.34 981.736 p0_0
gsave
fill
grestore
stroke
grestore
0.128 0.567 0.551 setrgbcolor
gsave
372.85 284.92 77.15 49.88 clipbox
9157.34 1007.64 p0_0
gsave
fill
grestore
stroke
grestore
0.207 0.372 0.553 setrgbcolor
gsave
372.85 284.92 77.15 49.88 clipbox
9157.34 1033.54 p0_0
gsave
fill
grestore
stroke
grestore
0.281 0.161 0.473 setrgbcolor
gsave
372.85 284.92 77.15 49.88 clipbox
9157.34 1059.44 p0_0
gsave
fill
grestore
stroke
grestore
0.270 0.015 0.341 setrgbcolor
gsave
372.85 284.92 77.15 49.88 clipbox
9157.34 1085.34 p0_0
gsave
fill
grestore
stroke
grestore
0.267 0.005 0.329 setrgbcolor
gsave
372.85 284.92 77.15 49.88 clipbox
9175.18 878.129 p0_0
gsave
fill
grestore
stroke
grestore
0.270 0.015 0.341 setrgbcolor
gsave
372.85 284.92 77.15 49.88 clipbox
9175.18 904.03 p0_0
gsave
fill
grestore
stroke
grestore
0.283 0.126 0.445 setrgbcolor
gsave
372.85 284.92 77.15 49.88 clipbox
9175.18 929.932 p0_0
gsave
fill
grestore
stroke
grestore
0.173 0.449 0.558 setrgbcolor
gsave
372.85 284.92 77.15 49.88 clipbox
9175.18 955.834 p0_0
gsave
fill
grestore
stroke
grestore
0.267 0.749 0.441 setrgbcolor
gsave
372.85 284.92 77.15 49.88 clipbox
9175.18 981.736 p0_0
gsave
fill
grestore
stroke
grestore
0.253 0.742 0.448 setrgbcolor
gsave
372.85 284.92 77.15 49.88 clipbox
9175.18 1007.64 p0_0
gsave
fill
grestore
stroke
grestore
0.152 0.501 0.558 setrgbcolor
gsave
372.85 284.92 77.15 49.88 clipbox
9175.18 1033.54 p0_0
gsave
fill
grestore
stroke
grestore
0.269 0.219 0.510 setrgbcolor
gsave
372.85 284.92 77.15 49.88 clipbox
9175.18 1059.44 p0_0
gsave
fill
grestore
stroke
grestore
0.276 0.044 0.370 setrgbcolor
gsave
372.85 284.92 77.15 49.88 clipbox
9175.18 1085.34 p0_0
gsave
fill
grestore
stroke
grestore
0.281 0.084 0.407 setrgbcolor
gsave
372.85 284.92 77.15 49.88 clipbox
9193.02 904.03 p0_0
gsave
fill
grestore
stroke
grestore
0.254 0.265 0.530 setrgbcolor
gsave
372.85 284.92 77.15 49.88 clipbox
9193.02 929.932 p0_0
gsave
fill
grestore
stroke
grestore
0.155 0.493 0.558 setrgbcolor
gsave
372.85 284.92 77.15 49.88 clipbox
9193.02 955.834 p0_0
gsave
fill
grestore
stroke
grestore
0.993 0.906 0.144 setrgbcolor
gsave
372.85 284.92 77.15 49.88 clipbox
9193.02 981.736 p0_0
gsave
fill
grestore
stroke
grestore
0.304 0.765 0.420 setrgbcolor
gsave
372.85 284.92 77.15 49.88 clipbox
9193.02 1007.64 p0_0
gsave
fill
grestore
stroke
grestore
0.140 0.666 0.513 setrgbcolor
gsave
372.85 284.92 77.15 49.88 clipbox
9193.02 1033.54 p0_0
gsave
fill
grestore
stroke
grestore
0.265 0.233 0.517 setrgbcolor
gsave
372.85 284.92 77.15 49.88 clipbox
9193.02 1059.44 p0_0
gsave
fill
grestore
stroke
grestore
0.276 0.044 0.370 setrgbcolor
gsave
372.85 284.92 77.15 49.88 clipbox
9193.02 1085.34 p0_0
gsave
fill
grestore
stroke
grestore
gsave
372.85 284.92 77.15 49.88 clipbox
9210.86 904.03 p0_0
gsave
fill
grestore
stroke
grestore
0.283 0.100 0.422 setrgbcolor
gsave
372.85 284.92 77.15 49.88 clipbox
9210.86 929.932 p0_0
gsave
fill
grestore
stroke
grestore
0.212 0.360 0.552 setrgbcolor
gsave
372.85 284.92 77.15 49.88 clipbox
9210.86 955.834 p0_0
gsave
fill
grestore
stroke
grestore
0.220 0.726 0.466 setrgbcolor
gsave
372.85 284.92 77.15 49.88 clipbox
9210.86 981.736 p0_0
gsave
fill
grestore
stroke
grestore
0.344 0.780 0.397 setrgbcolor
gsave
372.85 284.92 77.15 49.88 clipbox
9210.86 1007.64 p0_0
gsave
fill
grestore
stroke
grestore
0.181 0.430 0.557 setrgbcolor
gsave
372.85 284.92 77.15 49.88 clipbox
9210.86 1033.54 p0_0
gsave
fill
grestore
stroke
grestore
0.275 0.195 0.496 setrgbcolor
gsave
372.85 284.92 77.15 49.88 clipbox
9210.86 1059.44 p0_0
gsave
fill
grestore
stroke
grestore
0.270 0.015 0.341 setrgbcolor
gsave
372.85 284.92 77.15 49.88 clipbox
9210.86 1085.34 p0_0
gsave
fill
grestore
stroke
grestore
0.267 0.005 0.329 setrgbcolor
gsave
372.85 284.92 77.15 49.88 clipbox
9210.86 1137.15 p0_0
gsave
fill
grestore
stroke
grestore
0.283 0.126 0.445 setrgbcolor
gsave
372.85 284.92 77.15 49.88 clipbox
9228.7 929.932 p0_0
gsave
fill
grestore
stroke
grestore
0.198 0.392 0.555 setrgbcolor
gsave
372.85 284.92 77.15 49.88 clipbox
9228.7 955.834 p0_0
gsave
fill
grestore
stroke
grestore
0.233 0.732 0.459 setrgbcolor
gsave
372.85 284.92 77.15 49.88 clipbox
9228.7 981.736 p0_0
gsave
fill
grestore
stroke
grestore
0.289 0.758 0.428 setrgbcolor
gsave
372.85 284.92 77.15 49.88 clipbox
9228.7 1007.64 p0_0
gsave
fill
grestore
stroke
grestore
0.148 0.512 0.557 setrgbcolor
gsave
372.85 284.92 77.15 49.88 clipbox
9228.7 1033.54 p0_0
gsave
fill
grestore
stroke
grestore
0.283 0.126 0.445 setrgbcolor
gsave
372.85 284.92 77.15 49.88 clipbox
9228.7 1059.44 p0_0
gsave
fill
grestore
stroke
grestore
0.281 0.084 0.407 setrgbcolor
gsave
372.85 284.92 77.15 49.88 clipbox
9228.7 1085.34 p0_0
gsave
fill
grestore
stroke
grestore
0.283 0.136 0.453 setrgbcolor
gsave
372.85 284.92 77.15 49.88 clipbox
9246.54 929.932 p0_0
gsave
fill
grestore
stroke
grestore
0.230 0.322 0.546 setrgbcolor
gsave
372.85 284.92 77.15 49.88 clipbox
9246.54 955.834 p0_0
gsave
fill
grestore
stroke
grestore
0.128 0.567 0.551 setrgbcolor
gsave
372.85 284.92 77.15 49.88 clipbox
9246.54 981.736 p0_0
gsave
fill
grestore
stroke
grestore
0.181 0.430 0.557 setrgbcolor
gsave
372.85 284.92 77.15 49.88 clipbox
9246.54 1007.64 p0_0
gsave
fill
grestore
stroke
grestore
0.207 0.372 0.553 setrgbcolor
gsave
372.85 284.92 77.15 49.88 clipbox
9246.54 1033.54 p0_0
gsave
fill
grestore
stroke
grestore
0.249 0.279 0.535 setrgbcolor
gsave
372.85 284.92 77.15 49.88 clipbox
9246.54 1059.44 p0_0
gsave
fill
grestore
stroke
grestore
0.278 0.056 0.381 setrgbcolor
gsave
372.85 284.92 77.15 49.88 clipbox
9246.54 1085.34 p0_0
gsave
fill
grestore
stroke
grestore
0.283 0.126 0.445 setrgbcolor
gsave
372.85 284.92 77.15 49.88 clipbox
9264.38 929.932 p0_0
gsave
fill
grestore
stroke
grestore
0.236 0.310 0.543 setrgbcolor
gsave
372.85 284.92 77.15 49.88 clipbox
9264.38 955.834 p0_0
gsave
fill
grestore
stroke
grestore
0.145 0.519 0.557 setrgbcolor
gsave
372.85 284.92 77.15 49.88 clipbox
9264.38 981.736 p0_0
gsave
fill
grestore
stroke
grestore
0.226 0.331 0.547 setrgbcolor
gsave
372.85 284.92 77.15 49.88 clipbox
9264.38 1007.64 p0_0
gsave
fill
grestore
stroke
grestore
0.222 0.339 0.549 setrgbcolor
gsave
372.85 284.92 77.15 49.88 clipbox
9264.38 1033.54 p0_0
gsave
fill
grestore
stroke
grestore
0.283 0.136 0.453 setrgbcolor
gsave
372.85 284.92 77.15 49.88 clipbox
9264.38 1059.44 p0_0
gsave
fill
grestore
stroke
grestore
0.276 0.044 0.370 setrgbcolor
gsave
372.85 284.92 77.15 49.88 clipbox
9264.38 1085.34 p0_0
gsave
fill
grestore
stroke
grestore
0.267 0.005 0.329 setrgbcolor
gsave
372.85 284.92 77.15 49.88 clipbox
9282.22 904.03 p0_0
gsave
fill
grestore
stroke
grestore
0.276 0.044 0.370 setrgbcolor
gsave
372.85 284.92 77.15 49.88 clipbox
9282.22 929.932 p0_0
gsave
fill
grestore
stroke
grestore
0.281 0.084 0.407 setrgbcolor
gsave
372.85 284.92 77.15 49.88 clipbox
9282.22 955.834 p0_0
gsave
fill
grestore
stroke
grestore
0.282 0.151 0.465 setrgbcolor
gsave
372.85 284.92 77.15 49.88 clipbox
9282.22 981.736 p0_0
gsave
fill
grestore
stroke
grestore
0.226 0.331 0.547 setrgbcolor
gsave
372.85 284.92 77.15 49.88 clipbox
9282.22 1007.64 p0_0
gsave
fill
grestore
stroke
grestore
0.279 0.175 0.483 setrgbcolor
gsave
372.85 284.92 77.15 49.88 clipbox
9282.22 1033.54 p0_0
gsave
fill
grestore
stroke
grestore
0.283 0.111 0.432 setrgbcolor
gsave
372.85 284.92 77.15 49.88 clipbox
9282.22 1059.44 p0_0
gsave
fill
grestore
stroke
grestore
0.267 0.005 0.329 setrgbcolor
gsave
372.85 284.92 77.15 49.88 clipbox
9282.22 1085.34 p0_0
gsave
fill
grestore
stroke
grestore
0.281 0.084 0.407 setrgbcolor
gsave
372.85 284.92 77.15 49.88 clipbox
9300.05 955.834 p0_0
gsave
fill
grestore
stroke
grestore
0.275 0.195 0.496 setrgbcolor
gsave
372.85 284.92 77.15 49.88 clipbox
9300.05 981.736 p0_0
gsave
fill
grestore
stroke
grestore
0.278 0.056 0.381 setrgbcolor
gsave
372.85 284.92 77.15 49.88 clipbox
9300.05 1007.64 p0_0
gsave
fill
grestore
stroke
grestore
0.277 0.185 0.490 setrgbcolor
gsave
372.85 284.92 77.15 49.88 clipbox
9300.05 1033.54 p0_0
gsave
fill
grestore
stroke
grestore
0.276 0.044 0.370 setrgbcolor
gsave
372.85 284.92 77.15 49.88 clipbox
9300.05 1059.44 p0_0
gsave
fill
grestore
stroke
grestore
0.267 0.005 0.329 setrgbcolor
gsave
372.85 284.92 77.15 49.88 clipbox
9300.05 1085.34 p0_0
gsave
fill
grestore
stroke
grestore
0.276 0.044 0.370 setrgbcolor
gsave
372.85 284.92 77.15 49.88 clipbox
9317.89 929.932 p0_0
gsave
fill
grestore
stroke
grestore
0.283 0.111 0.432 setrgbcolor
gsave
372.85 284.92 77.15 49.88 clipbox
9317.89 955.834 p0_0
gsave
fill
grestore
stroke
grestore
gsave
372.85 284.92 77.15 49.88 clipbox
9317.89 981.736 p0_0
gsave
fill
grestore
stroke
grestore
0.280 0.073 0.397 setrgbcolor
gsave
372.85 284.92 77.15 49.88 clipbox
9317.89 1007.64 p0_0
gsave
fill
grestore
stroke
grestore
gsave
372.85 284.92 77.15 49.88 clipbox
9317.89 1033.54 p0_0
gsave
fill
grestore
stroke
grestore
0.273 0.026 0.353 setrgbcolor
gsave
372.85 284.92 77.15 49.88 clipbox
9317.89 1059.44 p0_0
gsave
fill
grestore
stroke
grestore
0.270 0.015 0.341 setrgbcolor
gsave
372.85 284.92 77.15 49.88 clipbox
9335.73 929.932 p0_0
gsave
fill
grestore
stroke
grestore
gsave
372.85 284.92 77.15 49.88 clipbox
9335.73 981.736 p0_0
gsave
fill
grestore
stroke
grestore
gsave
372.85 284.92 77.15 49.88 clipbox
9335.73 1007.64 p0_0
gsave
fill
grestore
stroke
grestore
0.267 0.005 0.329 setrgbcolor
gsave
372.85 284.92 77.15 49.88 clipbox
9335.73 1033.54 p0_0
gsave
fill
grestore
stroke
grestore
gsave
372.85 284.92 77.15 49.88 clipbox
9335.73 1059.44 p0_0
gsave
fill
grestore
stroke
grestore
gsave
372.85 284.92 77.15 49.88 clipbox
9353.57 929.932 p0_0
gsave
fill
grestore
stroke
grestore
0.270 0.015 0.341 setrgbcolor
gsave
372.85 284.92 77.15 49.88 clipbox
9371.41 955.834 p0_0
gsave
fill
grestore
stroke
grestore
0.267 0.005 0.329 setrgbcolor
gsave
372.85 284.92 77.15 49.88 clipbox
9371.41 1033.54 p0_0
gsave
fill
grestore
stroke
grestore
0.273 0.026 0.353 setrgbcolor
gsave
372.85 284.92 77.15 49.88 clipbox
9041.38 942.883 p0_0
gsave
fill
grestore
stroke
grestore
0.276 0.044 0.370 setrgbcolor
gsave
372.85 284.92 77.15 49.88 clipbox
9041.38 1046.49 p0_0
gsave
fill
grestore
stroke
grestore
0.270 0.015 0.341 setrgbcolor
gsave
372.85 284.92 77.15 49.88 clipbox
9041.38 1072.39 p0_0
gsave
fill
grestore
stroke
grestore
0.267 0.005 0.329 setrgbcolor
gsave
372.85 284.92 77.15 49.88 clipbox
9059.22 916.981 p0_0
gsave
fill
grestore
stroke
grestore
0.273 0.026 0.353 setrgbcolor
gsave
372.85 284.92 77.15 49.88 clipbox
9059.22 968.785 p0_0
gsave
fill
grestore
stroke
grestore
0.282 0.151 0.465 setrgbcolor
gsave
372.85 284.92 77.15 49.88 clipbox
9059.22 994.687 p0_0
gsave
fill
grestore
stroke
grestore
0.283 0.111 0.432 setrgbcolor
gsave
372.85 284.92 77.15 49.88 clipbox
9059.22 1020.59 p0_0
gsave
fill
grestore
stroke
grestore
0.276 0.044 0.370 setrgbcolor
gsave
372.85 284.92 77.15 49.88 clipbox
9059.22 1046.49 p0_0
gsave
fill
grestore
stroke
grestore
0.278 0.056 0.381 setrgbcolor
gsave
372.85 284.92 77.15 49.88 clipbox
9077.06 968.785 p0_0
gsave
fill
grestore
stroke
grestore
0.283 0.136 0.453 setrgbcolor
gsave
372.85 284.92 77.15 49.88 clipbox
9077.06 994.687 p0_0
gsave
fill
grestore
stroke
grestore
gsave
372.85 284.92 77.15 49.88 clipbox
9077.06 1020.59 p0_0
gsave
fill
grestore
stroke
grestore
0.283 0.100 0.422 setrgbcolor
gsave
372.85 284.92 77.15 49.88 clipbox
9077.06 1046.49 p0_0
gsave
fill
grestore
stroke
grestore
0.267 0.005 0.329 setrgbcolor
gsave
372.85 284.92 77.15 49.88 clipbox
9077.06 1072.39 p0_0
gsave
fill
grestore
stroke
grestore
gsave
372.85 284.92 77.15 49.88 clipbox
9077.06 1124.2 p0_0
gsave
fill
grestore
stroke
grestore
0.273 0.026 0.353 setrgbcolor
gsave
372.85 284.92 77.15 49.88 clipbox
9094.9 916.981 p0_0
gsave
fill
grestore
stroke
grestore
0.278 0.056 0.381 setrgbcolor
gsave
372.85 284.92 77.15 49.88 clipbox
9094.9 942.883 p0_0
gsave
fill
grestore
stroke
grestore
0.275 0.195 0.496 setrgbcolor
gsave
372.85 284.92 77.15 49.88 clipbox
9094.9 968.785 p0_0
gsave
fill
grestore
stroke
grestore
0.230 0.322 0.546 setrgbcolor
gsave
372.85 284.92 77.15 49.88 clipbox
9094.9 994.687 p0_0
gsave
fill
grestore
stroke
grestore
0.275 0.195 0.496 setrgbcolor
gsave
372.85 284.92 77.15 49.88 clipbox
9094.9 1020.59 p0_0
gsave
fill
grestore
stroke
grestore
gsave
372.85 284.92 77.15 49.88 clipbox
9094.9 1046.49 p0_0
gsave
fill
grestore
stroke
grestore
0.270 0.015 0.341 setrgbcolor
gsave
372.85 284.92 77.15 49.88 clipbox
9094.9 1072.39 p0_0
gsave
fill
grestore
stroke
grestore
0.267 0.005 0.329 setrgbcolor
gsave
372.85 284.92 77.15 49.88 clipbox
9112.74 916.981 p0_0
gsave
fill
grestore
stroke
grestore
0.282 0.151 0.465 setrgbcolor
gsave
372.85 284.92 77.15 49.88 clipbox
9112.74 942.883 p0_0
gsave
fill
grestore
stroke
grestore
0.257 0.256 0.527 setrgbcolor
gsave
372.85 284.92 77.15 49.88 clipbox
9112.74 968.785 p0_0
gsave
fill
grestore
stroke
grestore
0.152 0.501 0.558 setrgbcolor
gsave
372.85 284.92 77.15 49.88 clipbox
9112.74 994.687 p0_0
gsave
fill
grestore
stroke
grestore
0.162 0.475 0.558 setrgbcolor
gsave
372.85 284.92 77.15 49.88 clipbox
9112.74 1020.59 p0_0
gsave
fill
grestore
stroke
grestore
0.278 0.056 0.381 setrgbcolor
gsave
372.85 284.92 77.15 49.88 clipbox
9112.74 1046.49 p0_0
gsave
fill
grestore
stroke
grestore
0.270 0.015 0.341 setrgbcolor
gsave
372.85 284.92 77.15 49.88 clipbox
9112.74 1072.39 p0_0
gsave
fill
grestore
stroke
grestore
0.273 0.026 0.353 setrgbcolor
gsave
372.85 284.92 77.15 49.88 clipbox
9112.74 1098.29 p0_0
gsave
fill
grestore
stroke
grestore
0.278 0.056 0.381 setrgbcolor
gsave
372.85 284.92 77.15 49.88 clipbox
9130.58 916.981 p0_0
gsave
fill
grestore
stroke
grestore
0.283 0.100 0.422 setrgbcolor
gsave
372.85 284.92 77.15 49.88 clipbox
9130.58 942.883 p0_0
gsave
fill
grestore
stroke
grestore
0.134 0.549 0.554 setrgbcolor
gsave
372.85 284.92 77.15 49.88 clipbox
9130.58 968.785 p0_0
gsave
fill
grestore
stroke
grestore
0.125 0.574 0.549 setrgbcolor
gsave
372.85 284.92 77.15 49.88 clipbox
9130.58 994.687 p0_0
gsave
fill
grestore
stroke
grestore
0.194 0.399 0.556 setrgbcolor
gsave
372.85 284.92 77.15 49.88 clipbox
9130.58 1020.59 p0_0
gsave
fill
grestore
stroke
grestore
0.236 0.310 0.543 setrgbcolor
gsave
372.85 284.92 77.15 49.88 clipbox
9130.58 1046.49 p0_0
gsave
fill
grestore
stroke
grestore
0.282 0.151 0.465 setrgbcolor
gsave
372.85 284.92 77.15 49.88 clipbox
9130.58 1072.39 p0_0
gsave
fill
grestore
stroke
grestore
0.267 0.005 0.329 setrgbcolor
gsave
372.85 284.92 77.15 49.88 clipbox
9130.58 1124.2 p0_0
gsave
fill
grestore
stroke
grestore
0.273 0.026 0.353 setrgbcolor
gsave
372.85 284.92 77.15 49.88 clipbox
9148.42 891.08 p0_0
gsave
fill
grestore
stroke
grestore
0.267 0.005 0.329 setrgbcolor
gsave
372.85 284.92 77.15 49.88 clipbox
9148.42 916.981 p0_0
gsave
fill
grestore
stroke
grestore
0.269 0.219 0.510 setrgbcolor
gsave
372.85 284.92 77.15 49.88 clipbox
9148.42 942.883 p0_0
gsave
fill
grestore
stroke
grestore
0.121 0.593 0.545 setrgbcolor
gsave
372.85 284.92 77.15 49.88 clipbox
9148.42 968.785 p0_0
gsave
fill
grestore
stroke
grestore
0.181 0.430 0.557 setrgbcolor
gsave
372.85 284.92 77.15 49.88 clipbox
9148.42 994.687 p0_0
gsave
fill
grestore
stroke
grestore
0.145 0.519 0.557 setrgbcolor
gsave
372.85 284.92 77.15 49.88 clipbox
9148.42 1020.59 p0_0
gsave
fill
grestore
stroke
grestore
0.245 0.288 0.537 setrgbcolor
gsave
372.85 284.92 77.15 49.88 clipbox
9148.42 1046.49 p0_0
gsave
fill
grestore
stroke
grestore
0.283 0.100 0.422 setrgbcolor
gsave
372.85 284.92 77.15 49.88 clipbox
9148.42 1072.39 p0_0
gsave
fill
grestore
stroke
grestore
0.267 0.005 0.329 setrgbcolor
gsave
372.85 284.92 77.15 49.88 clipbox
9166.26 891.08 p0_0
gsave
fill
grestore
stroke
grestore
0.280 0.073 0.397 setrgbcolor
gsave
372.85 284.92 77.15 49.88 clipbox
9166.26 916.981 p0_0
gsave
fill
grestore
stroke
grestore
0.262 0.242 0.521 setrgbcolor
gsave
372.85 284.92 77.15 49.88 clipbox
9166.26 942.883 p0_0
gsave
fill
grestore
stroke
grestore
0.404 0.800 0.363 setrgbcolor
gsave
372.85 284.92 77.15 49.88 clipbox
9166.26 968.785 p0_0
gsave
fill
grestore
stroke
grestore
0.147 0.673 0.509 setrgbcolor
gsave
372.85 284.92 77.15 49.88 clipbox
9166.26 994.687 p0_0
gsave
fill
grestore
stroke
grestore
0.123 0.637 0.529 setrgbcolor
gsave
372.85 284.92 77.15 49.88 clipbox
9166.26 1020.59 p0_0
gsave
fill
grestore
stroke
grestore
0.177 0.438 0.558 setrgbcolor
gsave
372.85 284.92 77.15 49.88 clipbox
9166.26 1046.49 p0_0
gsave
fill
grestore
stroke
grestore
0.276 0.044 0.370 setrgbcolor
gsave
372.85 284.92 77.15 49.88 clipbox
9166.26 1072.39 p0_0
gsave
fill
grestore
stroke
grestore
0.267 0.005 0.329 setrgbcolor
gsave
372.85 284.92 77.15 49.88 clipbox
9184.1 891.08 p0_0
gsave
fill
grestore
stroke
grestore
0.280 0.073 0.397 setrgbcolor
gsave
372.85 284.92 77.15 49.88 clipbox
9184.1 916.981 p0_0
gsave
fill
grestore
stroke
grestore
0.245 0.288 0.537 setrgbcolor
gsave
372.85 284.92 77.15 49.88 clipbox
9184.1 942.883 p0_0
gsave
fill
grestore
stroke
grestore
0.386 0.795 0.373 setrgbcolor
gsave
372.85 284.92 77.15 49.88 clipbox
9184.1 968.785 p0_0
gsave
fill
grestore
stroke
grestore
0.404 0.800 0.363 setrgbcolor
gsave
372.85 284.92 77.15 49.88 clipbox
9184.1 994.687 p0_0
gsave
fill
grestore
stroke
grestore
0.138 0.537 0.555 setrgbcolor
gsave
372.85 284.92 77.15 49.88 clipbox
9184.1 1020.59 p0_0
gsave
fill
grestore
stroke
grestore
0.194 0.399 0.556 setrgbcolor
gsave
372.85 284.92 77.15 49.88 clipbox
9184.1 1046.49 p0_0
gsave
fill
grestore
stroke
grestore
0.282 0.151 0.465 setrgbcolor
gsave
372.85 284.92 77.15 49.88 clipbox
9184.1 1072.39 p0_0
gsave
fill
grestore
stroke
grestore
0.267 0.005 0.329 setrgbcolor
gsave
372.85 284.92 77.15 49.88 clipbox
9201.94 891.08 p0_0
gsave
fill
grestore
stroke
grestore
0.265 0.233 0.517 setrgbcolor
gsave
372.85 284.92 77.15 49.88 clipbox
9201.94 916.981 p0_0
gsave
fill
grestore
stroke
grestore
0.222 0.339 0.549 setrgbcolor
gsave
372.85 284.92 77.15 49.88 clipbox
9201.94 942.883 p0_0
gsave
fill
grestore
stroke
grestore
0.386 0.795 0.373 setrgbcolor
gsave
372.85 284.92 77.15 49.88 clipbox
9201.94 968.785 p0_0
gsave
fill
grestore
stroke
grestore
0.955 0.901 0.118 setrgbcolor
gsave
372.85 284.92 77.15 49.88 clipbox
9201.94 994.687 p0_0
gsave
fill
grestore
stroke
grestore
0.202 0.715 0.476 setrgbcolor
gsave
372.85 284.92 77.15 49.88 clipbox
9201.94 1020.59 p0_0
gsave
fill
grestore
stroke
grestore
0.194 0.399 0.556 setrgbcolor
gsave
372.85 284.92 77.15 49.88 clipbox
9201.94 1046.49 p0_0
gsave
fill
grestore
stroke
grestore
0.278 0.056 0.381 setrgbcolor
gsave
372.85 284.92 77.15 49.88 clipbox
9201.94 1072.39 p0_0
gsave
fill
grestore
stroke
grestore
0.273 0.026 0.353 setrgbcolor
gsave
372.85 284.92 77.15 49.88 clipbox
9201.94 1098.29 p0_0
gsave
fill
grestore
stroke
grestore
0.267 0.005 0.329 setrgbcolor
gsave
372.85 284.92 77.15 49.88 clipbox
9201.94 1124.2 p0_0
gsave
fill
grestore
stroke
grestore
0.273 0.026 0.353 setrgbcolor
gsave
372.85 284.92 77.15 49.88 clipbox
9219.78 891.08 p0_0
gsave
fill
grestore
stroke
grestore
0.278 0.056 0.381 setrgbcolor
gsave
372.85 284.92 77.15 49.88 clipbox
9219.78 916.981 p0_0
gsave
fill
grestore
stroke
grestore
0.198 0.392 0.555 setrgbcolor
gsave
372.85 284.92 77.15 49.88 clipbox
9219.78 942.883 p0_0
gsave
fill
grestore
stroke
grestore
0.134 0.549 0.554 setrgbcolor
gsave
372.85 284.92 77.15 49.88 clipbox
9219.78 968.785 p0_0
gsave
fill
grestore
stroke
grestore
0.993 0.906 0.144 setrgbcolor
gsave
372.85 284.92 77.15 49.88 clipbox
9219.78 994.687 p0_0
gsave
fill
grestore
stroke
grestore
0.158 0.684 0.502 setrgbcolor
gsave
372.85 284.92 77.15 49.88 clipbox
9219.78 1020.59 p0_0
gsave
fill
grestore
stroke
grestore
0.222 0.339 0.549 setrgbcolor
gsave
372.85 284.92 77.15 49.88 clipbox
9219.78 1046.49 p0_0
gsave
fill
grestore
stroke
grestore
0.278 0.056 0.381 setrgbcolor
gsave
372.85 284.92 77.15 49.88 clipbox
9219.78 1072.39 p0_0
gsave
fill
grestore
stroke
grestore
0.270 0.015 0.341 setrgbcolor
gsave
372.85 284.92 77.15 49.88 clipbox
9219.78 1098.29 p0_0
gsave
fill
grestore
stroke
grestore
0.267 0.005 0.329 setrgbcolor
gsave
372.85 284.92 77.15 49.88 clipbox
9237.62 891.08 p0_0
gsave
fill
grestore
stroke
grestore
0.281 0.084 0.407 setrgbcolor
gsave
372.85 284.92 77.15 49.88 clipbox
9237.62 916.981 p0_0
gsave
fill
grestore
stroke
grestore
0.230 0.322 0.546 setrgbcolor
gsave
372.85 284.92 77.15 49.88 clipbox
9237.62 942.883 p0_0
gsave
fill
grestore
stroke
grestore
0.155 0.493 0.558 setrgbcolor
gsave
372.85 284.92 77.15 49.88 clipbox
9237.62 968.785 p0_0
gsave
fill
grestore
stroke
grestore
0.526 0.833 0.288 setrgbcolor
gsave
372.85 284.92 77.15 49.88 clipbox
9237.62 994.687 p0_0
gsave
fill
grestore
stroke
grestore
0.166 0.691 0.497 setrgbcolor
gsave
372.85 284.92 77.15 49.88 clipbox
9237.62 1020.59 p0_0
gsave
fill
grestore
stroke
grestore
0.269 0.219 0.510 setrgbcolor
gsave
372.85 284.92 77.15 49.88 clipbox
9237.62 1046.49 p0_0
gsave
fill
grestore
stroke
grestore
0.283 0.111 0.432 setrgbcolor
gsave
372.85 284.92 77.15 49.88 clipbox
9237.62 1072.39 p0_0
gsave
fill
grestore
stroke
grestore
0.270 0.015 0.341 setrgbcolor
gsave
372.85 284.92 77.15 49.88 clipbox
9237.62 1098.29 p0_0
gsave
fill
grestore
stroke
grestore
0.283 0.126 0.445 setrgbcolor
gsave
372.85 284.92 77.15 49.88 clipbox
9255.46 916.981 p0_0
gsave
fill
grestore
stroke
grestore
0.272 0.209 0.504 setrgbcolor
gsave
372.85 284.92 77.15 49.88 clipbox
9255.46 942.883 p0_0
gsave
fill
grestore
stroke
grestore
0.216 0.352 0.551 setrgbcolor
gsave
372.85 284.92 77.15 49.88 clipbox
9255.46 968.785 p0_0
gsave
fill
grestore
stroke
grestore
0.155 0.493 0.558 setrgbcolor
gsave
372.85 284.92 77.15 49.88 clipbox
9255.46 994.687 p0_0
gsave
fill
grestore
stroke
grestore
0.159 0.482 0.558 setrgbcolor
gsave
372.85 284.92 77.15 49.88 clipbox
9255.46 1020.59 p0_0
gsave
fill
grestore
stroke
grestore
0.254 0.265 0.530 setrgbcolor
gsave
372.85 284.92 77.15 49.88 clipbox
9255.46 1046.49 p0_0
gsave
fill
grestore
stroke
grestore
0.280 0.073 0.397 setrgbcolor
gsave
372.85 284.92 77.15 49.88 clipbox
9255.46 1072.39 p0_0
gsave
fill
grestore
stroke
grestore
0.267 0.005 0.329 setrgbcolor
gsave
372.85 284.92 77.15 49.88 clipbox
9255.46 1124.2 p0_0
gsave
fill
grestore
stroke
grestore
0.278 0.056 0.381 setrgbcolor
gsave
372.85 284.92 77.15 49.88 clipbox
9273.3 916.981 p0_0
gsave
fill
grestore
stroke
grestore
0.283 0.100 0.422 setrgbcolor
gsave
372.85 284.92 77.15 49.88 clipbox
9273.3 942.883 p0_0
gsave
fill
grestore
stroke
grestore
0.257 0.256 0.527 setrgbcolor
gsave
372.85 284.92 77.15 49.88 clipbox
9273.3 968.785 p0_0
gsave
fill
grestore
stroke
grestore
0.203 0.380 0.554 setrgbcolor
gsave
372.85 284.92 77.15 49.88 clipbox
9273.3 994.687 p0_0
gsave
fill
grestore
stroke
grestore
0.207 0.372 0.553 setrgbcolor
gsave
372.85 284.92 77.15 49.88 clipbox
9273.3 1020.59 p0_0
gsave
fill
grestore
stroke
grestore
0.275 0.195 0.496 setrgbcolor
gsave
372.85 284.92 77.15 49.88 clipbox
9273.3 1046.49 p0_0
gsave
fill
grestore
stroke
grestore
0.278 0.056 0.381 setrgbcolor
gsave
372.85 284.92 77.15 49.88 clipbox
9291.14 942.883 p0_0
gsave
fill
grestore
stroke
grestore
0.282 0.151 0.465 setrgbcolor
gsave
372.85 284.92 77.15 49.88 clipbox
9291.14 968.785 p0_0
gsave
fill
grestore
stroke
grestore
0.226 0.331 0.547 setrgbcolor
gsave
372.85 284.92 77.15 49.88 clipbox
9291.14 994.687 p0_0
gsave
fill
grestore
stroke
grestore
0.277 0.185 0.490 setrgbcolor
gsave
372.85 284.92 77.15 49.88 clipbox
9291.14 1020.59 p0_0
gsave
fill
grestore
stroke
grestore
0.270 0.015 0.341 setrgbcolor
gsave
372.85 284.92 77.15 49.88 clipbox
9291.14 1046.49 p0_0
gsave
fill
grestore
stroke
grestore
0.267 0.005 0.329 setrgbcolor
gsave
372.85 284.92 77.15 49.88 clipbox
9308.97 942.883 p0_0
gsave
fill
grestore
stroke
grestore
0.276 0.044 0.370 setrgbcolor
gsave
372.85 284.92 77.15 49.88 clipbox
9308.97 968.785 p0_0
gsave
fill
grestore
stroke
grestore
0.283 0.136 0.453 setrgbcolor
gsave
372.85 284.92 77.15 49.88 clipbox
9308.97 994.687 p0_0
gsave
fill
grestore
stroke
grestore
0.270 0.015 0.341 setrgbcolor
gsave
372.85 284.92 77.15 49.88 clipbox
9308.97 1020.59 p0_0
gsave
fill
grestore
stroke
grestore
gsave
372.85 284.92 77.15 49.88 clipbox
9308.97 1046.49 p0_0
gsave
fill
grestore
stroke
grestore
gsave
372.85 284.92 77.15 49.88 clipbox
9326.81 916.981 p0_0
gsave
fill
grestore
stroke
grestore
0.278 0.056 0.381 setrgbcolor
gsave
372.85 284.92 77.15 49.88 clipbox
9326.81 942.883 p0_0
gsave
fill
grestore
stroke
grestore
0.267 0.005 0.329 setrgbcolor
gsave
372.85 284.92 77.15 49.88 clipbox
9326.81 968.785 p0_0
gsave
fill
grestore
stroke
grestore
0.270 0.015 0.341 setrgbcolor
gsave
372.85 284.92 77.15 49.88 clipbox
9326.81 994.687 p0_0
gsave
fill
grestore
stroke
grestore
0.281 0.084 0.407 setrgbcolor
gsave
372.85 284.92 77.15 49.88 clipbox
9326.81 1020.59 p0_0
gsave
fill
grestore
stroke
grestore
0.267 0.005 0.329 setrgbcolor
gsave
372.85 284.92 77.15 49.88 clipbox
9326.81 1098.29 p0_0
gsave
fill
grestore
stroke
grestore
gsave
372.85 284.92 77.15 49.88 clipbox
9344.65 942.883 p0_0
gsave
fill
grestore
stroke
grestore
0.273 0.026 0.353 setrgbcolor
gsave
372.85 284.92 77.15 49.88 clipbox
9344.65 968.785 p0_0
gsave
fill
grestore
stroke
grestore
0.278 0.056 0.381 setrgbcolor
gsave
372.85 284.92 77.15 49.88 clipbox
9344.65 994.687 p0_0
gsave
fill
grestore
stroke
grestore
0.267 0.005 0.329 setrgbcolor
gsave
372.85 284.92 77.15 49.88 clipbox
9344.65 1020.59 p0_0
gsave
fill
grestore
stroke
grestore
gsave
372.85 284.92 77.15 49.88 clipbox
9344.65 1046.49 p0_0
gsave
fill
grestore
stroke
grestore
0.800 setlinewidth
0.000 setgray
gsave
/o {
gsave
newpath
translate
0.8 setlinewidth
1 setlinejoin

0 setlinecap

0 0 m
0 -3.5 l

gsave
0.000 setgray
fill
grestore
stroke
grestore
} bind def
136.696 49.88 o
grestore
/DejaVuSans 14.000 selectfont
gsave

125.564 32.2394 translate
0 rotate
0 0 m /nine glyphshow
8.90723 0 m /period glyphshow
13.3574 0 m /nine glyphshow
grestore
gsave
/o {
gsave
newpath
translate
0.8 setlinewidth
1 setlinejoin

0 setlinecap

0 0 m
0 -3.5 l

gsave
0.000 setgray
fill
grestore
stroke
grestore
} bind def
228.364 49.88 o
grestore
/DejaVuSans 14.000 selectfont
gsave

212.778 32.2394 translate
0 rotate
0 0 m /one glyphshow
8.90723 0 m /zero glyphshow
17.8145 0 m /period glyphshow
22.2646 0 m /zero glyphshow
grestore
gsave
/o {
gsave
newpath
translate
0.8 setlinewidth
1 setlinejoin

0 setlinecap

0 0 m
0 -3.5 l

gsave
0.000 setgray
fill
grestore
stroke
grestore
} bind def
320.031 49.88 o
grestore
/DejaVuSans 14.000 selectfont
gsave

304.445 32.2394 translate
0 rotate
0 0 m /one glyphshow
8.90723 0 m /zero glyphshow
17.8145 0 m /period glyphshow
22.2646 0 m /one glyphshow
grestore
gsave
/o {
gsave
newpath
translate
0.8 setlinewidth
1 setlinejoin

0 setlinecap

0 0 m
0 -3.5 l

gsave
0.000 setgray
fill
grestore
stroke
grestore
} bind def
411.698 49.88 o
grestore
/DejaVuSans 14.000 selectfont
gsave

396.112 32.2394 translate
0 rotate
0 0 m /one glyphshow
8.90723 0 m /zero glyphshow
17.8145 0 m /period glyphshow
22.2646 0 m /two glyphshow
grestore
/DejaVuSans 15.000 selectfont
gsave

243.731 13.9425 translate
0 rotate
0 0 m /t glyphshow
5.88135 0 m /h glyphshow
15.3882 0 m /e glyphshow
24.6167 0 m /t glyphshow
30.498 0 m /a glyphshow
grestore
gsave
/o {
gsave
newpath
translate
0.8 setlinewidth
1 setlinejoin

0 setlinecap

-0 0 m
-3.5 0 l

gsave
0.000 setgray
fill
grestore
stroke
grestore
} bind def
77.15 78.7171 o
grestore
/DejaVuSans 14.000 selectfont
gsave

30.0719 73.3968 translate
0 rotate
0 0 m /zero glyphshow
8.90723 0 m /period glyphshow
13.3574 0 m /five glyphshow
22.2646 0 m /seven glyphshow
31.1719 0 m /five glyphshow
grestore
gsave
/o {
gsave
newpath
translate
0.8 setlinewidth
1 setlinejoin

0 setlinecap

-0 0 m
-3.5 0 l

gsave
0.000 setgray
fill
grestore
stroke
grestore
} bind def
77.15 117.587 o
grestore
/DejaVuSans 14.000 selectfont
gsave

30.0719 112.267 translate
0 rotate
0 0 m /zero glyphshow
8.90723 0 m /period glyphshow
13.3574 0 m /six glyphshow
22.2646 0 m /zero glyphshow
31.1719 0 m /zero glyphshow
grestore
gsave
/o {
gsave
newpath
translate
0.8 setlinewidth
1 setlinejoin

0 setlinecap

-0 0 m
-3.5 0 l

gsave
0.000 setgray
fill
grestore
stroke
grestore
} bind def
77.15 156.457 o
grestore
/DejaVuSans 14.000 selectfont
gsave

30.0719 151.137 translate
0 rotate
0 0 m /zero glyphshow
8.90723 0 m /period glyphshow
13.3574 0 m /six glyphshow
22.2646 0 m /two glyphshow
31.1719 0 m /five glyphshow
grestore
gsave
/o {
gsave
newpath
translate
0.8 setlinewidth
1 setlinejoin

0 setlinecap

-0 0 m
-3.5 0 l

gsave
0.000 setgray
fill
grestore
stroke
grestore
} bind def
77.15 195.328 o
grestore
/DejaVuSans 14.000 selectfont
gsave

30.0719 190.007 translate
0 rotate
0 0 m /zero glyphshow
8.90723 0 m /period glyphshow
13.3574 0 m /six glyphshow
22.2646 0 m /five glyphshow
31.1719 0 m /zero glyphshow
grestore
gsave
/o {
gsave
newpath
translate
0.8 setlinewidth
1 setlinejoin

0 setlinecap

-0 0 m
-3.5 0 l

gsave
0.000 setgray
fill
grestore
stroke
grestore
} bind def
77.15 234.198 o
grestore
/DejaVuSans 14.000 selectfont
gsave

30.0719 228.878 translate
0 rotate
0 0 m /zero glyphshow
8.90723 0 m /period glyphshow
13.3574 0 m /six glyphshow
22.2646 0 m /seven glyphshow
31.1719 0 m /five glyphshow
grestore
gsave
/o {
gsave
newpath
translate
0.8 setlinewidth
1 setlinejoin

0 setlinecap

-0 0 m
-3.5 0 l

gsave
0.000 setgray
fill
grestore
stroke
grestore
} bind def
77.15 273.068 o
grestore
/DejaVuSans 14.000 selectfont
gsave

30.0719 267.748 translate
0 rotate
0 0 m /zero glyphshow
8.90723 0 m /period glyphshow
13.3574 0 m /seven glyphshow
22.2646 0 m /zero glyphshow
31.1719 0 m /zero glyphshow
grestore
gsave
/o {
gsave
newpath
translate
0.8 setlinewidth
1 setlinejoin

0 setlinecap

-0 0 m
-3.5 0 l

gsave
0.000 setgray
fill
grestore
stroke
grestore
} bind def
77.15 311.938 o
grestore
/DejaVuSans 14.000 selectfont
gsave

30.0719 306.618 translate
0 rotate
0 0 m /zero glyphshow
8.90723 0 m /period glyphshow
13.3574 0 m /seven glyphshow
22.2646 0 m /two glyphshow
31.1719 0 m /five glyphshow
grestore
/DejaVuSans 15.000 selectfont
gsave

22.5406 165.559 translate
90 rotate
0 0 m /l glyphshow
4.16748 0 m /o glyphshow
13.3447 0 m /g glyphshow
22.8662 0 m /underscore glyphshow
30.3662 0 m /p glyphshow
39.8877 0 m /h glyphshow
49.3945 0 m /i glyphshow
grestore
0 setlinejoin
2 setlinecap
gsave
77.15 49.88 m
77.15 334.8 l
stroke
grestore
gsave
450 49.88 m
450 334.8 l
stroke
grestore
gsave
77.15 49.88 m
450 49.88 l
stroke
grestore
gsave
77.15 334.8 m
450 334.8 l
stroke
grestore

end
showpage
