"time","event","metastized"
23,1,0
47,1,0
69,1,0
70,0,0
100,0,0
101,0,0
148,1,0
181,1,0
198,0,0
208,0,0
212,0,0
224,0,0
5,1,1
8,1,1
10,1,1
13,1,1
18,1,1
24,1,1
26,1,1
26,1,1
31,1,1
35,1,1
40,1,1
41,1,1
48,1,1
50,1,1
59,1,1
61,1,1
68,1,1
71,1,1
76,0,1
105,0,1
107,0,1
109,0,1
113,1,1
116,0,1
118,1,1
143,1,1
145,0,1
162,0,1
188,0,1
212,0,1
217,0,1
225,0,1
