%!PS-Adobe-3.0 EPSF-3.0
%%Title: gp.eps
%%Creator: Matplotlib v3.6.2, https://matplotlib.org/
%%CreationDate: Wed Mar  1 19:50:45 2023
%%Orientation: portrait
%%BoundingBox: 75 223 537 569
%%HiResBoundingBox: 75.600000 223.200000 536.400000 568.800000
%%EndComments
%%BeginProlog
/mpldict 11 dict def
mpldict begin
/_d { bind def } bind def
/m { moveto } _d
/l { lineto } _d
/r { rlineto } _d
/c { curveto } _d
/cl { closepath } _d
/ce { closepath eofill } _d
/box {
      m
      1 index 0 r
      0 exch r
      neg 0 r
      cl
    } _d
/clipbox {
      box
      clip
      newpath
    } _d
/sc { setcachedevice } _d
%!PS-Adobe-3.0 Resource-Font
%%Creator: Converted from TrueType to Type 3 by Matplotlib.
10 dict begin
/FontName /DejaVuSans def
/PaintType 0 def
/FontMatrix [0.00048828125 0 0 0.00048828125 0 0] def
/FontBBox [-2090 -948 3673 2524] def
/FontType 3 def
/Encoding [/hyphen /zero /one /two /three /four /five /six /seven /eight /nine] def
/CharStrings 12 dict dup begin
/.notdef 0 def
/hyphen{739 0 100 479 639 643 sc
100 643 m
639 643 l
639 479 l
100 479 l
100 643 l

ce} _d
/zero{1303 0 135 -29 1167 1520 sc
651 1360 m
547 1360 469 1309 416 1206 c
364 1104 338 950 338 745 c
338 540 364 387 416 284 c
469 182 547 131 651 131 c
756 131 834 182 886 284 c
939 387 965 540 965 745 c
965 950 939 1104 886 1206 c
834 1309 756 1360 651 1360 c

651 1520 m
818 1520 946 1454 1034 1321 c
1123 1189 1167 997 1167 745 c
1167 494 1123 302 1034 169 c
946 37 818 -29 651 -29 c
484 -29 356 37 267 169 c
179 302 135 494 135 745 c
135 997 179 1189 267 1321 c
356 1454 484 1520 651 1520 c

ce} _d
/one{1303 0 225 0 1114 1493 sc
254 170 m
584 170 l
584 1309 l
225 1237 l
225 1421 l
582 1493 l
784 1493 l
784 170 l
1114 170 l
1114 0 l
254 0 l
254 170 l

ce} _d
/two{1303 0 150 0 1098 1520 sc
393 170 m
1098 170 l
1098 0 l
150 0 l
150 170 l
227 249 331 356 463 489 c
596 623 679 709 713 748 c
778 821 823 882 848 932 c
874 983 887 1032 887 1081 c
887 1160 859 1225 803 1275 c
748 1325 675 1350 586 1350 c
523 1350 456 1339 385 1317 c
315 1295 240 1262 160 1217 c
160 1421 l
241 1454 317 1478 388 1495 c
459 1512 523 1520 582 1520 c
737 1520 860 1481 952 1404 c
1044 1327 1090 1223 1090 1094 c
1090 1033 1078 974 1055 919 c
1032 864 991 800 930 725 c
913 706 860 650 771 557 c
682 465 556 336 393 170 c

ce} _d
/three{1303 0 156 -29 1139 1520 sc
831 805 m
928 784 1003 741 1057 676 c
1112 611 1139 530 1139 434 c
1139 287 1088 173 987 92 c
886 11 742 -29 555 -29 c
492 -29 428 -23 361 -10 c
295 2 227 20 156 45 c
156 240 l
212 207 273 183 340 166 c
407 149 476 141 549 141 c
676 141 772 166 838 216 c
905 266 938 339 938 434 c
938 522 907 591 845 640 c
784 690 698 715 588 715 c
414 715 l
414 881 l
596 881 l
695 881 771 901 824 940 c
877 980 903 1037 903 1112 c
903 1189 876 1247 821 1288 c
767 1329 689 1350 588 1350 c
533 1350 473 1344 410 1332 c
347 1320 277 1301 201 1276 c
201 1456 l
278 1477 349 1493 416 1504 c
483 1515 547 1520 606 1520 c
759 1520 881 1485 970 1415 c
1059 1346 1104 1252 1104 1133 c
1104 1050 1080 980 1033 923 c
986 866 918 827 831 805 c

ce} _d
/four{1303 0 100 0 1188 1493 sc
774 1317 m
264 520 l
774 520 l
774 1317 l

721 1493 m
975 1493 l
975 520 l
1188 520 l
1188 352 l
975 352 l
975 0 l
774 0 l
774 352 l
100 352 l
100 547 l
721 1493 l

ce} _d
/five{1303 0 158 -29 1124 1493 sc
221 1493 m
1014 1493 l
1014 1323 l
406 1323 l
406 957 l
435 967 465 974 494 979 c
523 984 553 987 582 987 c
749 987 881 941 978 850 c
1075 759 1124 635 1124 479 c
1124 318 1074 193 974 104 c
874 15 733 -29 551 -29 c
488 -29 424 -24 359 -13 c
294 -2 227 14 158 35 c
158 238 l
218 205 280 181 344 165 c
408 149 476 141 547 141 c
662 141 754 171 821 232 c
888 293 922 375 922 479 c
922 583 888 665 821 726 c
754 787 662 817 547 817 c
493 817 439 811 385 799 c
332 787 277 768 221 743 c
221 1493 l

ce} _d
/six{1303 0 143 -29 1174 1520 sc
676 827 m
585 827 513 796 460 734 c
407 672 381 587 381 479 c
381 372 407 287 460 224 c
513 162 585 131 676 131 c
767 131 838 162 891 224 c
944 287 971 372 971 479 c
971 587 944 672 891 734 c
838 796 767 827 676 827 c

1077 1460 m
1077 1276 l
1026 1300 975 1318 923 1331 c
872 1344 821 1350 770 1350 c
637 1350 535 1305 464 1215 c
394 1125 354 989 344 807 c
383 865 433 909 492 940 c
551 971 617 987 688 987 c
838 987 956 941 1043 850 c
1130 759 1174 636 1174 479 c
1174 326 1129 203 1038 110 c
947 17 827 -29 676 -29 c
503 -29 371 37 280 169 c
189 302 143 494 143 745 c
143 981 199 1169 311 1309 c
423 1450 573 1520 762 1520 c
813 1520 864 1515 915 1505 c
967 1495 1021 1480 1077 1460 c

ce} _d
/seven{1303 0 168 0 1128 1493 sc
168 1493 m
1128 1493 l
1128 1407 l
586 0 l
375 0 l
885 1323 l
168 1323 l
168 1493 l

ce} _d
/eight{1303 0 139 -29 1163 1520 sc
651 709 m
555 709 479 683 424 632 c
369 581 342 510 342 420 c
342 330 369 259 424 208 c
479 157 555 131 651 131 c
747 131 823 157 878 208 c
933 260 961 331 961 420 c
961 510 933 581 878 632 c
823 683 748 709 651 709 c

449 795 m
362 816 295 857 246 916 c
198 975 174 1048 174 1133 c
174 1252 216 1347 301 1416 c
386 1485 503 1520 651 1520 c
800 1520 916 1485 1001 1416 c
1086 1347 1128 1252 1128 1133 c
1128 1048 1104 975 1055 916 c
1007 857 940 816 854 795 c
951 772 1027 728 1081 662 c
1136 596 1163 515 1163 420 c
1163 275 1119 164 1030 87 c
942 10 816 -29 651 -29 c
486 -29 360 10 271 87 c
183 164 139 275 139 420 c
139 515 166 596 221 662 c
276 728 352 772 449 795 c

375 1114 m
375 1037 399 976 447 933 c
496 890 564 868 651 868 c
738 868 805 890 854 933 c
903 976 928 1037 928 1114 c
928 1191 903 1252 854 1295 c
805 1338 738 1360 651 1360 c
564 1360 496 1338 447 1295 c
399 1252 375 1191 375 1114 c

ce} _d
/nine{1303 0 129 -29 1159 1520 sc
225 31 m
225 215 l
276 191 327 173 379 160 c
431 147 482 141 532 141 c
665 141 767 186 837 275 c
908 365 948 501 958 684 c
919 627 870 583 811 552 c
752 521 686 506 614 506 c
465 506 346 551 259 641 c
172 732 129 855 129 1012 c
129 1165 174 1288 265 1381 c
356 1474 476 1520 627 1520 c
800 1520 931 1454 1022 1321 c
1113 1189 1159 997 1159 745 c
1159 510 1103 322 991 181 c
880 41 730 -29 541 -29 c
490 -29 439 -24 387 -14 c
335 -4 281 11 225 31 c

627 664 m
718 664 789 695 842 757 c
895 819 922 904 922 1012 c
922 1119 895 1204 842 1266 c
789 1329 718 1360 627 1360 c
536 1360 464 1329 411 1266 c
358 1204 332 1119 332 1012 c
332 904 358 819 411 757 c
464 695 536 664 627 664 c

ce} _d
end readonly def

/BuildGlyph {
 exch begin
 CharStrings exch
 2 copy known not {pop /.notdef} if
 true 3 1 roll get exec
 end
} _d

/BuildChar {
 1 index /Encoding get exch get
 1 index /BuildGlyph get exec
} _d

FontName currentdict end definefont pop
end
%%EndProlog
mpldict begin
75.6 223.2 translate
460.8 345.6 0 0 clipbox
gsave
0 0 m
460.8 0 l
460.8 345.6 l
0 345.6 l
cl
1.000 setgray
fill
grestore
gsave
49.39 195.28 m
449.221983 195.28 l
449.221983 334.8 l
49.39 334.8 l
cl
1.000 setgray
fill
grestore
0.800 setlinewidth
1 setlinejoin
0 setlinecap
[] 0 setdash
0.000 setgray
gsave
/o {
gsave
newpath
translate
0.8 setlinewidth
1 setlinejoin

0 setlinecap

0 0 m
0 -3.5 l

gsave
0.000 setgray
fill
grestore
stroke
grestore
} bind def
79.9557 195.28 o
grestore
/DejaVuSans 10.000 selectfont
gsave

59.0729 180.686 translate
0 rotate
0 0 m /two glyphshow
6.3623 0 m /zero glyphshow
12.7246 0 m /one glyphshow
19.0869 0 m /six glyphshow
25.4492 0 m /hyphen glyphshow
29.0576 0 m /zero glyphshow
35.4199 0 m /one glyphshow
grestore
gsave
/o {
gsave
newpath
translate
0.8 setlinewidth
1 setlinejoin

0 setlinecap

0 0 m
0 -3.5 l

gsave
0.000 setgray
fill
grestore
stroke
grestore
} bind def
129.522 195.28 o
grestore
/DejaVuSans 10.000 selectfont
gsave

108.639 180.686 translate
0 rotate
0 0 m /two glyphshow
6.3623 0 m /zero glyphshow
12.7246 0 m /one glyphshow
19.0869 0 m /seven glyphshow
25.4492 0 m /hyphen glyphshow
29.0576 0 m /zero glyphshow
35.4199 0 m /one glyphshow
grestore
gsave
/o {
gsave
newpath
translate
0.8 setlinewidth
1 setlinejoin

0 setlinecap

0 0 m
0 -3.5 l

gsave
0.000 setgray
fill
grestore
stroke
grestore
} bind def
179.088 195.28 o
grestore
/DejaVuSans 10.000 selectfont
gsave

158.205 180.686 translate
0 rotate
0 0 m /two glyphshow
6.3623 0 m /zero glyphshow
12.7246 0 m /one glyphshow
19.0869 0 m /eight glyphshow
25.4492 0 m /hyphen glyphshow
29.0576 0 m /zero glyphshow
35.4199 0 m /one glyphshow
grestore
gsave
/o {
gsave
newpath
translate
0.8 setlinewidth
1 setlinejoin

0 setlinecap

0 0 m
0 -3.5 l

gsave
0.000 setgray
fill
grestore
stroke
grestore
} bind def
228.654 195.28 o
grestore
/DejaVuSans 10.000 selectfont
gsave

207.771 180.686 translate
0 rotate
0 0 m /two glyphshow
6.3623 0 m /zero glyphshow
12.7246 0 m /one glyphshow
19.0869 0 m /nine glyphshow
25.4492 0 m /hyphen glyphshow
29.0576 0 m /zero glyphshow
35.4199 0 m /one glyphshow
grestore
gsave
/o {
gsave
newpath
translate
0.8 setlinewidth
1 setlinejoin

0 setlinecap

0 0 m
0 -3.5 l

gsave
0.000 setgray
fill
grestore
stroke
grestore
} bind def
278.219 195.28 o
grestore
/DejaVuSans 10.000 selectfont
gsave

257.337 180.686 translate
0 rotate
0 0 m /two glyphshow
6.3623 0 m /zero glyphshow
12.7246 0 m /two glyphshow
19.0869 0 m /zero glyphshow
25.4492 0 m /hyphen glyphshow
29.0576 0 m /zero glyphshow
35.4199 0 m /one glyphshow
grestore
gsave
/o {
gsave
newpath
translate
0.8 setlinewidth
1 setlinejoin

0 setlinecap

0 0 m
0 -3.5 l

gsave
0.000 setgray
fill
grestore
stroke
grestore
} bind def
327.785 195.28 o
grestore
/DejaVuSans 10.000 selectfont
gsave

306.903 180.686 translate
0 rotate
0 0 m /two glyphshow
6.3623 0 m /zero glyphshow
12.7246 0 m /two glyphshow
19.0869 0 m /one glyphshow
25.4492 0 m /hyphen glyphshow
29.0576 0 m /zero glyphshow
35.4199 0 m /one glyphshow
grestore
gsave
/o {
gsave
newpath
translate
0.8 setlinewidth
1 setlinejoin

0 setlinecap

0 0 m
0 -3.5 l

gsave
0.000 setgray
fill
grestore
stroke
grestore
} bind def
377.351 195.28 o
grestore
/DejaVuSans 10.000 selectfont
gsave

356.469 180.686 translate
0 rotate
0 0 m /two glyphshow
6.3623 0 m /zero glyphshow
12.7246 0 m /two glyphshow
19.0869 0 m /two glyphshow
25.4492 0 m /hyphen glyphshow
29.0576 0 m /zero glyphshow
35.4199 0 m /one glyphshow
grestore
gsave
/o {
gsave
newpath
translate
0.8 setlinewidth
1 setlinejoin

0 setlinecap

0 0 m
0 -3.5 l

gsave
0.000 setgray
fill
grestore
stroke
grestore
} bind def
426.917 195.28 o
grestore
/DejaVuSans 10.000 selectfont
gsave

406.034 180.686 translate
0 rotate
0 0 m /two glyphshow
6.3623 0 m /zero glyphshow
12.7246 0 m /two glyphshow
19.0869 0 m /three glyphshow
25.4492 0 m /hyphen glyphshow
29.0576 0 m /zero glyphshow
35.4199 0 m /one glyphshow
grestore
gsave
/o {
gsave
newpath
translate
0.8 setlinewidth
1 setlinejoin

0 setlinecap

-0 0 m
-3.5 0 l

gsave
0.000 setgray
fill
grestore
stroke
grestore
} bind def
49.39 201.342 o
grestore
/DejaVuSans 10.000 selectfont
gsave

36.0306 197.545 translate
0 rotate
0 0 m /zero glyphshow
grestore
gsave
/o {
gsave
newpath
translate
0.8 setlinewidth
1 setlinejoin

0 setlinecap

-0 0 m
-3.5 0 l

gsave
0.000 setgray
fill
grestore
stroke
grestore
} bind def
49.39 224.647 o
grestore
/DejaVuSans 10.000 selectfont
gsave

16.9525 220.851 translate
0 rotate
0 0 m /five glyphshow
6.3623 0 m /zero glyphshow
12.7246 0 m /zero glyphshow
19.0869 0 m /zero glyphshow
grestore
gsave
/o {
gsave
newpath
translate
0.8 setlinewidth
1 setlinejoin

0 setlinecap

-0 0 m
-3.5 0 l

gsave
0.000 setgray
fill
grestore
stroke
grestore
} bind def
49.39 247.953 o
grestore
/DejaVuSans 10.000 selectfont
gsave

10.5931 244.156 translate
0 rotate
0 0 m /one glyphshow
6.3623 0 m /zero glyphshow
12.7246 0 m /zero glyphshow
19.0869 0 m /zero glyphshow
25.4492 0 m /zero glyphshow
grestore
gsave
/o {
gsave
newpath
translate
0.8 setlinewidth
1 setlinejoin

0 setlinecap

-0 0 m
-3.5 0 l

gsave
0.000 setgray
fill
grestore
stroke
grestore
} bind def
49.39 271.258 o
grestore
/DejaVuSans 10.000 selectfont
gsave

10.5931 267.461 translate
0 rotate
0 0 m /one glyphshow
6.3623 0 m /five glyphshow
12.7246 0 m /zero glyphshow
19.0869 0 m /zero glyphshow
25.4492 0 m /zero glyphshow
grestore
gsave
/o {
gsave
newpath
translate
0.8 setlinewidth
1 setlinejoin

0 setlinecap

-0 0 m
-3.5 0 l

gsave
0.000 setgray
fill
grestore
stroke
grestore
} bind def
49.39 294.563 o
grestore
/DejaVuSans 10.000 selectfont
gsave

10.5931 290.766 translate
0 rotate
0 0 m /two glyphshow
6.3623 0 m /zero glyphshow
12.7246 0 m /zero glyphshow
19.0869 0 m /zero glyphshow
25.4492 0 m /zero glyphshow
grestore
gsave
/o {
gsave
newpath
translate
0.8 setlinewidth
1 setlinejoin

0 setlinecap

-0 0 m
-3.5 0 l

gsave
0.000 setgray
fill
grestore
stroke
grestore
} bind def
49.39 317.868 o
grestore
/DejaVuSans 10.000 selectfont
gsave

10.5931 314.071 translate
0 rotate
0 0 m /two glyphshow
6.3623 0 m /five glyphshow
12.7246 0 m /zero glyphshow
19.0869 0 m /zero glyphshow
25.4492 0 m /zero glyphshow
grestore
1.500 setlinewidth
2 setlinecap
0.122 0.467 0.706 setrgbcolor
gsave
399.832 139.52 49.39 195.28 clipbox
67.564181 239.366963 m
71.694677 215.982499 l
75.825172 245.51022 l
79.955668 225.374505 l
84.086164 219.152009 l
88.21666 243.930126 l
92.347155 248.283542 l
96.477651 302.300396 l
100.608147 305.022446 l
104.738642 310.252139 l
108.869138 300.463944 l
112.999634 279.610427 l
117.130129 328.458182 l
121.260625 264.126435 l
125.391121 240.480953 l
129.521617 222.09779 l
133.652112 243.049188 l
137.782608 251.825937 l
141.913104 261.409046 l
146.043599 308.886453 l
150.174095 309.921205 l
154.304591 254.468749 l
158.435086 219.114721 l
162.565582 230.086822 l
166.696078 228.171132 l
170.826573 226.37663 l
174.957069 212.188408 l
179.087565 220.578289 l
183.218061 206.254897 l
187.348556 206.231592 l
191.479052 215.824023 l
195.609548 219.496927 l
199.740043 215.959193 l
203.870539 209.648138 l
208.001035 208.198553 l
212.13153 205.453197 l
216.262026 205.676928 l
220.392522 205.872691 l
224.523018 203.001488 l
228.653513 202.283687 l
232.784009 201.621818 l
236.914505 202.563349 l
241.045 202.530722 l
245.175496 204.320563 l
249.305992 206.879477 l
253.436487 206.413373 l
257.566983 207.20575 l
261.697479 212.990108 l
265.827975 210.738823 l
269.95847 207.042614 l
274.088966 204.050223 l
278.219462 207.587956 l
282.349957 206.996003 l
286.480453 202.465467 l
290.610949 204.469717 l
294.741444 209.051524 l
298.87194 208.492199 l
303.002436 233.121162 l
307.132931 226.180866 l
311.263427 221.790161 l
315.393923 217.54861 l
319.524419 226.325358 l
323.654914 208.659997 l
327.78541 206.189643 l
331.915906 219.165993 l
336.046401 212.463409 l
340.176897 208.781184 l
344.307393 227.816893 l
348.437888 228.767746 l
352.568384 241.324602 l
356.69888 249.285667 l
360.829376 233.591928 l
364.959871 234.482187 l
369.090367 245.701323 l
373.220863 222.475335 l
377.351358 215.488428 l
381.481854 213.861723 l
385.61235 207.671855 l
389.742845 219.655402 l
393.873341 241.98647 l
398.003837 239.338996 l
402.134333 265.669241 l
406.264828 279.722293 l
410.395324 264.173046 l
414.52582 264.228978 l
418.656315 243.575887 l
422.786811 251.625512 l
426.917307 222.862201 l
431.047802 208.133298 l
stroke
grestore
0.800 setlinewidth
0 setlinejoin
0.000 setgray
gsave
49.39 195.28 m
49.39 334.8 l
stroke
grestore
gsave
449.221983 195.28 m
449.221983 334.8 l
stroke
grestore
gsave
49.39 195.28 m
449.221983 195.28 l
stroke
grestore
gsave
49.39 334.8 m
449.221983 334.8 l
stroke
grestore
gsave
49.39 27.88 m
449.221983 27.88 l
449.221983 167.4 l
49.39 167.4 l
cl
1.000 setgray
fill
grestore
1 setlinejoin
0 setlinecap
gsave
/o {
gsave
newpath
translate
0.8 setlinewidth
1 setlinejoin

0 setlinecap

0 0 m
0 -3.5 l

gsave
0.000 setgray
fill
grestore
stroke
grestore
} bind def
79.9557 27.88 o
grestore
/DejaVuSans 10.000 selectfont
gsave

59.0729 13.2863 translate
0 rotate
0 0 m /two glyphshow
6.3623 0 m /zero glyphshow
12.7246 0 m /one glyphshow
19.0869 0 m /six glyphshow
25.4492 0 m /hyphen glyphshow
29.0576 0 m /zero glyphshow
35.4199 0 m /one glyphshow
grestore
gsave
/o {
gsave
newpath
translate
0.8 setlinewidth
1 setlinejoin

0 setlinecap

0 0 m
0 -3.5 l

gsave
0.000 setgray
fill
grestore
stroke
grestore
} bind def
129.522 27.88 o
grestore
/DejaVuSans 10.000 selectfont
gsave

108.639 13.2863 translate
0 rotate
0 0 m /two glyphshow
6.3623 0 m /zero glyphshow
12.7246 0 m /one glyphshow
19.0869 0 m /seven glyphshow
25.4492 0 m /hyphen glyphshow
29.0576 0 m /zero glyphshow
35.4199 0 m /one glyphshow
grestore
gsave
/o {
gsave
newpath
translate
0.8 setlinewidth
1 setlinejoin

0 setlinecap

0 0 m
0 -3.5 l

gsave
0.000 setgray
fill
grestore
stroke
grestore
} bind def
179.088 27.88 o
grestore
/DejaVuSans 10.000 selectfont
gsave

158.205 13.2863 translate
0 rotate
0 0 m /two glyphshow
6.3623 0 m /zero glyphshow
12.7246 0 m /one glyphshow
19.0869 0 m /eight glyphshow
25.4492 0 m /hyphen glyphshow
29.0576 0 m /zero glyphshow
35.4199 0 m /one glyphshow
grestore
gsave
/o {
gsave
newpath
translate
0.8 setlinewidth
1 setlinejoin

0 setlinecap

0 0 m
0 -3.5 l

gsave
0.000 setgray
fill
grestore
stroke
grestore
} bind def
228.654 27.88 o
grestore
/DejaVuSans 10.000 selectfont
gsave

207.771 13.2863 translate
0 rotate
0 0 m /two glyphshow
6.3623 0 m /zero glyphshow
12.7246 0 m /one glyphshow
19.0869 0 m /nine glyphshow
25.4492 0 m /hyphen glyphshow
29.0576 0 m /zero glyphshow
35.4199 0 m /one glyphshow
grestore
gsave
/o {
gsave
newpath
translate
0.8 setlinewidth
1 setlinejoin

0 setlinecap

0 0 m
0 -3.5 l

gsave
0.000 setgray
fill
grestore
stroke
grestore
} bind def
278.219 27.88 o
grestore
/DejaVuSans 10.000 selectfont
gsave

257.337 13.2863 translate
0 rotate
0 0 m /two glyphshow
6.3623 0 m /zero glyphshow
12.7246 0 m /two glyphshow
19.0869 0 m /zero glyphshow
25.4492 0 m /hyphen glyphshow
29.0576 0 m /zero glyphshow
35.4199 0 m /one glyphshow
grestore
gsave
/o {
gsave
newpath
translate
0.8 setlinewidth
1 setlinejoin

0 setlinecap

0 0 m
0 -3.5 l

gsave
0.000 setgray
fill
grestore
stroke
grestore
} bind def
327.785 27.88 o
grestore
/DejaVuSans 10.000 selectfont
gsave

306.903 13.2863 translate
0 rotate
0 0 m /two glyphshow
6.3623 0 m /zero glyphshow
12.7246 0 m /two glyphshow
19.0869 0 m /one glyphshow
25.4492 0 m /hyphen glyphshow
29.0576 0 m /zero glyphshow
35.4199 0 m /one glyphshow
grestore
gsave
/o {
gsave
newpath
translate
0.8 setlinewidth
1 setlinejoin

0 setlinecap

0 0 m
0 -3.5 l

gsave
0.000 setgray
fill
grestore
stroke
grestore
} bind def
377.351 27.88 o
grestore
/DejaVuSans 10.000 selectfont
gsave

356.469 13.2863 translate
0 rotate
0 0 m /two glyphshow
6.3623 0 m /zero glyphshow
12.7246 0 m /two glyphshow
19.0869 0 m /two glyphshow
25.4492 0 m /hyphen glyphshow
29.0576 0 m /zero glyphshow
35.4199 0 m /one glyphshow
grestore
gsave
/o {
gsave
newpath
translate
0.8 setlinewidth
1 setlinejoin

0 setlinecap

0 0 m
0 -3.5 l

gsave
0.000 setgray
fill
grestore
stroke
grestore
} bind def
426.917 27.88 o
grestore
/DejaVuSans 10.000 selectfont
gsave

406.034 13.2863 translate
0 rotate
0 0 m /two glyphshow
6.3623 0 m /zero glyphshow
12.7246 0 m /two glyphshow
19.0869 0 m /three glyphshow
25.4492 0 m /hyphen glyphshow
29.0576 0 m /zero glyphshow
35.4199 0 m /one glyphshow
grestore
gsave
/o {
gsave
newpath
translate
0.8 setlinewidth
1 setlinejoin

0 setlinecap

-0 0 m
-3.5 0 l

gsave
0.000 setgray
fill
grestore
stroke
grestore
} bind def
49.39 32.2663 o
grestore
/DejaVuSans 10.000 selectfont
gsave

36.0306 28.4694 translate
0 rotate
0 0 m /four glyphshow
grestore
gsave
/o {
gsave
newpath
translate
0.8 setlinewidth
1 setlinejoin

0 setlinecap

-0 0 m
-3.5 0 l

gsave
0.000 setgray
fill
grestore
stroke
grestore
} bind def
49.39 73.721 o
grestore
/DejaVuSans 10.000 selectfont
gsave

36.0306 69.9242 translate
0 rotate
0 0 m /six glyphshow
grestore
gsave
/o {
gsave
newpath
translate
0.8 setlinewidth
1 setlinejoin

0 setlinecap

-0 0 m
-3.5 0 l

gsave
0.000 setgray
fill
grestore
stroke
grestore
} bind def
49.39 115.176 o
grestore
/DejaVuSans 10.000 selectfont
gsave

36.0306 111.379 translate
0 rotate
0 0 m /eight glyphshow
grestore
gsave
/o {
gsave
newpath
translate
0.8 setlinewidth
1 setlinejoin

0 setlinecap

-0 0 m
-3.5 0 l

gsave
0.000 setgray
fill
grestore
stroke
grestore
} bind def
49.39 156.63 o
grestore
/DejaVuSans 10.000 selectfont
gsave

29.6713 152.834 translate
0 rotate
0 0 m /one glyphshow
6.3623 0 m /zero glyphshow
grestore
1.500 setlinewidth
2 setlinecap
0.122 0.467 0.706 setrgbcolor
gsave
399.832 139.52 49.39 27.88 clipbox
67.564181 136.043124 m
71.694677 116.259729 l
75.825172 139.147321 l
79.955668 126.532623 l
84.086164 120.321691 l
88.21666 138.39222 l
92.347155 140.409571 l
96.477651 156.282736 l
100.608147 156.834189 l
104.738642 157.854176 l
108.869138 155.90223 l
112.999634 151.006282 l
117.130129 161.058182 l
121.260625 146.437191 l
125.391121 136.641636 l
129.521617 123.494342 l
133.652112 137.958975 l
137.782608 141.917536 l
141.913104 145.52009 l
146.043599 157.59262 l
150.174095 157.791098 l
154.304591 142.97516 l
158.435086 120.278248 l
162.565582 130.243887 l
166.696078 128.814326 l
170.826573 127.379398 l
174.957069 110.042321 l
179.087565 121.918497 l
183.218061 93.62651 l
187.348556 93.527948 l
191.479052 116.034141 l
195.609548 120.719273 l
199.740043 116.226708 l
203.870539 104.511358 l
208.001035 100.535976 l
212.13153 89.933812 l
216.262026 91.032207 l
220.392522 91.94776 l
224.523018 71.128676 l
228.653513 59.383245 l
232.784009 34.221818 l
236.914505 64.773952 l
241.045 64.212635 l
245.175496 83.25364 l
249.305992 96.107135 l
253.436487 94.284576 l
257.566983 97.293817 l
261.697479 111.520406 l
265.827975 107.06868 l
269.95847 96.708967 l
274.088966 81.281354 l
278.219462 98.602676 l
282.349957 96.538791 l
286.480453 63.042231 l
290.610949 84.266476 l
294.741444 102.966346 l
298.87194 101.405204 l
303.002436 132.323954 l
307.132931 127.216678 l
311.263427 123.184833 l
315.393923 118.366223 l
319.524419 127.336904 l
323.654914 101.886015 l
327.78541 93.349349 l
331.915906 120.337958 l
336.046401 110.561302 l
340.176897 102.22646 l
344.307393 128.538827 l
348.437888 129.270204 l
352.568384 137.083674 l
356.69888 140.84741 l
360.829376 132.628751 l
364.959871 133.193178 l
369.090367 139.23681 l
373.220863 123.867985 l
377.351358 115.548163 l
381.481854 113.016143 l
385.61235 98.87925 l
389.742845 120.89942 l
393.873341 137.423985 l
398.003837 136.027874 l
402.134333 146.94037 l
406.264828 151.035885 l
410.395324 146.452574 l
414.52582 146.471017 l
418.656315 138.219092 l
422.786811 141.835083 l
426.917307 124.243991 l
431.047802 100.337762 l
stroke
grestore
0.800 setlinewidth
0 setlinejoin
0.000 setgray
gsave
49.39 27.88 m
49.39 167.4 l
stroke
grestore
gsave
449.221983 27.88 m
449.221983 167.4 l
stroke
grestore
gsave
49.39 27.88 m
449.221983 27.88 l
stroke
grestore
gsave
49.39 167.4 m
449.221983 167.4 l
stroke
grestore

end
showpage
