%!PS-Adobe-3.0 EPSF-3.0
%%Title: posterior_predictive.eps
%%Creator: Matplotlib v3.6.2, https://matplotlib.org/
%%CreationDate: Wed Feb  8 15:24:05 2023
%%Orientation: portrait
%%BoundingBox: 75 223 537 569
%%HiResBoundingBox: 75.600000 223.200000 536.400000 568.800000
%%EndComments
%%BeginProlog
/mpldict 11 dict def
mpldict begin
/_d { bind def } bind def
/m { moveto } _d
/l { lineto } _d
/r { rlineto } _d
/c { curveto } _d
/cl { closepath } _d
/ce { closepath eofill } _d
/box {
      m
      1 index 0 r
      0 exch r
      neg 0 r
      cl
    } _d
/clipbox {
      box
      clip
      newpath
    } _d
/sc { setcachedevice } _d
%!PS-Adobe-3.0 Resource-Font
%%Creator: Converted from TrueType to Type 3 by Matplotlib.
10 dict begin
/FontName /DejaVuSans def
/PaintType 0 def
/FontMatrix [0.00048828125 0 0 0.00048828125 0 0] def
/FontBBox [-2090 -948 3673 2524] def
/FontType 3 def
/Encoding [/period /zero /one /two /three /four /five /six /eight] def
/CharStrings 10 dict dup begin
/.notdef 0 def
/period{651 0 219 0 430 254 sc
219 254 m
430 254 l
430 0 l
219 0 l
219 254 l

ce} _d
/zero{1303 0 135 -29 1167 1520 sc
651 1360 m
547 1360 469 1309 416 1206 c
364 1104 338 950 338 745 c
338 540 364 387 416 284 c
469 182 547 131 651 131 c
756 131 834 182 886 284 c
939 387 965 540 965 745 c
965 950 939 1104 886 1206 c
834 1309 756 1360 651 1360 c

651 1520 m
818 1520 946 1454 1034 1321 c
1123 1189 1167 997 1167 745 c
1167 494 1123 302 1034 169 c
946 37 818 -29 651 -29 c
484 -29 356 37 267 169 c
179 302 135 494 135 745 c
135 997 179 1189 267 1321 c
356 1454 484 1520 651 1520 c

ce} _d
/one{1303 0 225 0 1114 1493 sc
254 170 m
584 170 l
584 1309 l
225 1237 l
225 1421 l
582 1493 l
784 1493 l
784 170 l
1114 170 l
1114 0 l
254 0 l
254 170 l

ce} _d
/two{1303 0 150 0 1098 1520 sc
393 170 m
1098 170 l
1098 0 l
150 0 l
150 170 l
227 249 331 356 463 489 c
596 623 679 709 713 748 c
778 821 823 882 848 932 c
874 983 887 1032 887 1081 c
887 1160 859 1225 803 1275 c
748 1325 675 1350 586 1350 c
523 1350 456 1339 385 1317 c
315 1295 240 1262 160 1217 c
160 1421 l
241 1454 317 1478 388 1495 c
459 1512 523 1520 582 1520 c
737 1520 860 1481 952 1404 c
1044 1327 1090 1223 1090 1094 c
1090 1033 1078 974 1055 919 c
1032 864 991 800 930 725 c
913 706 860 650 771 557 c
682 465 556 336 393 170 c

ce} _d
/three{1303 0 156 -29 1139 1520 sc
831 805 m
928 784 1003 741 1057 676 c
1112 611 1139 530 1139 434 c
1139 287 1088 173 987 92 c
886 11 742 -29 555 -29 c
492 -29 428 -23 361 -10 c
295 2 227 20 156 45 c
156 240 l
212 207 273 183 340 166 c
407 149 476 141 549 141 c
676 141 772 166 838 216 c
905 266 938 339 938 434 c
938 522 907 591 845 640 c
784 690 698 715 588 715 c
414 715 l
414 881 l
596 881 l
695 881 771 901 824 940 c
877 980 903 1037 903 1112 c
903 1189 876 1247 821 1288 c
767 1329 689 1350 588 1350 c
533 1350 473 1344 410 1332 c
347 1320 277 1301 201 1276 c
201 1456 l
278 1477 349 1493 416 1504 c
483 1515 547 1520 606 1520 c
759 1520 881 1485 970 1415 c
1059 1346 1104 1252 1104 1133 c
1104 1050 1080 980 1033 923 c
986 866 918 827 831 805 c

ce} _d
/four{1303 0 100 0 1188 1493 sc
774 1317 m
264 520 l
774 520 l
774 1317 l

721 1493 m
975 1493 l
975 520 l
1188 520 l
1188 352 l
975 352 l
975 0 l
774 0 l
774 352 l
100 352 l
100 547 l
721 1493 l

ce} _d
/five{1303 0 158 -29 1124 1493 sc
221 1493 m
1014 1493 l
1014 1323 l
406 1323 l
406 957 l
435 967 465 974 494 979 c
523 984 553 987 582 987 c
749 987 881 941 978 850 c
1075 759 1124 635 1124 479 c
1124 318 1074 193 974 104 c
874 15 733 -29 551 -29 c
488 -29 424 -24 359 -13 c
294 -2 227 14 158 35 c
158 238 l
218 205 280 181 344 165 c
408 149 476 141 547 141 c
662 141 754 171 821 232 c
888 293 922 375 922 479 c
922 583 888 665 821 726 c
754 787 662 817 547 817 c
493 817 439 811 385 799 c
332 787 277 768 221 743 c
221 1493 l

ce} _d
/six{1303 0 143 -29 1174 1520 sc
676 827 m
585 827 513 796 460 734 c
407 672 381 587 381 479 c
381 372 407 287 460 224 c
513 162 585 131 676 131 c
767 131 838 162 891 224 c
944 287 971 372 971 479 c
971 587 944 672 891 734 c
838 796 767 827 676 827 c

1077 1460 m
1077 1276 l
1026 1300 975 1318 923 1331 c
872 1344 821 1350 770 1350 c
637 1350 535 1305 464 1215 c
394 1125 354 989 344 807 c
383 865 433 909 492 940 c
551 971 617 987 688 987 c
838 987 956 941 1043 850 c
1130 759 1174 636 1174 479 c
1174 326 1129 203 1038 110 c
947 17 827 -29 676 -29 c
503 -29 371 37 280 169 c
189 302 143 494 143 745 c
143 981 199 1169 311 1309 c
423 1450 573 1520 762 1520 c
813 1520 864 1515 915 1505 c
967 1495 1021 1480 1077 1460 c

ce} _d
/eight{1303 0 139 -29 1163 1520 sc
651 709 m
555 709 479 683 424 632 c
369 581 342 510 342 420 c
342 330 369 259 424 208 c
479 157 555 131 651 131 c
747 131 823 157 878 208 c
933 260 961 331 961 420 c
961 510 933 581 878 632 c
823 683 748 709 651 709 c

449 795 m
362 816 295 857 246 916 c
198 975 174 1048 174 1133 c
174 1252 216 1347 301 1416 c
386 1485 503 1520 651 1520 c
800 1520 916 1485 1001 1416 c
1086 1347 1128 1252 1128 1133 c
1128 1048 1104 975 1055 916 c
1007 857 940 816 854 795 c
951 772 1027 728 1081 662 c
1136 596 1163 515 1163 420 c
1163 275 1119 164 1030 87 c
942 10 816 -29 651 -29 c
486 -29 360 10 271 87 c
183 164 139 275 139 420 c
139 515 166 596 221 662 c
276 728 352 772 449 795 c

375 1114 m
375 1037 399 976 447 933 c
496 890 564 868 651 868 c
738 868 805 890 854 933 c
903 976 928 1037 928 1114 c
928 1191 903 1252 854 1295 c
805 1338 738 1360 651 1360 c
564 1360 496 1338 447 1295 c
399 1252 375 1191 375 1114 c

ce} _d
end readonly def

/BuildGlyph {
 exch begin
 CharStrings exch
 2 copy known not {pop /.notdef} if
 true 3 1 roll get exec
 end
} _d

/BuildChar {
 1 index /Encoding get exch get
 1 index /BuildGlyph get exec
} _d

FontName currentdict end definefont pop
end
%%EndProlog
mpldict begin
75.6 223.2 translate
460.8 345.6 0 0 clipbox
gsave
0 0 m
460.8 0 l
460.8 345.6 l
0 345.6 l
cl
1.000 setgray
fill
grestore
gsave
46.24 195.540226 m
445.513036 195.540226 l
445.513036 334.8 l
46.24 334.8 l
cl
1.000 setgray
fill
grestore
gsave
399.273 139.26 46.24 195.54 clipbox
64.388774 195.540226 m
71.648284 195.540226 l
71.648284 328.168582 l
64.388774 328.168582 l
cl
0.275 0.195 0.496 setrgbcolor
fill
grestore
gsave
399.273 139.26 46.24 195.54 clipbox
71.648284 195.540226 m
78.907794 195.540226 l
78.907794 196.330465 l
71.648284 196.330465 l
cl
0.275 0.195 0.496 setrgbcolor
fill
grestore
gsave
399.273 139.26 46.24 195.54 clipbox
78.907794 195.540226 m
86.167304 195.540226 l
86.167304 195.91653 l
78.907794 195.91653 l
cl
0.275 0.195 0.496 setrgbcolor
fill
grestore
gsave
399.273 139.26 46.24 195.54 clipbox
86.167304 195.540226 m
93.426813 195.540226 l
93.426813 195.577857 l
86.167304 195.577857 l
cl
0.275 0.195 0.496 setrgbcolor
fill
grestore
gsave
399.273 139.26 46.24 195.54 clipbox
93.426813 195.540226 m
100.686323 195.540226 l
100.686323 195.540226 l
93.426813 195.540226 l
cl
0.275 0.195 0.496 setrgbcolor
fill
grestore
gsave
399.273 139.26 46.24 195.54 clipbox
100.686323 195.540226 m
107.945833 195.540226 l
107.945833 195.540226 l
100.686323 195.540226 l
cl
0.275 0.195 0.496 setrgbcolor
fill
grestore
gsave
399.273 139.26 46.24 195.54 clipbox
107.945833 195.540226 m
115.205343 195.540226 l
115.205343 195.540226 l
107.945833 195.540226 l
cl
0.275 0.195 0.496 setrgbcolor
fill
grestore
gsave
399.273 139.26 46.24 195.54 clipbox
115.205343 195.540226 m
122.464852 195.540226 l
122.464852 195.559042 l
115.205343 195.559042 l
cl
0.275 0.195 0.496 setrgbcolor
fill
grestore
gsave
399.273 139.26 46.24 195.54 clipbox
122.464852 195.540226 m
129.724362 195.540226 l
129.724362 195.559042 l
122.464852 195.559042 l
cl
0.275 0.195 0.496 setrgbcolor
fill
grestore
gsave
399.273 139.26 46.24 195.54 clipbox
129.724362 195.540226 m
136.983872 195.540226 l
136.983872 195.540226 l
129.724362 195.540226 l
cl
0.275 0.195 0.496 setrgbcolor
fill
grestore
gsave
399.273 139.26 46.24 195.54 clipbox
136.983872 195.540226 m
144.243382 195.540226 l
144.243382 195.540226 l
136.983872 195.540226 l
cl
0.275 0.195 0.496 setrgbcolor
fill
grestore
gsave
399.273 139.26 46.24 195.54 clipbox
144.243382 195.540226 m
151.502891 195.540226 l
151.502891 195.540226 l
144.243382 195.540226 l
cl
0.275 0.195 0.496 setrgbcolor
fill
grestore
gsave
399.273 139.26 46.24 195.54 clipbox
151.502891 195.540226 m
158.762401 195.540226 l
158.762401 195.559042 l
151.502891 195.559042 l
cl
0.275 0.195 0.496 setrgbcolor
fill
grestore
gsave
399.273 139.26 46.24 195.54 clipbox
158.762401 195.540226 m
166.021911 195.540226 l
166.021911 195.540226 l
158.762401 195.540226 l
cl
0.275 0.195 0.496 setrgbcolor
fill
grestore
gsave
399.273 139.26 46.24 195.54 clipbox
166.021911 195.540226 m
173.281421 195.540226 l
173.281421 195.540226 l
166.021911 195.540226 l
cl
0.275 0.195 0.496 setrgbcolor
fill
grestore
gsave
399.273 139.26 46.24 195.54 clipbox
173.281421 195.540226 m
180.54093 195.540226 l
180.54093 195.559042 l
173.281421 195.559042 l
cl
0.275 0.195 0.496 setrgbcolor
fill
grestore
gsave
399.273 139.26 46.24 195.54 clipbox
180.54093 195.540226 m
187.80044 195.540226 l
187.80044 195.540226 l
180.54093 195.540226 l
cl
0.275 0.195 0.496 setrgbcolor
fill
grestore
gsave
399.273 139.26 46.24 195.54 clipbox
187.80044 195.540226 m
195.05995 195.540226 l
195.05995 195.540226 l
187.80044 195.540226 l
cl
0.275 0.195 0.496 setrgbcolor
fill
grestore
gsave
399.273 139.26 46.24 195.54 clipbox
195.05995 195.540226 m
202.319459 195.540226 l
202.319459 195.540226 l
195.05995 195.540226 l
cl
0.275 0.195 0.496 setrgbcolor
fill
grestore
gsave
399.273 139.26 46.24 195.54 clipbox
202.319459 195.540226 m
209.578969 195.540226 l
209.578969 195.540226 l
202.319459 195.540226 l
cl
0.275 0.195 0.496 setrgbcolor
fill
grestore
gsave
399.273 139.26 46.24 195.54 clipbox
209.578969 195.540226 m
216.838479 195.540226 l
216.838479 195.540226 l
209.578969 195.540226 l
cl
0.275 0.195 0.496 setrgbcolor
fill
grestore
gsave
399.273 139.26 46.24 195.54 clipbox
216.838479 195.540226 m
224.097989 195.540226 l
224.097989 195.84127 l
216.838479 195.84127 l
cl
0.275 0.195 0.496 setrgbcolor
fill
grestore
gsave
399.273 139.26 46.24 195.54 clipbox
224.097989 195.540226 m
231.357498 195.540226 l
231.357498 195.540226 l
224.097989 195.540226 l
cl
0.275 0.195 0.496 setrgbcolor
fill
grestore
gsave
399.273 139.26 46.24 195.54 clipbox
231.357498 195.540226 m
238.617008 195.540226 l
238.617008 195.540226 l
231.357498 195.540226 l
cl
0.275 0.195 0.496 setrgbcolor
fill
grestore
gsave
399.273 139.26 46.24 195.54 clipbox
238.617008 195.540226 m
245.876518 195.540226 l
245.876518 195.540226 l
238.617008 195.540226 l
cl
0.275 0.195 0.496 setrgbcolor
fill
grestore
gsave
399.273 139.26 46.24 195.54 clipbox
245.876518 195.540226 m
253.136028 195.540226 l
253.136028 195.540226 l
245.876518 195.540226 l
cl
0.275 0.195 0.496 setrgbcolor
fill
grestore
gsave
399.273 139.26 46.24 195.54 clipbox
253.136028 195.540226 m
260.395537 195.540226 l
260.395537 195.540226 l
253.136028 195.540226 l
cl
0.275 0.195 0.496 setrgbcolor
fill
grestore
gsave
399.273 139.26 46.24 195.54 clipbox
260.395537 195.540226 m
267.655047 195.540226 l
267.655047 195.540226 l
260.395537 195.540226 l
cl
0.275 0.195 0.496 setrgbcolor
fill
grestore
gsave
399.273 139.26 46.24 195.54 clipbox
267.655047 195.540226 m
274.914557 195.540226 l
274.914557 195.540226 l
267.655047 195.540226 l
cl
0.275 0.195 0.496 setrgbcolor
fill
grestore
gsave
399.273 139.26 46.24 195.54 clipbox
274.914557 195.540226 m
282.174067 195.540226 l
282.174067 195.540226 l
274.914557 195.540226 l
cl
0.275 0.195 0.496 setrgbcolor
fill
grestore
gsave
399.273 139.26 46.24 195.54 clipbox
282.174067 195.540226 m
289.433576 195.540226 l
289.433576 195.540226 l
282.174067 195.540226 l
cl
0.275 0.195 0.496 setrgbcolor
fill
grestore
gsave
399.273 139.26 46.24 195.54 clipbox
289.433576 195.540226 m
296.693086 195.540226 l
296.693086 195.540226 l
289.433576 195.540226 l
cl
0.275 0.195 0.496 setrgbcolor
fill
grestore
gsave
399.273 139.26 46.24 195.54 clipbox
296.693086 195.540226 m
303.952596 195.540226 l
303.952596 195.540226 l
296.693086 195.540226 l
cl
0.275 0.195 0.496 setrgbcolor
fill
grestore
gsave
399.273 139.26 46.24 195.54 clipbox
303.952596 195.540226 m
311.212106 195.540226 l
311.212106 195.540226 l
303.952596 195.540226 l
cl
0.275 0.195 0.496 setrgbcolor
fill
grestore
gsave
399.273 139.26 46.24 195.54 clipbox
311.212106 195.540226 m
318.471615 195.540226 l
318.471615 195.540226 l
311.212106 195.540226 l
cl
0.275 0.195 0.496 setrgbcolor
fill
grestore
gsave
399.273 139.26 46.24 195.54 clipbox
318.471615 195.540226 m
325.731125 195.540226 l
325.731125 195.540226 l
318.471615 195.540226 l
cl
0.275 0.195 0.496 setrgbcolor
fill
grestore
gsave
399.273 139.26 46.24 195.54 clipbox
325.731125 195.540226 m
332.990635 195.540226 l
332.990635 195.540226 l
325.731125 195.540226 l
cl
0.275 0.195 0.496 setrgbcolor
fill
grestore
gsave
399.273 139.26 46.24 195.54 clipbox
332.990635 195.540226 m
340.250145 195.540226 l
340.250145 195.540226 l
332.990635 195.540226 l
cl
0.275 0.195 0.496 setrgbcolor
fill
grestore
gsave
399.273 139.26 46.24 195.54 clipbox
340.250145 195.540226 m
347.509654 195.540226 l
347.509654 195.540226 l
340.250145 195.540226 l
cl
0.275 0.195 0.496 setrgbcolor
fill
grestore
gsave
399.273 139.26 46.24 195.54 clipbox
347.509654 195.540226 m
354.769164 195.540226 l
354.769164 195.540226 l
347.509654 195.540226 l
cl
0.275 0.195 0.496 setrgbcolor
fill
grestore
gsave
399.273 139.26 46.24 195.54 clipbox
354.769164 195.540226 m
362.028674 195.540226 l
362.028674 195.540226 l
354.769164 195.540226 l
cl
0.275 0.195 0.496 setrgbcolor
fill
grestore
gsave
399.273 139.26 46.24 195.54 clipbox
362.028674 195.540226 m
369.288184 195.540226 l
369.288184 195.540226 l
362.028674 195.540226 l
cl
0.275 0.195 0.496 setrgbcolor
fill
grestore
gsave
399.273 139.26 46.24 195.54 clipbox
369.288184 195.540226 m
376.547693 195.540226 l
376.547693 195.540226 l
369.288184 195.540226 l
cl
0.275 0.195 0.496 setrgbcolor
fill
grestore
gsave
399.273 139.26 46.24 195.54 clipbox
376.547693 195.540226 m
383.807203 195.540226 l
383.807203 195.540226 l
376.547693 195.540226 l
cl
0.275 0.195 0.496 setrgbcolor
fill
grestore
gsave
399.273 139.26 46.24 195.54 clipbox
383.807203 195.540226 m
391.066713 195.540226 l
391.066713 195.540226 l
383.807203 195.540226 l
cl
0.275 0.195 0.496 setrgbcolor
fill
grestore
gsave
399.273 139.26 46.24 195.54 clipbox
391.066713 195.540226 m
398.326223 195.540226 l
398.326223 195.540226 l
391.066713 195.540226 l
cl
0.275 0.195 0.496 setrgbcolor
fill
grestore
gsave
399.273 139.26 46.24 195.54 clipbox
398.326223 195.540226 m
405.585732 195.540226 l
405.585732 195.540226 l
398.326223 195.540226 l
cl
0.275 0.195 0.496 setrgbcolor
fill
grestore
gsave
399.273 139.26 46.24 195.54 clipbox
405.585732 195.540226 m
412.845242 195.540226 l
412.845242 195.540226 l
405.585732 195.540226 l
cl
0.275 0.195 0.496 setrgbcolor
fill
grestore
gsave
399.273 139.26 46.24 195.54 clipbox
412.845242 195.540226 m
420.104752 195.540226 l
420.104752 195.540226 l
412.845242 195.540226 l
cl
0.275 0.195 0.496 setrgbcolor
fill
grestore
gsave
399.273 139.26 46.24 195.54 clipbox
420.104752 195.540226 m
427.364262 195.540226 l
427.364262 195.860085 l
420.104752 195.860085 l
cl
0.275 0.195 0.496 setrgbcolor
fill
grestore
0.800 setlinewidth
1 setlinejoin
0 setlinecap
[] 0 setdash
0.000 setgray
gsave
/o {
gsave
newpath
translate
0.8 setlinewidth
1 setlinejoin

0 setlinecap

0 0 m
0 -3.5 l

gsave
0.000 setgray
fill
grestore
stroke
grestore
} bind def
64.3888 195.54 o
grestore
/DejaVuSans 10.000 selectfont
gsave

61.2091 180.946 translate
0 rotate
0 0 m /zero glyphshow
grestore
gsave
/o {
gsave
newpath
translate
0.8 setlinewidth
1 setlinejoin

0 setlinecap

0 0 m
0 -3.5 l

gsave
0.000 setgray
fill
grestore
stroke
grestore
} bind def
138.799 195.54 o
grestore
/DejaVuSans 10.000 selectfont
gsave

126.081 180.946 translate
0 rotate
0 0 m /one glyphshow
6.3623 0 m /zero glyphshow
12.7246 0 m /zero glyphshow
19.0869 0 m /zero glyphshow
grestore
gsave
/o {
gsave
newpath
translate
0.8 setlinewidth
1 setlinejoin

0 setlinecap

0 0 m
0 -3.5 l

gsave
0.000 setgray
fill
grestore
stroke
grestore
} bind def
213.21 195.54 o
grestore
/DejaVuSans 10.000 selectfont
gsave

200.491 180.946 translate
0 rotate
0 0 m /two glyphshow
6.3623 0 m /zero glyphshow
12.7246 0 m /zero glyphshow
19.0869 0 m /zero glyphshow
grestore
gsave
/o {
gsave
newpath
translate
0.8 setlinewidth
1 setlinejoin

0 setlinecap

0 0 m
0 -3.5 l

gsave
0.000 setgray
fill
grestore
stroke
grestore
} bind def
287.621 195.54 o
grestore
/DejaVuSans 10.000 selectfont
gsave

274.902 180.946 translate
0 rotate
0 0 m /three glyphshow
6.3623 0 m /zero glyphshow
12.7246 0 m /zero glyphshow
19.0869 0 m /zero glyphshow
grestore
gsave
/o {
gsave
newpath
translate
0.8 setlinewidth
1 setlinejoin

0 setlinecap

0 0 m
0 -3.5 l

gsave
0.000 setgray
fill
grestore
stroke
grestore
} bind def
362.032 195.54 o
grestore
/DejaVuSans 10.000 selectfont
gsave

349.313 180.946 translate
0 rotate
0 0 m /four glyphshow
6.3623 0 m /zero glyphshow
12.7246 0 m /zero glyphshow
19.0869 0 m /zero glyphshow
grestore
gsave
/o {
gsave
newpath
translate
0.8 setlinewidth
1 setlinejoin

0 setlinecap

0 0 m
0 -3.5 l

gsave
0.000 setgray
fill
grestore
stroke
grestore
} bind def
436.442 195.54 o
grestore
/DejaVuSans 10.000 selectfont
gsave

423.724 180.946 translate
0 rotate
0 0 m /five glyphshow
6.3623 0 m /zero glyphshow
12.7246 0 m /zero glyphshow
19.0869 0 m /zero glyphshow
grestore
gsave
/o {
gsave
newpath
translate
0.8 setlinewidth
1 setlinejoin

0 setlinecap

-0 0 m
-3.5 0 l

gsave
0.000 setgray
fill
grestore
stroke
grestore
} bind def
46.24 195.54 o
grestore
/DejaVuSans 10.000 selectfont
gsave

10.615 191.743 translate
0 rotate
0 0 m /zero glyphshow
6.3623 0 m /period glyphshow
9.54102 0 m /zero glyphshow
15.9033 0 m /zero glyphshow
22.2656 0 m /zero glyphshow
grestore
gsave
/o {
gsave
newpath
translate
0.8 setlinewidth
1 setlinejoin

0 setlinecap

-0 0 m
-3.5 0 l

gsave
0.000 setgray
fill
grestore
stroke
grestore
} bind def
46.24 221.789 o
grestore
/DejaVuSans 10.000 selectfont
gsave

10.615 217.993 translate
0 rotate
0 0 m /zero glyphshow
6.3623 0 m /period glyphshow
9.54102 0 m /zero glyphshow
15.9033 0 m /zero glyphshow
22.2656 0 m /two glyphshow
grestore
gsave
/o {
gsave
newpath
translate
0.8 setlinewidth
1 setlinejoin

0 setlinecap

-0 0 m
-3.5 0 l

gsave
0.000 setgray
fill
grestore
stroke
grestore
} bind def
46.24 248.039 o
grestore
/DejaVuSans 10.000 selectfont
gsave

10.615 244.242 translate
0 rotate
0 0 m /zero glyphshow
6.3623 0 m /period glyphshow
9.54102 0 m /zero glyphshow
15.9033 0 m /zero glyphshow
22.2656 0 m /four glyphshow
grestore
gsave
/o {
gsave
newpath
translate
0.8 setlinewidth
1 setlinejoin

0 setlinecap

-0 0 m
-3.5 0 l

gsave
0.000 setgray
fill
grestore
stroke
grestore
} bind def
46.24 274.288 o
grestore
/DejaVuSans 10.000 selectfont
gsave

10.615 270.491 translate
0 rotate
0 0 m /zero glyphshow
6.3623 0 m /period glyphshow
9.54102 0 m /zero glyphshow
15.9033 0 m /zero glyphshow
22.2656 0 m /six glyphshow
grestore
gsave
/o {
gsave
newpath
translate
0.8 setlinewidth
1 setlinejoin

0 setlinecap

-0 0 m
-3.5 0 l

gsave
0.000 setgray
fill
grestore
stroke
grestore
} bind def
46.24 300.537 o
grestore
/DejaVuSans 10.000 selectfont
gsave

10.615 296.74 translate
0 rotate
0 0 m /zero glyphshow
6.3623 0 m /period glyphshow
9.54102 0 m /zero glyphshow
15.9033 0 m /zero glyphshow
22.2656 0 m /eight glyphshow
grestore
gsave
/o {
gsave
newpath
translate
0.8 setlinewidth
1 setlinejoin

0 setlinecap

-0 0 m
-3.5 0 l

gsave
0.000 setgray
fill
grestore
stroke
grestore
} bind def
46.24 326.786 o
grestore
/DejaVuSans 10.000 selectfont
gsave

10.615 322.99 translate
0 rotate
0 0 m /zero glyphshow
6.3623 0 m /period glyphshow
9.54102 0 m /zero glyphshow
15.9033 0 m /one glyphshow
22.2656 0 m /zero glyphshow
grestore
0 setlinejoin
2 setlinecap
gsave
46.24 195.540226 m
46.24 334.8 l
stroke
grestore
gsave
445.513036 195.540226 m
445.513036 334.8 l
stroke
grestore
gsave
46.24 195.540226 m
445.513036 195.540226 l
stroke
grestore
gsave
46.24 334.8 m
445.513036 334.8 l
stroke
grestore
gsave
46.24 27.88 m
445.513036 27.88 l
445.513036 167.139774 l
46.24 167.139774 l
cl
1.000 setgray
fill
grestore
gsave
399.273 139.26 46.24 27.88 clipbox
64.388774 27.88 m
71.648284 27.88 l
71.648284 160.508356 l
64.388774 160.508356 l
cl
0.275 0.195 0.496 setrgbcolor
fill
grestore
gsave
399.273 139.26 46.24 27.88 clipbox
71.648284 27.88 m
78.907794 27.88 l
78.907794 27.88 l
71.648284 27.88 l
cl
0.275 0.195 0.496 setrgbcolor
fill
grestore
gsave
399.273 139.26 46.24 27.88 clipbox
78.907794 27.88 m
86.167304 27.88 l
86.167304 27.88 l
78.907794 27.88 l
cl
0.275 0.195 0.496 setrgbcolor
fill
grestore
gsave
399.273 139.26 46.24 27.88 clipbox
86.167304 27.88 m
93.426813 27.88 l
93.426813 27.88 l
86.167304 27.88 l
cl
0.275 0.195 0.496 setrgbcolor
fill
grestore
gsave
399.273 139.26 46.24 27.88 clipbox
93.426813 27.88 m
100.686323 27.88 l
100.686323 27.88 l
93.426813 27.88 l
cl
0.275 0.195 0.496 setrgbcolor
fill
grestore
gsave
399.273 139.26 46.24 27.88 clipbox
100.686323 27.88 m
107.945833 27.88 l
107.945833 27.88 l
100.686323 27.88 l
cl
0.275 0.195 0.496 setrgbcolor
fill
grestore
gsave
399.273 139.26 46.24 27.88 clipbox
107.945833 27.88 m
115.205343 27.88 l
115.205343 27.88 l
107.945833 27.88 l
cl
0.275 0.195 0.496 setrgbcolor
fill
grestore
gsave
399.273 139.26 46.24 27.88 clipbox
115.205343 27.88 m
122.464852 27.88 l
122.464852 27.88 l
115.205343 27.88 l
cl
0.275 0.195 0.496 setrgbcolor
fill
grestore
gsave
399.273 139.26 46.24 27.88 clipbox
122.464852 27.88 m
129.724362 27.88 l
129.724362 27.88 l
122.464852 27.88 l
cl
0.275 0.195 0.496 setrgbcolor
fill
grestore
gsave
399.273 139.26 46.24 27.88 clipbox
129.724362 27.88 m
136.983872 27.88 l
136.983872 27.88 l
129.724362 27.88 l
cl
0.275 0.195 0.496 setrgbcolor
fill
grestore
gsave
399.273 139.26 46.24 27.88 clipbox
136.983872 27.88 m
144.243382 27.88 l
144.243382 27.88 l
136.983872 27.88 l
cl
0.275 0.195 0.496 setrgbcolor
fill
grestore
gsave
399.273 139.26 46.24 27.88 clipbox
144.243382 27.88 m
151.502891 27.88 l
151.502891 27.88 l
144.243382 27.88 l
cl
0.275 0.195 0.496 setrgbcolor
fill
grestore
gsave
399.273 139.26 46.24 27.88 clipbox
151.502891 27.88 m
158.762401 27.88 l
158.762401 27.88 l
151.502891 27.88 l
cl
0.275 0.195 0.496 setrgbcolor
fill
grestore
gsave
399.273 139.26 46.24 27.88 clipbox
158.762401 27.88 m
166.021911 27.88 l
166.021911 27.88 l
158.762401 27.88 l
cl
0.275 0.195 0.496 setrgbcolor
fill
grestore
gsave
399.273 139.26 46.24 27.88 clipbox
166.021911 27.88 m
173.281421 27.88 l
173.281421 27.88 l
166.021911 27.88 l
cl
0.275 0.195 0.496 setrgbcolor
fill
grestore
gsave
399.273 139.26 46.24 27.88 clipbox
173.281421 27.88 m
180.54093 27.88 l
180.54093 27.88 l
173.281421 27.88 l
cl
0.275 0.195 0.496 setrgbcolor
fill
grestore
gsave
399.273 139.26 46.24 27.88 clipbox
180.54093 27.88 m
187.80044 27.88 l
187.80044 27.88 l
180.54093 27.88 l
cl
0.275 0.195 0.496 setrgbcolor
fill
grestore
gsave
399.273 139.26 46.24 27.88 clipbox
187.80044 27.88 m
195.05995 27.88 l
195.05995 27.88 l
187.80044 27.88 l
cl
0.275 0.195 0.496 setrgbcolor
fill
grestore
gsave
399.273 139.26 46.24 27.88 clipbox
195.05995 27.88 m
202.319459 27.88 l
202.319459 27.88 l
195.05995 27.88 l
cl
0.275 0.195 0.496 setrgbcolor
fill
grestore
gsave
399.273 139.26 46.24 27.88 clipbox
202.319459 27.88 m
209.578969 27.88 l
209.578969 27.88 l
202.319459 27.88 l
cl
0.275 0.195 0.496 setrgbcolor
fill
grestore
gsave
399.273 139.26 46.24 27.88 clipbox
209.578969 27.88 m
216.838479 27.88 l
216.838479 27.88 l
209.578969 27.88 l
cl
0.275 0.195 0.496 setrgbcolor
fill
grestore
gsave
399.273 139.26 46.24 27.88 clipbox
216.838479 27.88 m
224.097989 27.88 l
224.097989 27.88 l
216.838479 27.88 l
cl
0.275 0.195 0.496 setrgbcolor
fill
grestore
gsave
399.273 139.26 46.24 27.88 clipbox
224.097989 27.88 m
231.357498 27.88 l
231.357498 27.88 l
224.097989 27.88 l
cl
0.275 0.195 0.496 setrgbcolor
fill
grestore
gsave
399.273 139.26 46.24 27.88 clipbox
231.357498 27.88 m
238.617008 27.88 l
238.617008 27.88 l
231.357498 27.88 l
cl
0.275 0.195 0.496 setrgbcolor
fill
grestore
gsave
399.273 139.26 46.24 27.88 clipbox
238.617008 27.88 m
245.876518 27.88 l
245.876518 27.88 l
238.617008 27.88 l
cl
0.275 0.195 0.496 setrgbcolor
fill
grestore
gsave
399.273 139.26 46.24 27.88 clipbox
245.876518 27.88 m
253.136028 27.88 l
253.136028 27.88 l
245.876518 27.88 l
cl
0.275 0.195 0.496 setrgbcolor
fill
grestore
gsave
399.273 139.26 46.24 27.88 clipbox
253.136028 27.88 m
260.395537 27.88 l
260.395537 27.88 l
253.136028 27.88 l
cl
0.275 0.195 0.496 setrgbcolor
fill
grestore
gsave
399.273 139.26 46.24 27.88 clipbox
260.395537 27.88 m
267.655047 27.88 l
267.655047 27.88 l
260.395537 27.88 l
cl
0.275 0.195 0.496 setrgbcolor
fill
grestore
gsave
399.273 139.26 46.24 27.88 clipbox
267.655047 27.88 m
274.914557 27.88 l
274.914557 27.88 l
267.655047 27.88 l
cl
0.275 0.195 0.496 setrgbcolor
fill
grestore
gsave
399.273 139.26 46.24 27.88 clipbox
274.914557 27.88 m
282.174067 27.88 l
282.174067 27.88 l
274.914557 27.88 l
cl
0.275 0.195 0.496 setrgbcolor
fill
grestore
gsave
399.273 139.26 46.24 27.88 clipbox
282.174067 27.88 m
289.433576 27.88 l
289.433576 27.88 l
282.174067 27.88 l
cl
0.275 0.195 0.496 setrgbcolor
fill
grestore
gsave
399.273 139.26 46.24 27.88 clipbox
289.433576 27.88 m
296.693086 27.88 l
296.693086 27.88 l
289.433576 27.88 l
cl
0.275 0.195 0.496 setrgbcolor
fill
grestore
gsave
399.273 139.26 46.24 27.88 clipbox
296.693086 27.88 m
303.952596 27.88 l
303.952596 27.88 l
296.693086 27.88 l
cl
0.275 0.195 0.496 setrgbcolor
fill
grestore
gsave
399.273 139.26 46.24 27.88 clipbox
303.952596 27.88 m
311.212106 27.88 l
311.212106 27.88 l
303.952596 27.88 l
cl
0.275 0.195 0.496 setrgbcolor
fill
grestore
gsave
399.273 139.26 46.24 27.88 clipbox
311.212106 27.88 m
318.471615 27.88 l
318.471615 27.88 l
311.212106 27.88 l
cl
0.275 0.195 0.496 setrgbcolor
fill
grestore
gsave
399.273 139.26 46.24 27.88 clipbox
318.471615 27.88 m
325.731125 27.88 l
325.731125 27.882653 l
318.471615 27.882653 l
cl
0.275 0.195 0.496 setrgbcolor
fill
grestore
gsave
399.273 139.26 46.24 27.88 clipbox
325.731125 27.88 m
332.990635 27.88 l
332.990635 27.882653 l
325.731125 27.882653 l
cl
0.275 0.195 0.496 setrgbcolor
fill
grestore
gsave
399.273 139.26 46.24 27.88 clipbox
332.990635 27.88 m
340.250145 27.88 l
340.250145 27.88 l
332.990635 27.88 l
cl
0.275 0.195 0.496 setrgbcolor
fill
grestore
gsave
399.273 139.26 46.24 27.88 clipbox
340.250145 27.88 m
347.509654 27.88 l
347.509654 27.88 l
340.250145 27.88 l
cl
0.275 0.195 0.496 setrgbcolor
fill
grestore
gsave
399.273 139.26 46.24 27.88 clipbox
347.509654 27.88 m
354.769164 27.88 l
354.769164 27.88 l
347.509654 27.88 l
cl
0.275 0.195 0.496 setrgbcolor
fill
grestore
gsave
399.273 139.26 46.24 27.88 clipbox
354.769164 27.88 m
362.028674 27.88 l
362.028674 27.88 l
354.769164 27.88 l
cl
0.275 0.195 0.496 setrgbcolor
fill
grestore
gsave
399.273 139.26 46.24 27.88 clipbox
362.028674 27.88 m
369.288184 27.88 l
369.288184 27.88 l
362.028674 27.88 l
cl
0.275 0.195 0.496 setrgbcolor
fill
grestore
gsave
399.273 139.26 46.24 27.88 clipbox
369.288184 27.88 m
376.547693 27.88 l
376.547693 27.882653 l
369.288184 27.882653 l
cl
0.275 0.195 0.496 setrgbcolor
fill
grestore
gsave
399.273 139.26 46.24 27.88 clipbox
376.547693 27.88 m
383.807203 27.88 l
383.807203 27.88 l
376.547693 27.88 l
cl
0.275 0.195 0.496 setrgbcolor
fill
grestore
gsave
399.273 139.26 46.24 27.88 clipbox
383.807203 27.88 m
391.066713 27.88 l
391.066713 27.882653 l
383.807203 27.882653 l
cl
0.275 0.195 0.496 setrgbcolor
fill
grestore
gsave
399.273 139.26 46.24 27.88 clipbox
391.066713 27.88 m
398.326223 27.88 l
398.326223 27.882653 l
391.066713 27.882653 l
cl
0.275 0.195 0.496 setrgbcolor
fill
grestore
gsave
399.273 139.26 46.24 27.88 clipbox
398.326223 27.88 m
405.585732 27.88 l
405.585732 27.88 l
398.326223 27.88 l
cl
0.275 0.195 0.496 setrgbcolor
fill
grestore
gsave
399.273 139.26 46.24 27.88 clipbox
405.585732 27.88 m
412.845242 27.88 l
412.845242 27.88 l
405.585732 27.88 l
cl
0.275 0.195 0.496 setrgbcolor
fill
grestore
gsave
399.273 139.26 46.24 27.88 clipbox
412.845242 27.88 m
420.104752 27.88 l
420.104752 27.88 l
412.845242 27.88 l
cl
0.275 0.195 0.496 setrgbcolor
fill
grestore
gsave
399.273 139.26 46.24 27.88 clipbox
420.104752 27.88 m
427.364262 27.88 l
427.364262 27.885306 l
420.104752 27.885306 l
cl
0.275 0.195 0.496 setrgbcolor
fill
grestore
1 setlinejoin
0 setlinecap
gsave
/o {
gsave
newpath
translate
0.8 setlinewidth
1 setlinejoin

0 setlinecap

0 0 m
0 -3.5 l

gsave
0.000 setgray
fill
grestore
stroke
grestore
} bind def
64.3888 27.88 o
grestore
/DejaVuSans 10.000 selectfont
gsave

61.2091 13.2863 translate
0 rotate
0 0 m /zero glyphshow
grestore
gsave
/o {
gsave
newpath
translate
0.8 setlinewidth
1 setlinejoin

0 setlinecap

0 0 m
0 -3.5 l

gsave
0.000 setgray
fill
grestore
stroke
grestore
} bind def
117.768 27.88 o
grestore
/DejaVuSans 10.000 selectfont
gsave

114.588 13.2863 translate
0 rotate
0 0 m /five glyphshow
grestore
gsave
/o {
gsave
newpath
translate
0.8 setlinewidth
1 setlinejoin

0 setlinecap

0 0 m
0 -3.5 l

gsave
0.000 setgray
fill
grestore
stroke
grestore
} bind def
171.146 27.88 o
grestore
/DejaVuSans 10.000 selectfont
gsave

164.787 13.2863 translate
0 rotate
0 0 m /one glyphshow
6.3623 0 m /zero glyphshow
grestore
gsave
/o {
gsave
newpath
translate
0.8 setlinewidth
1 setlinejoin

0 setlinecap

0 0 m
0 -3.5 l

gsave
0.000 setgray
fill
grestore
stroke
grestore
} bind def
224.525 27.88 o
grestore
/DejaVuSans 10.000 selectfont
gsave

218.166 13.2863 translate
0 rotate
0 0 m /one glyphshow
6.3623 0 m /five glyphshow
grestore
gsave
/o {
gsave
newpath
translate
0.8 setlinewidth
1 setlinejoin

0 setlinecap

0 0 m
0 -3.5 l

gsave
0.000 setgray
fill
grestore
stroke
grestore
} bind def
277.904 27.88 o
grestore
/DejaVuSans 10.000 selectfont
gsave

271.544 13.2863 translate
0 rotate
0 0 m /two glyphshow
6.3623 0 m /zero glyphshow
grestore
gsave
/o {
gsave
newpath
translate
0.8 setlinewidth
1 setlinejoin

0 setlinecap

0 0 m
0 -3.5 l

gsave
0.000 setgray
fill
grestore
stroke
grestore
} bind def
331.283 27.88 o
grestore
/DejaVuSans 10.000 selectfont
gsave

324.923 13.2863 translate
0 rotate
0 0 m /two glyphshow
6.3623 0 m /five glyphshow
grestore
gsave
/o {
gsave
newpath
translate
0.8 setlinewidth
1 setlinejoin

0 setlinecap

0 0 m
0 -3.5 l

gsave
0.000 setgray
fill
grestore
stroke
grestore
} bind def
384.661 27.88 o
grestore
/DejaVuSans 10.000 selectfont
gsave

378.302 13.2863 translate
0 rotate
0 0 m /three glyphshow
6.3623 0 m /zero glyphshow
grestore
gsave
/o {
gsave
newpath
translate
0.8 setlinewidth
1 setlinejoin

0 setlinecap

0 0 m
0 -3.5 l

gsave
0.000 setgray
fill
grestore
stroke
grestore
} bind def
438.04 27.88 o
grestore
/DejaVuSans 10.000 selectfont
gsave

431.681 13.2863 translate
0 rotate
0 0 m /three glyphshow
6.3623 0 m /five glyphshow
grestore
gsave
/o {
gsave
newpath
translate
0.8 setlinewidth
1 setlinejoin

0 setlinecap

-0 0 m
-3.5 0 l

gsave
0.000 setgray
fill
grestore
stroke
grestore
} bind def
46.24 27.88 o
grestore
/DejaVuSans 10.000 selectfont
gsave

23.3338 24.0831 translate
0 rotate
0 0 m /zero glyphshow
6.3623 0 m /period glyphshow
9.54102 0 m /zero glyphshow
grestore
gsave
/o {
gsave
newpath
translate
0.8 setlinewidth
1 setlinejoin

0 setlinecap

-0 0 m
-3.5 0 l

gsave
0.000 setgray
fill
grestore
stroke
grestore
} bind def
46.24 72.98 o
grestore
/DejaVuSans 10.000 selectfont
gsave

23.3338 69.1831 translate
0 rotate
0 0 m /zero glyphshow
6.3623 0 m /period glyphshow
9.54102 0 m /five glyphshow
grestore
gsave
/o {
gsave
newpath
translate
0.8 setlinewidth
1 setlinejoin

0 setlinecap

-0 0 m
-3.5 0 l

gsave
0.000 setgray
fill
grestore
stroke
grestore
} bind def
46.24 118.08 o
grestore
/DejaVuSans 10.000 selectfont
gsave

23.3338 114.283 translate
0 rotate
0 0 m /one glyphshow
6.3623 0 m /period glyphshow
9.54102 0 m /zero glyphshow
grestore
gsave
/o {
gsave
newpath
translate
0.8 setlinewidth
1 setlinejoin

0 setlinecap

-0 0 m
-3.5 0 l

gsave
0.000 setgray
fill
grestore
stroke
grestore
} bind def
46.24 163.18 o
grestore
/DejaVuSans 10.000 selectfont
gsave

23.3338 159.383 translate
0 rotate
0 0 m /one glyphshow
6.3623 0 m /period glyphshow
9.54102 0 m /five glyphshow
grestore
0 setlinejoin
2 setlinecap
gsave
46.24 27.88 m
46.24 167.139774 l
stroke
grestore
gsave
445.513036 27.88 m
445.513036 167.139774 l
stroke
grestore
gsave
46.24 27.88 m
445.513036 27.88 l
stroke
grestore
gsave
46.24 167.139774 m
445.513036 167.139774 l
stroke
grestore
1.000 setlinewidth
0 setlinecap
0.800 setgray
gsave
449.8 332.6 m
453.8 332.6 l
455.133333 332.6 455.8 333.266667 455.8 334.6 c
455.8 338.6 l
455.8 339.933333 455.133333 340.6 453.8 340.6 c
449.8 340.6 l
448.466667 340.6 447.8 339.933333 447.8 338.6 c
447.8 334.6 l
447.8 333.266667 448.466667 332.6 449.8 332.6 c
cl
gsave
1.000 setgray
fill
grestore
stroke
grestore

end
showpage
