%!PS-Adobe-3.0 EPSF-3.0
%%Title: thetas_nb.eps
%%Creator: Matplotlib v3.6.2, https://matplotlib.org/
%%CreationDate: Mon Jan  9 17:59:53 2023
%%Orientation: portrait
%%BoundingBox: 75 223 537 569
%%HiResBoundingBox: 75.600000 223.200000 536.400000 568.800000
%%EndComments
%%BeginProlog
/mpldict 11 dict def
mpldict begin
/_d { bind def } bind def
/m { moveto } _d
/l { lineto } _d
/r { rlineto } _d
/c { curveto } _d
/cl { closepath } _d
/ce { closepath eofill } _d
/box {
      m
      1 index 0 r
      0 exch r
      neg 0 r
      cl
    } _d
/clipbox {
      box
      clip
      newpath
    } _d
/sc { setcachedevice } _d
%!PS-Adobe-3.0 Resource-Font
%%Creator: Converted from TrueType to Type 3 by Matplotlib.
10 dict begin
/FontName /DejaVuSans def
/PaintType 0 def
/FontMatrix [0.00048828125 0 0 0.00048828125 0 0] def
/FontBBox [-2090 -948 3673 2524] def
/FontType 3 def
/Encoding [/period /zero /one /two /three /four /five /A /C /M /P /R /S /U /W /a /b /c /d /e /g /i /l /m /n /o /p /r /s /t /u /v /w /z] def
/CharStrings 35 dict dup begin
/.notdef 0 def
/period{651 0 219 0 430 254 sc
219 254 m
430 254 l
430 0 l
219 0 l
219 254 l

ce} _d
/zero{1303 0 135 -29 1167 1520 sc
651 1360 m
547 1360 469 1309 416 1206 c
364 1104 338 950 338 745 c
338 540 364 387 416 284 c
469 182 547 131 651 131 c
756 131 834 182 886 284 c
939 387 965 540 965 745 c
965 950 939 1104 886 1206 c
834 1309 756 1360 651 1360 c

651 1520 m
818 1520 946 1454 1034 1321 c
1123 1189 1167 997 1167 745 c
1167 494 1123 302 1034 169 c
946 37 818 -29 651 -29 c
484 -29 356 37 267 169 c
179 302 135 494 135 745 c
135 997 179 1189 267 1321 c
356 1454 484 1520 651 1520 c

ce} _d
/one{1303 0 225 0 1114 1493 sc
254 170 m
584 170 l
584 1309 l
225 1237 l
225 1421 l
582 1493 l
784 1493 l
784 170 l
1114 170 l
1114 0 l
254 0 l
254 170 l

ce} _d
/two{1303 0 150 0 1098 1520 sc
393 170 m
1098 170 l
1098 0 l
150 0 l
150 170 l
227 249 331 356 463 489 c
596 623 679 709 713 748 c
778 821 823 882 848 932 c
874 983 887 1032 887 1081 c
887 1160 859 1225 803 1275 c
748 1325 675 1350 586 1350 c
523 1350 456 1339 385 1317 c
315 1295 240 1262 160 1217 c
160 1421 l
241 1454 317 1478 388 1495 c
459 1512 523 1520 582 1520 c
737 1520 860 1481 952 1404 c
1044 1327 1090 1223 1090 1094 c
1090 1033 1078 974 1055 919 c
1032 864 991 800 930 725 c
913 706 860 650 771 557 c
682 465 556 336 393 170 c

ce} _d
/three{1303 0 156 -29 1139 1520 sc
831 805 m
928 784 1003 741 1057 676 c
1112 611 1139 530 1139 434 c
1139 287 1088 173 987 92 c
886 11 742 -29 555 -29 c
492 -29 428 -23 361 -10 c
295 2 227 20 156 45 c
156 240 l
212 207 273 183 340 166 c
407 149 476 141 549 141 c
676 141 772 166 838 216 c
905 266 938 339 938 434 c
938 522 907 591 845 640 c
784 690 698 715 588 715 c
414 715 l
414 881 l
596 881 l
695 881 771 901 824 940 c
877 980 903 1037 903 1112 c
903 1189 876 1247 821 1288 c
767 1329 689 1350 588 1350 c
533 1350 473 1344 410 1332 c
347 1320 277 1301 201 1276 c
201 1456 l
278 1477 349 1493 416 1504 c
483 1515 547 1520 606 1520 c
759 1520 881 1485 970 1415 c
1059 1346 1104 1252 1104 1133 c
1104 1050 1080 980 1033 923 c
986 866 918 827 831 805 c

ce} _d
/four{1303 0 100 0 1188 1493 sc
774 1317 m
264 520 l
774 520 l
774 1317 l

721 1493 m
975 1493 l
975 520 l
1188 520 l
1188 352 l
975 352 l
975 0 l
774 0 l
774 352 l
100 352 l
100 547 l
721 1493 l

ce} _d
/five{1303 0 158 -29 1124 1493 sc
221 1493 m
1014 1493 l
1014 1323 l
406 1323 l
406 957 l
435 967 465 974 494 979 c
523 984 553 987 582 987 c
749 987 881 941 978 850 c
1075 759 1124 635 1124 479 c
1124 318 1074 193 974 104 c
874 15 733 -29 551 -29 c
488 -29 424 -24 359 -13 c
294 -2 227 14 158 35 c
158 238 l
218 205 280 181 344 165 c
408 149 476 141 547 141 c
662 141 754 171 821 232 c
888 293 922 375 922 479 c
922 583 888 665 821 726 c
754 787 662 817 547 817 c
493 817 439 811 385 799 c
332 787 277 768 221 743 c
221 1493 l

ce} _d
/A{1401 0 16 0 1384 1493 sc
700 1294 m
426 551 l
975 551 l
700 1294 l

586 1493 m
815 1493 l
1384 0 l
1174 0 l
1038 383 l
365 383 l
229 0 l
16 0 l
586 1493 l

ce} _d
/C{1430 0 115 -29 1319 1520 sc
1319 1378 m
1319 1165 l
1251 1228 1178 1276 1101 1307 c
1024 1338 943 1354 856 1354 c
685 1354 555 1302 464 1197 c
373 1093 328 942 328 745 c
328 548 373 398 464 293 c
555 189 685 137 856 137 c
943 137 1024 153 1101 184 c
1178 215 1251 263 1319 326 c
1319 115 l
1248 67 1173 31 1094 7 c
1015 -17 932 -29 844 -29 c
618 -29 440 40 310 178 c
180 317 115 506 115 745 c
115 985 180 1174 310 1312 c
440 1451 618 1520 844 1520 c
933 1520 1017 1508 1096 1484 c
1175 1461 1250 1425 1319 1378 c

ce} _d
/M{1767 0 201 0 1567 1493 sc
201 1493 m
502 1493 l
883 477 l
1266 1493 l
1567 1493 l
1567 0 l
1370 0 l
1370 1311 l
985 287 l
782 287 l
397 1311 l
397 0 l
201 0 l
201 1493 l

ce} _d
/P{1235 0 201 0 1165 1493 sc
403 1327 m
403 766 l
657 766 l
751 766 824 790 875 839 c
926 888 952 957 952 1047 c
952 1136 926 1205 875 1254 c
824 1303 751 1327 657 1327 c
403 1327 l

201 1493 m
657 1493 l
824 1493 951 1455 1036 1379 c
1122 1304 1165 1193 1165 1047 c
1165 900 1122 788 1036 713 c
951 638 824 600 657 600 c
403 600 l
403 0 l
201 0 l
201 1493 l

ce} _d
/R{1423 0 201 0 1364 1493 sc
909 700 m
952 685 994 654 1035 606 c
1076 558 1118 492 1159 408 c
1364 0 l
1147 0 l
956 383 l
907 483 859 549 812 582 c
766 615 703 631 623 631 c
403 631 l
403 0 l
201 0 l
201 1493 l
657 1493 l
828 1493 955 1457 1039 1386 c
1123 1315 1165 1207 1165 1063 c
1165 969 1143 891 1099 829 c
1056 767 992 724 909 700 c

403 1327 m
403 797 l
657 797 l
754 797 828 819 877 864 c
927 909 952 976 952 1063 c
952 1150 927 1216 877 1260 c
828 1305 754 1327 657 1327 c
403 1327 l

ce} _d
/S{1300 0 135 -29 1186 1520 sc
1096 1444 m
1096 1247 l
1019 1284 947 1311 879 1329 c
811 1347 745 1356 682 1356 c
572 1356 487 1335 427 1292 c
368 1249 338 1189 338 1110 c
338 1044 358 994 397 960 c
437 927 512 900 623 879 c
745 854 l
896 825 1007 775 1078 702 c
1150 630 1186 533 1186 412 c
1186 267 1137 158 1040 83 c
943 8 801 -29 614 -29 c
543 -29 468 -21 388 -5 c
309 11 226 35 141 66 c
141 274 l
223 228 303 193 382 170 c
461 147 538 135 614 135 c
729 135 818 158 881 203 c
944 248 975 313 975 397 c
975 470 952 528 907 569 c
862 610 789 641 686 662 c
563 686 l
412 716 303 763 236 827 c
169 891 135 980 135 1094 c
135 1226 181 1330 274 1406 c
367 1482 496 1520 659 1520 c
729 1520 800 1514 873 1501 c
946 1488 1020 1469 1096 1444 c

ce} _d
/U{1499 0 178 -29 1321 1493 sc
178 1493 m
381 1493 l
381 586 l
381 426 410 311 468 240 c
526 170 620 135 750 135 c
879 135 973 170 1031 240 c
1089 311 1118 426 1118 586 c
1118 1493 l
1321 1493 l
1321 561 l
1321 366 1273 219 1176 120 c
1080 21 938 -29 750 -29 c
561 -29 419 21 322 120 c
226 219 178 366 178 561 c
178 1493 l

ce} _d
/W{2025 0 68 0 1958 1493 sc
68 1493 m
272 1493 l
586 231 l
899 1493 l
1126 1493 l
1440 231 l
1753 1493 l
1958 1493 l
1583 0 l
1329 0 l
1014 1296 l
696 0 l
442 0 l
68 1493 l

ce} _d
/a{1255 0 123 -29 1069 1147 sc
702 563 m
553 563 450 546 393 512 c
336 478 307 420 307 338 c
307 273 328 221 371 182 c
414 144 473 125 547 125 c
649 125 731 161 792 233 c
854 306 885 402 885 522 c
885 563 l
702 563 l

1069 639 m
1069 0 l
885 0 l
885 170 l
843 102 791 52 728 19 c
665 -13 589 -29 498 -29 c
383 -29 292 3 224 67 c
157 132 123 218 123 326 c
123 452 165 547 249 611 c
334 675 460 707 627 707 c
885 707 l
885 725 l
885 810 857 875 801 921 c
746 968 668 991 567 991 c
503 991 441 983 380 968 c
319 953 261 930 205 899 c
205 1069 l
272 1095 338 1114 401 1127 c
464 1140 526 1147 586 1147 c
748 1147 869 1105 949 1021 c
1029 937 1069 810 1069 639 c

ce} _d
/b{1300 0 186 -29 1188 1556 sc
997 559 m
997 694 969 800 913 877 c
858 954 781 993 684 993 c
587 993 510 954 454 877 c
399 800 371 694 371 559 c
371 424 399 317 454 240 c
510 163 587 125 684 125 c
781 125 858 163 913 240 c
969 317 997 424 997 559 c

371 950 m
410 1017 458 1066 517 1098 c
576 1131 647 1147 729 1147 c
865 1147 975 1093 1060 985 c
1145 877 1188 735 1188 559 c
1188 383 1145 241 1060 133 c
975 25 865 -29 729 -29 c
647 -29 576 -13 517 19 c
458 52 410 101 371 168 c
371 0 l
186 0 l
186 1556 l
371 1556 l
371 950 l

ce} _d
/c{1126 0 113 -29 999 1147 sc
999 1077 m
999 905 l
947 934 895 955 842 969 c
790 984 737 991 684 991 c
565 991 472 953 406 877 c
340 802 307 696 307 559 c
307 422 340 316 406 240 c
472 165 565 127 684 127 c
737 127 790 134 842 148 c
895 163 947 184 999 213 c
999 43 l
948 19 894 1 839 -11 c
784 -23 726 -29 664 -29 c
495 -29 361 24 262 130 c
163 236 113 379 113 559 c
113 742 163 885 263 990 c
364 1095 501 1147 676 1147 c
733 1147 788 1141 842 1129 c
896 1118 948 1100 999 1077 c

ce} _d
/d{1300 0 113 -29 1114 1556 sc
930 950 m
930 1556 l
1114 1556 l
1114 0 l
930 0 l
930 168 l
891 101 842 52 783 19 c
724 -13 654 -29 571 -29 c
436 -29 325 25 240 133 c
155 241 113 383 113 559 c
113 735 155 877 240 985 c
325 1093 436 1147 571 1147 c
654 1147 724 1131 783 1098 c
842 1066 891 1017 930 950 c

303 559 m
303 424 331 317 386 240 c
442 163 519 125 616 125 c
713 125 790 163 846 240 c
902 317 930 424 930 559 c
930 694 902 800 846 877 c
790 954 713 993 616 993 c
519 993 442 954 386 877 c
331 800 303 694 303 559 c

ce} _d
/e{1260 0 113 -29 1151 1147 sc
1151 606 m
1151 516 l
305 516 l
313 389 351 293 419 226 c
488 160 583 127 705 127 c
776 127 844 136 910 153 c
977 170 1043 196 1108 231 c
1108 57 l
1042 29 974 8 905 -7 c
836 -22 765 -29 694 -29 c
515 -29 374 23 269 127 c
165 231 113 372 113 549 c
113 732 162 878 261 985 c
360 1093 494 1147 662 1147 c
813 1147 932 1098 1019 1001 c
1107 904 1151 773 1151 606 c

967 660 m
966 761 937 841 882 901 c
827 961 755 991 664 991 c
561 991 479 962 417 904 c
356 846 320 764 311 659 c
967 660 l

ce} _d
/g{1300 0 113 -426 1114 1147 sc
930 573 m
930 706 902 810 847 883 c
792 956 715 993 616 993 c
517 993 440 956 385 883 c
330 810 303 706 303 573 c
303 440 330 337 385 264 c
440 191 517 154 616 154 c
715 154 792 191 847 264 c
902 337 930 440 930 573 c

1114 139 m
1114 -52 1072 -193 987 -286 c
902 -379 773 -426 598 -426 c
533 -426 472 -421 415 -411 c
358 -402 302 -387 248 -367 c
248 -188 l
302 -217 355 -239 408 -253 c
461 -267 514 -274 569 -274 c
690 -274 780 -242 840 -179 c
900 -116 930 -21 930 106 c
930 197 l
892 131 843 82 784 49 c
725 16 654 0 571 0 c
434 0 323 52 239 157 c
155 262 113 400 113 573 c
113 746 155 885 239 990 c
323 1095 434 1147 571 1147 c
654 1147 725 1131 784 1098 c
843 1065 892 1016 930 950 c
930 1120 l
1114 1120 l
1114 139 l

ce} _d
/i{569 0 193 0 377 1556 sc
193 1120 m
377 1120 l
377 0 l
193 0 l
193 1120 l

193 1556 m
377 1556 l
377 1323 l
193 1323 l
193 1556 l

ce} _d
/l{569 0 193 0 377 1556 sc
193 1556 m
377 1556 l
377 0 l
193 0 l
193 1556 l

ce} _d
/m{1995 0 186 0 1821 1147 sc
1065 905 m
1111 988 1166 1049 1230 1088 c
1294 1127 1369 1147 1456 1147 c
1573 1147 1663 1106 1726 1024 c
1789 943 1821 827 1821 676 c
1821 0 l
1636 0 l
1636 670 l
1636 777 1617 857 1579 909 c
1541 961 1483 987 1405 987 c
1310 987 1234 955 1179 892 c
1124 829 1096 742 1096 633 c
1096 0 l
911 0 l
911 670 l
911 778 892 858 854 909 c
816 961 757 987 678 987 c
584 987 509 955 454 891 c
399 828 371 742 371 633 c
371 0 l
186 0 l
186 1120 l
371 1120 l
371 946 l
413 1015 463 1065 522 1098 c
581 1131 650 1147 731 1147 c
812 1147 881 1126 938 1085 c
995 1044 1038 984 1065 905 c

ce} _d
/n{1298 0 186 0 1124 1147 sc
1124 676 m
1124 0 l
940 0 l
940 670 l
940 776 919 855 878 908 c
837 961 775 987 692 987 c
593 987 514 955 457 892 c
400 829 371 742 371 633 c
371 0 l
186 0 l
186 1120 l
371 1120 l
371 946 l
415 1013 467 1064 526 1097 c
586 1130 655 1147 733 1147 c
862 1147 959 1107 1025 1027 c
1091 948 1124 831 1124 676 c

ce} _d
/o{1253 0 113 -29 1141 1147 sc
627 991 m
528 991 450 952 393 875 c
336 798 307 693 307 559 c
307 425 335 319 392 242 c
449 165 528 127 627 127 c
725 127 803 166 860 243 c
917 320 946 426 946 559 c
946 692 917 797 860 874 c
803 952 725 991 627 991 c

627 1147 m
787 1147 913 1095 1004 991 c
1095 887 1141 743 1141 559 c
1141 376 1095 232 1004 127 c
913 23 787 -29 627 -29 c
466 -29 340 23 249 127 c
158 232 113 376 113 559 c
113 743 158 887 249 991 c
340 1095 466 1147 627 1147 c

ce} _d
/p{1300 0 186 -426 1188 1147 sc
371 168 m
371 -426 l
186 -426 l
186 1120 l
371 1120 l
371 950 l
410 1017 458 1066 517 1098 c
576 1131 647 1147 729 1147 c
865 1147 975 1093 1060 985 c
1145 877 1188 735 1188 559 c
1188 383 1145 241 1060 133 c
975 25 865 -29 729 -29 c
647 -29 576 -13 517 19 c
458 52 410 101 371 168 c

997 559 m
997 694 969 800 913 877 c
858 954 781 993 684 993 c
587 993 510 954 454 877 c
399 800 371 694 371 559 c
371 424 399 317 454 240 c
510 163 587 125 684 125 c
781 125 858 163 913 240 c
969 317 997 424 997 559 c

ce} _d
/r{842 0 186 0 842 1147 sc
842 948 m
821 960 799 969 774 974 c
750 980 723 983 694 983 c
590 983 510 949 454 881 c
399 814 371 717 371 590 c
371 0 l
186 0 l
186 1120 l
371 1120 l
371 946 l
410 1014 460 1064 522 1097 c
584 1130 659 1147 748 1147 c
761 1147 775 1146 790 1144 c
805 1143 822 1140 841 1137 c
842 948 l

ce} _d
/s{1067 0 111 -29 967 1147 sc
907 1087 m
907 913 l
855 940 801 960 745 973 c
689 986 631 993 571 993 c
480 993 411 979 365 951 c
320 923 297 881 297 825 c
297 782 313 749 346 724 c
379 700 444 677 543 655 c
606 641 l
737 613 829 573 884 522 c
939 471 967 400 967 309 c
967 205 926 123 843 62 c
761 1 648 -29 504 -29 c
444 -29 381 -23 316 -11 c
251 0 183 18 111 41 c
111 231 l
179 196 246 169 312 151 c
378 134 443 125 508 125 c
595 125 661 140 708 169 c
755 199 778 241 778 295 c
778 345 761 383 727 410 c
694 437 620 462 506 487 c
442 502 l
328 526 246 563 195 612 c
144 662 119 730 119 817 c
119 922 156 1004 231 1061 c
306 1118 412 1147 549 1147 c
617 1147 681 1142 741 1132 c
801 1122 856 1107 907 1087 c

ce} _d
/t{803 0 55 0 754 1438 sc
375 1438 m
375 1120 l
754 1120 l
754 977 l
375 977 l
375 369 l
375 278 387 219 412 193 c
437 167 488 154 565 154 c
754 154 l
754 0 l
565 0 l
423 0 325 26 271 79 c
217 132 190 229 190 369 c
190 977 l
55 977 l
55 1120 l
190 1120 l
190 1438 l
375 1438 l

ce} _d
/u{1298 0 174 -29 1112 1147 sc
174 442 m
174 1120 l
358 1120 l
358 449 l
358 343 379 263 420 210 c
461 157 523 131 606 131 c
705 131 784 163 841 226 c
899 289 928 376 928 485 c
928 1120 l
1112 1120 l
1112 0 l
928 0 l
928 172 l
883 104 831 53 772 20 c
713 -13 645 -29 567 -29 c
438 -29 341 11 274 91 c
207 171 174 288 174 442 c

637 1147 m
637 1147 l

ce} _d
/v{1212 0 61 0 1151 1120 sc
61 1120 m
256 1120 l
606 180 l
956 1120 l
1151 1120 l
731 0 l
481 0 l
61 1120 l

ce} _d
/w{1675 0 86 0 1589 1120 sc
86 1120 m
270 1120 l
500 246 l
729 1120 l
946 1120 l
1176 246 l
1405 1120 l
1589 1120 l
1296 0 l
1079 0 l
838 918 l
596 0 l
379 0 l
86 1120 l

ce} _d
/z{1075 0 88 0 987 1120 sc
113 1120 m
987 1120 l
987 952 l
295 147 l
987 147 l
987 0 l
88 0 l
88 168 l
780 973 l
113 973 l
113 1120 l

ce} _d
end readonly def

/BuildGlyph {
 exch begin
 CharStrings exch
 2 copy known not {pop /.notdef} if
 true 3 1 roll get exec
 end
} _d

/BuildChar {
 1 index /Encoding get exch get
 1 index /BuildGlyph get exec
} _d

FontName currentdict end definefont pop
end
%%EndProlog
mpldict begin
75.6 223.2 translate
460.8 345.6 0 0 clipbox
gsave
0 0 m
460.8 0 l
460.8 345.6 l
0 345.6 l
cl
1.000 setgray
fill
grestore
gsave
30.49 306.88 m
146.28 306.88 l
146.28 318.72 l
30.49 318.72 l
cl
1.000 setgray
fill
grestore
gsave
115.79 11.84 30.49 306.88 clipbox
35.753182 306.88 m
39.26197 306.88 l
39.26197 306.915762 l
35.753182 306.915762 l
cl
0.122 0.467 0.706 setrgbcolor
fill
grestore
gsave
115.79 11.84 30.49 306.88 clipbox
39.26197 306.88 m
42.770757 306.88 l
42.770757 307.020944 l
39.26197 307.020944 l
cl
0.122 0.467 0.706 setrgbcolor
fill
grestore
gsave
115.79 11.84 30.49 306.88 clipbox
42.770757 306.88 m
46.279546 306.88 l
46.279546 307.369446 l
42.770757 307.369446 l
cl
0.122 0.467 0.706 setrgbcolor
fill
grestore
gsave
115.79 11.84 30.49 306.88 clipbox
46.279546 306.88 m
49.788333 306.88 l
49.788333 308.22142 l
46.279546 308.22142 l
cl
0.122 0.467 0.706 setrgbcolor
fill
grestore
gsave
115.79 11.84 30.49 306.88 clipbox
49.788333 306.88 m
53.297122 306.88 l
53.297122 309.515856 l
49.788333 309.515856 l
cl
0.122 0.467 0.706 setrgbcolor
fill
grestore
gsave
115.79 11.84 30.49 306.88 clipbox
53.297122 306.88 m
56.805909 306.88 l
56.805909 311.329895 l
53.297122 311.329895 l
cl
0.122 0.467 0.706 setrgbcolor
fill
grestore
gsave
115.79 11.84 30.49 306.88 clipbox
56.805909 306.88 m
60.314696 306.88 l
60.314696 313.423014 l
56.805909 313.423014 l
cl
0.122 0.467 0.706 setrgbcolor
fill
grestore
gsave
115.79 11.84 30.49 306.88 clipbox
60.314696 306.88 m
63.823483 306.88 l
63.823483 315.58345 l
60.314696 315.58345 l
cl
0.122 0.467 0.706 setrgbcolor
fill
grestore
gsave
115.79 11.84 30.49 306.88 clipbox
63.823483 306.88 m
67.332272 306.88 l
67.332272 316.867363 l
63.823483 316.867363 l
cl
0.122 0.467 0.706 setrgbcolor
fill
grestore
gsave
115.79 11.84 30.49 306.88 clipbox
67.332272 306.88 m
70.841061 306.88 l
70.841061 318.14427 l
67.332272 318.14427 l
cl
0.122 0.467 0.706 setrgbcolor
fill
grestore
gsave
115.79 11.84 30.49 306.88 clipbox
70.841061 306.88 m
74.349851 306.88 l
74.349851 318.15619 l
70.841061 318.15619 l
cl
0.122 0.467 0.706 setrgbcolor
fill
grestore
gsave
115.79 11.84 30.49 306.88 clipbox
74.349851 306.88 m
77.858635 306.88 l
77.858635 317.623986 l
74.349851 317.623986 l
cl
0.122 0.467 0.706 setrgbcolor
fill
grestore
gsave
115.79 11.84 30.49 306.88 clipbox
77.858635 306.88 m
81.367424 306.88 l
81.367424 316.357582 l
77.858635 316.357582 l
cl
0.122 0.467 0.706 setrgbcolor
fill
grestore
gsave
115.79 11.84 30.49 306.88 clipbox
81.367424 306.88 m
84.876214 306.88 l
84.876214 314.775647 l
81.367424 314.775647 l
cl
0.122 0.467 0.706 setrgbcolor
fill
grestore
gsave
115.79 11.84 30.49 306.88 clipbox
84.876214 306.88 m
88.384998 306.88 l
88.384998 313.08293 l
84.876214 313.08293 l
cl
0.122 0.467 0.706 setrgbcolor
fill
grestore
gsave
115.79 11.84 30.49 306.88 clipbox
88.384998 306.88 m
91.893787 306.88 l
91.893787 311.63562 l
88.384998 311.63562 l
cl
0.122 0.467 0.706 setrgbcolor
fill
grestore
gsave
115.79 11.84 30.49 306.88 clipbox
91.893787 306.88 m
95.402577 306.88 l
95.402577 310.01582 l
91.893787 310.01582 l
cl
0.122 0.467 0.706 setrgbcolor
fill
grestore
gsave
115.79 11.84 30.49 306.88 clipbox
95.402577 306.88 m
98.911366 306.88 l
98.911366 309.061471 l
95.402577 309.061471 l
cl
0.122 0.467 0.706 setrgbcolor
fill
grestore
gsave
115.79 11.84 30.49 306.88 clipbox
98.911366 306.88 m
102.42015 306.88 l
102.42015 308.318188 l
98.911366 308.318188 l
cl
0.122 0.467 0.706 setrgbcolor
fill
grestore
gsave
115.79 11.84 30.49 306.88 clipbox
102.42015 306.88 m
105.928935 306.88 l
105.928935 307.909381 l
102.42015 307.909381 l
cl
0.122 0.467 0.706 setrgbcolor
fill
grestore
gsave
115.79 11.84 30.49 306.88 clipbox
105.928935 306.88 m
109.437724 306.88 l
109.437724 307.473927 l
105.928935 307.473927 l
cl
0.122 0.467 0.706 setrgbcolor
fill
grestore
gsave
115.79 11.84 30.49 306.88 clipbox
109.437724 306.88 m
112.946513 306.88 l
112.946513 307.241825 l
109.437724 307.241825 l
cl
0.122 0.467 0.706 setrgbcolor
fill
grestore
gsave
115.79 11.84 30.49 306.88 clipbox
112.946513 306.88 m
116.455303 306.88 l
116.455303 307.078443 l
112.946513 307.078443 l
cl
0.122 0.467 0.706 setrgbcolor
fill
grestore
gsave
115.79 11.84 30.49 306.88 clipbox
116.455303 306.88 m
119.964092 306.88 l
119.964092 306.997804 l
116.455303 306.997804 l
cl
0.122 0.467 0.706 setrgbcolor
fill
grestore
gsave
115.79 11.84 30.49 306.88 clipbox
119.964092 306.88 m
123.472882 306.88 l
123.472882 306.973261 l
119.964092 306.973261 l
cl
0.122 0.467 0.706 setrgbcolor
fill
grestore
gsave
115.79 11.84 30.49 306.88 clipbox
123.472882 306.88 m
126.981671 306.88 l
126.981671 306.92067 l
123.472882 306.92067 l
cl
0.122 0.467 0.706 setrgbcolor
fill
grestore
gsave
115.79 11.84 30.49 306.88 clipbox
126.981671 306.88 m
130.49045 306.88 l
130.49045 306.903841 l
126.981671 306.903841 l
cl
0.122 0.467 0.706 setrgbcolor
fill
grestore
gsave
115.79 11.84 30.49 306.88 clipbox
130.49045 306.88 m
133.999239 306.88 l
133.999239 306.899634 l
130.49045 306.899634 l
cl
0.122 0.467 0.706 setrgbcolor
fill
grestore
gsave
115.79 11.84 30.49 306.88 clipbox
133.999239 306.88 m
137.508029 306.88 l
137.508029 306.882805 l
133.999239 306.882805 l
cl
0.122 0.467 0.706 setrgbcolor
fill
grestore
gsave
115.79 11.84 30.49 306.88 clipbox
137.508029 306.88 m
141.016818 306.88 l
141.016818 306.881402 l
137.508029 306.881402 l
cl
0.122 0.467 0.706 setrgbcolor
fill
grestore
0.800 setlinewidth
1 setlinejoin
0 setlinecap
[] 0 setdash
0.000 setgray
gsave
/o {
gsave
newpath
translate
0.8 setlinewidth
1 setlinejoin

0 setlinecap

0 0 m
0 -3.5 l

gsave
0.000 setgray
fill
grestore
stroke
grestore
} bind def
54.3615 306.88 o
grestore
/DejaVuSans 10.000 selectfont
gsave

46.4084 292.286 translate
0 rotate
0 0 m /zero glyphshow
6.3623 0 m /period glyphshow
9.54102 0 m /one glyphshow
grestore
gsave
/o {
gsave
newpath
translate
0.8 setlinewidth
1 setlinejoin

0 setlinecap

0 0 m
0 -3.5 l

gsave
0.000 setgray
fill
grestore
stroke
grestore
} bind def
88.3603 306.88 o
grestore
/DejaVuSans 10.000 selectfont
gsave

80.4071 292.286 translate
0 rotate
0 0 m /zero glyphshow
6.3623 0 m /period glyphshow
9.54102 0 m /two glyphshow
grestore
gsave
/o {
gsave
newpath
translate
0.8 setlinewidth
1 setlinejoin

0 setlinecap

0 0 m
0 -3.5 l

gsave
0.000 setgray
fill
grestore
stroke
grestore
} bind def
122.359 306.88 o
grestore
/DejaVuSans 10.000 selectfont
gsave

114.406 292.286 translate
0 rotate
0 0 m /zero glyphshow
6.3623 0 m /period glyphshow
9.54102 0 m /three glyphshow
grestore
gsave
/o {
gsave
newpath
translate
0.8 setlinewidth
1 setlinejoin

0 setlinecap

-0 0 m
-3.5 0 l

gsave
0.000 setgray
fill
grestore
stroke
grestore
} bind def
30.49 306.88 o
grestore
/DejaVuSans 10.000 selectfont
gsave

17.1306 303.083 translate
0 rotate
0 0 m /zero glyphshow
grestore
gsave
/o {
gsave
newpath
translate
0.8 setlinewidth
1 setlinejoin

0 setlinecap

-0 0 m
-3.5 0 l

gsave
0.000 setgray
fill
grestore
stroke
grestore
} bind def
30.49 317.735 o
grestore
/DejaVuSans 10.000 selectfont
gsave

10.7713 313.938 translate
0 rotate
0 0 m /one glyphshow
6.3623 0 m /zero glyphshow
grestore
0 setlinejoin
2 setlinecap
gsave
30.49 306.88 m
30.49 318.72 l
stroke
grestore
gsave
146.28 306.88 m
146.28 318.72 l
stroke
grestore
gsave
30.49 306.88 m
146.28 306.88 l
stroke
grestore
gsave
30.49 318.72 m
146.28 318.72 l
stroke
grestore
/DejaVuSans 12.000 selectfont
gsave

74.2756 324.72 translate
0 rotate
0 0 m /A glyphshow
8.20898 0 m /l glyphshow
11.543 0 m /v glyphshow
18.6445 0 m /i glyphshow
21.9785 0 m /s glyphshow
grestore
gsave
178.39 306.88 m
294.18 306.88 l
294.18 318.72 l
178.39 318.72 l
cl
1.000 setgray
fill
grestore
gsave
115.79 11.84 178.39 306.88 clipbox
183.653182 306.88 m
187.161969 306.88 l
187.161969 306.890807 l
183.653182 306.890807 l
cl
0.122 0.467 0.706 setrgbcolor
fill
grestore
gsave
115.79 11.84 178.39 306.88 clipbox
187.161969 306.88 m
190.670758 306.88 l
190.670758 306.95256 l
187.161969 306.95256 l
cl
0.122 0.467 0.706 setrgbcolor
fill
grestore
gsave
115.79 11.84 178.39 306.88 clipbox
190.670758 306.88 m
194.179545 306.88 l
194.179545 307.055226 l
190.670758 307.055226 l
cl
0.122 0.467 0.706 setrgbcolor
fill
grestore
gsave
115.79 11.84 178.39 306.88 clipbox
194.179545 306.88 m
197.688334 306.88 l
197.688334 307.319222 l
194.179545 307.319222 l
cl
0.122 0.467 0.706 setrgbcolor
fill
grestore
gsave
115.79 11.84 178.39 306.88 clipbox
197.688334 306.88 m
201.197121 306.88 l
201.197121 307.743778 l
197.688334 307.743778 l
cl
0.122 0.467 0.706 setrgbcolor
fill
grestore
gsave
115.79 11.84 178.39 306.88 clipbox
201.197121 306.88 m
204.70591 306.88 l
204.70591 308.601379 l
201.197121 308.601379 l
cl
0.122 0.467 0.706 setrgbcolor
fill
grestore
gsave
115.79 11.84 178.39 306.88 clipbox
204.70591 306.88 m
208.214699 306.88 l
208.214699 310.048727 l
204.70591 310.048727 l
cl
0.122 0.467 0.706 setrgbcolor
fill
grestore
gsave
115.79 11.84 178.39 306.88 clipbox
208.214699 306.88 m
211.723484 306.88 l
211.723484 311.62036 l
208.214699 311.62036 l
cl
0.122 0.467 0.706 setrgbcolor
fill
grestore
gsave
115.79 11.84 178.39 306.88 clipbox
211.723484 306.88 m
215.232273 306.88 l
215.232273 313.443626 l
211.723484 313.443626 l
cl
0.122 0.467 0.706 setrgbcolor
fill
grestore
gsave
115.79 11.84 178.39 306.88 clipbox
215.232273 306.88 m
218.741062 306.88 l
218.741062 315.297775 l
215.232273 315.297775 l
cl
0.122 0.467 0.706 setrgbcolor
fill
grestore
gsave
115.79 11.84 178.39 306.88 clipbox
218.741062 306.88 m
222.249847 306.88 l
222.249847 316.935029 l
218.741062 316.935029 l
cl
0.122 0.467 0.706 setrgbcolor
fill
grestore
gsave
115.79 11.84 178.39 306.88 clipbox
222.249847 306.88 m
225.758636 306.88 l
225.758636 317.543287 l
222.249847 317.543287 l
cl
0.122 0.467 0.706 setrgbcolor
fill
grestore
gsave
115.79 11.84 178.39 306.88 clipbox
225.758636 306.88 m
229.267425 306.88 l
229.267425 318.15619 l
225.758636 318.15619 l
cl
0.122 0.467 0.706 setrgbcolor
fill
grestore
gsave
115.79 11.84 178.39 306.88 clipbox
229.267425 306.88 m
232.776214 306.88 l
232.776214 318.038087 l
229.267425 318.038087 l
cl
0.122 0.467 0.706 setrgbcolor
fill
grestore
gsave
115.79 11.84 178.39 306.88 clipbox
232.776214 306.88 m
236.284999 306.88 l
236.284999 317.025343 l
232.776214 317.025343 l
cl
0.122 0.467 0.706 setrgbcolor
fill
grestore
gsave
115.79 11.84 178.39 306.88 clipbox
236.284999 306.88 m
239.793788 306.88 l
239.793788 315.988642 l
236.284999 315.988642 l
cl
0.122 0.467 0.706 setrgbcolor
fill
grestore
gsave
115.79 11.84 178.39 306.88 clipbox
239.793788 306.88 m
243.302577 306.88 l
243.302577 314.427051 l
239.793788 314.427051 l
cl
0.122 0.467 0.706 setrgbcolor
fill
grestore
gsave
115.79 11.84 178.39 306.88 clipbox
243.302577 306.88 m
246.811367 306.88 l
246.811367 312.8176 l
243.302577 312.8176 l
cl
0.122 0.467 0.706 setrgbcolor
fill
grestore
gsave
115.79 11.84 178.39 306.88 clipbox
246.811367 306.88 m
250.320156 306.88 l
250.320156 311.42969 l
246.811367 311.42969 l
cl
0.122 0.467 0.706 setrgbcolor
fill
grestore
gsave
115.79 11.84 178.39 306.88 clipbox
250.320156 306.88 m
253.828935 306.88 l
253.828935 310.130559 l
250.320156 310.130559 l
cl
0.122 0.467 0.706 setrgbcolor
fill
grestore
gsave
115.79 11.84 178.39 306.88 clipbox
253.828935 306.88 m
257.337725 306.88 l
257.337725 309.069934 l
253.828935 309.069934 l
cl
0.122 0.467 0.706 setrgbcolor
fill
grestore
gsave
115.79 11.84 178.39 306.88 clipbox
257.337725 306.88 m
260.846514 306.88 l
260.846514 308.363628 l
257.337725 308.363628 l
cl
0.122 0.467 0.706 setrgbcolor
fill
grestore
gsave
115.79 11.84 178.39 306.88 clipbox
260.846514 306.88 m
264.355303 306.88 l
264.355303 307.800899 l
260.846514 307.800899 l
cl
0.122 0.467 0.706 setrgbcolor
fill
grestore
gsave
115.79 11.84 178.39 306.88 clipbox
264.355303 306.88 m
267.864092 306.88 l
267.864092 307.468202 l
264.355303 307.468202 l
cl
0.122 0.467 0.706 setrgbcolor
fill
grestore
gsave
115.79 11.84 178.39 306.88 clipbox
267.864092 306.88 m
271.372882 306.88 l
271.372882 307.253609 l
267.864092 307.253609 l
cl
0.122 0.467 0.706 setrgbcolor
fill
grestore
gsave
115.79 11.84 178.39 306.88 clipbox
271.372882 306.88 m
274.881671 306.88 l
274.881671 307.062173 l
271.372882 307.062173 l
cl
0.122 0.467 0.706 setrgbcolor
fill
grestore
gsave
115.79 11.84 178.39 306.88 clipbox
274.881671 306.88 m
278.39045 306.88 l
278.39045 306.997332 l
274.881671 306.997332 l
cl
0.122 0.467 0.706 setrgbcolor
fill
grestore
gsave
115.79 11.84 178.39 306.88 clipbox
278.39045 306.88 m
281.89924 306.88 l
281.89924 306.91628 l
278.39045 306.91628 l
cl
0.122 0.467 0.706 setrgbcolor
fill
grestore
gsave
115.79 11.84 178.39 306.88 clipbox
281.89924 306.88 m
285.408029 306.88 l
285.408029 306.906245 l
281.89924 306.906245 l
cl
0.122 0.467 0.706 setrgbcolor
fill
grestore
gsave
115.79 11.84 178.39 306.88 clipbox
285.408029 306.88 m
288.916818 306.88 l
288.916818 306.884632 l
285.408029 306.884632 l
cl
0.122 0.467 0.706 setrgbcolor
fill
grestore
1 setlinejoin
0 setlinecap
gsave
/o {
gsave
newpath
translate
0.8 setlinewidth
1 setlinejoin

0 setlinecap

0 0 m
0 -3.5 l

gsave
0.000 setgray
fill
grestore
stroke
grestore
} bind def
223.401 306.88 o
grestore
/DejaVuSans 10.000 selectfont
gsave

215.448 292.286 translate
0 rotate
0 0 m /zero glyphshow
6.3623 0 m /period glyphshow
9.54102 0 m /two glyphshow
grestore
gsave
/o {
gsave
newpath
translate
0.8 setlinewidth
1 setlinejoin

0 setlinecap

0 0 m
0 -3.5 l

gsave
0.000 setgray
fill
grestore
stroke
grestore
} bind def
288.548 306.88 o
grestore
/DejaVuSans 10.000 selectfont
gsave

280.595 292.286 translate
0 rotate
0 0 m /zero glyphshow
6.3623 0 m /period glyphshow
9.54102 0 m /four glyphshow
grestore
gsave
/o {
gsave
newpath
translate
0.8 setlinewidth
1 setlinejoin

0 setlinecap

-0 0 m
-3.5 0 l

gsave
0.000 setgray
fill
grestore
stroke
grestore
} bind def
178.39 306.88 o
grestore
/DejaVuSans 10.000 selectfont
gsave

165.031 303.083 translate
0 rotate
0 0 m /zero glyphshow
grestore
gsave
/o {
gsave
newpath
translate
0.8 setlinewidth
1 setlinejoin

0 setlinecap

-0 0 m
-3.5 0 l

gsave
0.000 setgray
fill
grestore
stroke
grestore
} bind def
178.39 313.116 o
grestore
/DejaVuSans 10.000 selectfont
gsave

165.031 309.319 translate
0 rotate
0 0 m /five glyphshow
grestore
0 setlinejoin
2 setlinecap
gsave
178.39 306.88 m
178.39 318.72 l
stroke
grestore
gsave
294.18 306.88 m
294.18 318.72 l
stroke
grestore
gsave
178.39 306.88 m
294.18 306.88 l
stroke
grestore
gsave
178.39 318.72 m
294.18 318.72 l
stroke
grestore
/DejaVuSans 12.000 selectfont
gsave

206.285 324.72 translate
0 rotate
0 0 m /R glyphshow
7.83789 0 m /o glyphshow
15.1797 0 m /d glyphshow
22.7969 0 m /r glyphshow
27.7305 0 m /i glyphshow
31.0645 0 m /g glyphshow
38.6816 0 m /u glyphshow
46.2871 0 m /e glyphshow
53.6699 0 m /z glyphshow
grestore
gsave
326.29 306.88 m
442.08 306.88 l
442.08 318.72 l
326.29 318.72 l
cl
1.000 setgray
fill
grestore
1 setlinejoin
0 setlinecap
gsave
/o {
gsave
newpath
translate
0.8 setlinewidth
1 setlinejoin

0 setlinecap

0 0 m
0 -3.5 l

gsave
0.000 setgray
fill
grestore
stroke
grestore
} bind def
326.29 306.88 o
grestore
/DejaVuSans 10.000 selectfont
gsave

318.337 292.286 translate
0 rotate
0 0 m /zero glyphshow
6.3623 0 m /period glyphshow
9.54102 0 m /zero glyphshow
grestore
gsave
/o {
gsave
newpath
translate
0.8 setlinewidth
1 setlinejoin

0 setlinecap

0 0 m
0 -3.5 l

gsave
0.000 setgray
fill
grestore
stroke
grestore
} bind def
384.185 306.88 o
grestore
/DejaVuSans 10.000 selectfont
gsave

376.232 292.286 translate
0 rotate
0 0 m /zero glyphshow
6.3623 0 m /period glyphshow
9.54102 0 m /five glyphshow
grestore
gsave
/o {
gsave
newpath
translate
0.8 setlinewidth
1 setlinejoin

0 setlinecap

0 0 m
0 -3.5 l

gsave
0.000 setgray
fill
grestore
stroke
grestore
} bind def
442.08 306.88 o
grestore
/DejaVuSans 10.000 selectfont
gsave

434.127 292.286 translate
0 rotate
0 0 m /one glyphshow
6.3623 0 m /period glyphshow
9.54102 0 m /zero glyphshow
grestore
gsave
/o {
gsave
newpath
translate
0.8 setlinewidth
1 setlinejoin

0 setlinecap

-0 0 m
-3.5 0 l

gsave
0.000 setgray
fill
grestore
stroke
grestore
} bind def
326.29 306.88 o
grestore
/DejaVuSans 10.000 selectfont
gsave

312.931 303.083 translate
0 rotate
0 0 m /zero glyphshow
grestore
gsave
/o {
gsave
newpath
translate
0.8 setlinewidth
1 setlinejoin

0 setlinecap

-0 0 m
-3.5 0 l

gsave
0.000 setgray
fill
grestore
stroke
grestore
} bind def
326.29 318.72 o
grestore
/DejaVuSans 10.000 selectfont
gsave

312.931 314.923 translate
0 rotate
0 0 m /one glyphshow
grestore
0 setlinejoin
2 setlinecap
gsave
326.29 306.88 m
326.29 318.72 l
stroke
grestore
gsave
442.08 306.88 m
442.08 318.72 l
stroke
grestore
gsave
326.29 306.88 m
442.08 306.88 l
stroke
grestore
gsave
326.29 318.72 m
442.08 318.72 l
stroke
grestore
gsave
30.49 251.08 m
146.28 251.08 l
146.28 262.92 l
30.49 262.92 l
cl
1.000 setgray
fill
grestore
gsave
115.79 11.84 30.49 251.08 clipbox
35.753182 251.08 m
39.26197 251.08 l
39.26197 251.089366 l
35.753182 251.089366 l
cl
0.122 0.467 0.706 setrgbcolor
fill
grestore
gsave
115.79 11.84 30.49 251.08 clipbox
39.26197 251.08 m
42.770757 251.08 l
42.770757 251.133315 l
39.26197 251.133315 l
cl
0.122 0.467 0.706 setrgbcolor
fill
grestore
gsave
115.79 11.84 30.49 251.08 clipbox
42.770757 251.08 m
46.279545 251.08 l
46.279545 251.250033 l
42.770757 251.250033 l
cl
0.122 0.467 0.706 setrgbcolor
fill
grestore
gsave
115.79 11.84 30.49 251.08 clipbox
46.279545 251.08 m
49.788333 251.08 l
49.788333 251.626121 l
46.279545 251.626121 l
cl
0.122 0.467 0.706 setrgbcolor
fill
grestore
gsave
115.79 11.84 30.49 251.08 clipbox
49.788333 251.08 m
53.297121 251.08 l
53.297121 252.162877 l
49.788333 252.162877 l
cl
0.122 0.467 0.706 setrgbcolor
fill
grestore
gsave
115.79 11.84 30.49 251.08 clipbox
53.297121 251.08 m
56.80591 251.08 l
56.80591 253.283218 l
53.297121 253.283218 l
cl
0.122 0.467 0.706 setrgbcolor
fill
grestore
gsave
115.79 11.84 30.49 251.08 clipbox
56.80591 251.08 m
60.314698 251.08 l
60.314698 255.103863 l
56.80591 255.103863 l
cl
0.122 0.467 0.706 setrgbcolor
fill
grestore
gsave
115.79 11.84 30.49 251.08 clipbox
60.314698 251.08 m
63.823483 251.08 l
63.823483 256.928114 l
60.314698 256.928114 l
cl
0.122 0.467 0.706 setrgbcolor
fill
grestore
gsave
115.79 11.84 30.49 251.08 clipbox
63.823483 251.08 m
67.332274 251.08 l
67.332274 259.393576 l
63.823483 259.393576 l
cl
0.122 0.467 0.706 setrgbcolor
fill
grestore
gsave
115.79 11.84 30.49 251.08 clipbox
67.332274 251.08 m
70.84106 251.08 l
70.84106 260.593182 l
67.332274 260.593182 l
cl
0.122 0.467 0.706 setrgbcolor
fill
grestore
gsave
115.79 11.84 30.49 251.08 clipbox
70.84106 251.08 m
74.34985 251.08 l
74.34985 261.841034 l
70.84106 261.841034 l
cl
0.122 0.467 0.706 setrgbcolor
fill
grestore
gsave
115.79 11.84 30.49 251.08 clipbox
74.34985 251.08 m
77.858636 251.08 l
77.858636 262.35619 l
74.34985 262.35619 l
cl
0.122 0.467 0.706 setrgbcolor
fill
grestore
gsave
115.79 11.84 30.49 251.08 clipbox
77.858636 251.08 m
81.367422 251.08 l
81.367422 262.062956 l
77.858636 262.062956 l
cl
0.122 0.467 0.706 setrgbcolor
fill
grestore
gsave
115.79 11.84 30.49 251.08 clipbox
81.367422 251.08 m
84.876212 251.08 l
84.876212 261.352551 l
81.367422 261.352551 l
cl
0.122 0.467 0.706 setrgbcolor
fill
grestore
gsave
115.79 11.84 30.49 251.08 clipbox
84.876212 251.08 m
88.384998 251.08 l
88.384998 259.420245 l
84.876212 259.420245 l
cl
0.122 0.467 0.706 setrgbcolor
fill
grestore
gsave
115.79 11.84 30.49 251.08 clipbox
88.384998 251.08 m
91.893789 251.08 l
91.893789 258.157239 l
88.384998 258.157239 l
cl
0.122 0.467 0.706 setrgbcolor
fill
grestore
gsave
115.79 11.84 30.49 251.08 clipbox
91.893789 251.08 m
95.402574 251.08 l
95.402574 256.593092 l
91.893789 256.593092 l
cl
0.122 0.467 0.706 setrgbcolor
fill
grestore
gsave
115.79 11.84 30.49 251.08 clipbox
95.402574 251.08 m
98.911365 251.08 l
98.911365 255.246514 l
95.402574 255.246514 l
cl
0.122 0.467 0.706 setrgbcolor
fill
grestore
gsave
115.79 11.84 30.49 251.08 clipbox
98.911365 251.08 m
102.420151 251.08 l
102.420151 253.88698 l
98.911365 253.88698 l
cl
0.122 0.467 0.706 setrgbcolor
fill
grestore
gsave
115.79 11.84 30.49 251.08 clipbox
102.420151 251.08 m
105.928941 251.08 l
105.928941 253.071397 l
102.420151 253.071397 l
cl
0.122 0.467 0.706 setrgbcolor
fill
grestore
gsave
115.79 11.84 30.49 251.08 clipbox
105.928941 251.08 m
109.437727 251.08 l
109.437727 252.433056 l
105.928941 252.433056 l
cl
0.122 0.467 0.706 setrgbcolor
fill
grestore
gsave
115.79 11.84 30.49 251.08 clipbox
109.437727 251.08 m
112.946513 251.08 l
112.946513 251.860997 l
109.437727 251.860997 l
cl
0.122 0.467 0.706 setrgbcolor
fill
grestore
gsave
115.79 11.84 30.49 251.08 clipbox
112.946513 251.08 m
116.455299 251.08 l
116.455299 251.513727 l
112.946513 251.513727 l
cl
0.122 0.467 0.706 setrgbcolor
fill
grestore
gsave
115.79 11.84 30.49 251.08 clipbox
116.455299 251.08 m
119.964094 251.08 l
119.964094 251.363147 l
116.455299 251.363147 l
cl
0.122 0.467 0.706 setrgbcolor
fill
grestore
gsave
115.79 11.84 30.49 251.08 clipbox
119.964094 251.08 m
123.47288 251.08 l
123.47288 251.232021 l
119.964094 251.232021 l
cl
0.122 0.467 0.706 setrgbcolor
fill
grestore
gsave
115.79 11.84 30.49 251.08 clipbox
123.47288 251.08 m
126.981666 251.08 l
126.981666 251.122508 l
123.47288 251.122508 l
cl
0.122 0.467 0.706 setrgbcolor
fill
grestore
gsave
115.79 11.84 30.49 251.08 clipbox
126.981666 251.08 m
130.490451 251.08 l
130.490451 251.117465 l
126.981666 251.117465 l
cl
0.122 0.467 0.706 setrgbcolor
fill
grestore
gsave
115.79 11.84 30.49 251.08 clipbox
130.490451 251.08 m
133.999247 251.08 l
133.999247 251.09585 l
130.490451 251.09585 l
cl
0.122 0.467 0.706 setrgbcolor
fill
grestore
gsave
115.79 11.84 30.49 251.08 clipbox
133.999247 251.08 m
137.508032 251.08 l
137.508032 251.091528 l
133.999247 251.091528 l
cl
0.122 0.467 0.706 setrgbcolor
fill
grestore
gsave
115.79 11.84 30.49 251.08 clipbox
137.508032 251.08 m
141.016818 251.08 l
141.016818 251.089366 l
137.508032 251.089366 l
cl
0.122 0.467 0.706 setrgbcolor
fill
grestore
1 setlinejoin
0 setlinecap
gsave
/o {
gsave
newpath
translate
0.8 setlinewidth
1 setlinejoin

0 setlinecap

0 0 m
0 -3.5 l

gsave
0.000 setgray
fill
grestore
stroke
grestore
} bind def
52.9762 251.08 o
grestore
/DejaVuSans 10.000 selectfont
gsave

45.0231 236.486 translate
0 rotate
0 0 m /zero glyphshow
6.3623 0 m /period glyphshow
9.54102 0 m /one glyphshow
grestore
gsave
/o {
gsave
newpath
translate
0.8 setlinewidth
1 setlinejoin

0 setlinecap

0 0 m
0 -3.5 l

gsave
0.000 setgray
fill
grestore
stroke
grestore
} bind def
86.0018 251.08 o
grestore
/DejaVuSans 10.000 selectfont
gsave

78.0487 236.486 translate
0 rotate
0 0 m /zero glyphshow
6.3623 0 m /period glyphshow
9.54102 0 m /two glyphshow
grestore
gsave
/o {
gsave
newpath
translate
0.8 setlinewidth
1 setlinejoin

0 setlinecap

0 0 m
0 -3.5 l

gsave
0.000 setgray
fill
grestore
stroke
grestore
} bind def
119.027 251.08 o
grestore
/DejaVuSans 10.000 selectfont
gsave

111.074 236.486 translate
0 rotate
0 0 m /zero glyphshow
6.3623 0 m /period glyphshow
9.54102 0 m /three glyphshow
grestore
gsave
/o {
gsave
newpath
translate
0.8 setlinewidth
1 setlinejoin

0 setlinecap

-0 0 m
-3.5 0 l

gsave
0.000 setgray
fill
grestore
stroke
grestore
} bind def
30.49 251.08 o
grestore
/DejaVuSans 10.000 selectfont
gsave

17.1306 247.283 translate
0 rotate
0 0 m /zero glyphshow
grestore
gsave
/o {
gsave
newpath
translate
0.8 setlinewidth
1 setlinejoin

0 setlinecap

-0 0 m
-3.5 0 l

gsave
0.000 setgray
fill
grestore
stroke
grestore
} bind def
30.49 262.562 o
grestore
/DejaVuSans 10.000 selectfont
gsave

10.7713 258.765 translate
0 rotate
0 0 m /one glyphshow
6.3623 0 m /zero glyphshow
grestore
0 setlinejoin
2 setlinecap
gsave
30.49 251.08 m
30.49 262.92 l
stroke
grestore
gsave
146.28 251.08 m
146.28 262.92 l
stroke
grestore
gsave
30.49 251.08 m
146.28 251.08 l
stroke
grestore
gsave
30.49 262.92 m
146.28 262.92 l
stroke
grestore
/DejaVuSans 12.000 selectfont
gsave

64.9944 268.92 translate
0 rotate
0 0 m /M glyphshow
10.3535 0 m /u glyphshow
17.959 0 m /n glyphshow
25.5645 0 m /s glyphshow
31.8164 0 m /o glyphshow
39.1582 0 m /n glyphshow
grestore
gsave
178.39 251.08 m
294.18 251.08 l
294.18 262.92 l
178.39 262.92 l
cl
1.000 setgray
fill
grestore
gsave
115.79 11.84 178.39 251.08 clipbox
183.653182 251.08 m
187.16197 251.08 l
187.16197 251.122304 l
183.653182 251.122304 l
cl
0.122 0.467 0.706 setrgbcolor
fill
grestore
gsave
115.79 11.84 178.39 251.08 clipbox
187.16197 251.08 m
190.670757 251.08 l
190.670757 251.209829 l
187.16197 251.209829 l
cl
0.122 0.467 0.706 setrgbcolor
fill
grestore
gsave
115.79 11.84 178.39 251.08 clipbox
190.670757 251.08 m
194.179545 251.08 l
194.179545 251.416243 l
190.670757 251.416243 l
cl
0.122 0.467 0.706 setrgbcolor
fill
grestore
gsave
115.79 11.84 178.39 251.08 clipbox
194.179545 251.08 m
197.688335 251.08 l
197.688335 251.866998 l
194.179545 251.866998 l
cl
0.122 0.467 0.706 setrgbcolor
fill
grestore
gsave
115.79 11.84 178.39 251.08 clipbox
197.688335 251.08 m
201.197121 251.08 l
201.197121 252.764135 l
197.688335 252.764135 l
cl
0.122 0.467 0.706 setrgbcolor
fill
grestore
gsave
115.79 11.84 178.39 251.08 clipbox
201.197121 251.08 m
204.705911 251.08 l
204.705911 253.9625 l
201.197121 253.9625 l
cl
0.122 0.467 0.706 setrgbcolor
fill
grestore
gsave
115.79 11.84 178.39 251.08 clipbox
204.705911 251.08 m
208.214696 251.08 l
208.214696 255.64518 l
204.705911 255.64518 l
cl
0.122 0.467 0.706 setrgbcolor
fill
grestore
gsave
115.79 11.84 178.39 251.08 clipbox
208.214696 251.08 m
211.723487 251.08 l
211.723487 257.685242 l
208.214696 257.685242 l
cl
0.122 0.467 0.706 setrgbcolor
fill
grestore
gsave
115.79 11.84 178.39 251.08 clipbox
211.723487 251.08 m
215.232272 251.08 l
215.232272 259.767626 l
211.723487 259.767626 l
cl
0.122 0.467 0.706 setrgbcolor
fill
grestore
gsave
115.79 11.84 178.39 251.08 clipbox
215.232272 251.08 m
218.741062 251.08 l
218.741062 261.260651 l
215.232272 261.260651 l
cl
0.122 0.467 0.706 setrgbcolor
fill
grestore
gsave
115.79 11.84 178.39 251.08 clipbox
218.741062 251.08 m
222.249848 251.08 l
222.249848 262.35619 l
218.741062 262.35619 l
cl
0.122 0.467 0.706 setrgbcolor
fill
grestore
gsave
115.79 11.84 178.39 251.08 clipbox
222.249848 251.08 m
225.758638 251.08 l
225.758638 262.246769 l
222.249848 262.246769 l
cl
0.122 0.467 0.706 setrgbcolor
fill
grestore
gsave
115.79 11.84 178.39 251.08 clipbox
225.758638 251.08 m
229.267423 251.08 l
229.267423 262.025053 l
225.758638 262.025053 l
cl
0.122 0.467 0.706 setrgbcolor
fill
grestore
gsave
115.79 11.84 178.39 251.08 clipbox
229.267423 251.08 m
232.776213 251.08 l
232.776213 261.010474 l
229.267423 261.010474 l
cl
0.122 0.467 0.706 setrgbcolor
fill
grestore
gsave
115.79 11.84 178.39 251.08 clipbox
232.776213 251.08 m
236.284999 251.08 l
236.284999 259.408043 l
232.776213 259.408043 l
cl
0.122 0.467 0.706 setrgbcolor
fill
grestore
gsave
115.79 11.84 178.39 251.08 clipbox
236.284999 251.08 m
239.793784 251.08 l
239.793784 257.680145 l
236.284999 257.680145 l
cl
0.122 0.467 0.706 setrgbcolor
fill
grestore
gsave
115.79 11.84 178.39 251.08 clipbox
239.793784 251.08 m
243.302579 251.08 l
243.302579 256.089358 l
239.793784 256.089358 l
cl
0.122 0.467 0.706 setrgbcolor
fill
grestore
gsave
115.79 11.84 178.39 251.08 clipbox
243.302579 251.08 m
246.811365 251.08 l
246.811365 254.812229 l
243.302579 254.812229 l
cl
0.122 0.467 0.706 setrgbcolor
fill
grestore
gsave
115.79 11.84 178.39 251.08 clipbox
246.811365 251.08 m
250.32015 251.08 l
250.32015 253.487678 l
246.811365 253.487678 l
cl
0.122 0.467 0.706 setrgbcolor
fill
grestore
gsave
115.79 11.84 178.39 251.08 clipbox
250.32015 251.08 m
253.828936 251.08 l
253.828936 252.800604 l
250.32015 252.800604 l
cl
0.122 0.467 0.706 setrgbcolor
fill
grestore
gsave
115.79 11.84 178.39 251.08 clipbox
253.828936 251.08 m
257.33773 251.08 l
257.33773 252.175524 l
253.828936 252.175524 l
cl
0.122 0.467 0.706 setrgbcolor
fill
grestore
gsave
115.79 11.84 178.39 251.08 clipbox
257.33773 251.08 m
260.846516 251.08 l
260.846516 251.675173 l
257.33773 251.675173 l
cl
0.122 0.467 0.706 setrgbcolor
fill
grestore
gsave
115.79 11.84 178.39 251.08 clipbox
260.846516 251.08 m
264.355301 251.08 l
264.355301 251.451254 l
260.846516 251.451254 l
cl
0.122 0.467 0.706 setrgbcolor
fill
grestore
gsave
115.79 11.84 178.39 251.08 clipbox
264.355301 251.08 m
267.864087 251.08 l
267.864087 251.260886 l
264.355301 251.260886 l
cl
0.122 0.467 0.706 setrgbcolor
fill
grestore
gsave
115.79 11.84 178.39 251.08 clipbox
267.864087 251.08 m
271.372881 251.08 l
271.372881 251.180654 l
267.864087 251.180654 l
cl
0.122 0.467 0.706 setrgbcolor
fill
grestore
gsave
115.79 11.84 178.39 251.08 clipbox
271.372881 251.08 m
274.881667 251.08 l
274.881667 251.108446 l
271.372881 251.108446 l
cl
0.122 0.467 0.706 setrgbcolor
fill
grestore
gsave
115.79 11.84 178.39 251.08 clipbox
274.881667 251.08 m
278.390452 251.08 l
278.390452 251.089482 l
274.881667 251.089482 l
cl
0.122 0.467 0.706 setrgbcolor
fill
grestore
gsave
115.79 11.84 178.39 251.08 clipbox
278.390452 251.08 m
281.899238 251.08 l
281.899238 251.082918 l
278.390452 251.082918 l
cl
0.122 0.467 0.706 setrgbcolor
fill
grestore
gsave
115.79 11.84 178.39 251.08 clipbox
281.899238 251.08 m
285.408033 251.08 l
285.408033 251.08 l
281.899238 251.08 l
cl
0.122 0.467 0.706 setrgbcolor
fill
grestore
gsave
115.79 11.84 178.39 251.08 clipbox
285.408033 251.08 m
288.916818 251.08 l
288.916818 251.085106 l
285.408033 251.085106 l
cl
0.122 0.467 0.706 setrgbcolor
fill
grestore
1 setlinejoin
0 setlinecap
gsave
/o {
gsave
newpath
translate
0.8 setlinewidth
1 setlinejoin

0 setlinecap

0 0 m
0 -3.5 l

gsave
0.000 setgray
fill
grestore
stroke
grestore
} bind def
218.517 251.08 o
grestore
/DejaVuSans 10.000 selectfont
gsave

210.564 236.486 translate
0 rotate
0 0 m /zero glyphshow
6.3623 0 m /period glyphshow
9.54102 0 m /two glyphshow
grestore
gsave
/o {
gsave
newpath
translate
0.8 setlinewidth
1 setlinejoin

0 setlinecap

0 0 m
0 -3.5 l

gsave
0.000 setgray
fill
grestore
stroke
grestore
} bind def
279.759 251.08 o
grestore
/DejaVuSans 10.000 selectfont
gsave

271.806 236.486 translate
0 rotate
0 0 m /zero glyphshow
6.3623 0 m /period glyphshow
9.54102 0 m /four glyphshow
grestore
gsave
/o {
gsave
newpath
translate
0.8 setlinewidth
1 setlinejoin

0 setlinecap

-0 0 m
-3.5 0 l

gsave
0.000 setgray
fill
grestore
stroke
grestore
} bind def
178.39 251.08 o
grestore
/DejaVuSans 10.000 selectfont
gsave

165.031 247.283 translate
0 rotate
0 0 m /zero glyphshow
grestore
gsave
/o {
gsave
newpath
translate
0.8 setlinewidth
1 setlinejoin

0 setlinecap

-0 0 m
-3.5 0 l

gsave
0.000 setgray
fill
grestore
stroke
grestore
} bind def
178.39 257.348 o
grestore
/DejaVuSans 10.000 selectfont
gsave

165.031 253.551 translate
0 rotate
0 0 m /five glyphshow
grestore
0 setlinejoin
2 setlinecap
gsave
178.39 251.08 m
178.39 262.92 l
stroke
grestore
gsave
294.18 251.08 m
294.18 262.92 l
stroke
grestore
gsave
178.39 251.08 m
294.18 251.08 l
stroke
grestore
gsave
178.39 262.92 m
294.18 262.92 l
stroke
grestore
/DejaVuSans 12.000 selectfont
gsave

208.808 268.92 translate
0 rotate
0 0 m /P glyphshow
6.86133 0 m /e glyphshow
14.2441 0 m /t glyphshow
18.9492 0 m /r glyphshow
23.6328 0 m /o glyphshow
30.9746 0 m /c glyphshow
37.5723 0 m /e glyphshow
44.9551 0 m /l glyphshow
48.2891 0 m /l glyphshow
51.623 0 m /i glyphshow
grestore
gsave
326.29 251.08 m
442.08 251.08 l
442.08 262.92 l
326.29 262.92 l
cl
1.000 setgray
fill
grestore
1 setlinejoin
0 setlinecap
gsave
/o {
gsave
newpath
translate
0.8 setlinewidth
1 setlinejoin

0 setlinecap

0 0 m
0 -3.5 l

gsave
0.000 setgray
fill
grestore
stroke
grestore
} bind def
326.29 251.08 o
grestore
/DejaVuSans 10.000 selectfont
gsave

318.337 236.486 translate
0 rotate
0 0 m /zero glyphshow
6.3623 0 m /period glyphshow
9.54102 0 m /zero glyphshow
grestore
gsave
/o {
gsave
newpath
translate
0.8 setlinewidth
1 setlinejoin

0 setlinecap

0 0 m
0 -3.5 l

gsave
0.000 setgray
fill
grestore
stroke
grestore
} bind def
384.185 251.08 o
grestore
/DejaVuSans 10.000 selectfont
gsave

376.232 236.486 translate
0 rotate
0 0 m /zero glyphshow
6.3623 0 m /period glyphshow
9.54102 0 m /five glyphshow
grestore
gsave
/o {
gsave
newpath
translate
0.8 setlinewidth
1 setlinejoin

0 setlinecap

0 0 m
0 -3.5 l

gsave
0.000 setgray
fill
grestore
stroke
grestore
} bind def
442.08 251.08 o
grestore
/DejaVuSans 10.000 selectfont
gsave

434.127 236.486 translate
0 rotate
0 0 m /one glyphshow
6.3623 0 m /period glyphshow
9.54102 0 m /zero glyphshow
grestore
gsave
/o {
gsave
newpath
translate
0.8 setlinewidth
1 setlinejoin

0 setlinecap

-0 0 m
-3.5 0 l

gsave
0.000 setgray
fill
grestore
stroke
grestore
} bind def
326.29 251.08 o
grestore
/DejaVuSans 10.000 selectfont
gsave

312.931 247.283 translate
0 rotate
0 0 m /zero glyphshow
grestore
gsave
/o {
gsave
newpath
translate
0.8 setlinewidth
1 setlinejoin

0 setlinecap

-0 0 m
-3.5 0 l

gsave
0.000 setgray
fill
grestore
stroke
grestore
} bind def
326.29 262.92 o
grestore
/DejaVuSans 10.000 selectfont
gsave

312.931 259.123 translate
0 rotate
0 0 m /one glyphshow
grestore
0 setlinejoin
2 setlinecap
gsave
326.29 251.08 m
326.29 262.92 l
stroke
grestore
gsave
442.08 251.08 m
442.08 262.92 l
stroke
grestore
gsave
326.29 251.08 m
442.08 251.08 l
stroke
grestore
gsave
326.29 262.92 m
442.08 262.92 l
stroke
grestore
gsave
30.49 195.28 m
146.28 195.28 l
146.28 207.12 l
30.49 207.12 l
cl
1.000 setgray
fill
grestore
gsave
115.79 11.84 30.49 195.28 clipbox
35.753182 195.28 m
39.26197 195.28 l
39.26197 195.286049 l
35.753182 195.286049 l
cl
0.122 0.467 0.706 setrgbcolor
fill
grestore
gsave
115.79 11.84 30.49 195.28 clipbox
39.26197 195.28 m
42.770757 195.28 l
42.770757 195.298902 l
39.26197 195.298902 l
cl
0.122 0.467 0.706 setrgbcolor
fill
grestore
gsave
115.79 11.84 30.49 195.28 clipbox
42.770757 195.28 m
46.279545 195.28 l
46.279545 195.350316 l
42.770757 195.350316 l
cl
0.122 0.467 0.706 setrgbcolor
fill
grestore
gsave
115.79 11.84 30.49 195.28 clipbox
46.279545 195.28 m
49.788333 195.28 l
49.788333 195.552189 l
46.279545 195.552189 l
cl
0.122 0.467 0.706 setrgbcolor
fill
grestore
gsave
115.79 11.84 30.49 195.28 clipbox
49.788333 195.28 m
53.29712 195.28 l
53.29712 195.875036 l
49.788333 195.875036 l
cl
0.122 0.467 0.706 setrgbcolor
fill
grestore
gsave
115.79 11.84 30.49 195.28 clipbox
53.29712 195.28 m
56.805908 195.28 l
56.805908 196.505607 l
53.29712 196.505607 l
cl
0.122 0.467 0.706 setrgbcolor
fill
grestore
gsave
115.79 11.84 30.49 195.28 clipbox
56.805908 195.28 m
60.314696 195.28 l
60.314696 197.756921 l
56.805908 197.756921 l
cl
0.122 0.467 0.706 setrgbcolor
fill
grestore
gsave
115.79 11.84 30.49 195.28 clipbox
60.314696 195.28 m
63.823484 195.28 l
63.823484 199.219181 l
60.314696 199.219181 l
cl
0.122 0.467 0.706 setrgbcolor
fill
grestore
gsave
115.79 11.84 30.49 195.28 clipbox
63.823484 195.28 m
67.332271 195.28 l
67.332271 200.925656 l
63.823484 200.925656 l
cl
0.122 0.467 0.706 setrgbcolor
fill
grestore
gsave
115.79 11.84 30.49 195.28 clipbox
67.332271 195.28 m
70.841059 195.28 l
70.841059 202.632131 l
67.332271 202.632131 l
cl
0.122 0.467 0.706 setrgbcolor
fill
grestore
gsave
115.79 11.84 30.49 195.28 clipbox
70.841059 195.28 m
74.349847 195.28 l
74.349847 204.094391 l
70.841059 204.094391 l
cl
0.122 0.467 0.706 setrgbcolor
fill
grestore
gsave
115.79 11.84 30.49 195.28 clipbox
74.349847 195.28 m
77.858634 195.28 l
77.858634 205.710136 l
74.349847 205.710136 l
cl
0.122 0.467 0.706 setrgbcolor
fill
grestore
gsave
115.79 11.84 30.49 195.28 clipbox
77.858634 195.28 m
81.367422 195.28 l
81.367422 206.541825 l
77.858634 206.541825 l
cl
0.122 0.467 0.706 setrgbcolor
fill
grestore
gsave
115.79 11.84 30.49 195.28 clipbox
81.367422 195.28 m
84.87621 195.28 l
84.87621 206.55619 l
81.367422 206.55619 l
cl
0.122 0.467 0.706 setrgbcolor
fill
grestore
gsave
115.79 11.84 30.49 195.28 clipbox
84.87621 195.28 m
88.385003 195.28 l
88.385003 205.798582 l
84.87621 205.798582 l
cl
0.122 0.467 0.706 setrgbcolor
fill
grestore
gsave
115.79 11.84 30.49 195.28 clipbox
88.385003 195.28 m
91.89379 195.28 l
91.89379 204.874667 l
88.385003 204.874667 l
cl
0.122 0.467 0.706 setrgbcolor
fill
grestore
gsave
115.79 11.84 30.49 195.28 clipbox
91.89379 195.28 m
95.402578 195.28 l
95.402578 203.246824 l
91.89379 203.246824 l
cl
0.122 0.467 0.706 setrgbcolor
fill
grestore
gsave
115.79 11.84 30.49 195.28 clipbox
95.402578 195.28 m
98.911366 195.28 l
98.911366 201.563032 l
95.402578 201.563032 l
cl
0.122 0.467 0.706 setrgbcolor
fill
grestore
gsave
115.79 11.84 30.49 195.28 clipbox
98.911366 195.28 m
102.420153 195.28 l
102.420153 200.380522 l
98.911366 200.380522 l
cl
0.122 0.467 0.706 setrgbcolor
fill
grestore
gsave
115.79 11.84 30.49 195.28 clipbox
102.420153 195.28 m
105.928941 195.28 l
105.928941 198.693705 l
102.420153 198.693705 l
cl
0.122 0.467 0.706 setrgbcolor
fill
grestore
gsave
115.79 11.84 30.49 195.28 clipbox
105.928941 195.28 m
109.437729 195.28 l
109.437729 197.905113 l
105.928941 197.905113 l
cl
0.122 0.467 0.706 setrgbcolor
fill
grestore
gsave
115.79 11.84 30.49 195.28 clipbox
109.437729 195.28 m
112.946516 195.28 l
112.946516 196.947914 l
109.437729 196.947914 l
cl
0.122 0.467 0.706 setrgbcolor
fill
grestore
gsave
115.79 11.84 30.49 195.28 clipbox
112.946516 195.28 m
116.455304 195.28 l
116.455304 196.422438 l
112.946516 196.422438 l
cl
0.122 0.467 0.706 setrgbcolor
fill
grestore
gsave
115.79 11.84 30.49 195.28 clipbox
116.455304 195.28 m
119.964092 195.28 l
119.964092 196.008862 l
116.455304 196.008862 l
cl
0.122 0.467 0.706 setrgbcolor
fill
grestore
gsave
115.79 11.84 30.49 195.28 clipbox
119.964092 195.28 m
123.47288 195.28 l
123.47288 195.703405 l
119.964092 195.703405 l
cl
0.122 0.467 0.706 setrgbcolor
fill
grestore
gsave
115.79 11.84 30.49 195.28 clipbox
123.47288 195.28 m
126.981667 195.28 l
126.981667 195.543872 l
123.47288 195.543872 l
cl
0.122 0.467 0.706 setrgbcolor
fill
grestore
gsave
115.79 11.84 30.49 195.28 clipbox
126.981667 195.28 m
130.490455 195.28 l
130.490455 195.425924 l
126.981667 195.425924 l
cl
0.122 0.467 0.706 setrgbcolor
fill
grestore
gsave
115.79 11.84 30.49 195.28 clipbox
130.490455 195.28 m
133.999243 195.28 l
133.999243 195.378291 l
130.490455 195.378291 l
cl
0.122 0.467 0.706 setrgbcolor
fill
grestore
gsave
115.79 11.84 30.49 195.28 clipbox
133.999243 195.28 m
137.50803 195.28 l
137.50803 195.328389 l
133.999243 195.328389 l
cl
0.122 0.467 0.706 setrgbcolor
fill
grestore
gsave
115.79 11.84 30.49 195.28 clipbox
137.50803 195.28 m
141.016818 195.28 l
141.016818 195.286049 l
137.50803 195.286049 l
cl
0.122 0.467 0.706 setrgbcolor
fill
grestore
1 setlinejoin
0 setlinecap
gsave
/o {
gsave
newpath
translate
0.8 setlinewidth
1 setlinejoin

0 setlinecap

0 0 m
0 -3.5 l

gsave
0.000 setgray
fill
grestore
stroke
grestore
} bind def
49.91 195.28 o
grestore
/DejaVuSans 10.000 selectfont
gsave

41.9569 180.686 translate
0 rotate
0 0 m /zero glyphshow
6.3623 0 m /period glyphshow
9.54102 0 m /one glyphshow
grestore
gsave
/o {
gsave
newpath
translate
0.8 setlinewidth
1 setlinejoin

0 setlinecap

0 0 m
0 -3.5 l

gsave
0.000 setgray
fill
grestore
stroke
grestore
} bind def
83.6923 195.28 o
grestore
/DejaVuSans 10.000 selectfont
gsave

75.7392 180.686 translate
0 rotate
0 0 m /zero glyphshow
6.3623 0 m /period glyphshow
9.54102 0 m /two glyphshow
grestore
gsave
/o {
gsave
newpath
translate
0.8 setlinewidth
1 setlinejoin

0 setlinecap

0 0 m
0 -3.5 l

gsave
0.000 setgray
fill
grestore
stroke
grestore
} bind def
117.475 195.28 o
grestore
/DejaVuSans 10.000 selectfont
gsave

109.521 180.686 translate
0 rotate
0 0 m /zero glyphshow
6.3623 0 m /period glyphshow
9.54102 0 m /three glyphshow
grestore
gsave
/o {
gsave
newpath
translate
0.8 setlinewidth
1 setlinejoin

0 setlinecap

-0 0 m
-3.5 0 l

gsave
0.000 setgray
fill
grestore
stroke
grestore
} bind def
30.49 195.28 o
grestore
/DejaVuSans 10.000 selectfont
gsave

17.1306 191.483 translate
0 rotate
0 0 m /zero glyphshow
grestore
gsave
/o {
gsave
newpath
translate
0.8 setlinewidth
1 setlinejoin

0 setlinecap

-0 0 m
-3.5 0 l

gsave
0.000 setgray
fill
grestore
stroke
grestore
} bind def
30.49 207.06 o
grestore
/DejaVuSans 10.000 selectfont
gsave

10.7713 203.263 translate
0 rotate
0 0 m /one glyphshow
6.3623 0 m /zero glyphshow
grestore
0 setlinejoin
2 setlinecap
gsave
30.49 195.28 m
30.49 207.12 l
stroke
grestore
gsave
146.28 195.28 m
146.28 207.12 l
stroke
grestore
gsave
30.49 195.28 m
146.28 195.28 l
stroke
grestore
gsave
30.49 207.12 m
146.28 207.12 l
stroke
grestore
/DejaVuSans 12.000 selectfont
gsave

52.4241 213.12 translate
0 rotate
0 0 m /C glyphshow
8.37891 0 m /a glyphshow
15.7324 0 m /m glyphshow
27.4219 0 m /p glyphshow
35.0391 0 m /a glyphshow
42.3926 0 m /n glyphshow
49.998 0 m /e glyphshow
57.3809 0 m /r glyphshow
62.3145 0 m /i glyphshow
65.6484 0 m /s glyphshow
grestore
gsave
178.39 195.28 m
294.18 195.28 l
294.18 207.12 l
178.39 207.12 l
cl
1.000 setgray
fill
grestore
gsave
115.79 11.84 178.39 195.28 clipbox
183.653182 195.28 m
187.161969 195.28 l
187.161969 195.284055 l
183.653182 195.284055 l
cl
0.122 0.467 0.706 setrgbcolor
fill
grestore
gsave
115.79 11.84 178.39 195.28 clipbox
187.161969 195.28 m
190.670757 195.28 l
190.670757 195.287434 l
187.161969 195.287434 l
cl
0.122 0.467 0.706 setrgbcolor
fill
grestore
gsave
115.79 11.84 178.39 195.28 clipbox
190.670757 195.28 m
194.179546 195.28 l
194.179546 195.327984 l
190.670757 195.327984 l
cl
0.122 0.467 0.706 setrgbcolor
fill
grestore
gsave
115.79 11.84 178.39 195.28 clipbox
194.179546 195.28 m
197.688332 195.28 l
197.688332 195.425979 l
194.179546 195.425979 l
cl
0.122 0.467 0.706 setrgbcolor
fill
grestore
gsave
115.79 11.84 178.39 195.28 clipbox
197.688332 195.28 m
201.197121 195.28 l
201.197121 195.61859 l
197.688332 195.61859 l
cl
0.122 0.467 0.706 setrgbcolor
fill
grestore
gsave
115.79 11.84 178.39 195.28 clipbox
201.197121 195.28 m
204.705911 195.28 l
204.705911 196.170741 l
201.197121 196.170741 l
cl
0.122 0.467 0.706 setrgbcolor
fill
grestore
gsave
115.79 11.84 178.39 195.28 clipbox
204.705911 195.28 m
208.214696 195.28 l
208.214696 197.340602 l
204.705911 197.340602 l
cl
0.122 0.467 0.706 setrgbcolor
fill
grestore
gsave
115.79 11.84 178.39 195.28 clipbox
208.214696 195.28 m
211.723486 195.28 l
211.723486 198.741591 l
208.214696 198.741591 l
cl
0.122 0.467 0.706 setrgbcolor
fill
grestore
gsave
115.79 11.84 178.39 195.28 clipbox
211.723486 195.28 m
215.232271 195.28 l
215.232271 200.863698 l
211.723486 200.863698 l
cl
0.122 0.467 0.706 setrgbcolor
fill
grestore
gsave
115.79 11.84 178.39 195.28 clipbox
215.232271 195.28 m
218.741061 195.28 l
218.741061 202.831026 l
215.232271 202.831026 l
cl
0.122 0.467 0.706 setrgbcolor
fill
grestore
gsave
115.79 11.84 178.39 195.28 clipbox
218.741061 195.28 m
222.24985 195.28 l
222.24985 204.778763 l
218.741061 204.778763 l
cl
0.122 0.467 0.706 setrgbcolor
fill
grestore
gsave
115.79 11.84 178.39 195.28 clipbox
222.24985 195.28 m
225.758636 195.28 l
225.758636 205.990535 l
222.24985 205.990535 l
cl
0.122 0.467 0.706 setrgbcolor
fill
grestore
gsave
115.79 11.84 178.39 195.28 clipbox
225.758636 195.28 m
229.267425 195.28 l
229.267425 206.55619 l
225.758636 206.55619 l
cl
0.122 0.467 0.706 setrgbcolor
fill
grestore
gsave
115.79 11.84 178.39 195.28 clipbox
229.267425 195.28 m
232.77621 195.28 l
232.77621 206.289252 l
229.267425 206.289252 l
cl
0.122 0.467 0.706 setrgbcolor
fill
grestore
gsave
115.79 11.84 178.39 195.28 clipbox
232.77621 195.28 m
236.285004 195.28 l
236.285004 205.262644 l
232.77621 205.262644 l
cl
0.122 0.467 0.706 setrgbcolor
fill
grestore
gsave
115.79 11.84 178.39 195.28 clipbox
236.285004 195.28 m
239.79379 195.28 l
239.79379 203.608239 l
236.285004 203.608239 l
cl
0.122 0.467 0.706 setrgbcolor
fill
grestore
gsave
115.79 11.84 178.39 195.28 clipbox
239.79379 195.28 m
243.302575 195.28 l
243.302575 201.744303 l
239.79379 201.744303 l
cl
0.122 0.467 0.706 setrgbcolor
fill
grestore
gsave
115.79 11.84 178.39 195.28 clipbox
243.302575 195.28 m
246.81136 195.28 l
246.81136 199.976334 l
243.302575 199.976334 l
cl
0.122 0.467 0.706 setrgbcolor
fill
grestore
gsave
115.79 11.84 178.39 195.28 clipbox
246.81136 195.28 m
250.320154 195.28 l
250.320154 198.829445 l
246.81136 198.829445 l
cl
0.122 0.467 0.706 setrgbcolor
fill
grestore
gsave
115.79 11.84 178.39 195.28 clipbox
250.320154 195.28 m
253.828939 195.28 l
253.828939 197.576466 l
250.320154 197.576466 l
cl
0.122 0.467 0.706 setrgbcolor
fill
grestore
gsave
115.79 11.84 178.39 195.28 clipbox
253.828939 195.28 m
257.337725 195.28 l
257.337725 196.762093 l
253.828939 196.762093 l
cl
0.122 0.467 0.706 setrgbcolor
fill
grestore
gsave
115.79 11.84 178.39 195.28 clipbox
257.337725 195.28 m
260.846518 195.28 l
260.846518 196.171416 l
257.337725 196.171416 l
cl
0.122 0.467 0.706 setrgbcolor
fill
grestore
gsave
115.79 11.84 178.39 195.28 clipbox
260.846518 195.28 m
264.355304 195.28 l
264.355304 195.742943 l
260.846518 195.742943 l
cl
0.122 0.467 0.706 setrgbcolor
fill
grestore
gsave
115.79 11.84 178.39 195.28 clipbox
264.355304 195.28 m
267.864089 195.28 l
267.864089 195.584799 l
264.355304 195.584799 l
cl
0.122 0.467 0.706 setrgbcolor
fill
grestore
gsave
115.79 11.84 178.39 195.28 clipbox
267.864089 195.28 m
271.372875 195.28 l
271.372875 195.46788 l
267.864089 195.46788 l
cl
0.122 0.467 0.706 setrgbcolor
fill
grestore
gsave
115.79 11.84 178.39 195.28 clipbox
271.372875 195.28 m
274.881668 195.28 l
274.881668 195.337445 l
271.372875 195.337445 l
cl
0.122 0.467 0.706 setrgbcolor
fill
grestore
gsave
115.79 11.84 178.39 195.28 clipbox
274.881668 195.28 m
278.390454 195.28 l
278.390454 195.334742 l
274.881668 195.334742 l
cl
0.122 0.467 0.706 setrgbcolor
fill
grestore
gsave
115.79 11.84 178.39 195.28 clipbox
278.390454 195.28 m
281.899239 195.28 l
281.899239 195.294868 l
278.390454 195.294868 l
cl
0.122 0.467 0.706 setrgbcolor
fill
grestore
gsave
115.79 11.84 178.39 195.28 clipbox
281.899239 195.28 m
285.408033 195.28 l
285.408033 195.288786 l
281.899239 195.288786 l
cl
0.122 0.467 0.706 setrgbcolor
fill
grestore
gsave
115.79 11.84 178.39 195.28 clipbox
285.408033 195.28 m
288.916818 195.28 l
288.916818 195.285407 l
285.408033 195.285407 l
cl
0.122 0.467 0.706 setrgbcolor
fill
grestore
1 setlinejoin
0 setlinecap
gsave
/o {
gsave
newpath
translate
0.8 setlinewidth
1 setlinejoin

0 setlinecap

0 0 m
0 -3.5 l

gsave
0.000 setgray
fill
grestore
stroke
grestore
} bind def
217.957 195.28 o
grestore
/DejaVuSans 10.000 selectfont
gsave

210.004 180.686 translate
0 rotate
0 0 m /zero glyphshow
6.3623 0 m /period glyphshow
9.54102 0 m /two glyphshow
grestore
gsave
/o {
gsave
newpath
translate
0.8 setlinewidth
1 setlinejoin

0 setlinecap

0 0 m
0 -3.5 l

gsave
0.000 setgray
fill
grestore
stroke
grestore
} bind def
274.052 195.28 o
grestore
/DejaVuSans 10.000 selectfont
gsave

266.099 180.686 translate
0 rotate
0 0 m /zero glyphshow
6.3623 0 m /period glyphshow
9.54102 0 m /four glyphshow
grestore
gsave
/o {
gsave
newpath
translate
0.8 setlinewidth
1 setlinejoin

0 setlinecap

-0 0 m
-3.5 0 l

gsave
0.000 setgray
fill
grestore
stroke
grestore
} bind def
178.39 195.28 o
grestore
/DejaVuSans 10.000 selectfont
gsave

165.031 191.483 translate
0 rotate
0 0 m /zero glyphshow
grestore
gsave
/o {
gsave
newpath
translate
0.8 setlinewidth
1 setlinejoin

0 setlinecap

-0 0 m
-3.5 0 l

gsave
0.000 setgray
fill
grestore
stroke
grestore
} bind def
178.39 201.621 o
grestore
/DejaVuSans 10.000 selectfont
gsave

165.031 197.824 translate
0 rotate
0 0 m /five glyphshow
grestore
0 setlinejoin
2 setlinecap
gsave
178.39 195.28 m
178.39 207.12 l
stroke
grestore
gsave
294.18 195.28 m
294.18 207.12 l
stroke
grestore
gsave
178.39 195.28 m
294.18 195.28 l
stroke
grestore
gsave
178.39 207.12 m
294.18 207.12 l
stroke
grestore
/DejaVuSans 12.000 selectfont
gsave

208.91 213.12 translate
0 rotate
0 0 m /S glyphshow
7.61719 0 m /w glyphshow
17.4316 0 m /a glyphshow
24.7852 0 m /b glyphshow
32.4023 0 m /o glyphshow
39.7441 0 m /d glyphshow
47.3613 0 m /a glyphshow
grestore
gsave
326.29 195.28 m
442.08 195.28 l
442.08 207.12 l
326.29 207.12 l
cl
1.000 setgray
fill
grestore
1 setlinejoin
0 setlinecap
gsave
/o {
gsave
newpath
translate
0.8 setlinewidth
1 setlinejoin

0 setlinecap

0 0 m
0 -3.5 l

gsave
0.000 setgray
fill
grestore
stroke
grestore
} bind def
326.29 195.28 o
grestore
/DejaVuSans 10.000 selectfont
gsave

318.337 180.686 translate
0 rotate
0 0 m /zero glyphshow
6.3623 0 m /period glyphshow
9.54102 0 m /zero glyphshow
grestore
gsave
/o {
gsave
newpath
translate
0.8 setlinewidth
1 setlinejoin

0 setlinecap

0 0 m
0 -3.5 l

gsave
0.000 setgray
fill
grestore
stroke
grestore
} bind def
384.185 195.28 o
grestore
/DejaVuSans 10.000 selectfont
gsave

376.232 180.686 translate
0 rotate
0 0 m /zero glyphshow
6.3623 0 m /period glyphshow
9.54102 0 m /five glyphshow
grestore
gsave
/o {
gsave
newpath
translate
0.8 setlinewidth
1 setlinejoin

0 setlinecap

0 0 m
0 -3.5 l

gsave
0.000 setgray
fill
grestore
stroke
grestore
} bind def
442.08 195.28 o
grestore
/DejaVuSans 10.000 selectfont
gsave

434.127 180.686 translate
0 rotate
0 0 m /one glyphshow
6.3623 0 m /period glyphshow
9.54102 0 m /zero glyphshow
grestore
gsave
/o {
gsave
newpath
translate
0.8 setlinewidth
1 setlinejoin

0 setlinecap

-0 0 m
-3.5 0 l

gsave
0.000 setgray
fill
grestore
stroke
grestore
} bind def
326.29 195.28 o
grestore
/DejaVuSans 10.000 selectfont
gsave

312.931 191.483 translate
0 rotate
0 0 m /zero glyphshow
grestore
gsave
/o {
gsave
newpath
translate
0.8 setlinewidth
1 setlinejoin

0 setlinecap

-0 0 m
-3.5 0 l

gsave
0.000 setgray
fill
grestore
stroke
grestore
} bind def
326.29 207.12 o
grestore
/DejaVuSans 10.000 selectfont
gsave

312.931 203.323 translate
0 rotate
0 0 m /one glyphshow
grestore
0 setlinejoin
2 setlinecap
gsave
326.29 195.28 m
326.29 207.12 l
stroke
grestore
gsave
442.08 195.28 m
442.08 207.12 l
stroke
grestore
gsave
326.29 195.28 m
442.08 195.28 l
stroke
grestore
gsave
326.29 207.12 m
442.08 207.12 l
stroke
grestore
gsave
30.49 139.48 m
146.28 139.48 l
146.28 151.32 l
30.49 151.32 l
cl
1.000 setgray
fill
grestore
gsave
115.79 11.84 30.49 139.48 clipbox
35.753182 139.48 m
39.261969 139.48 l
39.261969 139.487318 l
35.753182 139.487318 l
cl
0.122 0.467 0.706 setrgbcolor
fill
grestore
gsave
115.79 11.84 30.49 139.48 clipbox
39.261969 139.48 m
42.770757 139.48 l
42.770757 139.480732 l
39.261969 139.480732 l
cl
0.122 0.467 0.706 setrgbcolor
fill
grestore
gsave
115.79 11.84 30.49 139.48 clipbox
42.770757 139.48 m
46.279546 139.48 l
46.279546 139.498296 l
42.770757 139.498296 l
cl
0.122 0.467 0.706 setrgbcolor
fill
grestore
gsave
115.79 11.84 30.49 139.48 clipbox
46.279546 139.48 m
49.788334 139.48 l
49.788334 139.530497 l
46.279546 139.530497 l
cl
0.122 0.467 0.706 setrgbcolor
fill
grestore
gsave
115.79 11.84 30.49 139.48 clipbox
49.788334 139.48 m
53.297121 139.48 l
53.297121 139.690038 l
49.788334 139.690038 l
cl
0.122 0.467 0.706 setrgbcolor
fill
grestore
gsave
115.79 11.84 30.49 139.48 clipbox
53.297121 139.48 m
56.805909 139.48 l
56.805909 140.025953 l
53.297121 140.025953 l
cl
0.122 0.467 0.706 setrgbcolor
fill
grestore
gsave
115.79 11.84 30.49 139.48 clipbox
56.805909 139.48 m
60.314696 139.48 l
60.314696 140.585079 l
56.805909 140.585079 l
cl
0.122 0.467 0.706 setrgbcolor
fill
grestore
gsave
115.79 11.84 30.49 139.48 clipbox
60.314696 139.48 m
63.823486 139.48 l
63.823486 141.706989 l
60.314696 141.706989 l
cl
0.122 0.467 0.706 setrgbcolor
fill
grestore
gsave
115.79 11.84 30.49 139.48 clipbox
63.823486 139.48 m
67.332271 139.48 l
67.332271 143.03016 l
63.823486 143.03016 l
cl
0.122 0.467 0.706 setrgbcolor
fill
grestore
gsave
115.79 11.84 30.49 139.48 clipbox
67.332271 139.48 m
70.841061 139.48 l
70.841061 145.077112 l
67.332271 145.077112 l
cl
0.122 0.467 0.706 setrgbcolor
fill
grestore
gsave
115.79 11.84 30.49 139.48 clipbox
70.841061 139.48 m
74.34985 139.48 l
74.34985 146.916226 l
70.841061 146.916226 l
cl
0.122 0.467 0.706 setrgbcolor
fill
grestore
gsave
115.79 11.84 30.49 139.48 clipbox
74.34985 139.48 m
77.858635 139.48 l
77.858635 148.684364 l
74.34985 148.684364 l
cl
0.122 0.467 0.706 setrgbcolor
fill
grestore
gsave
115.79 11.84 30.49 139.48 clipbox
77.858635 139.48 m
81.367425 139.48 l
81.367425 150.348556 l
77.858635 150.348556 l
cl
0.122 0.467 0.706 setrgbcolor
fill
grestore
gsave
115.79 11.84 30.49 139.48 clipbox
81.367425 139.48 m
84.87621 139.48 l
84.87621 150.701317 l
81.367425 150.701317 l
cl
0.122 0.467 0.706 setrgbcolor
fill
grestore
gsave
115.79 11.84 30.49 139.48 clipbox
84.87621 139.48 m
88.385 139.48 l
88.385 150.75619 l
84.87621 150.75619 l
cl
0.122 0.467 0.706 setrgbcolor
fill
grestore
gsave
115.79 11.84 30.49 139.48 clipbox
88.385 139.48 m
91.89379 139.48 l
91.89379 149.940189 l
88.385 149.940189 l
cl
0.122 0.467 0.706 setrgbcolor
fill
grestore
gsave
115.79 11.84 30.49 139.48 clipbox
91.89379 139.48 m
95.402579 139.48 l
95.402579 148.805105 l
91.89379 148.805105 l
cl
0.122 0.467 0.706 setrgbcolor
fill
grestore
gsave
115.79 11.84 30.49 139.48 clipbox
95.402579 139.48 m
98.91136 139.48 l
98.91136 146.976988 l
95.402579 146.976988 l
cl
0.122 0.467 0.706 setrgbcolor
fill
grestore
gsave
115.79 11.84 30.49 139.48 clipbox
98.91136 139.48 m
102.42015 139.48 l
102.42015 145.522803 l
98.91136 145.522803 l
cl
0.122 0.467 0.706 setrgbcolor
fill
grestore
gsave
115.79 11.84 30.49 139.48 clipbox
102.42015 139.48 m
105.928939 139.48 l
105.928939 144.03424 l
102.42015 144.03424 l
cl
0.122 0.467 0.706 setrgbcolor
fill
grestore
gsave
115.79 11.84 30.49 139.48 clipbox
105.928939 139.48 m
109.437729 139.48 l
109.437729 142.614471 l
105.928939 142.614471 l
cl
0.122 0.467 0.706 setrgbcolor
fill
grestore
gsave
115.79 11.84 30.49 139.48 clipbox
109.437729 139.48 m
112.946519 139.48 l
112.946519 141.620632 l
109.437729 141.620632 l
cl
0.122 0.467 0.706 setrgbcolor
fill
grestore
gsave
115.79 11.84 30.49 139.48 clipbox
112.946519 139.48 m
116.455299 139.48 l
116.455299 140.869036 l
112.946519 140.869036 l
cl
0.122 0.467 0.706 setrgbcolor
fill
grestore
gsave
115.79 11.84 30.49 139.48 clipbox
116.455299 139.48 m
119.964089 139.48 l
119.964089 140.287951 l
116.455299 140.287951 l
cl
0.122 0.467 0.706 setrgbcolor
fill
grestore
gsave
115.79 11.84 30.49 139.48 clipbox
119.964089 139.48 m
123.472879 139.48 l
123.472879 139.99302 l
119.964089 139.99302 l
cl
0.122 0.467 0.706 setrgbcolor
fill
grestore
gsave
115.79 11.84 30.49 139.48 clipbox
123.472879 139.48 m
126.981669 139.48 l
126.981669 139.805669 l
123.472879 139.805669 l
cl
0.122 0.467 0.706 setrgbcolor
fill
grestore
gsave
115.79 11.84 30.49 139.48 clipbox
126.981669 139.48 m
130.490458 139.48 l
130.490458 139.63515 l
126.981669 139.63515 l
cl
0.122 0.467 0.706 setrgbcolor
fill
grestore
gsave
115.79 11.84 30.49 139.48 clipbox
130.490458 139.48 m
133.999239 139.48 l
133.999239 139.547329 l
130.490458 139.547329 l
cl
0.122 0.467 0.706 setrgbcolor
fill
grestore
gsave
115.79 11.84 30.49 139.48 clipbox
133.999239 139.48 m
137.508028 139.48 l
137.508028 139.508542 l
133.999239 139.508542 l
cl
0.122 0.467 0.706 setrgbcolor
fill
grestore
gsave
115.79 11.84 30.49 139.48 clipbox
137.508028 139.48 m
141.016818 139.48 l
141.016818 139.4961 l
137.508028 139.4961 l
cl
0.122 0.467 0.706 setrgbcolor
fill
grestore
1 setlinejoin
0 setlinecap
gsave
/o {
gsave
newpath
translate
0.8 setlinewidth
1 setlinejoin

0 setlinecap

0 0 m
0 -3.5 l

gsave
0.000 setgray
fill
grestore
stroke
grestore
} bind def
79.9557 139.48 o
grestore
/DejaVuSans 10.000 selectfont
gsave

72.0026 124.886 translate
0 rotate
0 0 m /zero glyphshow
6.3623 0 m /period glyphshow
9.54102 0 m /two glyphshow
grestore
gsave
/o {
gsave
newpath
translate
0.8 setlinewidth
1 setlinejoin

0 setlinecap

0 0 m
0 -3.5 l

gsave
0.000 setgray
fill
grestore
stroke
grestore
} bind def
141.623 139.48 o
grestore
/DejaVuSans 10.000 selectfont
gsave

133.67 124.886 translate
0 rotate
0 0 m /zero glyphshow
6.3623 0 m /period glyphshow
9.54102 0 m /four glyphshow
grestore
gsave
/o {
gsave
newpath
translate
0.8 setlinewidth
1 setlinejoin

0 setlinecap

-0 0 m
-3.5 0 l

gsave
0.000 setgray
fill
grestore
stroke
grestore
} bind def
30.49 139.48 o
grestore
/DejaVuSans 10.000 selectfont
gsave

17.1306 135.683 translate
0 rotate
0 0 m /zero glyphshow
grestore
gsave
/o {
gsave
newpath
translate
0.8 setlinewidth
1 setlinejoin

0 setlinecap

-0 0 m
-3.5 0 l

gsave
0.000 setgray
fill
grestore
stroke
grestore
} bind def
30.49 145.726 o
grestore
/DejaVuSans 10.000 selectfont
gsave

17.1306 141.929 translate
0 rotate
0 0 m /five glyphshow
grestore
0 setlinejoin
2 setlinecap
gsave
30.49 139.48 m
30.49 151.32 l
stroke
grestore
gsave
146.28 139.48 m
146.28 151.32 l
stroke
grestore
gsave
30.49 139.48 m
146.28 139.48 l
stroke
grestore
gsave
30.49 151.32 m
146.28 151.32 l
stroke
grestore
/DejaVuSans 12.000 selectfont
gsave

63.2756 157.32 translate
0 rotate
0 0 m /W glyphshow
11.6152 0 m /i glyphshow
14.9492 0 m /l glyphshow
18.2832 0 m /l glyphshow
21.6172 0 m /i glyphshow
24.9512 0 m /a glyphshow
32.3047 0 m /m glyphshow
43.9941 0 m /s glyphshow
grestore
gsave
178.39 139.48 m
294.18 139.48 l
294.18 151.32 l
178.39 151.32 l
cl
1.000 setgray
fill
grestore
1 setlinejoin
0 setlinecap
gsave
/o {
gsave
newpath
translate
0.8 setlinewidth
1 setlinejoin

0 setlinecap

0 0 m
0 -3.5 l

gsave
0.000 setgray
fill
grestore
stroke
grestore
} bind def
178.39 139.48 o
grestore
/DejaVuSans 10.000 selectfont
gsave

170.437 124.886 translate
0 rotate
0 0 m /zero glyphshow
6.3623 0 m /period glyphshow
9.54102 0 m /zero glyphshow
grestore
gsave
/o {
gsave
newpath
translate
0.8 setlinewidth
1 setlinejoin

0 setlinecap

0 0 m
0 -3.5 l

gsave
0.000 setgray
fill
grestore
stroke
grestore
} bind def
236.285 139.48 o
grestore
/DejaVuSans 10.000 selectfont
gsave

228.332 124.886 translate
0 rotate
0 0 m /zero glyphshow
6.3623 0 m /period glyphshow
9.54102 0 m /five glyphshow
grestore
gsave
/o {
gsave
newpath
translate
0.8 setlinewidth
1 setlinejoin

0 setlinecap

0 0 m
0 -3.5 l

gsave
0.000 setgray
fill
grestore
stroke
grestore
} bind def
294.18 139.48 o
grestore
/DejaVuSans 10.000 selectfont
gsave

286.227 124.886 translate
0 rotate
0 0 m /one glyphshow
6.3623 0 m /period glyphshow
9.54102 0 m /zero glyphshow
grestore
gsave
/o {
gsave
newpath
translate
0.8 setlinewidth
1 setlinejoin

0 setlinecap

-0 0 m
-3.5 0 l

gsave
0.000 setgray
fill
grestore
stroke
grestore
} bind def
178.39 139.48 o
grestore
/DejaVuSans 10.000 selectfont
gsave

165.031 135.683 translate
0 rotate
0 0 m /zero glyphshow
grestore
gsave
/o {
gsave
newpath
translate
0.8 setlinewidth
1 setlinejoin

0 setlinecap

-0 0 m
-3.5 0 l

gsave
0.000 setgray
fill
grestore
stroke
grestore
} bind def
178.39 151.32 o
grestore
/DejaVuSans 10.000 selectfont
gsave

165.031 147.523 translate
0 rotate
0 0 m /one glyphshow
grestore
0 setlinejoin
2 setlinecap
gsave
178.39 139.48 m
178.39 151.32 l
stroke
grestore
gsave
294.18 139.48 m
294.18 151.32 l
stroke
grestore
gsave
178.39 139.48 m
294.18 139.48 l
stroke
grestore
gsave
178.39 151.32 m
294.18 151.32 l
stroke
grestore
gsave
326.29 139.48 m
442.08 139.48 l
442.08 151.32 l
326.29 151.32 l
cl
1.000 setgray
fill
grestore
1 setlinejoin
0 setlinecap
gsave
/o {
gsave
newpath
translate
0.8 setlinewidth
1 setlinejoin

0 setlinecap

0 0 m
0 -3.5 l

gsave
0.000 setgray
fill
grestore
stroke
grestore
} bind def
326.29 139.48 o
grestore
/DejaVuSans 10.000 selectfont
gsave

318.337 124.886 translate
0 rotate
0 0 m /zero glyphshow
6.3623 0 m /period glyphshow
9.54102 0 m /zero glyphshow
grestore
gsave
/o {
gsave
newpath
translate
0.8 setlinewidth
1 setlinejoin

0 setlinecap

0 0 m
0 -3.5 l

gsave
0.000 setgray
fill
grestore
stroke
grestore
} bind def
384.185 139.48 o
grestore
/DejaVuSans 10.000 selectfont
gsave

376.232 124.886 translate
0 rotate
0 0 m /zero glyphshow
6.3623 0 m /period glyphshow
9.54102 0 m /five glyphshow
grestore
gsave
/o {
gsave
newpath
translate
0.8 setlinewidth
1 setlinejoin

0 setlinecap

0 0 m
0 -3.5 l

gsave
0.000 setgray
fill
grestore
stroke
grestore
} bind def
442.08 139.48 o
grestore
/DejaVuSans 10.000 selectfont
gsave

434.127 124.886 translate
0 rotate
0 0 m /one glyphshow
6.3623 0 m /period glyphshow
9.54102 0 m /zero glyphshow
grestore
gsave
/o {
gsave
newpath
translate
0.8 setlinewidth
1 setlinejoin

0 setlinecap

-0 0 m
-3.5 0 l

gsave
0.000 setgray
fill
grestore
stroke
grestore
} bind def
326.29 139.48 o
grestore
/DejaVuSans 10.000 selectfont
gsave

312.931 135.683 translate
0 rotate
0 0 m /zero glyphshow
grestore
gsave
/o {
gsave
newpath
translate
0.8 setlinewidth
1 setlinejoin

0 setlinecap

-0 0 m
-3.5 0 l

gsave
0.000 setgray
fill
grestore
stroke
grestore
} bind def
326.29 151.32 o
grestore
/DejaVuSans 10.000 selectfont
gsave

312.931 147.523 translate
0 rotate
0 0 m /one glyphshow
grestore
0 setlinejoin
2 setlinecap
gsave
326.29 139.48 m
326.29 151.32 l
stroke
grestore
gsave
442.08 139.48 m
442.08 151.32 l
stroke
grestore
gsave
326.29 139.48 m
442.08 139.48 l
stroke
grestore
gsave
326.29 151.32 m
442.08 151.32 l
stroke
grestore
gsave
30.49 83.68 m
146.28 83.68 l
146.28 95.52 l
30.49 95.52 l
cl
1.000 setgray
fill
grestore
gsave
115.79 11.84 30.49 83.68 clipbox
35.753182 83.68 m
39.26197 83.68 l
39.26197 83.688439 l
35.753182 83.688439 l
cl
0.122 0.467 0.706 setrgbcolor
fill
grestore
gsave
115.79 11.84 30.49 83.68 clipbox
39.26197 83.68 m
42.770757 83.68 l
42.770757 83.736258 l
39.26197 83.736258 l
cl
0.122 0.467 0.706 setrgbcolor
fill
grestore
gsave
115.79 11.84 30.49 83.68 clipbox
42.770757 83.68 m
46.279545 83.68 l
46.279545 83.886748 l
42.770757 83.886748 l
cl
0.122 0.467 0.706 setrgbcolor
fill
grestore
gsave
115.79 11.84 30.49 83.68 clipbox
46.279545 83.68 m
49.788333 83.68 l
49.788333 84.220075 l
46.279545 84.220075 l
cl
0.122 0.467 0.706 setrgbcolor
fill
grestore
gsave
115.79 11.84 30.49 83.68 clipbox
49.788333 83.68 m
53.297123 83.68 l
53.297123 84.88673 l
49.788333 84.88673 l
cl
0.122 0.467 0.706 setrgbcolor
fill
grestore
gsave
115.79 11.84 30.49 83.68 clipbox
53.297123 83.68 m
56.805908 83.68 l
56.805908 86.085728 l
53.297123 86.085728 l
cl
0.122 0.467 0.706 setrgbcolor
fill
grestore
gsave
115.79 11.84 30.49 83.68 clipbox
56.805908 83.68 m
60.314698 83.68 l
60.314698 87.735485 l
56.805908 87.735485 l
cl
0.122 0.467 0.706 setrgbcolor
fill
grestore
gsave
115.79 11.84 30.49 83.68 clipbox
60.314698 83.68 m
63.823484 83.68 l
63.823484 89.421821 l
60.314698 89.421821 l
cl
0.122 0.467 0.706 setrgbcolor
fill
grestore
gsave
115.79 11.84 30.49 83.68 clipbox
63.823484 83.68 m
67.332274 83.68 l
67.332274 91.287463 l
63.823484 91.287463 l
cl
0.122 0.467 0.706 setrgbcolor
fill
grestore
gsave
115.79 11.84 30.49 83.68 clipbox
67.332274 83.68 m
70.841059 83.68 l
70.841059 93.075771 l
67.332274 93.075771 l
cl
0.122 0.467 0.706 setrgbcolor
fill
grestore
gsave
115.79 11.84 30.49 83.68 clipbox
70.841059 83.68 m
74.349849 83.68 l
74.349849 94.473062 l
70.841059 94.473062 l
cl
0.122 0.467 0.706 setrgbcolor
fill
grestore
gsave
115.79 11.84 30.49 83.68 clipbox
74.349849 83.68 m
77.858635 83.68 l
77.858635 94.95619 l
74.349849 94.95619 l
cl
0.122 0.467 0.706 setrgbcolor
fill
grestore
gsave
115.79 11.84 30.49 83.68 clipbox
77.858635 83.68 m
81.367425 83.68 l
81.367425 94.382346 l
77.858635 94.382346 l
cl
0.122 0.467 0.706 setrgbcolor
fill
grestore
gsave
115.79 11.84 30.49 83.68 clipbox
81.367425 83.68 m
84.87621 83.68 l
84.87621 93.563105 l
81.367425 93.563105 l
cl
0.122 0.467 0.706 setrgbcolor
fill
grestore
gsave
115.79 11.84 30.49 83.68 clipbox
84.87621 83.68 m
88.385 83.68 l
88.385 92.241736 l
84.87621 92.241736 l
cl
0.122 0.467 0.706 setrgbcolor
fill
grestore
gsave
115.79 11.84 30.49 83.68 clipbox
88.385 83.68 m
91.893785 83.68 l
91.893785 90.7917 l
88.385 90.7917 l
cl
0.122 0.467 0.706 setrgbcolor
fill
grestore
gsave
115.79 11.84 30.49 83.68 clipbox
91.893785 83.68 m
95.40258 83.68 l
95.40258 89.004795 l
91.893785 89.004795 l
cl
0.122 0.467 0.706 setrgbcolor
fill
grestore
gsave
115.79 11.84 30.49 83.68 clipbox
95.40258 83.68 m
98.911365 83.68 l
98.911365 87.46264 l
95.40258 87.46264 l
cl
0.122 0.467 0.706 setrgbcolor
fill
grestore
gsave
115.79 11.84 30.49 83.68 clipbox
98.911365 83.68 m
102.420151 83.68 l
102.420151 86.369127 l
98.911365 86.369127 l
cl
0.122 0.467 0.706 setrgbcolor
fill
grestore
gsave
115.79 11.84 30.49 83.68 clipbox
102.420151 83.68 m
105.928936 83.68 l
105.928936 85.421885 l
102.420151 85.421885 l
cl
0.122 0.467 0.706 setrgbcolor
fill
grestore
gsave
115.79 11.84 30.49 83.68 clipbox
105.928936 83.68 m
109.437731 83.68 l
109.437731 84.788981 l
105.928936 84.788981 l
cl
0.122 0.467 0.706 setrgbcolor
fill
grestore
gsave
115.79 11.84 30.49 83.68 clipbox
109.437731 83.68 m
112.946516 83.68 l
112.946516 84.248205 l
109.437731 84.248205 l
cl
0.122 0.467 0.706 setrgbcolor
fill
grestore
gsave
115.79 11.84 30.49 83.68 clipbox
112.946516 83.68 m
116.455302 83.68 l
116.455302 84.004186 l
112.946516 84.004186 l
cl
0.122 0.467 0.706 setrgbcolor
fill
grestore
gsave
115.79 11.84 30.49 83.68 clipbox
116.455302 83.68 m
119.964087 83.68 l
119.964087 83.900812 l
116.455302 83.900812 l
cl
0.122 0.467 0.706 setrgbcolor
fill
grestore
gsave
115.79 11.84 30.49 83.68 clipbox
119.964087 83.68 m
123.472882 83.68 l
123.472882 83.756651 l
119.964087 83.756651 l
cl
0.122 0.467 0.706 setrgbcolor
fill
grestore
gsave
115.79 11.84 30.49 83.68 clipbox
123.472882 83.68 m
126.981667 83.68 l
126.981667 83.728522 l
123.472882 83.728522 l
cl
0.122 0.467 0.706 setrgbcolor
fill
grestore
gsave
115.79 11.84 30.49 83.68 clipbox
126.981667 83.68 m
130.490453 83.68 l
130.490453 83.706019 l
126.981667 83.706019 l
cl
0.122 0.467 0.706 setrgbcolor
fill
grestore
gsave
115.79 11.84 30.49 83.68 clipbox
130.490453 83.68 m
133.999238 83.68 l
133.999238 83.689142 l
130.490453 83.689142 l
cl
0.122 0.467 0.706 setrgbcolor
fill
grestore
gsave
115.79 11.84 30.49 83.68 clipbox
133.999238 83.68 m
137.508033 83.68 l
137.508033 83.689142 l
133.999238 83.689142 l
cl
0.122 0.467 0.706 setrgbcolor
fill
grestore
gsave
115.79 11.84 30.49 83.68 clipbox
137.508033 83.68 m
141.016818 83.68 l
141.016818 83.680703 l
137.508033 83.680703 l
cl
0.122 0.467 0.706 setrgbcolor
fill
grestore
1 setlinejoin
0 setlinecap
gsave
/o {
gsave
newpath
translate
0.8 setlinewidth
1 setlinejoin

0 setlinecap

0 0 m
0 -3.5 l

gsave
0.000 setgray
fill
grestore
stroke
grestore
} bind def
72.0936 83.68 o
grestore
/DejaVuSans 10.000 selectfont
gsave

64.1405 69.0863 translate
0 rotate
0 0 m /zero glyphshow
6.3623 0 m /period glyphshow
9.54102 0 m /two glyphshow
grestore
gsave
/o {
gsave
newpath
translate
0.8 setlinewidth
1 setlinejoin

0 setlinecap

0 0 m
0 -3.5 l

gsave
0.000 setgray
fill
grestore
stroke
grestore
} bind def
132.751 83.68 o
grestore
/DejaVuSans 10.000 selectfont
gsave

124.798 69.0863 translate
0 rotate
0 0 m /zero glyphshow
6.3623 0 m /period glyphshow
9.54102 0 m /four glyphshow
grestore
gsave
/o {
gsave
newpath
translate
0.8 setlinewidth
1 setlinejoin

0 setlinecap

-0 0 m
-3.5 0 l

gsave
0.000 setgray
fill
grestore
stroke
grestore
} bind def
30.49 83.68 o
grestore
/DejaVuSans 10.000 selectfont
gsave

17.1306 79.8831 translate
0 rotate
0 0 m /zero glyphshow
grestore
gsave
/o {
gsave
newpath
translate
0.8 setlinewidth
1 setlinejoin

0 setlinecap

-0 0 m
-3.5 0 l

gsave
0.000 setgray
fill
grestore
stroke
grestore
} bind def
30.49 89.7818 o
grestore
/DejaVuSans 10.000 selectfont
gsave

17.1306 85.9849 translate
0 rotate
0 0 m /five glyphshow
grestore
0 setlinejoin
2 setlinecap
gsave
30.49 83.68 m
30.49 95.52 l
stroke
grestore
gsave
146.28 83.68 m
146.28 95.52 l
stroke
grestore
gsave
30.49 83.68 m
146.28 83.68 l
stroke
grestore
gsave
30.49 95.52 m
146.28 95.52 l
stroke
grestore
/DejaVuSans 12.000 selectfont
gsave

70.9006 101.52 translate
0 rotate
0 0 m /U glyphshow
8.7832 0 m /n glyphshow
16.3887 0 m /s glyphshow
22.6406 0 m /e glyphshow
30.0234 0 m /r glyphshow
grestore
gsave
178.39 83.68 m
294.18 83.68 l
294.18 95.52 l
178.39 95.52 l
cl
1.000 setgray
fill
grestore
1 setlinejoin
0 setlinecap
gsave
/o {
gsave
newpath
translate
0.8 setlinewidth
1 setlinejoin

0 setlinecap

0 0 m
0 -3.5 l

gsave
0.000 setgray
fill
grestore
stroke
grestore
} bind def
178.39 83.68 o
grestore
/DejaVuSans 10.000 selectfont
gsave

170.437 69.0863 translate
0 rotate
0 0 m /zero glyphshow
6.3623 0 m /period glyphshow
9.54102 0 m /zero glyphshow
grestore
gsave
/o {
gsave
newpath
translate
0.8 setlinewidth
1 setlinejoin

0 setlinecap

0 0 m
0 -3.5 l

gsave
0.000 setgray
fill
grestore
stroke
grestore
} bind def
236.285 83.68 o
grestore
/DejaVuSans 10.000 selectfont
gsave

228.332 69.0863 translate
0 rotate
0 0 m /zero glyphshow
6.3623 0 m /period glyphshow
9.54102 0 m /five glyphshow
grestore
gsave
/o {
gsave
newpath
translate
0.8 setlinewidth
1 setlinejoin

0 setlinecap

0 0 m
0 -3.5 l

gsave
0.000 setgray
fill
grestore
stroke
grestore
} bind def
294.18 83.68 o
grestore
/DejaVuSans 10.000 selectfont
gsave

286.227 69.0863 translate
0 rotate
0 0 m /one glyphshow
6.3623 0 m /period glyphshow
9.54102 0 m /zero glyphshow
grestore
gsave
/o {
gsave
newpath
translate
0.8 setlinewidth
1 setlinejoin

0 setlinecap

-0 0 m
-3.5 0 l

gsave
0.000 setgray
fill
grestore
stroke
grestore
} bind def
178.39 83.68 o
grestore
/DejaVuSans 10.000 selectfont
gsave

165.031 79.8831 translate
0 rotate
0 0 m /zero glyphshow
grestore
gsave
/o {
gsave
newpath
translate
0.8 setlinewidth
1 setlinejoin

0 setlinecap

-0 0 m
-3.5 0 l

gsave
0.000 setgray
fill
grestore
stroke
grestore
} bind def
178.39 95.52 o
grestore
/DejaVuSans 10.000 selectfont
gsave

165.031 91.7231 translate
0 rotate
0 0 m /one glyphshow
grestore
0 setlinejoin
2 setlinecap
gsave
178.39 83.68 m
178.39 95.52 l
stroke
grestore
gsave
294.18 83.68 m
294.18 95.52 l
stroke
grestore
gsave
178.39 83.68 m
294.18 83.68 l
stroke
grestore
gsave
178.39 95.52 m
294.18 95.52 l
stroke
grestore
gsave
326.29 83.68 m
442.08 83.68 l
442.08 95.52 l
326.29 95.52 l
cl
1.000 setgray
fill
grestore
1 setlinejoin
0 setlinecap
gsave
/o {
gsave
newpath
translate
0.8 setlinewidth
1 setlinejoin

0 setlinecap

0 0 m
0 -3.5 l

gsave
0.000 setgray
fill
grestore
stroke
grestore
} bind def
326.29 83.68 o
grestore
/DejaVuSans 10.000 selectfont
gsave

318.337 69.0863 translate
0 rotate
0 0 m /zero glyphshow
6.3623 0 m /period glyphshow
9.54102 0 m /zero glyphshow
grestore
gsave
/o {
gsave
newpath
translate
0.8 setlinewidth
1 setlinejoin

0 setlinecap

0 0 m
0 -3.5 l

gsave
0.000 setgray
fill
grestore
stroke
grestore
} bind def
384.185 83.68 o
grestore
/DejaVuSans 10.000 selectfont
gsave

376.232 69.0863 translate
0 rotate
0 0 m /zero glyphshow
6.3623 0 m /period glyphshow
9.54102 0 m /five glyphshow
grestore
gsave
/o {
gsave
newpath
translate
0.8 setlinewidth
1 setlinejoin

0 setlinecap

0 0 m
0 -3.5 l

gsave
0.000 setgray
fill
grestore
stroke
grestore
} bind def
442.08 83.68 o
grestore
/DejaVuSans 10.000 selectfont
gsave

434.127 69.0863 translate
0 rotate
0 0 m /one glyphshow
6.3623 0 m /period glyphshow
9.54102 0 m /zero glyphshow
grestore
gsave
/o {
gsave
newpath
translate
0.8 setlinewidth
1 setlinejoin

0 setlinecap

-0 0 m
-3.5 0 l

gsave
0.000 setgray
fill
grestore
stroke
grestore
} bind def
326.29 83.68 o
grestore
/DejaVuSans 10.000 selectfont
gsave

312.931 79.8831 translate
0 rotate
0 0 m /zero glyphshow
grestore
gsave
/o {
gsave
newpath
translate
0.8 setlinewidth
1 setlinejoin

0 setlinecap

-0 0 m
-3.5 0 l

gsave
0.000 setgray
fill
grestore
stroke
grestore
} bind def
326.29 95.52 o
grestore
/DejaVuSans 10.000 selectfont
gsave

312.931 91.7231 translate
0 rotate
0 0 m /one glyphshow
grestore
0 setlinejoin
2 setlinecap
gsave
326.29 83.68 m
326.29 95.52 l
stroke
grestore
gsave
442.08 83.68 m
442.08 95.52 l
stroke
grestore
gsave
326.29 83.68 m
442.08 83.68 l
stroke
grestore
gsave
326.29 95.52 m
442.08 95.52 l
stroke
grestore
gsave
30.49 27.88 m
146.28 27.88 l
146.28 39.72 l
30.49 39.72 l
cl
1.000 setgray
fill
grestore
gsave
115.79 11.84 30.49 27.88 clipbox
35.753182 27.88 m
39.261969 27.88 l
39.261969 27.888894 l
35.753182 27.888894 l
cl
0.122 0.467 0.706 setrgbcolor
fill
grestore
gsave
115.79 11.84 30.49 27.88 clipbox
39.261969 27.88 m
42.770757 27.88 l
42.770757 27.907423 l
39.261969 27.907423 l
cl
0.122 0.467 0.706 setrgbcolor
fill
grestore
gsave
115.79 11.84 30.49 27.88 clipbox
42.770757 27.88 m
46.279547 27.88 l
46.279547 28.005999 l
42.770757 28.005999 l
cl
0.122 0.467 0.706 setrgbcolor
fill
grestore
gsave
115.79 11.84 30.49 27.88 clipbox
46.279547 27.88 m
49.788334 27.88 l
49.788334 28.272822 l
46.279547 28.272822 l
cl
0.122 0.467 0.706 setrgbcolor
fill
grestore
gsave
115.79 11.84 30.49 27.88 clipbox
49.788334 27.88 m
53.297122 27.88 l
53.297122 28.65749 l
49.788334 28.65749 l
cl
0.122 0.467 0.706 setrgbcolor
fill
grestore
gsave
115.79 11.84 30.49 27.88 clipbox
53.297122 27.88 m
56.805909 27.88 l
56.805909 29.591368 l
53.297122 29.591368 l
cl
0.122 0.467 0.706 setrgbcolor
fill
grestore
gsave
115.79 11.84 30.49 27.88 clipbox
56.805909 27.88 m
60.314697 27.88 l
60.314697 30.877303 l
56.805909 30.877303 l
cl
0.122 0.467 0.706 setrgbcolor
fill
grestore
gsave
115.79 11.84 30.49 27.88 clipbox
60.314697 27.88 m
63.823484 27.88 l
63.823484 32.664271 l
60.314697 32.664271 l
cl
0.122 0.467 0.706 setrgbcolor
fill
grestore
gsave
115.79 11.84 30.49 27.88 clipbox
63.823484 27.88 m
67.332272 27.88 l
67.332272 34.579462 l
63.823484 34.579462 l
cl
0.122 0.467 0.706 setrgbcolor
fill
grestore
gsave
115.79 11.84 30.49 27.88 clipbox
67.332272 27.88 m
70.841059 27.88 l
70.841059 36.478348 l
67.332272 36.478348 l
cl
0.122 0.467 0.706 setrgbcolor
fill
grestore
gsave
115.79 11.84 30.49 27.88 clipbox
70.841059 27.88 m
74.349847 27.88 l
74.349847 38.17341 l
70.841059 38.17341 l
cl
0.122 0.467 0.706 setrgbcolor
fill
grestore
gsave
115.79 11.84 30.49 27.88 clipbox
74.349847 27.88 m
77.858634 27.88 l
77.858634 38.531397 l
74.349847 38.531397 l
cl
0.122 0.467 0.706 setrgbcolor
fill
grestore
gsave
115.79 11.84 30.49 27.88 clipbox
77.858634 27.88 m
81.367426 27.88 l
81.367426 39.15619 l
77.858634 39.15619 l
cl
0.122 0.467 0.706 setrgbcolor
fill
grestore
gsave
115.79 11.84 30.49 27.88 clipbox
81.367426 27.88 m
84.876214 27.88 l
84.876214 38.560302 l
81.367426 38.560302 l
cl
0.122 0.467 0.706 setrgbcolor
fill
grestore
gsave
115.79 11.84 30.49 27.88 clipbox
84.876214 27.88 m
88.385001 27.88 l
88.385001 37.842847 l
84.876214 37.842847 l
cl
0.122 0.467 0.706 setrgbcolor
fill
grestore
gsave
115.79 11.84 30.49 27.88 clipbox
88.385001 27.88 m
91.893784 27.88 l
91.893784 36.355324 l
88.385001 36.355324 l
cl
0.122 0.467 0.706 setrgbcolor
fill
grestore
gsave
115.79 11.84 30.49 27.88 clipbox
91.893784 27.88 m
95.402576 27.88 l
95.402576 34.638006 l
91.893784 34.638006 l
cl
0.122 0.467 0.706 setrgbcolor
fill
grestore
gsave
115.79 11.84 30.49 27.88 clipbox
95.402576 27.88 m
98.911368 27.88 l
98.911368 33.292038 l
95.402576 33.292038 l
cl
0.122 0.467 0.706 setrgbcolor
fill
grestore
gsave
115.79 11.84 30.49 27.88 clipbox
98.911368 27.88 m
102.420151 27.88 l
102.420151 31.763751 l
98.911368 31.763751 l
cl
0.122 0.467 0.706 setrgbcolor
fill
grestore
gsave
115.79 11.84 30.49 27.88 clipbox
102.420151 27.88 m
105.928943 27.88 l
105.928943 30.63716 l
102.420151 30.63716 l
cl
0.122 0.467 0.706 setrgbcolor
fill
grestore
gsave
115.79 11.84 30.49 27.88 clipbox
105.928943 27.88 m
109.437726 27.88 l
109.437726 29.694394 l
105.928943 29.694394 l
cl
0.122 0.467 0.706 setrgbcolor
fill
grestore
gsave
115.79 11.84 30.49 27.88 clipbox
109.437726 27.88 m
112.946518 27.88 l
112.946518 29.097004 l
109.437726 29.097004 l
cl
0.122 0.467 0.706 setrgbcolor
fill
grestore
gsave
115.79 11.84 30.49 27.88 clipbox
112.946518 27.88 m
116.455301 27.88 l
116.455301 28.665644 l
112.946518 28.665644 l
cl
0.122 0.467 0.706 setrgbcolor
fill
grestore
gsave
115.79 11.84 30.49 27.88 clipbox
116.455301 27.88 m
119.964093 27.88 l
119.964093 28.35435 l
116.455301 28.35435 l
cl
0.122 0.467 0.706 setrgbcolor
fill
grestore
gsave
115.79 11.84 30.49 27.88 clipbox
119.964093 27.88 m
123.472876 27.88 l
123.472876 28.131999 l
119.964093 28.131999 l
cl
0.122 0.467 0.706 setrgbcolor
fill
grestore
gsave
115.79 11.84 30.49 27.88 clipbox
123.472876 27.88 m
126.981668 27.88 l
126.981668 28.03787 l
123.472876 28.03787 l
cl
0.122 0.467 0.706 setrgbcolor
fill
grestore
gsave
115.79 11.84 30.49 27.88 clipbox
126.981668 27.88 m
130.490451 27.88 l
130.490451 27.985247 l
126.981668 27.985247 l
cl
0.122 0.467 0.706 setrgbcolor
fill
grestore
gsave
115.79 11.84 30.49 27.88 clipbox
130.490451 27.88 m
133.999243 27.88 l
133.999243 27.951153 l
130.490451 27.951153 l
cl
0.122 0.467 0.706 setrgbcolor
fill
grestore
gsave
115.79 11.84 30.49 27.88 clipbox
133.999243 27.88 m
137.508026 27.88 l
137.508026 27.902976 l
133.999243 27.902976 l
cl
0.122 0.467 0.706 setrgbcolor
fill
grestore
gsave
115.79 11.84 30.49 27.88 clipbox
137.508026 27.88 m
141.016818 27.88 l
141.016818 27.881482 l
137.508026 27.881482 l
cl
0.122 0.467 0.706 setrgbcolor
fill
grestore
1 setlinejoin
0 setlinecap
gsave
/o {
gsave
newpath
translate
0.8 setlinewidth
1 setlinejoin

0 setlinecap

0 0 m
0 -3.5 l

gsave
0.000 setgray
fill
grestore
stroke
grestore
} bind def
74.5949 27.88 o
grestore
/DejaVuSans 10.000 selectfont
gsave

66.6418 13.2863 translate
0 rotate
0 0 m /zero glyphshow
6.3623 0 m /period glyphshow
9.54102 0 m /two glyphshow
grestore
gsave
/o {
gsave
newpath
translate
0.8 setlinewidth
1 setlinejoin

0 setlinecap

0 0 m
0 -3.5 l

gsave
0.000 setgray
fill
grestore
stroke
grestore
} bind def
136.956 27.88 o
grestore
/DejaVuSans 10.000 selectfont
gsave

129.003 13.2863 translate
0 rotate
0 0 m /zero glyphshow
6.3623 0 m /period glyphshow
9.54102 0 m /four glyphshow
grestore
gsave
/o {
gsave
newpath
translate
0.8 setlinewidth
1 setlinejoin

0 setlinecap

-0 0 m
-3.5 0 l

gsave
0.000 setgray
fill
grestore
stroke
grestore
} bind def
30.49 27.88 o
grestore
/DejaVuSans 10.000 selectfont
gsave

17.1306 24.0831 translate
0 rotate
0 0 m /zero glyphshow
grestore
gsave
/o {
gsave
newpath
translate
0.8 setlinewidth
1 setlinejoin

0 setlinecap

-0 0 m
-3.5 0 l

gsave
0.000 setgray
fill
grestore
stroke
grestore
} bind def
30.49 34.1354 o
grestore
/DejaVuSans 10.000 selectfont
gsave

17.1306 30.3385 translate
0 rotate
0 0 m /five glyphshow
grestore
0 setlinejoin
2 setlinecap
gsave
30.49 27.88 m
30.49 39.72 l
stroke
grestore
gsave
146.28 27.88 m
146.28 39.72 l
stroke
grestore
gsave
30.49 27.88 m
146.28 27.88 l
stroke
grestore
gsave
30.49 39.72 m
146.28 39.72 l
stroke
grestore
/DejaVuSans 12.000 selectfont
gsave

72.9006 45.72 translate
0 rotate
0 0 m /S glyphshow
7.61719 0 m /c glyphshow
14.2148 0 m /o glyphshow
21.5566 0 m /t glyphshow
26.2617 0 m /t glyphshow
grestore
gsave
178.39 27.88 m
294.18 27.88 l
294.18 39.72 l
178.39 39.72 l
cl
1.000 setgray
fill
grestore
1 setlinejoin
0 setlinecap
gsave
/o {
gsave
newpath
translate
0.8 setlinewidth
1 setlinejoin

0 setlinecap

0 0 m
0 -3.5 l

gsave
0.000 setgray
fill
grestore
stroke
grestore
} bind def
178.39 27.88 o
grestore
/DejaVuSans 10.000 selectfont
gsave

170.437 13.2863 translate
0 rotate
0 0 m /zero glyphshow
6.3623 0 m /period glyphshow
9.54102 0 m /zero glyphshow
grestore
gsave
/o {
gsave
newpath
translate
0.8 setlinewidth
1 setlinejoin

0 setlinecap

0 0 m
0 -3.5 l

gsave
0.000 setgray
fill
grestore
stroke
grestore
} bind def
236.285 27.88 o
grestore
/DejaVuSans 10.000 selectfont
gsave

228.332 13.2863 translate
0 rotate
0 0 m /zero glyphshow
6.3623 0 m /period glyphshow
9.54102 0 m /five glyphshow
grestore
gsave
/o {
gsave
newpath
translate
0.8 setlinewidth
1 setlinejoin

0 setlinecap

0 0 m
0 -3.5 l

gsave
0.000 setgray
fill
grestore
stroke
grestore
} bind def
294.18 27.88 o
grestore
/DejaVuSans 10.000 selectfont
gsave

286.227 13.2863 translate
0 rotate
0 0 m /one glyphshow
6.3623 0 m /period glyphshow
9.54102 0 m /zero glyphshow
grestore
gsave
/o {
gsave
newpath
translate
0.8 setlinewidth
1 setlinejoin

0 setlinecap

-0 0 m
-3.5 0 l

gsave
0.000 setgray
fill
grestore
stroke
grestore
} bind def
178.39 27.88 o
grestore
/DejaVuSans 10.000 selectfont
gsave

165.031 24.0831 translate
0 rotate
0 0 m /zero glyphshow
grestore
gsave
/o {
gsave
newpath
translate
0.8 setlinewidth
1 setlinejoin

0 setlinecap

-0 0 m
-3.5 0 l

gsave
0.000 setgray
fill
grestore
stroke
grestore
} bind def
178.39 39.72 o
grestore
/DejaVuSans 10.000 selectfont
gsave

165.031 35.9231 translate
0 rotate
0 0 m /one glyphshow
grestore
0 setlinejoin
2 setlinecap
gsave
178.39 27.88 m
178.39 39.72 l
stroke
grestore
gsave
294.18 27.88 m
294.18 39.72 l
stroke
grestore
gsave
178.39 27.88 m
294.18 27.88 l
stroke
grestore
gsave
178.39 39.72 m
294.18 39.72 l
stroke
grestore
gsave
326.29 27.88 m
442.08 27.88 l
442.08 39.72 l
326.29 39.72 l
cl
1.000 setgray
fill
grestore
1 setlinejoin
0 setlinecap
gsave
/o {
gsave
newpath
translate
0.8 setlinewidth
1 setlinejoin

0 setlinecap

0 0 m
0 -3.5 l

gsave
0.000 setgray
fill
grestore
stroke
grestore
} bind def
326.29 27.88 o
grestore
/DejaVuSans 10.000 selectfont
gsave

318.337 13.2863 translate
0 rotate
0 0 m /zero glyphshow
6.3623 0 m /period glyphshow
9.54102 0 m /zero glyphshow
grestore
gsave
/o {
gsave
newpath
translate
0.8 setlinewidth
1 setlinejoin

0 setlinecap

0 0 m
0 -3.5 l

gsave
0.000 setgray
fill
grestore
stroke
grestore
} bind def
384.185 27.88 o
grestore
/DejaVuSans 10.000 selectfont
gsave

376.232 13.2863 translate
0 rotate
0 0 m /zero glyphshow
6.3623 0 m /period glyphshow
9.54102 0 m /five glyphshow
grestore
gsave
/o {
gsave
newpath
translate
0.8 setlinewidth
1 setlinejoin

0 setlinecap

0 0 m
0 -3.5 l

gsave
0.000 setgray
fill
grestore
stroke
grestore
} bind def
442.08 27.88 o
grestore
/DejaVuSans 10.000 selectfont
gsave

434.127 13.2863 translate
0 rotate
0 0 m /one glyphshow
6.3623 0 m /period glyphshow
9.54102 0 m /zero glyphshow
grestore
gsave
/o {
gsave
newpath
translate
0.8 setlinewidth
1 setlinejoin

0 setlinecap

-0 0 m
-3.5 0 l

gsave
0.000 setgray
fill
grestore
stroke
grestore
} bind def
326.29 27.88 o
grestore
/DejaVuSans 10.000 selectfont
gsave

312.931 24.0831 translate
0 rotate
0 0 m /zero glyphshow
grestore
gsave
/o {
gsave
newpath
translate
0.8 setlinewidth
1 setlinejoin

0 setlinecap

-0 0 m
-3.5 0 l

gsave
0.000 setgray
fill
grestore
stroke
grestore
} bind def
326.29 39.72 o
grestore
/DejaVuSans 10.000 selectfont
gsave

312.931 35.9231 translate
0 rotate
0 0 m /one glyphshow
grestore
0 setlinejoin
2 setlinecap
gsave
326.29 27.88 m
326.29 39.72 l
stroke
grestore
gsave
442.08 27.88 m
442.08 39.72 l
stroke
grestore
gsave
326.29 27.88 m
442.08 27.88 l
stroke
grestore
gsave
326.29 39.72 m
442.08 39.72 l
stroke
grestore

end
showpage
