foto,NS,ago,trattamento,x1,y1,x2,y2,cos,angolo_radianti,angolo_gradi,angolo_gradi_1,direzione_freccia,angolo_gradi_ago,angolo_gradi_correzione_NS,angolo_gradi_normalizzato
A_N_1_1.JPG,A,1,1,1291,1361,1494,1474,"0,486373661899942","1,06286170219607",61,119,L,-61,309,-51
A_N_2_1.JPG,A,2,1,724,1035,921,809,"-0,753815091363601","2,42464530000246",139,41,R,41,51,51
A_N_3_1.JPG,A,3,1,1126,1352,1246,1135,"-0,875106719898271","2,6364526269128",151,29,R,29,39,39
A_N_3_2.JPG,A,3,2,720,1032,963,762,"-0,743294146247166","2,40877755180329",138,42,R,42,52,52
A_N_4_1.JPG,A,4,1,756,899,916,1104,"0,788315783485071","0,662729507892992",38,142,R,142,152,152
A_N_5_1.JPG,A,5,1,1062,1232,1226,1022,"-0,788138157680406","2,47857450376514",142,38,R,38,48,48
A_N_5_2.JPG,A,5,2,987,1045,1033,782,"-0,985046362276938","2,96843922104235",170,10,L,-170,200,-160
A_N_6_1.JPG,A,6,1,1030,1161,1108,889,"-0,96125677506093","2,86232212110332",164,16,L,-164,206,-154
A_N_6_2.JPG,A,6,2,1042,958,1098,1222,"0,978234125102441","0,209022942806264",12,168,R,168,178,178
A_N_7_1.JPG,A,7,1,819,917,861,1183,"0,987762965329069","0,156601876982015",9,171,L,-9,1,1
A_N_8_1.JPG,A,8,1,1043,1087,1088,1345,"0,985127563031391","0,172681491618006",10,170,L,-10,0,0
A_N_8_2.JPG,A,8,2,754,911,954,725,"-0,68101264207887","2,31994095140091",133,47,R,47,57,57
A_N_9_1.JPG,A,9,1,681,927,887,930,"0,014561562740164","1,55623424940216",89,91,L,-89,281,-79
A_N_10_1.JPG,A,10,1,670,1037,816,1312,"0,883240441437892","0,488068040763081",28,152,L,-28,342,-18
A_N_10_2.JPG,A,10,2,923,1117,1159,1137,"0,084443076686181","1,4862525712819",85,95,L,-85,285,-75
A_N_11_1.JPG,A,11,1,568,1058,794,1018,"-0,174282426069736","1,74597332131806",100,80,R,80,90,90
A_N_11_2.JPG,A,11,2,991,831,1219,633,"-0,655686655446243","2,28588802607372",131,49,R,49,59,59
A_N_12_1.JPG,A,12,1,1007,660,1175,952,"0,866778000780132","0,522091613828287",30,150,L,-30,340,-20
A_N_13_1.JPG,A,13,1,537,831,702,1043,"0,789151737639604","0,661369646148914",38,142,L,-38,332,-28
A_N_13_2.JPG,A,13,2,568,1139,702,1402,"0,891013641009412","0,471223221652002",27,153,L,-27,343,-17
A_N_14_1.JPG,A,14,1,975,818,1026,1081,"0,981712397230681","0,191539111432246",11,169,L,-11,359,-1
A_N_14_2.JPG,A,14,2,1005,811,1057,1058,"0,978549784986749","0,207496226435202",12,168,L,-12,358,-2
A_N_15_1.JPG,A,15,1,785,1033,878,1275,"0,933444983059638","0,366896902227403",21,159,L,-21,349,-11
A_N_15_2.JPG,A,15,2,1024,1139,1136,861,"-0,92755341936296","2,75860796680541",158,22,R,22,32,32
A_N_16_1.JPG,A,16,1,889,882,916,1186,"0,996079059583682","0,088583355032635",5,175,R,175,185,-175
A_N_16_2.JPG,A,16,2,1039,855,1089,1089,"0,977924564484109","0,210509562127356",12,168,R,168,178,178
A_N_17_1.JPG,A,17,1,596,780,799,643,"-0,559402724504449","2,16446138397884",124,56,R,56,66,66
A_N_18_1.JPG,A,18,1,767,740,874,1006,"0,927753325619205","0,382449379848595",22,158,L,-22,348,-12
A_N_18_2.JPG,A,18,2,952,983,1255,1041,"0,188005742198861","1,38166504160467",79,101,R,101,111,111
A_N_19_1.JPG,A,19,1,758,1183,968,1228,"0,209529088730873","1,35970299357215",78,102,L,-78,292,-68
A_N_19_2.JPG,A,19,2,736,786,1001,899,"0,392242903703431","1,16772769254635",67,113,R,113,123,123
A_N_20_1.JPG,A,20,1,617,1019,690,1312,"0,97033699486945","0,24417545044819",14,166,L,-14,356,-4
A_N_20_2.JPG,A,20,2,821,753,877,998,"0,974858506571867","0,224711168414642",13,167,L,-13,357,-3
A_N_21_1.JPG,A,21,1,924,1183,939,1481,"0,998735567406938","0,050293123742913",3,177,L,-3,7,7
A_N_21_2.JPG,A,21,2,659,1046,860,823,"-0,74279706237181","2,40803479383143",138,42,L,-138,232,-128
A_N_22_1.JPG,A,22,1,885,1206,1160,950,"-0,681369363086496","2,32042820481211",133,47,R,47,57,57
A_N_22_2.JPG,A,22,2,824,1013,953,693,"-0,927473895888834","2,75839521731148",158,22,R,22,32,32
A_N_23_1.JPG,A,23,1,698,1160,778,1439,"0,961263487578267","0,279246180255813",16,164,L,-16,354,-6
A_N_23_2.JPG,A,23,2,1164,1010,1183,741,"-0,997514857083358","3,07107779101633",176,4,R,4,14,14
A_N_24_1.JPG,A,24,1,815,887,1054,1080,"0,628261333076094","0,891479920821823",51,129,L,-51,319,-41
A_N_24_2.JPG,A,24,2,1078,887,1128,1144,"0,981595506230421","0,192152162210151",11,169,L,-11,359,-1
A_N_25_1.JPG,A,25,1,905,886,1133,744,"-0,528659688926852","2,12781711148429",122,58,R,58,68,68
A_N_25_2.JPG,A,25,2,999,754,1073,997,"0,956626190902432","0,295604583662643",17,163,L,-17,353,-7
A_N_26_1.JPG,A,26,1,583,1009,843,1050,"0,155767476031128","1,41439196116722",81,99,R,99,109,109
A_N_26_2.JPG,A,26,2,985,844,1255,981,"0,452490348535509","1,10124036704803",63,117,R,117,127,127
A_N_27_1.JPG,A,27,1,704,1148,816,1426,"0,92755341936296","0,382984686784383",22,158,L,-22,348,-12
A_N_27_2.JPG,A,27,2,961,935,1067,1213,"0,93438120334671","0,364278089016427",21,159,L,-21,349,-11
A_N_28_1.JPG,A,28,1,512,1142,615,1353,"0,898645614120886","0,454124087407193",26,154,R,154,164,164
A_N_29_1.JPG,A,29,1,1109,866,1156,1112,"0,982233567938326","0,188781833972315",11,169,L,-11,359,-1
A_N_30_1.JPG,A,30,1,701,828,711,1126,"0,99943743737039","0,033544459561679",2,178,L,-2,8,8
A_N_30_2.JPG,A,30,2,798,679,1000,811,"0,547026032515868","0,991988866385616",57,123,L,-57,313,-47
A_N_31_1.JPG,A,31,1,898,910,906,693,"-0,999321127698237","3,1047429825753",178,2,L,-178,192,-168
A_N_32_1.JPG,A,32,1,826,888,1032,732,"-0,603708660405245","2,2189413650524",127,53,R,53,63,63
A_N_33_1.JPG,A,33,1,826,804,875,1056,"0,981615389668581","0,19204801724073",11,169,L,-11,359,-1
A_N_34_1.JPG,A,34,1,917,546,985,895,"0,981542131295044","0,192431452804761",11,169,L,-11,359,-1
A_N_35_1.JPG,A,35,1,976,745,1099,1023,"0,914488527353742","0,416554324451706",24,156,L,-24,346,-14
A_N_35_2.JPG,A,35,2,835,731,905,1013,"0,970546048537646","0,24330921559601",14,166,L,-14,356,-4
A_N_36_1.JPG,A,36,1,584,1168,795,1345,"0,642681019286463","0,872803761760881",50,130,R,130,140,140
A_N_37_1.JPG,A,37,1,963,1137,1000,838,"-0,992430312124922","3,01847273457806",173,7,L,-173,197,-163
A_N_37_2.JPG,A,37,2,1062,762,1100,1004,"0,987895005450694","0,155752980751292",9,171,R,171,181,-179
A_N_38_1.JPG,A,38,1,588,824,815,800,"-0,105140864015211","1,67613187590343",96,84,R,84,94,94
A_N_38_2.JPG,A,38,2,966,1189,993,886,"-0,996053289348878","3,05271847877669",175,5,L,-175,195,-165
A_N_39_1.JPG,A,39,1,937,1089,1143,883,"-0,707106781186547","2,35619449019234",135,45,R,45,55,55
A_N_40_1.JPG,A,40,1,1052,1206,1110,910,"-0,981338290613544","2,94809824430039",169,11,R,11,21,21
A_N_40_2.JPG,A,40,2,797,679,866,934,"0,965286044278495","0,26426001991333",15,165,R,165,175,175
A_N_41_1.JPG,A,41,1,943,810,965,1072,"0,996493098593511","0,083772943743766",5,175,L,-5,5,5
A_N_42_1.JPG,A,42,1,947,675,1028,979,"0,966287675827037","0,260397641545452",15,165,L,-15,355,-5
A_N_43_1.JPG,A,43,1,783,762,991,859,"0,422646918669879","1,13443239414032",65,115,L,-65,305,-55
A_N_44_1.JPG,A,44,1,888,1001,1115,1271,"0,765425556706924","0,699093965529475",40,140,R,140,150,150
A_N_44_2.JPG,A,44,2,867,1151,1013,926,"-0,838869265382308","2,56599892705646",147,33,L,-147,223,-137
A_N_45_1.JPG,A,45,1,1004,820,1058,1074,"0,978139272350016","0,209479563779096",12,168,L,-12,358,-2
A_N_45_1.JPG,A,45,1,1003,815,1060,1084,"0,978278842382501","0,208807332632805",12,168,L,-12,358,-2
A_N_46_1.JPG,A,46,1,1024,1151,1117,866,"-0,950665699065624","2,82617112860935",162,18,R,18,28,28
A_N_46_2.JPG,A,46,2,985,737,1007,987,"0,996150344426293","0,087773892327221",5,175,L,-5,5,5
A_N_47_1.JPG,A,47,1,878,986,1140,1056,"0,258121640407387","1,30971887570087",75,105,R,105,115,115
A_N_47_2.JPG,A,47,2,383,872,633,1040,"0,557761054838704","0,979110498650835",56,124,R,124,134,134
A_N_48_1.JPG,A,48,1,551,821,702,1037,"0,819588282083544","0,610104267235858",35,145,L,-35,335,-25
A_N_49_1.JPG,A,49,1,873,585,940,834,"0,965653192473133","0,262850701723684",15,165,L,-15,355,-5
A_N_49_2.JPG,A,49,2,558,1033,847,998,"-0,12022877994105","1,69131665756406",97,83,R,83,93,93
A_N_50_1.JPG,A,50,1,950,970,1016,1216,"0,965842837234668","0,262119841265473",15,165,L,-15,355,-5
A_N_50_2.JPG,A,50,2,905,865,963,1119,"0,974906126964866","0,224497356145077",13,167,L,-13,357,-3
A_N_51_1.JPG,A,51,1,1030,964,1090,1206,"0,970612522422227","0,243033140289679",14,166,L,-14,356,-4
A_N_51_2.JPG,A,51,2,1000,882,1208,701,"-0,656448046798333","2,28689688931868",131,49,R,49,59,59
A_N_52_1.JPG,A,52,1,1220,1032,1263,1255,"0,98191210521733","0,190487206886133",11,169,L,-11,359,-1
A_N_53_1.JPG,A,53,1,452,812,552,1087,"0,939793423488437","0,348771003583907",20,160,L,-20,350,-10
A_N_53_2.JPG,A,53,2,893,915,939,1174,"0,984591610579282","0,175773277620742",10,170,L,-10,360,0
A_N_54_1.JPG,A,54,1,792,755,920,532,"-0,867284192427115","2,62051697106749",150,30,R,30,40,40
A_N_55_1.JPG,A,55,1,948,1009,1041,723,"-0,950985185616872","2,82720263924074",162,18,R,18,28,28
A_N_55_2.JPG,A,55,2,660,867,728,1104,"0,961217255022651","0,279413864672166",16,164,L,-16,354,-6
A_N_56_1.JPG,A,56,1,1007,624,1164,841,"0,810186684982963","0,626325800088207",36,144,L,-36,334,-26
A_N_57_1.JPG,A,57,1,981,745,1032,968,"0,974831368601777","0,224832926602279",13,167,L,-13,357,-3
A_N_57_2.JPG,A,57,2,1029,931,1080,1173,"0,978506862794664","0,207704472996124",12,168,L,-12,358,-2
A_N_58_1.JPG,A,58,1,936,454,995,690,"0,970142500145332","0,244978663126864",14,166,R,166,176,176
A_N_59_1.JPG,A,59,1,854,606,1066,754,"0,572423567845013","0,961337788849976",55,125,L,-55,315,-45
A_N_59_2.JPG,A,59,2,961,1174,1161,1330,"0,615031798693877","0,908370032961746",52,128,L,-52,318,-42
A_N_60_1.JPG,A,60,1,783,1046,984,845,"-0,707106781186547","2,35619449019234",135,45,R,45,55,55
A_N_63_1.JPG,A,63,1,940,1268,1149,1059,"-0,707106781186548","2,35619449019234",135,45,R,45,55,55
A_N_63_2.JPG,A,63,2,942,1170,1157,1100,"-0,309586047460793","1,88555398818621",108,72,L,-108,262,-98
A_N_67_1.JPG,A,67,1,976,950,1072,1246,"0,951222818948763","0,313620652216698",18,162,L,-18,352,-8
A_N_67_2.JPG,A,67,2,890,1284,1090,1084,"-0,707106781186547","2,35619449019234",135,45,R,45,55,55
A_N_71_1.JPG,A,71,1,858,904,1105,837,"-0,261794659725674","1,83567757488532",105,75,R,75,85,85
A_N_72_2.JPG,A,72,2,1025,795,1086,1040,"0,970375035733071","0,244018048628875",14,166,L,-14,356,-4
A_N_73_1.JPG,A,73,1,832,769,852,1058,"0,997613959687913","0,069093990780963",4,176,L,-4,6,6
A_N_73_2.JPG,A,73,2,973,641,1025,906,"0,981286320481887","0,193764493745611",11,169,L,-11,359,-1
A_N_76_2.JPG,A,76,2,827,895,901,1190,"0,969948782149388","0,245776111123694",14,166,R,166,176,176
A_N_79_2.JPG,A,79,2,872,962,1133,980,"0,068802091615378","1,50193983749385",86,94,R,94,104,104
A_N_81_1.JPG,A,81,1,559,1012,789,1242,"0,707106781186547","0,785398163397448",45,135,L,-45,325,-35
A_N_82_2.JPG,A,82,2,952,831,1166,965,"0,530710758226151","1,01135738108609",58,122,L,-58,312,-48
A_N_85_1.JPG,A,85,1,893,1064,1161,945,"-0,405822024983966","1,98867439600015",114,66,R,66,76,76
A_N_91_2.JPG,A,91,2,900,563,979,938,"0,978522090290726","0,207630616973299",12,168,L,-12,358,-2
A_N_94_1.JPG,A,94,1,845,777,855,1079,"0,999452228839583","0,03310048871534",2,178,R,178,188,-172
A_N_96_2.JPG,A,96,2,1084,840,1162,1081,"0,951410506972671","0,31301170070362",18,162,L,-18,352,-8
A_N_98_1.JPG,A,98,1,928,1010,1097,768,"-0,819868065111322","2,53197687470063",145,35,L,-145,225,-135
A_N_98_2.JPG,A,98,2,850,565,914,825,"0,971014878934766","0,241355490575404",14,166,L,-14,356,-4
A_N_103_2.JPG,A,103,2,880,827,928,1101,"0,984999931119806","0,173422720274877",10,170,L,-10,0,0
A_N_106_2.JPG,A,106,2,804,851,898,1123,"0,945151201921726","0,332739123079376",19,161,R,161,171,171
A_N_109_1.JPG,A,109,1,1002,1068,1238,943,"-0,468059755139425","2,05789022475126",118,62,L,-118,252,-108
A_N_112_1.JPG,A,112,1,1019,1062,1287,953,"-0,376747862997075","1,95707927636773",112,68,R,68,78,78
B_N_1_2.JPG,B,1,2,1164,1616,1275,1388,"-0,899109270753991","2,68852666021006",154,26,R,26,28,28
B_N_2_2.JPG,B,2,2,1237,1141,1311,1356,"0,945559774202668","0,331485990903244",19,161,L,-19,343,-17
B_N_4_2.JPG,B,4,2,1000,968,1023,1191,"0,994723234144682","0,102775610980232",6,174,L,-6,356,-4
B_N_7_2.JPG,B,7,2,736,1009,770,1281,"0,992277876713668","0,124354994546761",7,173,L,-7,355,-5
B_N_9_2.JPG,B,9,2,991,758,1048,988,"0,970636956929192","0,242931583079466",14,166,R,166,168,168
B_N_17_2.JPG,B,17,2,1005,1368,1081,1135,"-0,9507036916752","2,82629362258612",162,18,L,-162,200,-160
B_N_28_2.JPG,B,28,2,1361,1030,1388,1286,"0,994484146314843","0,105080273416329",6,174,R,174,176,176
B_N_32_2.JPG,B,32,2,1140,1249,1145,1525,"0,999835946701261","0,018113960611435",1,179,L,-1,1,1
B_N_36_2.JPG,B,36,2,1236,1218,1261,977,"-0,994662620565407","3,03822791936684",174,6,L,-174,188,-172
B_N_39_2.JPG,B,39,2,1246,642,1250,871,"0,999847482507263","0,017465472786354",1,179,L,-1,1,1
B_N_42_2.JPG,B,42,2,1112,1170,1314,968,"-0,707106781186548","2,35619449019234",135,45,R,45,47,47
B_N_48_2.JPG,B,48,2,795,1165,940,942,"-0,838357713319545","2,56505982858699",147,33,R,33,35,35
B_N_52_2.JPG,B,52,2,1086,1250,1094,1030,"-0,999339497946432","3,10524503257077",178,2,R,2,4,4
B_N_54_2.JPG,B,54,2,954,1115,964,1388,"0,999329794573795","0,036613666905657",2,178,L,-2,360,0
B_N_56_2.JPG,B,56,2,1036,646,1266,802,"0,561325421853968","0,974809860951462",56,124,L,-56,306,-54
B_N_58_2.JPG,B,58,2,1164,966,1182,1228,"0,99764831936004","0,068594503454273",4,176,R,176,178,178
B_N_60_2.JPG,B,60,2,1312,971,1435,1224,"0,899348440583191","0,45251929256368",26,154,R,154,156,156
B_N_61_1.JPG,B,61,1,1195,959,1306,1196,"0,905596557433686","0,438012200479129",25,155,R,155,157,157
B_N_61_2.JPG,B,61,2,1034,1583,1084,1300,"-0,984748508508946","2,96671888232063",170,10,R,10,12,12
B_N_62_1.JPG,B,62,1,1008,984,1029,682,"-0,997591075299036","3,07216798253171",176,4,L,-176,186,-174
B_N_62_2.JPG,B,62,2,1286,914,1326,1167,"0,987731290311806","0,156804840242877",9,171,L,-9,353,-7
B_N_64_1.JPG,B,64,1,1040,1184,1261,1161,"-0,103513328199064","1,6744954097683",96,84,R,84,86,86
B_N_64_2.JPG,B,64,2,1108,869,1136,1094,"0,992345580928817","0,123807948649471",7,173,L,-7,355,-5
B_N_66_1.JPG,B,66,1,747,587,810,840,"0,970367694834934","0,244048430837044",14,166,R,166,168,168
B_N_66_2.JPG,B,66,2,716,867,943,1071,"0,668421474194313","0,838711862968976",48,132,L,-48,314,-46
B_N_68_1.JPG,B,68,1,1038,1046,1258,810,"-0,731467411604347","2,39126782072557",137,43,R,43,45,45
B_N_68_2.JPG,B,68,2,957,546,1056,803,"0,933158316139102","0,367695210204762",21,159,L,-21,341,-19
B_N_69_1.JPG,B,69,1,908,485,995,711,"0,933239137949595","0,36747030579293",21,159,R,159,161,161
B_N_69_2.JPG,B,69,2,1179,1201,1430,1313,"0,407488315312585","1,15109434775548",66,114,R,114,116,116
B_N_70_1.JPG,B,70,1,1004,1064,1090,1329,"0,951165867307486","0,313805205135153",18,162,L,-18,344,-16
B_N_70_2.JPG,B,70,2,1139,1062,1155,1300,"0,997747903397758","0,067125888202102",4,176,L,-4,358,-2
B_N_75_1.JPG,B,75,1,1038,1096,1361,1102,"0,018572647309786","1,55222261156785",89,91,L,-89,273,-87
B_N_75_2.JPG,B,75,2,1115,1185,1154,1465,"0,990438643530111","0,138395318041746",8,172,L,-8,354,-6
B_N_77_1.JPG,B,77,1,912,841,1218,890,"0,158116352566739","1,41201361112971",81,99,L,-81,281,-79
B_N_77_2.JPG,B,77,2,988,1095,1260,1234,"0,455053376986669","1,0983641707038",63,117,L,-63,299,-61
B_N_78_1.JPG,B,78,1,987,1113,1049,819,"-0,978479103395679","2,93375360920436",168,12,R,12,14,14
B_N_78_2.JPG,B,78,2,1149,924,1358,748,"-0,64413574578278","2,27068919651414",130,50,R,50,52,52
B_N_80_1.JPG,B,80,1,817,1180,971,968,"-0,809066019593326","2,51335753434329",144,36,L,-144,218,-142
B_N_80_2.JPG,B,80,2,1058,1033,1339,1164,"0,422532283151521","1,13455887857503",65,115,R,115,117,117
B_N_81_2.JPG,B,81,2,1313,1165,1347,1402,"0,989865787992552","0,142487721989695",8,172,L,-8,354,-6
B_N_84_1.JPG,B,84,1,870,1132,1119,1313,"0,587978526836957","0,942238874862622",54,126,L,-54,308,-52
B_N_84_2.JPG,B,84,2,1109,1080,1420,1042,"-0,121284488552532","1,69238014870453",97,83,R,83,85,85
B_N_86_1.JPG,B,86,1,1043,1100,1244,1221,"0,515748848872733","1,02891483926184",59,121,R,121,123,123
B_N_86_2.JPG,B,86,2,377,1110,578,1107,"-0,014923710973498","1,58572059178498",91,89,L,-91,271,-89
B_N_88_1.JPG,B,88,1,990,1169,1177,968,"-0,732144492511068","2,39226131750852",137,43,L,-137,225,-135
B_N_88_2.JPG,B,88,2,1047,1584,1047,1207,-1,"3,14159265358979",180,0,R,0,2,2
B_N_93_1.JPG,B,93,1,1260,1359,1522,1214,"-0,484224588764029","2,07627303565811",119,61,L,-119,243,-117
B_N_93_2.JPG,B,93,2,836,1141,885,890,"-0,981472661079746","2,94879828826289",169,11,R,11,13,13
B_N_95_1.JPG,B,95,1,871,840,1017,1083,"0,857181519157214","0,541024460874339",31,149,R,149,151,151
B_N_95_2.JPG,B,95,2,897,1288,1110,1396,"0,452231330827464","1,10153079936914",63,117,R,117,119,119
B_N_99_1.JPG,B,99,1,984,1066,1029,1350,"0,987678226350312","0,157144274325318",9,171,L,-9,353,-7
B_N_99_2.JPG,B,99,2,1272,1243,1285,1499,"0,998713120680953","0,050737666945462",3,177,L,-3,359,-1
B_N_100_1.JPG,B,100,1,886,1098,1089,1324,"0,743948514415183","0,731836389106588",42,138,R,138,140,140
B_N_100_2.JPG,B,100,2,1047,1311,1273,1175,"-0,515610394801419","2,11251621644952",121,59,L,-121,241,-119
B_N_101_1.JPG,B,101,1,710,822,1024,838,"0,050889390854735","1,51988494533858",87,93,L,-87,275,-85
B_N_101_2.JPG,B,101,2,710,1227,1053,1366,"0,375579666848795","1,18577417505972",68,112,L,-68,294,-66
B_N_104_1.JPG,B,104,1,1033,791,1179,1106,"0,907283804957681","0,434017108319172",25,155,R,155,157,157
B_N_104_2.JPG,B,104,2,1406,815,1411,1095,"0,999840599345445","0,017855245139555",1,179,R,179,181,-179
B_N_107_1.JPG,B,107,1,993,855,1241,717,"-0,486241145325914","2,07857929377713",119,61,L,-119,243,-117
B_N_107_2.JPG,B,107,2,844,1264,974,1038,"-0,866823419735938","2,61959212273785",150,30,R,30,32,32
B_N_108_1.JPG,B,108,1,1131,727,1163,501,"-0,990123976804611","3,00093475572437",172,8,R,8,10,10
B_N_108_2.JPG,B,108,2,705,752,981,858,"0,358525736584599","1,20410816559512",69,111,L,-69,293,-67
B_N_113_1.JPG,B,113,1,1035,1093,1229,1333,"0,777697438527818","0,679801627765756",39,141,R,141,143,143
B_N_114_1.JPG,B,114,1,1182,1022,1194,1246,"0,998568132270089","0,053520268459316",3,177,L,-3,359,-1
B_N_114_2.JPG,B,114,2,1005,1269,1255,1264,"-0,0199960011996","1,59079366076805",91,89,R,89,91,91
B_N_119_1.JPG,B,119,1,1130,1038,1360,1231,"0,642801456618846","0,872646549973711",50,130,L,-50,312,-48
B_N_119_2.JPG,B,119,2,978,1236,987,980,"-0,999382591304283","3,106450876787",178,2,L,-178,184,-176
B_N_120_1.JPG,B,120,1,1033,1385,1048,1669,"0,998608098948317","0,05276787033181",3,177,L,-3,359,-1
B_N_120_2.JPG,B,120,2,933,1342,1230,1411,"0,226296415711329","1,34252255355684",77,103,L,-77,285,-75
C_N_12_2.JPG,C,12,2,1277,1206,1358,1441,"0,94541572637235","0,331928320002654",19,161,R,161,163,163
C_N_29_2.JPG,C,29,2,1612,1374,1723,1070,"-0,939341518778325","2,79150169301112",160,20,R,20,22,22
C_N_31_2.JPG,C,31,2,1429,1127,1470,1417,"0,990153314328473","0,140448480050021",8,172,L,-8,354,-6
C_N_33_2.JPG,C,33,2,1383,1021,1406,1275,"0,995925282781334","0,090304899640221",5,175,L,-5,357,-3
C_N_34_2.JPG,C,34,2,1073,1193,1077,1405,"0,999822048223522","0,018865686021669",1,179,L,-1,1,1
C_N_41_2.JPG,C,41,2,1374,1054,1383,1315,"0,999405999353587","0,034469100999505",2,178,L,-2,0,0
C_N_43_2.JPG,C,43,2,1318,1066,1549,1086,"0,086257392676429","1,48443161036941",85,95,L,-85,277,-83
C_N_65_2.JPG,C,65,2,1266,1713,1471,1559,"-0,600623842236636","2,21507746663123",127,53,R,53,55,55
C_N_65_2.JPG,C,65,2,1364,1651,1567,1503,"-0,589118014641382","2,20076323017634",126,54,R,54,56,56
C_N_71_2.JPG,C,71,2,1469,1261,1487,1516,"0,99751792226177","0,070471344578796",4,176,L,-4,358,-2
C_N_72_1.JPG,C,72,1,1185,1240,1322,1459,"0,847780752556824","0,559009655903215",32,148,L,-32,330,-30
C_N_74_1.JPG,C,74,1,1252,961,1550,1186,"0,602567857834294","0,92408151722805",53,127,L,-53,309,-51
C_N_74_2.JPG,C,74,2,1388,1532,1406,1740,"0,996276448328469","0,086323400940463",5,175,L,-5,357,-3
C_N_76_1.JPG,C,76,1,1405,874,1421,1194,"0,998752338877844","0,049958395721946",3,177,R,177,179,179
C_N_79_1.JPG,C,79,1,1345,1175,1393,1478,"0,987683548126786","0,15711026534696",9,171,L,-9,353,-7
C_N_82_1.JPG,C,82,1,1453,1379,1609,1601,"0,818191696860666","0,612537556610303",35,145,L,-35,327,-33
C_N_83_1.JPG,C,83,1,1158,1159,1424,1261,"0,358038024803958","1,20463055715134",69,111,R,111,113,113
C_N_83_2.JPG,C,83,2,1544,1379,1785,1698,"0,797894057497863","0,647002845355702",37,143,L,-37,325,-35
C_N_85_2.JPG,C,85,2,1206,991,1258,1317,"0,987516130455452","0,158176678829783",9,171,L,-9,353,-7
C_N_87_1.JPG,C,87,1,1354,1312,1426,973,"-0,978180845730438","2,93231310314225",168,12,L,-168,194,-166
C_N_87_2.JPG,C,87,2,1655,1210,1827,1431,"0,789159901626226","0,661356353932837",38,142,R,142,144,144
C_N_89_1.JPG,C,89,1,1578,1243,1615,1038,"-0,984099517175019","2,96302725956837",170,10,R,10,12,12
C_N_89_2.JPG,C,89,2,1138,1256,1240,1536,"0,939597315436242","0,349344398016479",20,160,L,-20,342,-18
C_N_90_1.JPG,C,90,1,1178,1403,1444,1556,"0,498593572324918","1,04882079406808",60,120,L,-60,302,-58
C_N_90_2.JPG,C,90,2,1678,897,1733,1210,"0,984910008887848","0,173943070446234",10,170,L,-10,352,-8
C_N_91_1.JPG,C,91,1,1579,1157,1874,1334,"0,514495755427527","1,03037682652431",59,121,L,-59,303,-57
C_N_92_1.JPG,C,92,1,1593,1288,1708,1513,"0,890434682196081","0,472496935517064",27,153,L,-27,335,-25
C_N_92_2.JPG,C,92,2,1215,927,1350,1216,"0,906022891108686","0,437005947674213",25,155,L,-25,337,-23
C_N_94_2.JPG,C,94,2,1759,1831,1776,1506,"-0,99863475360735","3,08933258938364",177,3,L,-177,185,-175
C_N_96_1.JPG,C,96,1,1274,1116,1333,1391,"0,97775035286855","0,211341657031896",12,168,L,-12,350,-10
C_N_97_1.JPG,C,97,1,901,1249,977,1456,"0,938729656295813","0,351870567466327",20,160,R,160,162,162
C_N_97_2.JPG,C,97,2,1468,1611,1487,1884,"0,997586886813318","0,06948502473053",4,176,L,-4,358,-2
C_N_102_1.JPG,C,102,1,1059,1210,1226,921,"-0,865836232375568","2,61761565904929",150,30,R,30,32,32
C_N_102_2.JPG,C,102,2,1186,1437,1241,1215,"-0,970654708628652","2,89873487805701",166,14,R,14,16,16
C_N_103_1.JPG,C,103,1,1318,1037,1629,1317,"0,669096744894883","0,83780360511683",48,132,R,132,134,134
C_N_105_1.JPG,C,105,1,1501,1172,1551,1405,"0,977740962621234","0,211386416449994",12,168,L,-12,350,-10
C_N_105_2.JPG,C,105,2,1076,1025,1296,819,"-0,683499528874161","2,32334246410932",133,47,L,-133,229,-131
C_N_106_1.JPG,C,106,1,1371,1459,1426,1740,"0,981378345332587","0,193285993943787",11,169,R,169,171,171
C_N_109_2.JPG,C,109,2,1631,1061,1923,1035,"-0,088690207973927","1,65960322044011",95,85,L,-95,267,-93
C_N_110_1.JPG,C,110,1,1061,1417,1301,1261,"-0,544988350595414","2,14717154738608",123,57,R,57,59,59
C_N_110_2.JPG,C,110,2,1118,797,1136,1048,"0,997438487981861","0,07159059048554",4,176,R,176,178,178
C_N_111_1.JPG,C,111,1,1267,1431,1292,1185,"-0,994875734397806","3,04031434454115",174,6,R,6,8,8
C_N_111_2.JPG,C,111,2,1409,869,1425,1185,"0,99872061358136","0,050589708769386",3,177,L,-3,359,-1
C_N_112_2.JPG,C,112,2,1200,1391,1211,1713,"0,999417006495875","0,034148211075768",2,178,L,-2,0,0
C_N_113_2.JPG,C,113,2,1144,1169,1149,1465,"0,999857362518138","0,016890285545203",1,179,L,-1,1,1
C_N_115_1.JPG,C,115,1,1161,1693,1460,1560,"-0,406421974740498","1,98933092629901",114,66,R,66,68,68
C_N_115_2.JPG,C,115,2,1590,1201,1729,1498,"0,905715137735143","0,437732538876967",25,155,L,-25,337,-23
C_N_117_1.JPG,C,117,1,1372,1377,1380,1603,"0,999374070825145","0,03538345612415",2,178,L,-2,360,0
C_N_117_2.JPG,C,117,2,1574,1412,1817,1133,"-0,754081595886306","2,42505097949339",139,41,L,-139,223,-137
C_N_118_1.JPG,C,118,1,1193,1397,1462,1685,"0,730802069942701","0,751300074005948",43,137,R,137,139,139
C_N_118_2.JPG,C,118,2,1541,1524,1547,1198,"-0,999830672698522","3,12318982335548",179,1,R,1,3,3
