%!PS-Adobe-3.0 EPSF-3.0
%%Title: posterior_predictive_A_2.eps
%%Creator: Matplotlib v3.6.2, https://matplotlib.org/
%%CreationDate: Sun Feb  5 15:40:22 2023
%%Orientation: portrait
%%BoundingBox: 75 223 537 569
%%HiResBoundingBox: 75.600000 223.200000 536.400000 568.800000
%%EndComments
%%BeginProlog
/mpldict 11 dict def
mpldict begin
/_d { bind def } bind def
/m { moveto } _d
/l { lineto } _d
/r { rlineto } _d
/c { curveto } _d
/cl { closepath } _d
/ce { closepath eofill } _d
/box {
      m
      1 index 0 r
      0 exch r
      neg 0 r
      cl
    } _d
/clipbox {
      box
      clip
      newpath
    } _d
/sc { setcachedevice } _d
%!PS-Adobe-3.0 Resource-Font
%%Creator: Converted from TrueType to Type 3 by Matplotlib.
10 dict begin
/FontName /DejaVuSans def
/PaintType 0 def
/FontMatrix [0.00048828125 0 0 0.00048828125 0 0] def
/FontBBox [-2090 -948 3673 2524] def
/FontType 3 def
/Encoding [/period /zero /one /minus /two /four /three /six /five /eight /seven /x] def
/CharStrings 13 dict dup begin
/.notdef 0 def
/period{651 0 219 0 430 254 sc
219 254 m
430 254 l
430 0 l
219 0 l
219 254 l

ce} _d
/zero{1303 0 135 -29 1167 1520 sc
651 1360 m
547 1360 469 1309 416 1206 c
364 1104 338 950 338 745 c
338 540 364 387 416 284 c
469 182 547 131 651 131 c
756 131 834 182 886 284 c
939 387 965 540 965 745 c
965 950 939 1104 886 1206 c
834 1309 756 1360 651 1360 c

651 1520 m
818 1520 946 1454 1034 1321 c
1123 1189 1167 997 1167 745 c
1167 494 1123 302 1034 169 c
946 37 818 -29 651 -29 c
484 -29 356 37 267 169 c
179 302 135 494 135 745 c
135 997 179 1189 267 1321 c
356 1454 484 1520 651 1520 c

ce} _d
/one{1303 0 225 0 1114 1493 sc
254 170 m
584 170 l
584 1309 l
225 1237 l
225 1421 l
582 1493 l
784 1493 l
784 170 l
1114 170 l
1114 0 l
254 0 l
254 170 l

ce} _d
/minus{1716 0 217 557 1499 727 sc
217 727 m
1499 727 l
1499 557 l
217 557 l
217 727 l

ce} _d
/two{1303 0 150 0 1098 1520 sc
393 170 m
1098 170 l
1098 0 l
150 0 l
150 170 l
227 249 331 356 463 489 c
596 623 679 709 713 748 c
778 821 823 882 848 932 c
874 983 887 1032 887 1081 c
887 1160 859 1225 803 1275 c
748 1325 675 1350 586 1350 c
523 1350 456 1339 385 1317 c
315 1295 240 1262 160 1217 c
160 1421 l
241 1454 317 1478 388 1495 c
459 1512 523 1520 582 1520 c
737 1520 860 1481 952 1404 c
1044 1327 1090 1223 1090 1094 c
1090 1033 1078 974 1055 919 c
1032 864 991 800 930 725 c
913 706 860 650 771 557 c
682 465 556 336 393 170 c

ce} _d
/four{1303 0 100 0 1188 1493 sc
774 1317 m
264 520 l
774 520 l
774 1317 l

721 1493 m
975 1493 l
975 520 l
1188 520 l
1188 352 l
975 352 l
975 0 l
774 0 l
774 352 l
100 352 l
100 547 l
721 1493 l

ce} _d
/three{1303 0 156 -29 1139 1520 sc
831 805 m
928 784 1003 741 1057 676 c
1112 611 1139 530 1139 434 c
1139 287 1088 173 987 92 c
886 11 742 -29 555 -29 c
492 -29 428 -23 361 -10 c
295 2 227 20 156 45 c
156 240 l
212 207 273 183 340 166 c
407 149 476 141 549 141 c
676 141 772 166 838 216 c
905 266 938 339 938 434 c
938 522 907 591 845 640 c
784 690 698 715 588 715 c
414 715 l
414 881 l
596 881 l
695 881 771 901 824 940 c
877 980 903 1037 903 1112 c
903 1189 876 1247 821 1288 c
767 1329 689 1350 588 1350 c
533 1350 473 1344 410 1332 c
347 1320 277 1301 201 1276 c
201 1456 l
278 1477 349 1493 416 1504 c
483 1515 547 1520 606 1520 c
759 1520 881 1485 970 1415 c
1059 1346 1104 1252 1104 1133 c
1104 1050 1080 980 1033 923 c
986 866 918 827 831 805 c

ce} _d
/six{1303 0 143 -29 1174 1520 sc
676 827 m
585 827 513 796 460 734 c
407 672 381 587 381 479 c
381 372 407 287 460 224 c
513 162 585 131 676 131 c
767 131 838 162 891 224 c
944 287 971 372 971 479 c
971 587 944 672 891 734 c
838 796 767 827 676 827 c

1077 1460 m
1077 1276 l
1026 1300 975 1318 923 1331 c
872 1344 821 1350 770 1350 c
637 1350 535 1305 464 1215 c
394 1125 354 989 344 807 c
383 865 433 909 492 940 c
551 971 617 987 688 987 c
838 987 956 941 1043 850 c
1130 759 1174 636 1174 479 c
1174 326 1129 203 1038 110 c
947 17 827 -29 676 -29 c
503 -29 371 37 280 169 c
189 302 143 494 143 745 c
143 981 199 1169 311 1309 c
423 1450 573 1520 762 1520 c
813 1520 864 1515 915 1505 c
967 1495 1021 1480 1077 1460 c

ce} _d
/five{1303 0 158 -29 1124 1493 sc
221 1493 m
1014 1493 l
1014 1323 l
406 1323 l
406 957 l
435 967 465 974 494 979 c
523 984 553 987 582 987 c
749 987 881 941 978 850 c
1075 759 1124 635 1124 479 c
1124 318 1074 193 974 104 c
874 15 733 -29 551 -29 c
488 -29 424 -24 359 -13 c
294 -2 227 14 158 35 c
158 238 l
218 205 280 181 344 165 c
408 149 476 141 547 141 c
662 141 754 171 821 232 c
888 293 922 375 922 479 c
922 583 888 665 821 726 c
754 787 662 817 547 817 c
493 817 439 811 385 799 c
332 787 277 768 221 743 c
221 1493 l

ce} _d
/eight{1303 0 139 -29 1163 1520 sc
651 709 m
555 709 479 683 424 632 c
369 581 342 510 342 420 c
342 330 369 259 424 208 c
479 157 555 131 651 131 c
747 131 823 157 878 208 c
933 260 961 331 961 420 c
961 510 933 581 878 632 c
823 683 748 709 651 709 c

449 795 m
362 816 295 857 246 916 c
198 975 174 1048 174 1133 c
174 1252 216 1347 301 1416 c
386 1485 503 1520 651 1520 c
800 1520 916 1485 1001 1416 c
1086 1347 1128 1252 1128 1133 c
1128 1048 1104 975 1055 916 c
1007 857 940 816 854 795 c
951 772 1027 728 1081 662 c
1136 596 1163 515 1163 420 c
1163 275 1119 164 1030 87 c
942 10 816 -29 651 -29 c
486 -29 360 10 271 87 c
183 164 139 275 139 420 c
139 515 166 596 221 662 c
276 728 352 772 449 795 c

375 1114 m
375 1037 399 976 447 933 c
496 890 564 868 651 868 c
738 868 805 890 854 933 c
903 976 928 1037 928 1114 c
928 1191 903 1252 854 1295 c
805 1338 738 1360 651 1360 c
564 1360 496 1338 447 1295 c
399 1252 375 1191 375 1114 c

ce} _d
/seven{1303 0 168 0 1128 1493 sc
168 1493 m
1128 1493 l
1128 1407 l
586 0 l
375 0 l
885 1323 l
168 1323 l
168 1493 l

ce} _d
/x{1212 0 59 0 1145 1120 sc
1124 1120 m
719 575 l
1145 0 l
928 0 l
602 440 l
276 0 l
59 0 l
494 586 l
96 1120 l
313 1120 l
610 721 l
907 1120 l
1124 1120 l

ce} _d
end readonly def

/BuildGlyph {
 exch begin
 CharStrings exch
 2 copy known not {pop /.notdef} if
 true 3 1 roll get exec
 end
} _d

/BuildChar {
 1 index /Encoding get exch get
 1 index /BuildGlyph get exec
} _d

FontName currentdict end definefont pop
end
%%EndProlog
mpldict begin
75.6 223.2 translate
460.8 345.6 0 0 clipbox
gsave
0 0 m
460.8 0 l
460.8 345.6 l
0 345.6 l
cl
1.000 setgray
fill
grestore
gsave
33.64 27.88 m
450 27.88 l
450 334.8 l
33.64 334.8 l
cl
1.000 setgray
fill
grestore
gsave
416.36 306.92 33.64 27.88 clipbox
52.565455 27.88 m
60.135633 27.88 l
60.135633 27.938743 l
52.565455 27.938743 l
cl
0.275 0.195 0.496 setrgbcolor
fill
grestore
gsave
416.36 306.92 33.64 27.88 clipbox
60.135633 27.88 m
67.705812 27.88 l
67.705812 27.88 l
60.135633 27.88 l
cl
0.275 0.195 0.496 setrgbcolor
fill
grestore
gsave
416.36 306.92 33.64 27.88 clipbox
67.705812 27.88 m
75.275991 27.88 l
75.275991 27.88 l
67.705812 27.88 l
cl
0.275 0.195 0.496 setrgbcolor
fill
grestore
gsave
416.36 306.92 33.64 27.88 clipbox
75.275991 27.88 m
82.846193 27.88 l
82.846193 27.88 l
75.275991 27.88 l
cl
0.275 0.195 0.496 setrgbcolor
fill
grestore
gsave
416.36 306.92 33.64 27.88 clipbox
82.846193 27.88 m
90.41636 27.88 l
90.41636 27.88 l
82.846193 27.88 l
cl
0.275 0.195 0.496 setrgbcolor
fill
grestore
gsave
416.36 306.92 33.64 27.88 clipbox
90.41636 27.88 m
97.986551 27.88 l
97.986551 27.88 l
90.41636 27.88 l
cl
0.275 0.195 0.496 setrgbcolor
fill
grestore
gsave
416.36 306.92 33.64 27.88 clipbox
97.986551 27.88 m
105.556729 27.88 l
105.556729 27.88 l
97.986551 27.88 l
cl
0.275 0.195 0.496 setrgbcolor
fill
grestore
gsave
416.36 306.92 33.64 27.88 clipbox
105.556729 27.88 m
113.126908 27.88 l
113.126908 27.88 l
105.556729 27.88 l
cl
0.275 0.195 0.496 setrgbcolor
fill
grestore
gsave
416.36 306.92 33.64 27.88 clipbox
113.126908 27.88 m
120.697087 27.88 l
120.697087 27.938743 l
113.126908 27.938743 l
cl
0.275 0.195 0.496 setrgbcolor
fill
grestore
gsave
416.36 306.92 33.64 27.88 clipbox
120.697087 27.88 m
128.267277 27.88 l
128.267277 27.938743 l
120.697087 27.938743 l
cl
0.275 0.195 0.496 setrgbcolor
fill
grestore
gsave
416.36 306.92 33.64 27.88 clipbox
128.267277 27.88 m
135.837456 27.88 l
135.837456 27.88 l
128.267277 27.88 l
cl
0.275 0.195 0.496 setrgbcolor
fill
grestore
gsave
416.36 306.92 33.64 27.88 clipbox
135.837456 27.88 m
143.407635 27.88 l
143.407635 27.997486 l
135.837456 27.997486 l
cl
0.275 0.195 0.496 setrgbcolor
fill
grestore
gsave
416.36 306.92 33.64 27.88 clipbox
143.407635 27.88 m
150.977814 27.88 l
150.977814 27.88 l
143.407635 27.88 l
cl
0.275 0.195 0.496 setrgbcolor
fill
grestore
gsave
416.36 306.92 33.64 27.88 clipbox
150.977814 27.88 m
158.548004 27.88 l
158.548004 27.938743 l
150.977814 27.938743 l
cl
0.275 0.195 0.496 setrgbcolor
fill
grestore
gsave
416.36 306.92 33.64 27.88 clipbox
158.548004 27.88 m
166.118183 27.88 l
166.118183 28.056229 l
158.548004 28.056229 l
cl
0.275 0.195 0.496 setrgbcolor
fill
grestore
gsave
416.36 306.92 33.64 27.88 clipbox
166.118183 27.88 m
173.688362 27.88 l
173.688362 27.938743 l
166.118183 27.938743 l
cl
0.275 0.195 0.496 setrgbcolor
fill
grestore
gsave
416.36 306.92 33.64 27.88 clipbox
173.688362 27.88 m
181.25854 27.88 l
181.25854 27.88 l
173.688362 27.88 l
cl
0.275 0.195 0.496 setrgbcolor
fill
grestore
gsave
416.36 306.92 33.64 27.88 clipbox
181.25854 27.88 m
188.828725 27.88 l
188.828725 27.938743 l
181.25854 27.938743 l
cl
0.275 0.195 0.496 setrgbcolor
fill
grestore
gsave
416.36 306.92 33.64 27.88 clipbox
188.828725 27.88 m
196.39891 27.88 l
196.39891 27.88 l
188.828725 27.88 l
cl
0.275 0.195 0.496 setrgbcolor
fill
grestore
gsave
416.36 306.92 33.64 27.88 clipbox
196.39891 27.88 m
203.969089 27.88 l
203.969089 28.114972 l
196.39891 28.114972 l
cl
0.275 0.195 0.496 setrgbcolor
fill
grestore
gsave
416.36 306.92 33.64 27.88 clipbox
203.969089 27.88 m
211.539273 27.88 l
211.539273 28.2912 l
203.969089 28.2912 l
cl
0.275 0.195 0.496 setrgbcolor
fill
grestore
gsave
416.36 306.92 33.64 27.88 clipbox
211.539273 27.88 m
219.109452 27.88 l
219.109452 28.173715 l
211.539273 28.173715 l
cl
0.275 0.195 0.496 setrgbcolor
fill
grestore
gsave
416.36 306.92 33.64 27.88 clipbox
219.109452 27.88 m
226.679637 27.88 l
226.679637 28.584915 l
219.109452 28.584915 l
cl
0.275 0.195 0.496 setrgbcolor
fill
grestore
gsave
416.36 306.92 33.64 27.88 clipbox
226.679637 27.88 m
234.249818 27.88 l
234.249818 29.524802 l
226.679637 29.524802 l
cl
0.275 0.195 0.496 setrgbcolor
fill
grestore
gsave
416.36 306.92 33.64 27.88 clipbox
234.249818 27.88 m
241.82 27.88 l
241.82 30.523431 l
234.249818 30.523431 l
cl
0.275 0.195 0.496 setrgbcolor
fill
grestore
gsave
416.36 306.92 33.64 27.88 clipbox
241.82 27.88 m
249.390182 27.88 l
249.390182 35.281608 l
241.82 35.281608 l
cl
0.275 0.195 0.496 setrgbcolor
fill
grestore
gsave
416.36 306.92 33.64 27.88 clipbox
249.390182 27.88 m
256.960363 27.88 l
256.960363 42.56573 l
249.390182 42.56573 l
cl
0.275 0.195 0.496 setrgbcolor
fill
grestore
gsave
416.36 306.92 33.64 27.88 clipbox
256.960363 27.88 m
264.530545 27.88 l
264.530545 68.647585 l
256.960363 68.647585 l
cl
0.275 0.195 0.496 setrgbcolor
fill
grestore
gsave
416.36 306.92 33.64 27.88 clipbox
264.530545 27.88 m
272.100728 27.88 l
272.100728 128.506609 l
264.530545 128.506609 l
cl
0.275 0.195 0.496 setrgbcolor
fill
grestore
gsave
416.36 306.92 33.64 27.88 clipbox
272.100728 27.88 m
279.670909 27.88 l
279.670909 229.191981 l
272.100728 229.191981 l
cl
0.275 0.195 0.496 setrgbcolor
fill
grestore
gsave
416.36 306.92 33.64 27.88 clipbox
279.670909 27.88 m
287.241091 27.88 l
287.241091 320.184762 l
279.670909 320.184762 l
cl
0.275 0.195 0.496 setrgbcolor
fill
grestore
gsave
416.36 306.92 33.64 27.88 clipbox
287.241091 27.88 m
294.811273 27.88 l
294.811273 286.466327 l
287.241091 286.466327 l
cl
0.275 0.195 0.496 setrgbcolor
fill
grestore
gsave
416.36 306.92 33.64 27.88 clipbox
294.811273 27.88 m
302.381455 27.88 l
302.381455 169.156705 l
294.811273 169.156705 l
cl
0.275 0.195 0.496 setrgbcolor
fill
grestore
gsave
416.36 306.92 33.64 27.88 clipbox
302.381455 27.88 m
309.951635 27.88 l
309.951635 93.43711 l
302.381455 93.43711 l
cl
0.275 0.195 0.496 setrgbcolor
fill
grestore
gsave
416.36 306.92 33.64 27.88 clipbox
309.951635 27.88 m
317.521817 27.88 l
317.521817 55.195457 l
309.951635 55.195457 l
cl
0.275 0.195 0.496 setrgbcolor
fill
grestore
gsave
416.36 306.92 33.64 27.88 clipbox
317.521817 27.88 m
325.091999 27.88 l
325.091999 38.101268 l
317.521817 38.101268 l
cl
0.275 0.195 0.496 setrgbcolor
fill
grestore
gsave
416.36 306.92 33.64 27.88 clipbox
325.091999 27.88 m
332.66218 27.88 l
332.66218 31.874518 l
325.091999 31.874518 l
cl
0.275 0.195 0.496 setrgbcolor
fill
grestore
gsave
416.36 306.92 33.64 27.88 clipbox
332.66218 27.88 m
340.232365 27.88 l
340.232365 29.466058 l
332.66218 29.466058 l
cl
0.275 0.195 0.496 setrgbcolor
fill
grestore
gsave
416.36 306.92 33.64 27.88 clipbox
340.232365 27.88 m
347.802544 27.88 l
347.802544 28.819887 l
340.232365 28.819887 l
cl
0.275 0.195 0.496 setrgbcolor
fill
grestore
gsave
416.36 306.92 33.64 27.88 clipbox
347.802544 27.88 m
355.372728 27.88 l
355.372728 28.408686 l
347.802544 28.408686 l
cl
0.275 0.195 0.496 setrgbcolor
fill
grestore
gsave
416.36 306.92 33.64 27.88 clipbox
355.372728 27.88 m
362.942907 27.88 l
362.942907 28.349944 l
355.372728 28.349944 l
cl
0.275 0.195 0.496 setrgbcolor
fill
grestore
gsave
416.36 306.92 33.64 27.88 clipbox
362.942907 27.88 m
370.513092 27.88 l
370.513092 27.997486 l
362.942907 27.997486 l
cl
0.275 0.195 0.496 setrgbcolor
fill
grestore
gsave
416.36 306.92 33.64 27.88 clipbox
370.513092 27.88 m
378.083271 27.88 l
378.083271 27.997486 l
370.513092 27.997486 l
cl
0.275 0.195 0.496 setrgbcolor
fill
grestore
gsave
416.36 306.92 33.64 27.88 clipbox
378.083271 27.88 m
385.653449 27.88 l
385.653449 27.938743 l
378.083271 27.938743 l
cl
0.275 0.195 0.496 setrgbcolor
fill
grestore
gsave
416.36 306.92 33.64 27.88 clipbox
385.653449 27.88 m
393.22364 27.88 l
393.22364 27.938743 l
385.653449 27.938743 l
cl
0.275 0.195 0.496 setrgbcolor
fill
grestore
gsave
416.36 306.92 33.64 27.88 clipbox
393.22364 27.88 m
400.793819 27.88 l
400.793819 27.88 l
393.22364 27.88 l
cl
0.275 0.195 0.496 setrgbcolor
fill
grestore
gsave
416.36 306.92 33.64 27.88 clipbox
400.793819 27.88 m
408.363997 27.88 l
408.363997 27.997486 l
400.793819 27.997486 l
cl
0.275 0.195 0.496 setrgbcolor
fill
grestore
gsave
416.36 306.92 33.64 27.88 clipbox
408.363997 27.88 m
415.934176 27.88 l
415.934176 27.997486 l
408.363997 27.997486 l
cl
0.275 0.195 0.496 setrgbcolor
fill
grestore
gsave
416.36 306.92 33.64 27.88 clipbox
415.934176 27.88 m
423.504367 27.88 l
423.504367 27.88 l
415.934176 27.88 l
cl
0.275 0.195 0.496 setrgbcolor
fill
grestore
gsave
416.36 306.92 33.64 27.88 clipbox
423.504367 27.88 m
431.074545 27.88 l
431.074545 27.997486 l
423.504367 27.997486 l
cl
0.275 0.195 0.496 setrgbcolor
fill
grestore
0.800 setlinewidth
1 setlinejoin
0 setlinecap
[] 0 setdash
0.000 setgray
gsave
/o {
gsave
newpath
translate
0.8 setlinewidth
1 setlinejoin

0 setlinecap

0 0 m
0 -3.5 l

gsave
0.000 setgray
fill
grestore
stroke
grestore
} bind def
33.8586 27.88 o
grestore
/DejaVuSans 10.000 selectfont
gsave

23.3118 13.2863 translate
0 rotate
0 0 m /minus glyphshow
8.37891 0 m /one glyphshow
14.7412 0 m /zero glyphshow
grestore
gsave
/o {
gsave
newpath
translate
0.8 setlinewidth
1 setlinejoin

0 setlinecap

0 0 m
0 -3.5 l

gsave
0.000 setgray
fill
grestore
stroke
grestore
} bind def
83.7111 27.88 o
grestore
/DejaVuSans 10.000 selectfont
gsave

76.3439 13.2863 translate
0 rotate
0 0 m /minus glyphshow
8.37891 0 m /eight glyphshow
grestore
gsave
/o {
gsave
newpath
translate
0.8 setlinewidth
1 setlinejoin

0 setlinecap

0 0 m
0 -3.5 l

gsave
0.000 setgray
fill
grestore
stroke
grestore
} bind def
133.564 27.88 o
grestore
/DejaVuSans 10.000 selectfont
gsave

126.196 13.2863 translate
0 rotate
0 0 m /minus glyphshow
8.37891 0 m /six glyphshow
grestore
gsave
/o {
gsave
newpath
translate
0.8 setlinewidth
1 setlinejoin

0 setlinecap

0 0 m
0 -3.5 l

gsave
0.000 setgray
fill
grestore
stroke
grestore
} bind def
183.416 27.88 o
grestore
/DejaVuSans 10.000 selectfont
gsave

176.049 13.2863 translate
0 rotate
0 0 m /minus glyphshow
8.37891 0 m /four glyphshow
grestore
gsave
/o {
gsave
newpath
translate
0.8 setlinewidth
1 setlinejoin

0 setlinecap

0 0 m
0 -3.5 l

gsave
0.000 setgray
fill
grestore
stroke
grestore
} bind def
233.268 27.88 o
grestore
/DejaVuSans 10.000 selectfont
gsave

225.901 13.2863 translate
0 rotate
0 0 m /minus glyphshow
8.37891 0 m /two glyphshow
grestore
gsave
/o {
gsave
newpath
translate
0.8 setlinewidth
1 setlinejoin

0 setlinecap

0 0 m
0 -3.5 l

gsave
0.000 setgray
fill
grestore
stroke
grestore
} bind def
283.121 27.88 o
grestore
/DejaVuSans 10.000 selectfont
gsave

279.941 13.2863 translate
0 rotate
0 0 m /zero glyphshow
grestore
gsave
/o {
gsave
newpath
translate
0.8 setlinewidth
1 setlinejoin

0 setlinecap

0 0 m
0 -3.5 l

gsave
0.000 setgray
fill
grestore
stroke
grestore
} bind def
332.973 27.88 o
grestore
/DejaVuSans 10.000 selectfont
gsave

329.794 13.2863 translate
0 rotate
0 0 m /two glyphshow
grestore
gsave
/o {
gsave
newpath
translate
0.8 setlinewidth
1 setlinejoin

0 setlinecap

0 0 m
0 -3.5 l

gsave
0.000 setgray
fill
grestore
stroke
grestore
} bind def
382.826 27.88 o
grestore
/DejaVuSans 10.000 selectfont
gsave

379.646 13.2863 translate
0 rotate
0 0 m /four glyphshow
grestore
gsave
/o {
gsave
newpath
translate
0.8 setlinewidth
1 setlinejoin

0 setlinecap

0 0 m
0 -3.5 l

gsave
0.000 setgray
fill
grestore
stroke
grestore
} bind def
432.678 27.88 o
grestore
/DejaVuSans 10.000 selectfont
gsave

429.499 13.2863 translate
0 rotate
0 0 m /six glyphshow
grestore
gsave
/o {
gsave
newpath
translate
0.8 setlinewidth
1 setlinejoin

0 setlinecap

-0 0 m
-3.5 0 l

gsave
0.000 setgray
fill
grestore
stroke
grestore
} bind def
33.64 27.88 o
grestore
/DejaVuSans 10.000 selectfont
gsave

10.7338 24.0831 translate
0 rotate
0 0 m /zero glyphshow
6.3623 0 m /period glyphshow
9.54102 0 m /zero glyphshow
grestore
gsave
/o {
gsave
newpath
translate
0.8 setlinewidth
1 setlinejoin

0 setlinecap

-0 0 m
-3.5 0 l

gsave
0.000 setgray
fill
grestore
stroke
grestore
} bind def
33.64 63.5609 o
grestore
/DejaVuSans 10.000 selectfont
gsave

10.7338 59.764 translate
0 rotate
0 0 m /zero glyphshow
6.3623 0 m /period glyphshow
9.54102 0 m /one glyphshow
grestore
gsave
/o {
gsave
newpath
translate
0.8 setlinewidth
1 setlinejoin

0 setlinecap

-0 0 m
-3.5 0 l

gsave
0.000 setgray
fill
grestore
stroke
grestore
} bind def
33.64 99.2417 o
grestore
/DejaVuSans 10.000 selectfont
gsave

10.7338 95.4448 translate
0 rotate
0 0 m /zero glyphshow
6.3623 0 m /period glyphshow
9.54102 0 m /two glyphshow
grestore
gsave
/o {
gsave
newpath
translate
0.8 setlinewidth
1 setlinejoin

0 setlinecap

-0 0 m
-3.5 0 l

gsave
0.000 setgray
fill
grestore
stroke
grestore
} bind def
33.64 134.923 o
grestore
/DejaVuSans 10.000 selectfont
gsave

10.7338 131.126 translate
0 rotate
0 0 m /zero glyphshow
6.3623 0 m /period glyphshow
9.54102 0 m /three glyphshow
grestore
gsave
/o {
gsave
newpath
translate
0.8 setlinewidth
1 setlinejoin

0 setlinecap

-0 0 m
-3.5 0 l

gsave
0.000 setgray
fill
grestore
stroke
grestore
} bind def
33.64 170.603 o
grestore
/DejaVuSans 10.000 selectfont
gsave

10.7338 166.807 translate
0 rotate
0 0 m /zero glyphshow
6.3623 0 m /period glyphshow
9.54102 0 m /four glyphshow
grestore
gsave
/o {
gsave
newpath
translate
0.8 setlinewidth
1 setlinejoin

0 setlinecap

-0 0 m
-3.5 0 l

gsave
0.000 setgray
fill
grestore
stroke
grestore
} bind def
33.64 206.284 o
grestore
/DejaVuSans 10.000 selectfont
gsave

10.7338 202.487 translate
0 rotate
0 0 m /zero glyphshow
6.3623 0 m /period glyphshow
9.54102 0 m /five glyphshow
grestore
gsave
/o {
gsave
newpath
translate
0.8 setlinewidth
1 setlinejoin

0 setlinecap

-0 0 m
-3.5 0 l

gsave
0.000 setgray
fill
grestore
stroke
grestore
} bind def
33.64 241.965 o
grestore
/DejaVuSans 10.000 selectfont
gsave

10.7338 238.168 translate
0 rotate
0 0 m /zero glyphshow
6.3623 0 m /period glyphshow
9.54102 0 m /six glyphshow
grestore
gsave
/o {
gsave
newpath
translate
0.8 setlinewidth
1 setlinejoin

0 setlinecap

-0 0 m
-3.5 0 l

gsave
0.000 setgray
fill
grestore
stroke
grestore
} bind def
33.64 277.646 o
grestore
/DejaVuSans 10.000 selectfont
gsave

10.7338 273.849 translate
0 rotate
0 0 m /zero glyphshow
6.3623 0 m /period glyphshow
9.54102 0 m /seven glyphshow
grestore
gsave
/o {
gsave
newpath
translate
0.8 setlinewidth
1 setlinejoin

0 setlinecap

-0 0 m
-3.5 0 l

gsave
0.000 setgray
fill
grestore
stroke
grestore
} bind def
33.64 313.327 o
grestore
/DejaVuSans 10.000 selectfont
gsave

10.7338 309.53 translate
0 rotate
0 0 m /zero glyphshow
6.3623 0 m /period glyphshow
9.54102 0 m /eight glyphshow
grestore
0 setlinejoin
2 setlinecap
gsave
33.64 27.88 m
33.64 334.8 l
stroke
grestore
gsave
450 27.88 m
450 334.8 l
stroke
grestore
gsave
33.64 27.88 m
450 27.88 l
stroke
grestore
gsave
33.64 334.8 m
450 334.8 l
stroke
grestore
1.000 setlinewidth
0 setlinecap
0.800 setgray
gsave
415.878125 322.928125 m
453.8 322.928125 l
455.133333 322.928125 455.8 323.594792 455.8 324.928125 c
455.8 338.6 l
455.8 339.933333 455.133333 340.6 453.8 340.6 c
415.878125 340.6 l
414.544792 340.6 413.878125 339.933333 413.878125 338.6 c
413.878125 324.928125 l
413.878125 323.594792 414.544792 322.928125 415.878125 322.928125 c
cl
gsave
1.000 setgray
fill
grestore
stroke
grestore
gsave
417.878125 329.00625 m
437.878125 329.00625 l
437.878125 336.00625 l
417.878125 336.00625 l
cl
0.275 0.195 0.496 setrgbcolor
fill
grestore
0.000 setgray
/DejaVuSans 10.000 selectfont
gsave

445.878 329.006 translate
0 rotate
0 0 m /x glyphshow
grestore

end
showpage
