%!PS-Adobe-3.0 EPSF-3.0
%%Title: posterior_predictive_B_1.eps
%%Creator: Matplotlib v3.6.2, https://matplotlib.org/
%%CreationDate: Sun Feb  5 15:41:14 2023
%%Orientation: portrait
%%BoundingBox: 75 223 537 569
%%HiResBoundingBox: 75.600000 223.200000 536.400000 568.800000
%%EndComments
%%BeginProlog
/mpldict 11 dict def
mpldict begin
/_d { bind def } bind def
/m { moveto } _d
/l { lineto } _d
/r { rlineto } _d
/c { curveto } _d
/cl { closepath } _d
/ce { closepath eofill } _d
/box {
      m
      1 index 0 r
      0 exch r
      neg 0 r
      cl
    } _d
/clipbox {
      box
      clip
      newpath
    } _d
/sc { setcachedevice } _d
%!PS-Adobe-3.0 Resource-Font
%%Creator: Converted from TrueType to Type 3 by Matplotlib.
10 dict begin
/FontName /DejaVuSans def
/PaintType 0 def
/FontMatrix [0.00048828125 0 0 0.00048828125 0 0] def
/FontBBox [-2090 -948 3673 2524] def
/FontType 3 def
/Encoding [/period /zero /one /minus /two /four /three /six /five /eight /x] def
/CharStrings 12 dict dup begin
/.notdef 0 def
/period{651 0 219 0 430 254 sc
219 254 m
430 254 l
430 0 l
219 0 l
219 254 l

ce} _d
/zero{1303 0 135 -29 1167 1520 sc
651 1360 m
547 1360 469 1309 416 1206 c
364 1104 338 950 338 745 c
338 540 364 387 416 284 c
469 182 547 131 651 131 c
756 131 834 182 886 284 c
939 387 965 540 965 745 c
965 950 939 1104 886 1206 c
834 1309 756 1360 651 1360 c

651 1520 m
818 1520 946 1454 1034 1321 c
1123 1189 1167 997 1167 745 c
1167 494 1123 302 1034 169 c
946 37 818 -29 651 -29 c
484 -29 356 37 267 169 c
179 302 135 494 135 745 c
135 997 179 1189 267 1321 c
356 1454 484 1520 651 1520 c

ce} _d
/one{1303 0 225 0 1114 1493 sc
254 170 m
584 170 l
584 1309 l
225 1237 l
225 1421 l
582 1493 l
784 1493 l
784 170 l
1114 170 l
1114 0 l
254 0 l
254 170 l

ce} _d
/minus{1716 0 217 557 1499 727 sc
217 727 m
1499 727 l
1499 557 l
217 557 l
217 727 l

ce} _d
/two{1303 0 150 0 1098 1520 sc
393 170 m
1098 170 l
1098 0 l
150 0 l
150 170 l
227 249 331 356 463 489 c
596 623 679 709 713 748 c
778 821 823 882 848 932 c
874 983 887 1032 887 1081 c
887 1160 859 1225 803 1275 c
748 1325 675 1350 586 1350 c
523 1350 456 1339 385 1317 c
315 1295 240 1262 160 1217 c
160 1421 l
241 1454 317 1478 388 1495 c
459 1512 523 1520 582 1520 c
737 1520 860 1481 952 1404 c
1044 1327 1090 1223 1090 1094 c
1090 1033 1078 974 1055 919 c
1032 864 991 800 930 725 c
913 706 860 650 771 557 c
682 465 556 336 393 170 c

ce} _d
/four{1303 0 100 0 1188 1493 sc
774 1317 m
264 520 l
774 520 l
774 1317 l

721 1493 m
975 1493 l
975 520 l
1188 520 l
1188 352 l
975 352 l
975 0 l
774 0 l
774 352 l
100 352 l
100 547 l
721 1493 l

ce} _d
/three{1303 0 156 -29 1139 1520 sc
831 805 m
928 784 1003 741 1057 676 c
1112 611 1139 530 1139 434 c
1139 287 1088 173 987 92 c
886 11 742 -29 555 -29 c
492 -29 428 -23 361 -10 c
295 2 227 20 156 45 c
156 240 l
212 207 273 183 340 166 c
407 149 476 141 549 141 c
676 141 772 166 838 216 c
905 266 938 339 938 434 c
938 522 907 591 845 640 c
784 690 698 715 588 715 c
414 715 l
414 881 l
596 881 l
695 881 771 901 824 940 c
877 980 903 1037 903 1112 c
903 1189 876 1247 821 1288 c
767 1329 689 1350 588 1350 c
533 1350 473 1344 410 1332 c
347 1320 277 1301 201 1276 c
201 1456 l
278 1477 349 1493 416 1504 c
483 1515 547 1520 606 1520 c
759 1520 881 1485 970 1415 c
1059 1346 1104 1252 1104 1133 c
1104 1050 1080 980 1033 923 c
986 866 918 827 831 805 c

ce} _d
/six{1303 0 143 -29 1174 1520 sc
676 827 m
585 827 513 796 460 734 c
407 672 381 587 381 479 c
381 372 407 287 460 224 c
513 162 585 131 676 131 c
767 131 838 162 891 224 c
944 287 971 372 971 479 c
971 587 944 672 891 734 c
838 796 767 827 676 827 c

1077 1460 m
1077 1276 l
1026 1300 975 1318 923 1331 c
872 1344 821 1350 770 1350 c
637 1350 535 1305 464 1215 c
394 1125 354 989 344 807 c
383 865 433 909 492 940 c
551 971 617 987 688 987 c
838 987 956 941 1043 850 c
1130 759 1174 636 1174 479 c
1174 326 1129 203 1038 110 c
947 17 827 -29 676 -29 c
503 -29 371 37 280 169 c
189 302 143 494 143 745 c
143 981 199 1169 311 1309 c
423 1450 573 1520 762 1520 c
813 1520 864 1515 915 1505 c
967 1495 1021 1480 1077 1460 c

ce} _d
/five{1303 0 158 -29 1124 1493 sc
221 1493 m
1014 1493 l
1014 1323 l
406 1323 l
406 957 l
435 967 465 974 494 979 c
523 984 553 987 582 987 c
749 987 881 941 978 850 c
1075 759 1124 635 1124 479 c
1124 318 1074 193 974 104 c
874 15 733 -29 551 -29 c
488 -29 424 -24 359 -13 c
294 -2 227 14 158 35 c
158 238 l
218 205 280 181 344 165 c
408 149 476 141 547 141 c
662 141 754 171 821 232 c
888 293 922 375 922 479 c
922 583 888 665 821 726 c
754 787 662 817 547 817 c
493 817 439 811 385 799 c
332 787 277 768 221 743 c
221 1493 l

ce} _d
/eight{1303 0 139 -29 1163 1520 sc
651 709 m
555 709 479 683 424 632 c
369 581 342 510 342 420 c
342 330 369 259 424 208 c
479 157 555 131 651 131 c
747 131 823 157 878 208 c
933 260 961 331 961 420 c
961 510 933 581 878 632 c
823 683 748 709 651 709 c

449 795 m
362 816 295 857 246 916 c
198 975 174 1048 174 1133 c
174 1252 216 1347 301 1416 c
386 1485 503 1520 651 1520 c
800 1520 916 1485 1001 1416 c
1086 1347 1128 1252 1128 1133 c
1128 1048 1104 975 1055 916 c
1007 857 940 816 854 795 c
951 772 1027 728 1081 662 c
1136 596 1163 515 1163 420 c
1163 275 1119 164 1030 87 c
942 10 816 -29 651 -29 c
486 -29 360 10 271 87 c
183 164 139 275 139 420 c
139 515 166 596 221 662 c
276 728 352 772 449 795 c

375 1114 m
375 1037 399 976 447 933 c
496 890 564 868 651 868 c
738 868 805 890 854 933 c
903 976 928 1037 928 1114 c
928 1191 903 1252 854 1295 c
805 1338 738 1360 651 1360 c
564 1360 496 1338 447 1295 c
399 1252 375 1191 375 1114 c

ce} _d
/x{1212 0 59 0 1145 1120 sc
1124 1120 m
719 575 l
1145 0 l
928 0 l
602 440 l
276 0 l
59 0 l
494 586 l
96 1120 l
313 1120 l
610 721 l
907 1120 l
1124 1120 l

ce} _d
end readonly def

/BuildGlyph {
 exch begin
 CharStrings exch
 2 copy known not {pop /.notdef} if
 true 3 1 roll get exec
 end
} _d

/BuildChar {
 1 index /Encoding get exch get
 1 index /BuildGlyph get exec
} _d

FontName currentdict end definefont pop
end
%%EndProlog
mpldict begin
75.6 223.2 translate
460.8 345.6 0 0 clipbox
gsave
0 0 m
460.8 0 l
460.8 345.6 l
0 345.6 l
cl
1.000 setgray
fill
grestore
gsave
33.64 27.88 m
447.144681 27.88 l
447.144681 334.8 l
33.64 334.8 l
cl
1.000 setgray
fill
grestore
gsave
413.505 306.92 33.64 27.88 clipbox
52.435667 27.88 m
59.953925 27.88 l
59.953925 27.96026 l
52.435667 27.96026 l
cl
0.275 0.195 0.496 setrgbcolor
fill
grestore
gsave
413.505 306.92 33.64 27.88 clipbox
59.953925 27.88 m
67.472207 27.88 l
67.472207 27.88 l
59.953925 27.88 l
cl
0.275 0.195 0.496 setrgbcolor
fill
grestore
gsave
413.505 306.92 33.64 27.88 clipbox
67.472207 27.88 m
74.990465 27.88 l
74.990465 27.88 l
67.472207 27.88 l
cl
0.275 0.195 0.496 setrgbcolor
fill
grestore
gsave
413.505 306.92 33.64 27.88 clipbox
74.990465 27.88 m
82.508747 27.88 l
82.508747 27.88 l
74.990465 27.88 l
cl
0.275 0.195 0.496 setrgbcolor
fill
grestore
gsave
413.505 306.92 33.64 27.88 clipbox
82.508747 27.88 m
90.027004 27.88 l
90.027004 27.96026 l
82.508747 27.96026 l
cl
0.275 0.195 0.496 setrgbcolor
fill
grestore
gsave
413.505 306.92 33.64 27.88 clipbox
90.027004 27.88 m
97.545274 27.88 l
97.545274 27.88 l
90.027004 27.88 l
cl
0.275 0.195 0.496 setrgbcolor
fill
grestore
gsave
413.505 306.92 33.64 27.88 clipbox
97.545274 27.88 m
105.063532 27.88 l
105.063532 27.88 l
97.545274 27.88 l
cl
0.275 0.195 0.496 setrgbcolor
fill
grestore
gsave
413.505 306.92 33.64 27.88 clipbox
105.063532 27.88 m
112.581802 27.88 l
112.581802 27.88 l
105.063532 27.88 l
cl
0.275 0.195 0.496 setrgbcolor
fill
grestore
gsave
413.505 306.92 33.64 27.88 clipbox
112.581802 27.88 m
120.100072 27.88 l
120.100072 27.88 l
112.581802 27.88 l
cl
0.275 0.195 0.496 setrgbcolor
fill
grestore
gsave
413.505 306.92 33.64 27.88 clipbox
120.100072 27.88 m
127.618341 27.88 l
127.618341 27.88 l
120.100072 27.88 l
cl
0.275 0.195 0.496 setrgbcolor
fill
grestore
gsave
413.505 306.92 33.64 27.88 clipbox
127.618341 27.88 m
135.136599 27.88 l
135.136599 27.96026 l
127.618341 27.96026 l
cl
0.275 0.195 0.496 setrgbcolor
fill
grestore
gsave
413.505 306.92 33.64 27.88 clipbox
135.136599 27.88 m
142.654869 27.88 l
142.654869 27.88 l
135.136599 27.88 l
cl
0.275 0.195 0.496 setrgbcolor
fill
grestore
gsave
413.505 306.92 33.64 27.88 clipbox
142.654869 27.88 m
150.173139 27.88 l
150.173139 28.040519 l
142.654869 28.040519 l
cl
0.275 0.195 0.496 setrgbcolor
fill
grestore
gsave
413.505 306.92 33.64 27.88 clipbox
150.173139 27.88 m
157.691409 27.88 l
157.691409 27.88 l
150.173139 27.88 l
cl
0.275 0.195 0.496 setrgbcolor
fill
grestore
gsave
413.505 306.92 33.64 27.88 clipbox
157.691409 27.88 m
165.209666 27.88 l
165.209666 27.88 l
157.691409 27.88 l
cl
0.275 0.195 0.496 setrgbcolor
fill
grestore
gsave
413.505 306.92 33.64 27.88 clipbox
165.209666 27.88 m
172.727936 27.88 l
172.727936 27.960259 l
165.209666 27.960259 l
cl
0.275 0.195 0.496 setrgbcolor
fill
grestore
gsave
413.505 306.92 33.64 27.88 clipbox
172.727936 27.88 m
180.246206 27.88 l
180.246206 27.88 l
172.727936 27.88 l
cl
0.275 0.195 0.496 setrgbcolor
fill
grestore
gsave
413.505 306.92 33.64 27.88 clipbox
180.246206 27.88 m
187.764476 27.88 l
187.764476 27.960259 l
180.246206 27.960259 l
cl
0.275 0.195 0.496 setrgbcolor
fill
grestore
gsave
413.505 306.92 33.64 27.88 clipbox
187.764476 27.88 m
195.28274 27.88 l
195.28274 28.361557 l
187.764476 28.361557 l
cl
0.275 0.195 0.496 setrgbcolor
fill
grestore
gsave
413.505 306.92 33.64 27.88 clipbox
195.28274 27.88 m
202.801003 27.88 l
202.801003 28.120778 l
195.28274 28.120778 l
cl
0.275 0.195 0.496 setrgbcolor
fill
grestore
gsave
413.505 306.92 33.64 27.88 clipbox
202.801003 27.88 m
210.319273 27.88 l
210.319273 28.602334 l
202.801003 28.602334 l
cl
0.275 0.195 0.496 setrgbcolor
fill
grestore
gsave
413.505 306.92 33.64 27.88 clipbox
210.319273 27.88 m
217.837537 27.88 l
217.837537 28.762854 l
210.319273 28.762854 l
cl
0.275 0.195 0.496 setrgbcolor
fill
grestore
gsave
413.505 306.92 33.64 27.88 clipbox
217.837537 27.88 m
225.355807 27.88 l
225.355807 28.843113 l
217.837537 28.843113 l
cl
0.275 0.195 0.496 setrgbcolor
fill
grestore
gsave
413.505 306.92 33.64 27.88 clipbox
225.355807 27.88 m
232.874071 27.88 l
232.874071 30.047005 l
225.355807 30.047005 l
cl
0.275 0.195 0.496 setrgbcolor
fill
grestore
gsave
413.505 306.92 33.64 27.88 clipbox
232.874071 27.88 m
240.39234 27.88 l
240.39234 32.695563 l
232.874071 32.695563 l
cl
0.275 0.195 0.496 setrgbcolor
fill
grestore
gsave
413.505 306.92 33.64 27.88 clipbox
240.39234 27.88 m
247.910607 27.88 l
247.910607 37.109832 l
240.39234 37.109832 l
cl
0.275 0.195 0.496 setrgbcolor
fill
grestore
gsave
413.505 306.92 33.64 27.88 clipbox
247.910607 27.88 m
255.428874 27.88 l
255.428874 44.17266 l
247.910607 44.17266 l
cl
0.275 0.195 0.496 setrgbcolor
fill
grestore
gsave
413.505 306.92 33.64 27.88 clipbox
255.428874 27.88 m
262.947141 27.88 l
262.947141 60.064022 l
255.428874 60.064022 l
cl
0.275 0.195 0.496 setrgbcolor
fill
grestore
gsave
413.505 306.92 33.64 27.88 clipbox
262.947141 27.88 m
270.465408 27.88 l
270.465408 88.957409 l
262.947141 88.957409 l
cl
0.275 0.195 0.496 setrgbcolor
fill
grestore
gsave
413.505 306.92 33.64 27.88 clipbox
270.465408 27.88 m
277.983674 27.88 l
277.983674 144.737697 l
270.465408 144.737697 l
cl
0.275 0.195 0.496 setrgbcolor
fill
grestore
gsave
413.505 306.92 33.64 27.88 clipbox
277.983674 27.88 m
285.501942 27.88 l
285.501942 220.502558 l
277.983674 220.502558 l
cl
0.275 0.195 0.496 setrgbcolor
fill
grestore
gsave
413.505 306.92 33.64 27.88 clipbox
285.501942 27.88 m
293.020209 27.88 l
293.020209 295.384605 l
285.501942 295.384605 l
cl
0.275 0.195 0.496 setrgbcolor
fill
grestore
gsave
413.505 306.92 33.64 27.88 clipbox
293.020209 27.88 m
300.538476 27.88 l
300.538476 320.184762 l
293.020209 320.184762 l
cl
0.275 0.195 0.496 setrgbcolor
fill
grestore
gsave
413.505 306.92 33.64 27.88 clipbox
300.538476 27.88 m
308.056743 27.88 l
308.056743 271.708055 l
300.538476 271.708055 l
cl
0.275 0.195 0.496 setrgbcolor
fill
grestore
gsave
413.505 306.92 33.64 27.88 clipbox
308.056743 27.88 m
315.57501 27.88 l
315.57501 193.455158 l
308.056743 193.455158 l
cl
0.275 0.195 0.496 setrgbcolor
fill
grestore
gsave
413.505 306.92 33.64 27.88 clipbox
315.57501 27.88 m
323.093275 27.88 l
323.093275 122.345342 l
315.57501 122.345342 l
cl
0.275 0.195 0.496 setrgbcolor
fill
grestore
gsave
413.505 306.92 33.64 27.88 clipbox
323.093275 27.88 m
330.611542 27.88 l
330.611542 75.955385 l
323.093275 75.955385 l
cl
0.275 0.195 0.496 setrgbcolor
fill
grestore
gsave
413.505 306.92 33.64 27.88 clipbox
330.611542 27.88 m
338.129812 27.88 l
338.129812 54.927409 l
330.611542 54.927409 l
cl
0.275 0.195 0.496 setrgbcolor
fill
grestore
gsave
413.505 306.92 33.64 27.88 clipbox
338.129812 27.88 m
345.648076 27.88 l
345.648076 40.400473 l
338.129812 40.400473 l
cl
0.275 0.195 0.496 setrgbcolor
fill
grestore
gsave
413.505 306.92 33.64 27.88 clipbox
345.648076 27.88 m
353.166345 27.88 l
353.166345 34.30075 l
345.648076 34.30075 l
cl
0.275 0.195 0.496 setrgbcolor
fill
grestore
gsave
413.505 306.92 33.64 27.88 clipbox
353.166345 27.88 m
360.684609 27.88 l
360.684609 31.331156 l
353.166345 31.331156 l
cl
0.275 0.195 0.496 setrgbcolor
fill
grestore
gsave
413.505 306.92 33.64 27.88 clipbox
360.684609 27.88 m
368.202879 27.88 l
368.202879 30.127263 l
360.684609 30.127263 l
cl
0.275 0.195 0.496 setrgbcolor
fill
grestore
gsave
413.505 306.92 33.64 27.88 clipbox
368.202879 27.88 m
375.721143 27.88 l
375.721143 28.762854 l
368.202879 28.762854 l
cl
0.275 0.195 0.496 setrgbcolor
fill
grestore
gsave
413.505 306.92 33.64 27.88 clipbox
375.721143 27.88 m
383.239413 27.88 l
383.239413 28.361556 l
375.721143 28.361556 l
cl
0.275 0.195 0.496 setrgbcolor
fill
grestore
gsave
413.505 306.92 33.64 27.88 clipbox
383.239413 27.88 m
390.757676 27.88 l
390.757676 28.361557 l
383.239413 28.361557 l
cl
0.275 0.195 0.496 setrgbcolor
fill
grestore
gsave
413.505 306.92 33.64 27.88 clipbox
390.757676 27.88 m
398.275946 27.88 l
398.275946 28.201038 l
390.757676 28.201038 l
cl
0.275 0.195 0.496 setrgbcolor
fill
grestore
gsave
413.505 306.92 33.64 27.88 clipbox
398.275946 27.88 m
405.794216 27.88 l
405.794216 28.040519 l
398.275946 28.040519 l
cl
0.275 0.195 0.496 setrgbcolor
fill
grestore
gsave
413.505 306.92 33.64 27.88 clipbox
405.794216 27.88 m
413.312474 27.88 l
413.312474 27.96026 l
405.794216 27.96026 l
cl
0.275 0.195 0.496 setrgbcolor
fill
grestore
gsave
413.505 306.92 33.64 27.88 clipbox
413.312474 27.88 m
420.830744 27.88 l
420.830744 28.040519 l
413.312474 28.040519 l
cl
0.275 0.195 0.496 setrgbcolor
fill
grestore
gsave
413.505 306.92 33.64 27.88 clipbox
420.830744 27.88 m
428.349013 27.88 l
428.349013 27.960259 l
420.830744 27.960259 l
cl
0.275 0.195 0.496 setrgbcolor
fill
grestore
0.800 setlinewidth
1 setlinejoin
0 setlinecap
[] 0 setdash
0.000 setgray
gsave
/o {
gsave
newpath
translate
0.8 setlinewidth
1 setlinejoin

0 setlinecap

0 0 m
0 -3.5 l

gsave
0.000 setgray
fill
grestore
stroke
grestore
} bind def
39.2859 27.88 o
grestore
/DejaVuSans 10.000 selectfont
gsave

28.739 13.2863 translate
0 rotate
0 0 m /minus glyphshow
8.37891 0 m /one glyphshow
14.7412 0 m /zero glyphshow
grestore
gsave
/o {
gsave
newpath
translate
0.8 setlinewidth
1 setlinejoin

0 setlinecap

0 0 m
0 -3.5 l

gsave
0.000 setgray
fill
grestore
stroke
grestore
} bind def
90.219 27.88 o
grestore
/DejaVuSans 10.000 selectfont
gsave

82.8519 13.2863 translate
0 rotate
0 0 m /minus glyphshow
8.37891 0 m /eight glyphshow
grestore
gsave
/o {
gsave
newpath
translate
0.8 setlinewidth
1 setlinejoin

0 setlinecap

0 0 m
0 -3.5 l

gsave
0.000 setgray
fill
grestore
stroke
grestore
} bind def
141.152 27.88 o
grestore
/DejaVuSans 10.000 selectfont
gsave

133.785 13.2863 translate
0 rotate
0 0 m /minus glyphshow
8.37891 0 m /six glyphshow
grestore
gsave
/o {
gsave
newpath
translate
0.8 setlinewidth
1 setlinejoin

0 setlinecap

0 0 m
0 -3.5 l

gsave
0.000 setgray
fill
grestore
stroke
grestore
} bind def
192.085 27.88 o
grestore
/DejaVuSans 10.000 selectfont
gsave

184.718 13.2863 translate
0 rotate
0 0 m /minus glyphshow
8.37891 0 m /four glyphshow
grestore
gsave
/o {
gsave
newpath
translate
0.8 setlinewidth
1 setlinejoin

0 setlinecap

0 0 m
0 -3.5 l

gsave
0.000 setgray
fill
grestore
stroke
grestore
} bind def
243.019 27.88 o
grestore
/DejaVuSans 10.000 selectfont
gsave

235.651 13.2863 translate
0 rotate
0 0 m /minus glyphshow
8.37891 0 m /two glyphshow
grestore
gsave
/o {
gsave
newpath
translate
0.8 setlinewidth
1 setlinejoin

0 setlinecap

0 0 m
0 -3.5 l

gsave
0.000 setgray
fill
grestore
stroke
grestore
} bind def
293.952 27.88 o
grestore
/DejaVuSans 10.000 selectfont
gsave

290.772 13.2863 translate
0 rotate
0 0 m /zero glyphshow
grestore
gsave
/o {
gsave
newpath
translate
0.8 setlinewidth
1 setlinejoin

0 setlinecap

0 0 m
0 -3.5 l

gsave
0.000 setgray
fill
grestore
stroke
grestore
} bind def
344.885 27.88 o
grestore
/DejaVuSans 10.000 selectfont
gsave

341.705 13.2863 translate
0 rotate
0 0 m /two glyphshow
grestore
gsave
/o {
gsave
newpath
translate
0.8 setlinewidth
1 setlinejoin

0 setlinecap

0 0 m
0 -3.5 l

gsave
0.000 setgray
fill
grestore
stroke
grestore
} bind def
395.818 27.88 o
grestore
/DejaVuSans 10.000 selectfont
gsave

392.638 13.2863 translate
0 rotate
0 0 m /four glyphshow
grestore
gsave
/o {
gsave
newpath
translate
0.8 setlinewidth
1 setlinejoin

0 setlinecap

0 0 m
0 -3.5 l

gsave
0.000 setgray
fill
grestore
stroke
grestore
} bind def
446.751 27.88 o
grestore
/DejaVuSans 10.000 selectfont
gsave

443.572 13.2863 translate
0 rotate
0 0 m /six glyphshow
grestore
gsave
/o {
gsave
newpath
translate
0.8 setlinewidth
1 setlinejoin

0 setlinecap

-0 0 m
-3.5 0 l

gsave
0.000 setgray
fill
grestore
stroke
grestore
} bind def
33.64 27.88 o
grestore
/DejaVuSans 10.000 selectfont
gsave

10.7338 24.0831 translate
0 rotate
0 0 m /zero glyphshow
6.3623 0 m /period glyphshow
9.54102 0 m /zero glyphshow
grestore
gsave
/o {
gsave
newpath
translate
0.8 setlinewidth
1 setlinejoin

0 setlinecap

-0 0 m
-3.5 0 l

gsave
0.000 setgray
fill
grestore
stroke
grestore
} bind def
33.64 75.2685 o
grestore
/DejaVuSans 10.000 selectfont
gsave

10.7338 71.4716 translate
0 rotate
0 0 m /zero glyphshow
6.3623 0 m /period glyphshow
9.54102 0 m /one glyphshow
grestore
gsave
/o {
gsave
newpath
translate
0.8 setlinewidth
1 setlinejoin

0 setlinecap

-0 0 m
-3.5 0 l

gsave
0.000 setgray
fill
grestore
stroke
grestore
} bind def
33.64 122.657 o
grestore
/DejaVuSans 10.000 selectfont
gsave

10.7338 118.86 translate
0 rotate
0 0 m /zero glyphshow
6.3623 0 m /period glyphshow
9.54102 0 m /two glyphshow
grestore
gsave
/o {
gsave
newpath
translate
0.8 setlinewidth
1 setlinejoin

0 setlinecap

-0 0 m
-3.5 0 l

gsave
0.000 setgray
fill
grestore
stroke
grestore
} bind def
33.64 170.045 o
grestore
/DejaVuSans 10.000 selectfont
gsave

10.7338 166.249 translate
0 rotate
0 0 m /zero glyphshow
6.3623 0 m /period glyphshow
9.54102 0 m /three glyphshow
grestore
gsave
/o {
gsave
newpath
translate
0.8 setlinewidth
1 setlinejoin

0 setlinecap

-0 0 m
-3.5 0 l

gsave
0.000 setgray
fill
grestore
stroke
grestore
} bind def
33.64 217.434 o
grestore
/DejaVuSans 10.000 selectfont
gsave

10.7338 213.637 translate
0 rotate
0 0 m /zero glyphshow
6.3623 0 m /period glyphshow
9.54102 0 m /four glyphshow
grestore
gsave
/o {
gsave
newpath
translate
0.8 setlinewidth
1 setlinejoin

0 setlinecap

-0 0 m
-3.5 0 l

gsave
0.000 setgray
fill
grestore
stroke
grestore
} bind def
33.64 264.822 o
grestore
/DejaVuSans 10.000 selectfont
gsave

10.7338 261.026 translate
0 rotate
0 0 m /zero glyphshow
6.3623 0 m /period glyphshow
9.54102 0 m /five glyphshow
grestore
gsave
/o {
gsave
newpath
translate
0.8 setlinewidth
1 setlinejoin

0 setlinecap

-0 0 m
-3.5 0 l

gsave
0.000 setgray
fill
grestore
stroke
grestore
} bind def
33.64 312.211 o
grestore
/DejaVuSans 10.000 selectfont
gsave

10.7338 308.414 translate
0 rotate
0 0 m /zero glyphshow
6.3623 0 m /period glyphshow
9.54102 0 m /six glyphshow
grestore
0 setlinejoin
2 setlinecap
gsave
33.64 27.88 m
33.64 334.8 l
stroke
grestore
gsave
447.144681 27.88 m
447.144681 334.8 l
stroke
grestore
gsave
33.64 27.88 m
447.144681 27.88 l
stroke
grestore
gsave
33.64 334.8 m
447.144681 334.8 l
stroke
grestore
1.000 setlinewidth
0 setlinecap
0.800 setgray
gsave
415.878125 322.928125 m
453.8 322.928125 l
455.133333 322.928125 455.8 323.594792 455.8 324.928125 c
455.8 338.6 l
455.8 339.933333 455.133333 340.6 453.8 340.6 c
415.878125 340.6 l
414.544792 340.6 413.878125 339.933333 413.878125 338.6 c
413.878125 324.928125 l
413.878125 323.594792 414.544792 322.928125 415.878125 322.928125 c
cl
gsave
1.000 setgray
fill
grestore
stroke
grestore
gsave
417.878125 329.00625 m
437.878125 329.00625 l
437.878125 336.00625 l
417.878125 336.00625 l
cl
0.275 0.195 0.496 setrgbcolor
fill
grestore
0.000 setgray
/DejaVuSans 10.000 selectfont
gsave

445.878 329.006 translate
0 rotate
0 0 m /x glyphshow
grestore

end
showpage
