%!PS-Adobe-3.0 EPSF-3.0
%%Title: prova_a1.eps
%%Creator: Matplotlib v3.6.2, https://matplotlib.org/
%%CreationDate: Mon Jan 30 14:35:52 2023
%%Orientation: portrait
%%BoundingBox: 75 223 537 569
%%HiResBoundingBox: 75.600000 223.200000 536.400000 568.800000
%%EndComments
%%BeginProlog
/mpldict 11 dict def
mpldict begin
/_d { bind def } bind def
/m { moveto } _d
/l { lineto } _d
/r { rlineto } _d
/c { curveto } _d
/cl { closepath } _d
/ce { closepath eofill } _d
/box {
      m
      1 index 0 r
      0 exch r
      neg 0 r
      cl
    } _d
/clipbox {
      box
      clip
      newpath
    } _d
/sc { setcachedevice } _d
%!PS-Adobe-3.0 Resource-Font
%%Creator: Converted from TrueType to Type 3 by Matplotlib.
10 dict begin
/FontName /DejaVuSans def
/PaintType 0 def
/FontMatrix [0.00048828125 0 0 0.00048828125 0 0] def
/FontBBox [-2090 -948 3673 2524] def
/FontType 3 def
/Encoding [/minus /period /zero /one /two /three /four /five /seven /A /underscore /a /c /e /g /i /l /n /o /r /s /t /u] def
/CharStrings 24 dict dup begin
/.notdef 0 def
/minus{1716 0 217 557 1499 727 sc
217 727 m
1499 727 l
1499 557 l
217 557 l
217 727 l

ce} _d
/period{651 0 219 0 430 254 sc
219 254 m
430 254 l
430 0 l
219 0 l
219 254 l

ce} _d
/zero{1303 0 135 -29 1167 1520 sc
651 1360 m
547 1360 469 1309 416 1206 c
364 1104 338 950 338 745 c
338 540 364 387 416 284 c
469 182 547 131 651 131 c
756 131 834 182 886 284 c
939 387 965 540 965 745 c
965 950 939 1104 886 1206 c
834 1309 756 1360 651 1360 c

651 1520 m
818 1520 946 1454 1034 1321 c
1123 1189 1167 997 1167 745 c
1167 494 1123 302 1034 169 c
946 37 818 -29 651 -29 c
484 -29 356 37 267 169 c
179 302 135 494 135 745 c
135 997 179 1189 267 1321 c
356 1454 484 1520 651 1520 c

ce} _d
/one{1303 0 225 0 1114 1493 sc
254 170 m
584 170 l
584 1309 l
225 1237 l
225 1421 l
582 1493 l
784 1493 l
784 170 l
1114 170 l
1114 0 l
254 0 l
254 170 l

ce} _d
/two{1303 0 150 0 1098 1520 sc
393 170 m
1098 170 l
1098 0 l
150 0 l
150 170 l
227 249 331 356 463 489 c
596 623 679 709 713 748 c
778 821 823 882 848 932 c
874 983 887 1032 887 1081 c
887 1160 859 1225 803 1275 c
748 1325 675 1350 586 1350 c
523 1350 456 1339 385 1317 c
315 1295 240 1262 160 1217 c
160 1421 l
241 1454 317 1478 388 1495 c
459 1512 523 1520 582 1520 c
737 1520 860 1481 952 1404 c
1044 1327 1090 1223 1090 1094 c
1090 1033 1078 974 1055 919 c
1032 864 991 800 930 725 c
913 706 860 650 771 557 c
682 465 556 336 393 170 c

ce} _d
/three{1303 0 156 -29 1139 1520 sc
831 805 m
928 784 1003 741 1057 676 c
1112 611 1139 530 1139 434 c
1139 287 1088 173 987 92 c
886 11 742 -29 555 -29 c
492 -29 428 -23 361 -10 c
295 2 227 20 156 45 c
156 240 l
212 207 273 183 340 166 c
407 149 476 141 549 141 c
676 141 772 166 838 216 c
905 266 938 339 938 434 c
938 522 907 591 845 640 c
784 690 698 715 588 715 c
414 715 l
414 881 l
596 881 l
695 881 771 901 824 940 c
877 980 903 1037 903 1112 c
903 1189 876 1247 821 1288 c
767 1329 689 1350 588 1350 c
533 1350 473 1344 410 1332 c
347 1320 277 1301 201 1276 c
201 1456 l
278 1477 349 1493 416 1504 c
483 1515 547 1520 606 1520 c
759 1520 881 1485 970 1415 c
1059 1346 1104 1252 1104 1133 c
1104 1050 1080 980 1033 923 c
986 866 918 827 831 805 c

ce} _d
/four{1303 0 100 0 1188 1493 sc
774 1317 m
264 520 l
774 520 l
774 1317 l

721 1493 m
975 1493 l
975 520 l
1188 520 l
1188 352 l
975 352 l
975 0 l
774 0 l
774 352 l
100 352 l
100 547 l
721 1493 l

ce} _d
/five{1303 0 158 -29 1124 1493 sc
221 1493 m
1014 1493 l
1014 1323 l
406 1323 l
406 957 l
435 967 465 974 494 979 c
523 984 553 987 582 987 c
749 987 881 941 978 850 c
1075 759 1124 635 1124 479 c
1124 318 1074 193 974 104 c
874 15 733 -29 551 -29 c
488 -29 424 -24 359 -13 c
294 -2 227 14 158 35 c
158 238 l
218 205 280 181 344 165 c
408 149 476 141 547 141 c
662 141 754 171 821 232 c
888 293 922 375 922 479 c
922 583 888 665 821 726 c
754 787 662 817 547 817 c
493 817 439 811 385 799 c
332 787 277 768 221 743 c
221 1493 l

ce} _d
/seven{1303 0 168 0 1128 1493 sc
168 1493 m
1128 1493 l
1128 1407 l
586 0 l
375 0 l
885 1323 l
168 1323 l
168 1493 l

ce} _d
/A{1401 0 16 0 1384 1493 sc
700 1294 m
426 551 l
975 551 l
700 1294 l

586 1493 m
815 1493 l
1384 0 l
1174 0 l
1038 383 l
365 383 l
229 0 l
16 0 l
586 1493 l

ce} _d
/underscore{1024 0 -20 -483 1044 -340 sc
1044 -340 m
1044 -483 l
-20 -483 l
-20 -340 l
1044 -340 l

ce} _d
/a{1255 0 123 -29 1069 1147 sc
702 563 m
553 563 450 546 393 512 c
336 478 307 420 307 338 c
307 273 328 221 371 182 c
414 144 473 125 547 125 c
649 125 731 161 792 233 c
854 306 885 402 885 522 c
885 563 l
702 563 l

1069 639 m
1069 0 l
885 0 l
885 170 l
843 102 791 52 728 19 c
665 -13 589 -29 498 -29 c
383 -29 292 3 224 67 c
157 132 123 218 123 326 c
123 452 165 547 249 611 c
334 675 460 707 627 707 c
885 707 l
885 725 l
885 810 857 875 801 921 c
746 968 668 991 567 991 c
503 991 441 983 380 968 c
319 953 261 930 205 899 c
205 1069 l
272 1095 338 1114 401 1127 c
464 1140 526 1147 586 1147 c
748 1147 869 1105 949 1021 c
1029 937 1069 810 1069 639 c

ce} _d
/c{1126 0 113 -29 999 1147 sc
999 1077 m
999 905 l
947 934 895 955 842 969 c
790 984 737 991 684 991 c
565 991 472 953 406 877 c
340 802 307 696 307 559 c
307 422 340 316 406 240 c
472 165 565 127 684 127 c
737 127 790 134 842 148 c
895 163 947 184 999 213 c
999 43 l
948 19 894 1 839 -11 c
784 -23 726 -29 664 -29 c
495 -29 361 24 262 130 c
163 236 113 379 113 559 c
113 742 163 885 263 990 c
364 1095 501 1147 676 1147 c
733 1147 788 1141 842 1129 c
896 1118 948 1100 999 1077 c

ce} _d
/e{1260 0 113 -29 1151 1147 sc
1151 606 m
1151 516 l
305 516 l
313 389 351 293 419 226 c
488 160 583 127 705 127 c
776 127 844 136 910 153 c
977 170 1043 196 1108 231 c
1108 57 l
1042 29 974 8 905 -7 c
836 -22 765 -29 694 -29 c
515 -29 374 23 269 127 c
165 231 113 372 113 549 c
113 732 162 878 261 985 c
360 1093 494 1147 662 1147 c
813 1147 932 1098 1019 1001 c
1107 904 1151 773 1151 606 c

967 660 m
966 761 937 841 882 901 c
827 961 755 991 664 991 c
561 991 479 962 417 904 c
356 846 320 764 311 659 c
967 660 l

ce} _d
/g{1300 0 113 -426 1114 1147 sc
930 573 m
930 706 902 810 847 883 c
792 956 715 993 616 993 c
517 993 440 956 385 883 c
330 810 303 706 303 573 c
303 440 330 337 385 264 c
440 191 517 154 616 154 c
715 154 792 191 847 264 c
902 337 930 440 930 573 c

1114 139 m
1114 -52 1072 -193 987 -286 c
902 -379 773 -426 598 -426 c
533 -426 472 -421 415 -411 c
358 -402 302 -387 248 -367 c
248 -188 l
302 -217 355 -239 408 -253 c
461 -267 514 -274 569 -274 c
690 -274 780 -242 840 -179 c
900 -116 930 -21 930 106 c
930 197 l
892 131 843 82 784 49 c
725 16 654 0 571 0 c
434 0 323 52 239 157 c
155 262 113 400 113 573 c
113 746 155 885 239 990 c
323 1095 434 1147 571 1147 c
654 1147 725 1131 784 1098 c
843 1065 892 1016 930 950 c
930 1120 l
1114 1120 l
1114 139 l

ce} _d
/i{569 0 193 0 377 1556 sc
193 1120 m
377 1120 l
377 0 l
193 0 l
193 1120 l

193 1556 m
377 1556 l
377 1323 l
193 1323 l
193 1556 l

ce} _d
/l{569 0 193 0 377 1556 sc
193 1556 m
377 1556 l
377 0 l
193 0 l
193 1556 l

ce} _d
/n{1298 0 186 0 1124 1147 sc
1124 676 m
1124 0 l
940 0 l
940 670 l
940 776 919 855 878 908 c
837 961 775 987 692 987 c
593 987 514 955 457 892 c
400 829 371 742 371 633 c
371 0 l
186 0 l
186 1120 l
371 1120 l
371 946 l
415 1013 467 1064 526 1097 c
586 1130 655 1147 733 1147 c
862 1147 959 1107 1025 1027 c
1091 948 1124 831 1124 676 c

ce} _d
/o{1253 0 113 -29 1141 1147 sc
627 991 m
528 991 450 952 393 875 c
336 798 307 693 307 559 c
307 425 335 319 392 242 c
449 165 528 127 627 127 c
725 127 803 166 860 243 c
917 320 946 426 946 559 c
946 692 917 797 860 874 c
803 952 725 991 627 991 c

627 1147 m
787 1147 913 1095 1004 991 c
1095 887 1141 743 1141 559 c
1141 376 1095 232 1004 127 c
913 23 787 -29 627 -29 c
466 -29 340 23 249 127 c
158 232 113 376 113 559 c
113 743 158 887 249 991 c
340 1095 466 1147 627 1147 c

ce} _d
/r{842 0 186 0 842 1147 sc
842 948 m
821 960 799 969 774 974 c
750 980 723 983 694 983 c
590 983 510 949 454 881 c
399 814 371 717 371 590 c
371 0 l
186 0 l
186 1120 l
371 1120 l
371 946 l
410 1014 460 1064 522 1097 c
584 1130 659 1147 748 1147 c
761 1147 775 1146 790 1144 c
805 1143 822 1140 841 1137 c
842 948 l

ce} _d
/s{1067 0 111 -29 967 1147 sc
907 1087 m
907 913 l
855 940 801 960 745 973 c
689 986 631 993 571 993 c
480 993 411 979 365 951 c
320 923 297 881 297 825 c
297 782 313 749 346 724 c
379 700 444 677 543 655 c
606 641 l
737 613 829 573 884 522 c
939 471 967 400 967 309 c
967 205 926 123 843 62 c
761 1 648 -29 504 -29 c
444 -29 381 -23 316 -11 c
251 0 183 18 111 41 c
111 231 l
179 196 246 169 312 151 c
378 134 443 125 508 125 c
595 125 661 140 708 169 c
755 199 778 241 778 295 c
778 345 761 383 727 410 c
694 437 620 462 506 487 c
442 502 l
328 526 246 563 195 612 c
144 662 119 730 119 817 c
119 922 156 1004 231 1061 c
306 1118 412 1147 549 1147 c
617 1147 681 1142 741 1132 c
801 1122 856 1107 907 1087 c

ce} _d
/t{803 0 55 0 754 1438 sc
375 1438 m
375 1120 l
754 1120 l
754 977 l
375 977 l
375 369 l
375 278 387 219 412 193 c
437 167 488 154 565 154 c
754 154 l
754 0 l
565 0 l
423 0 325 26 271 79 c
217 132 190 229 190 369 c
190 977 l
55 977 l
55 1120 l
190 1120 l
190 1438 l
375 1438 l

ce} _d
/u{1298 0 174 -29 1112 1147 sc
174 442 m
174 1120 l
358 1120 l
358 449 l
358 343 379 263 420 210 c
461 157 523 131 606 131 c
705 131 784 163 841 226 c
899 289 928 376 928 485 c
928 1120 l
1112 1120 l
1112 0 l
928 0 l
928 172 l
883 104 831 53 772 20 c
713 -13 645 -29 567 -29 c
438 -29 341 11 274 91 c
207 171 174 288 174 442 c

637 1147 m
637 1147 l

ce} _d
end readonly def

/BuildGlyph {
 exch begin
 CharStrings exch
 2 copy known not {pop /.notdef} if
 true 3 1 roll get exec
 end
} _d

/BuildChar {
 1 index /Encoding get exch get
 1 index /BuildGlyph get exec
} _d

FontName currentdict end definefont pop
end
%%EndProlog
mpldict begin
75.6 223.2 translate
460.8 345.6 0 0 clipbox
gsave
0 0 m
460.8 0 l
460.8 345.6 l
0 345.6 l
cl
1.000 setgray
fill
grestore
gsave
56.10125 195.28 m
159.394167 195.28 l
159.394167 318.72 l
56.10125 318.72 l
cl
1.000 setgray
fill
grestore
0.800 setlinewidth
1 setlinejoin
0 setlinecap
[] 0 setdash
0.000 setgray
gsave
/o {
gsave
newpath
translate
0.8 setlinewidth
1 setlinejoin

0 setlinecap

0 0 m
0 -3.5 l

gsave
0.000 setgray
fill
grestore
stroke
grestore
} bind def
60.7964 195.28 o
grestore
/DejaVuSans 10.000 selectfont
gsave

57.6167 180.686 translate
0 rotate
0 0 m /zero glyphshow
grestore
gsave
/o {
gsave
newpath
translate
0.8 setlinewidth
1 setlinejoin

0 setlinecap

0 0 m
0 -3.5 l

gsave
0.000 setgray
fill
grestore
stroke
grestore
} bind def
98.3589 195.28 o
grestore
/DejaVuSans 10.000 selectfont
gsave

82.4605 180.686 translate
0 rotate
0 0 m /one glyphshow
6.3623 0 m /zero glyphshow
12.7246 0 m /zero glyphshow
19.0869 0 m /zero glyphshow
25.4492 0 m /zero glyphshow
grestore
gsave
/o {
gsave
newpath
translate
0.8 setlinewidth
1 setlinejoin

0 setlinecap

0 0 m
0 -3.5 l

gsave
0.000 setgray
fill
grestore
stroke
grestore
} bind def
135.922 195.28 o
grestore
/DejaVuSans 10.000 selectfont
gsave

120.023 180.686 translate
0 rotate
0 0 m /two glyphshow
6.3623 0 m /zero glyphshow
12.7246 0 m /zero glyphshow
19.0869 0 m /zero glyphshow
25.4492 0 m /zero glyphshow
grestore
gsave
/o {
gsave
newpath
translate
0.8 setlinewidth
1 setlinejoin

0 setlinecap

-0 0 m
-3.5 0 l

gsave
0.000 setgray
fill
grestore
stroke
grestore
} bind def
56.1013 203.442 o
grestore
/DejaVuSans 10.000 selectfont
gsave

24.82 199.645 translate
0 rotate
0 0 m /minus glyphshow
8.37891 0 m /zero glyphshow
14.7412 0 m /period glyphshow
17.9199 0 m /four glyphshow
grestore
gsave
/o {
gsave
newpath
translate
0.8 setlinewidth
1 setlinejoin

0 setlinecap

-0 0 m
-3.5 0 l

gsave
0.000 setgray
fill
grestore
stroke
grestore
} bind def
56.1013 242.08 o
grestore
/DejaVuSans 10.000 selectfont
gsave

24.82 238.283 translate
0 rotate
0 0 m /minus glyphshow
8.37891 0 m /zero glyphshow
14.7412 0 m /period glyphshow
17.9199 0 m /three glyphshow
grestore
gsave
/o {
gsave
newpath
translate
0.8 setlinewidth
1 setlinejoin

0 setlinecap

-0 0 m
-3.5 0 l

gsave
0.000 setgray
fill
grestore
stroke
grestore
} bind def
56.1013 280.718 o
grestore
/DejaVuSans 10.000 selectfont
gsave

24.82 276.921 translate
0 rotate
0 0 m /minus glyphshow
8.37891 0 m /zero glyphshow
14.7412 0 m /period glyphshow
17.9199 0 m /two glyphshow
grestore
/DejaVuSans 10.000 selectfont
gsave

18.4606 244.148 translate
90 rotate
0 0 m /s glyphshow
5.20996 0 m /i glyphshow
7.98828 0 m /g glyphshow
14.3359 0 m /underscore glyphshow
19.3359 0 m /zero glyphshow
grestore
1.500 setlinewidth
2 setlinecap
0.122 0.467 0.706 setrgbcolor
gsave
103.293 123.44 56.101 195.28 clipbox
60.796383 237.300396 m
61.123177 237.300396 l
61.235865 255.754671 l
61.697884 255.754671 l
61.810572 274.789072 l
61.878184 274.789072 l
61.990872 260.233772 l
62.04346 260.233772 l
62.065997 228.784408 l
62.152391 248.994807 l
62.265079 268.618286 l
62.531773 268.618286 l
62.644461 265.729577 l
63.113993 265.729577 l
63.22668 258.774163 l
63.534693 258.774163 l
63.557231 280.975611 l
63.636112 256.059476 l
63.643625 256.059476 l
64.049301 256.059476 l
64.098132 223.63971 l
64.101888 270.317197 l
64.158232 270.317197 l
64.184526 270.317197 l
64.297213 259.553713 l
64.650302 259.553713 l
64.762989 239.348807 l
64.947046 239.348807 l
65.06349 262.201279 l
65.397797 262.201279 l
65.510484 263.096901 l
65.750885 263.07565 l
65.863572 232.168894 l
65.97626 232.168894 l
66.088948 270.019238 l
66.167829 270.019238 l
66.280517 270.291956 l
66.291786 270.291956 l
66.404473 275.290849 l
66.565992 275.290849 l
66.67868 233.437353 l
66.904055 233.437353 l
67.016743 276.071579 l
67.110649 276.071579 l
67.223337 241.695436 l
67.384856 241.695436 l
67.497544 251.354564 l
67.6215 251.354564 l
67.655307 259.915023 l
67.662819 243.583431 l
67.726675 243.583431 l
67.876926 243.583431 l
67.989613 242.056723 l
69.210397 242.056723 l
69.240447 227.21202 l
69.244203 279.888452 l
69.311816 279.888452 l
69.405722 279.888452 l
69.447041 235.665641 l
69.514653 262.71305 l
69.522166 262.71305 l
69.623585 313.109091 l
69.627341 237.934233 l
69.646122 237.934233 l
69.762566 245.783715 l
70.010479 245.783715 l
70.134436 264.89244 l
70.705387 264.89244 l
70.818074 250.734797 l
70.994618 250.734797 l
71.107306 251.356798 l
72.391946 251.356798 l
72.504633 263.063754 l
73.060559 263.063754 l
73.071828 276.716909 l
73.177003 230.987617 l
73.319741 230.987617 l
73.432429 245.4612 l
73.608973 245.4612 l
73.721661 287.259302 l
73.736686 287.259302 l
73.785517 236.513246 l
73.845617 267.851956 l
74.078505 267.851956 l
74.191193 276.778359 l
74.262561 276.778359 l
74.318905 279.573174 l
74.337687 218.500528 l
74.431593 242.893273 l
74.521743 242.893273 l
74.563062 220.996901 l
74.589356 270.052159 l
74.626918 265.504917 l
74.67575 265.504917 l
74.788437 271.567266 l
75.212894 271.567266 l
75.325582 257.367397 l
75.415732 257.367397 l
75.52842 243.350169 l
75.930339 243.350169 l
76.043027 268.996759 l
76.478753 268.996759 l
76.59144 251.35484 l
76.629003 251.35484 l
76.659053 249.323229 l
76.662809 259.948969 l
76.722909 259.948969 l
77.08351 259.948969 l
77.196198 248.312444 l
77.245029 248.312444 l
77.357717 261.796591 l
77.466648 261.796591 l
77.485429 233.918293 l
77.489186 268.971777 l
77.579336 236.751159 l
77.680755 236.751159 l
77.789686 232.962308 l
77.902374 263.808817 l
78.462056 263.808817 l
78.574744 288.319435 l
78.702456 288.319435 l
78.8189 249.522878 l
79.506295 249.522878 l
79.525077 242.286208 l
79.555127 270.91585 l
79.603958 270.91585 l
80.088515 270.91585 l
80.156128 290.10806 l
80.159884 226.663935 l
80.186178 226.663935 l
80.197446 226.663935 l
80.332672 265.110352 l
80.347697 265.110352 l
80.441603 222.770642 l
80.445359 265.802641 l
80.456628 265.802641 l
80.663222 265.802641 l
80.730835 268.220359 l
80.764641 218.735667 l
80.839766 251.052845 l
80.899866 251.052845 l
80.944941 217.340853 l
81.008798 239.989392 l
81.050117 239.989392 l
81.132754 297.164185 l
81.13651 213.120888 l
81.159048 213.120888 l
81.252954 213.120888 l
81.343105 278.4862 l
81.373155 271.408449 l
81.527161 271.408449 l
81.639849 240.863596 l
81.666143 240.863596 l
81.745024 272.846554 l
81.767562 237.942133 l
81.775074 237.942133 l
82.113137 237.942133 l
82.225825 269.156577 l
82.661551 269.156577 l
82.774238 239.922006 l
82.826826 239.922006 l
82.860632 256.456563 l
82.939514 247.005882 l
83.03342 247.005882 l
83.146108 245.37456 l
83.24377 245.37456 l
83.352702 259.167208 l
83.427827 244.370742 l
83.461633 256.00129 l
83.919896 256.00129 l
84.032584 280.271514 l
84.107709 280.271514 l
84.220397 263.906424 l
84.310547 263.906424 l
84.423235 251.17859 l
84.904036 251.17859 l
85.016723 271.484547 l
85.846856 271.484547 l
85.974569 236.376769 l
86.365219 236.376769 l
86.477907 256.923835 l
88.502529 256.923835 l
88.615217 261.584063 l
88.788005 261.5069 l
88.814298 277.554996 l
88.818055 229.668642 l
88.889424 235.745407 l
88.908205 235.745407 l
88.926986 282.137744 l
89.020892 274.645312 l
89.058455 274.645312 l
89.171143 295.486388 l
89.186168 295.486388 l
89.298855 233.539998 l
89.389006 233.539998 l
89.501693 253.131057 l
89.531743 253.131057 l
89.543012 239.73925 l
89.546768 258.790123 l
89.644431 245.862041 l
89.659456 245.862041 l
89.783413 257.12528 l
90.005032 257.12528 l
90.072644 257.968923 l
90.181576 221.827255 l
90.275482 246.057429 l
90.290507 227.698982 l
90.350607 227.698982 l
90.467051 249.446832 l
90.647351 249.446832 l
90.654864 260.41882 l
90.65862 247.762483 l
90.756283 247.762483 l
91.045515 247.762483 l
91.049271 282.801055 l
91.053027 246.351398 l
91.154446 246.351398 l
91.297184 246.351398 l
91.409872 251.71722 l
91.965797 251.71722 l
92.078485 250.365243 l
92.21371 250.365243 l
92.300104 248.075106 l
92.412792 267.938267 l
92.536748 267.938267 l
92.649436 252.906086 l
92.852274 252.906086 l
92.964962 281.360342 l
93.126481 281.360342 l
93.231656 222.601393 l
93.235412 283.67257 l
93.250437 283.67257 l
93.363125 262.242693 l
93.967882 262.242693 l
93.997932 233.770968 l
94.031738 269.411516 l
94.076813 269.411516 l
94.538833 269.411516 l
94.651521 256.095346 l
96.18783 256.095346 l
96.300517 236.741406 l
97.025475 236.741406 l
97.138162 260.171591 l
97.540082 260.171591 l
97.656526 270.704047 l
98.588077 270.704047 l
98.700765 246.647003 l
99.061366 246.647003 l
99.091416 238.67021 l
99.095172 261.176825 l
99.170297 248.097054 l
100.541331 248.097054 l
100.548843 284.750609 l
100.654018 272.407385 l
100.699093 272.407385 l
100.811781 266.619211 l
100.935738 266.619211 l
101.048425 255.187679 l
101.097257 255.187679 l
101.112282 218.251675 l
101.116038 287.952293 l
101.206188 260.430957 l
101.664451 260.430957 l
101.67572 293.048518 l
101.773383 273.227854 l
101.844752 273.227854 l
101.927389 285.355573 l
101.931145 267.041868 l
101.953683 267.041868 l
102.010027 267.041868 l
102.122715 288.920472 l
102.145252 288.920472 l
102.160277 253.808583 l
102.25794 254.379122 l
102.734984 254.379122 l
102.847672 270.921124 l
102.888991 270.921124 l
103.001678 252.800712 l
104.034649 252.800712 l
104.147337 278.097714 l
104.530475 278.097714 l
104.643162 251.183023 l
104.849757 251.183023 l
104.962444 245.404971 l
106.171959 245.404971 l
106.19074 269.099485 l
106.254596 231.323144 l
106.277134 231.323144 l
106.389822 231.323144 l
106.502509 255.896837 l
106.65276 255.896837 l
106.77296 244.849229 l
106.878135 244.849229 l
106.896916 280.92187 l
106.960773 211.912366 l
106.98331 211.912366 l
107.065948 211.912366 l
107.178636 283.322511 l
107.283811 283.322511 l
107.396498 260.805601 l
107.663193 260.805601 l
107.77588 240.263682 l
107.888568 240.263682 l
107.944912 251.487793 l
107.948668 231.447219 l
107.993743 231.447219 l
108.001256 231.447219 l
108.113943 246.728956 l
108.384394 246.728956 l
108.463275 278.214955 l
108.497081 255.174229 l
108.50835 255.174229 l
108.621038 275.420618 l
108.917782 275.420618 l
109.03047 243.809058 l
109.345995 243.809058 l
109.458683 266.083344 l
109.770452 266.083344 l
109.815527 287.798388 l
109.819284 237.910616 l
109.875628 237.910616 l
109.920703 237.910616 l
109.950753 223.55147 l
110.03339 265.993722 l
110.048415 265.993722 l
110.070953 238.273134 l
110.157347 259.730574 l
110.49541 259.730574 l
110.608098 258.418438 l
111.355593 258.418438 l
111.46828 266.064972 l
112.174456 266.064972 l
112.181969 277.812664 l
112.185725 228.765661 l
112.275875 246.888129 l
112.347244 246.888129 l
112.459932 251.852972 l
113.079714 251.852972 l
113.143571 235.326095 l
113.147327 261.839174 l
113.184889 261.839174 l
113.673203 261.839174 l
113.774622 247.918202 l
113.78589 250.978492 l
113.838478 250.978492 l
113.951166 236.041552 l
113.992484 236.041552 l
114.105172 238.159273 l
114.954086 238.159273 l
115.066774 252.805064 l
115.078043 252.805064 l
115.19073 264.229112 l
115.205755 264.229112 l
115.228293 210.139212 l
115.258343 268.801912 l
115.314687 248.056291 l
115.679044 248.056291 l
115.791731 230.403686 l
115.799244 230.403686 l
115.866856 227.393406 l
115.9232 295.791855 l
115.979544 290.87351 l
116.020863 290.87351 l
116.133551 269.54865 l
116.208676 269.54865 l
116.261263 213.496016 l
116.321363 238.609721 l
116.373951 238.609721 l
116.486639 254.355378 l
117.609759 254.355378 l
117.726203 278.270758 l
117.921529 278.270758 l
118.034216 243.051467 l
118.075535 243.051467 l
118.188223 237.936329 l
118.338473 237.936329 l
118.451161 232.872859 l
118.530042 232.872859 l
118.61268 287.183792 l
118.64273 263.005701 l
118.699074 295.868113 l
118.70283 253.347553 l
118.751661 253.347553 l
118.76293 253.347553 l
118.875618 266.203971 l
118.94323 266.203971 l
119.055918 241.222315 l
119.341393 241.222315 l
119.352662 267.611365 l
119.454081 255.448012 l
119.641894 255.448012 l
119.709507 255.094901 l
119.822194 267.177758 l
120.302995 267.177758 l
120.415683 234.617513 l
120.430708 234.617513 l
120.475783 272.39747 l
120.543395 267.457414 l
121.061759 267.457414 l
121.099321 272.388978 l
121.103078 262.073242 l
121.166934 262.073242 l
121.178203 262.073242 l
121.189472 269.59661 l
121.193228 250.429716 l
121.283378 250.429716 l
121.324697 250.429716 l
121.347234 290.912177 l
121.433628 261.951602 l
121.508753 261.951602 l
121.576366 295.032462 l
121.583878 253.013453 l
121.617685 253.013453 l
121.625197 253.013453 l
121.749154 266.230507 l
121.918185 266.230507 l
122.030873 235.263361 l
122.064679 235.263361 l
122.177367 259.344219 l
122.297567 259.344219 l
122.39523 255.297706 l
122.398986 261.762726 l
122.402742 261.762726 l
122.492892 261.762726 l
122.60558 259.10444 l
123.063843 259.10444 l
123.138969 243.281366 l
123.142725 282.77643 l
123.169019 282.77643 l
123.292975 282.77643 l
123.416932 260.305684 l
123.477032 260.305684 l
123.600988 236.486508 l
123.713676 251.227563 l
123.728701 251.227563 l
123.785045 280.169772 l
123.841388 277.986432 l
123.931539 277.986432 l
124.044226 262.63963 l
124.164427 262.63963 l
124.277114 241.87787 l
124.371021 241.87787 l
124.483708 255.459781 l
124.968265 255.459781 l
125.080953 240.973554 l
125.118516 240.973554 l
125.223691 273.887261 l
125.227447 239.871167 l
125.249985 239.871167 l
125.362672 247.771177 l
125.437797 247.771177 l
125.550485 242.396073 l
125.681954 242.396073 l
125.794642 234.283633 l
125.809667 234.283633 l
125.911086 291.662254 l
125.926111 264.889665 l
126.065092 264.889665 l
126.068848 296.952209 l
126.072605 256.441386 l
126.174024 256.441386 l
126.204074 256.441386 l
126.316761 249.066983 l
126.575943 249.066983 l
126.598481 284.707566 l
126.688631 256.769993 l
126.6999 256.769993 l
126.812587 269.509677 l
127.383538 269.509677 l
127.503738 242.299957 l
127.691551 242.299957 l
127.804239 249.902669 l
127.819264 249.902669 l
127.931952 217.408827 l
127.94322 217.408827 l
128.010833 214.635862 l
128.123521 277.183069 l
128.270015 277.183069 l
128.360165 243.173527 l
128.378946 274.257736 l
128.664422 274.257736 l
128.777109 251.632918 l
129.483285 251.632918 l
129.595973 272.41681 l
129.626023 272.41681 l
129.738711 259.37311 l
129.956574 259.37311 l
130.069261 220.214909 l
130.084286 220.214909 l
130.196974 268.62588 l
130.211999 268.62588 l
130.324687 273.550559 l
130.437375 225.952474 l
130.501231 225.952474 l
130.613919 233.266273 l
130.621431 233.266273 l
130.734119 251.217868 l
130.895638 251.217868 l
131.008326 240.578713 l
131.383951 240.578713 l
131.496639 242.733178 l
132.150227 242.733178 l
132.199059 279.034244 l
132.259159 254.248046 l
132.304234 254.248046 l
132.416922 236.949093 l
132.582197 236.949093 l
132.67986 252.886902 l
132.694885 252.640548 l
132.758741 252.640548 l
132.852647 278.459145 l
132.965335 214.599728 l
133.014166 214.599728 l
133.096804 221.941439 l
133.10056 200.890909 l
133.115585 200.890909 l
133.235786 200.890909 l
133.307154 269.245272 l
133.352229 228.870069 l
133.630192 228.870069 l
133.74288 298.336009 l
133.930693 298.336009 l
133.968256 235.748539 l
134.043381 256.89644 l
134.249975 256.89644 l
134.362662 224.830039 l
134.681944 224.830039 l
134.794632 233.05421 l
135.282945 233.05421 l
135.395633 253.387165 l
135.527102 253.387165 l
135.63979 263.43575 l
137.157317 263.43575 l
137.270005 263.87983 l
137.49538 263.87983 l
137.608068 248.273569 l
137.931106 248.273569 l
138.036281 271.134936 l
138.043794 260.591317 l
138.475763 260.591317 l
138.490788 245.611564 l
138.494544 274.300814 l
138.580938 274.300814 l
138.667332 274.300814 l
138.78002 271.315816 l
138.855145 271.315816 l
138.873926 264.127526 l
138.934026 293.317874 l
138.952808 293.317874 l
138.997883 293.317874 l
139.095545 202.677697 l
139.11057 251.685174 l
139.118083 251.685174 l
139.230771 287.733794 l
139.238283 287.733794 l
139.350971 265.586087 l
139.658984 265.586087 l
139.771672 259.193751 l
139.895628 259.193751 l
139.970753 257.032065 l
140.083441 290.137003 l
140.203641 290.137003 l
140.263741 234.220138 l
140.312572 278.543729 l
140.402723 278.543729 l
140.436529 279.622194 l
140.549217 210.526856 l
140.60556 210.526856 l
140.718248 276.36898 l
140.748298 276.36898 l
140.860986 257.4416 l
140.894792 257.4416 l
141.00748 267.988997 l
141.259149 267.988997 l
141.371837 240.239662 l
141.533356 240.239662 l
141.646043 259.596906 l
142.419832 259.596906 l
142.50247 235.700313 l
142.506226 267.907954 l
142.528764 267.907954 l
142.810483 267.907954 l
142.923171 206.950056 l
142.953221 206.950056 l
143.065908 217.278637 l
143.137277 217.278637 l
143.249965 269.785631 l
143.467828 269.785631 l
143.479096 286.553726 l
143.580515 241.718962 l
143.629347 241.718962 l
143.745791 281.791658 l
144.05756 281.791658 l
144.170248 262.818713 l
144.181516 262.818713 l
144.234104 228.842006 l
144.23786 273.286143 l
144.290448 273.286143 l
144.72993 273.286143 l
144.842618 233.528334 l
144.955305 233.528334 l
145.109312 290.649143 l
145.221999 240.956592 l
145.259562 240.956592 l
145.278343 235.289903 l
145.2821 272.588713 l
145.357225 259.062087 l
145.383518 259.062087 l
145.496206 236.296151 l
145.560062 236.296151 l
145.665238 231.823925 l
145.785438 261.530454 l
147.073834 261.530454 l
147.186521 260.446042 l
147.231597 260.446042 l
147.284184 223.211302 l
147.340528 251.690344 l
147.517072 251.690344 l
147.62976 278.717383 l
147.825085 278.717383 l
147.937773 238.061256 l
147.982848 238.061256 l
148.095535 289.508353 l
148.658974 289.508353 l
148.771662 265.54001 l
148.888106 265.54001 l
149.000793 267.101343 l
149.012062 267.101343 l
149.030843 220.831544 l
149.12475 229.741901 l
149.402713 229.741901 l
149.5154 226.008691 l
149.830926 226.008691 l
150.011226 268.580839 l
150.375583 268.580839 l
150.488271 253.953961 l
151.626416 253.953961 l
151.739104 248.588692 l
151.863061 248.588692 l
151.975748 240.466636 l
152.137267 240.466636 l
152.201124 273.773917 l
152.249955 263.521394 l
152.268736 263.521394 l
152.272493 219.809601 l
152.283761 277.941696 l
152.377668 277.941696 l
152.38518 277.941696 l
152.497868 257.507685 l
152.742025 257.507685 l
152.779587 238.675438 l
152.854712 285.354318 l
152.903544 285.354318 l
153.0275 252.187164 l
153.215313 252.187164 l
153.222825 236.485471 l
153.226582 288.44453 l
153.320488 273.158844 l
153.60972 273.158844 l
153.718651 279.712553 l
153.722407 279.52925 l
153.767483 279.52925 l
153.88017 251.596081 l
153.891439 251.596081 l
153.936514 266.368568 l
154.00037 254.50831 l
154.090521 254.50831 l
154.173158 212.007435 l
154.176914 278.816983 l
154.199452 278.816983 l
154.203208 278.816983 l
154.25204 224.610388 l
154.255796 281.87178 l
154.31214 281.87178 l
154.454877 281.87178 l
154.46239 256.665332 l
154.563809 272.849081 l
154.699034 272.849081 l
154.699034 272.849081 l
stroke
grestore
0.800 setlinewidth
0 setlinejoin
0.000 setgray
gsave
56.10125 195.28 m
56.10125 318.72 l
stroke
grestore
gsave
159.394167 195.28 m
159.394167 318.72 l
stroke
grestore
gsave
56.10125 195.28 m
159.394167 195.28 l
stroke
grestore
gsave
56.10125 318.72 m
159.394167 318.72 l
stroke
grestore
gsave
201.404167 195.28 m
304.697083 195.28 l
304.697083 318.72 l
201.404167 318.72 l
cl
1.000 setgray
fill
grestore
gsave
103.293 123.44 201.404 195.28 clipbox
206.099299 195.28 m
207.977353 195.28 l
207.977353 198.742971 l
206.099299 198.742971 l
cl
0.122 0.467 0.706 setrgbcolor
fill
grestore
gsave
103.293 123.44 201.404 195.28 clipbox
207.977353 195.28 m
209.855406 195.28 l
209.855406 195.28 l
207.977353 195.28 l
cl
0.122 0.467 0.706 setrgbcolor
fill
grestore
gsave
103.293 123.44 201.404 195.28 clipbox
209.855406 195.28 m
211.733459 195.28 l
211.733459 197.548843 l
209.855406 197.548843 l
cl
0.122 0.467 0.706 setrgbcolor
fill
grestore
gsave
103.293 123.44 201.404 195.28 clipbox
211.733459 195.28 m
213.611512 195.28 l
213.611512 195.28 l
211.733459 195.28 l
cl
0.122 0.467 0.706 setrgbcolor
fill
grestore
gsave
103.293 123.44 201.404 195.28 clipbox
213.611512 195.28 m
215.489566 195.28 l
215.489566 201.370053 l
213.611512 201.370053 l
cl
0.122 0.467 0.706 setrgbcolor
fill
grestore
gsave
103.293 123.44 201.404 195.28 clipbox
215.489566 195.28 m
217.367619 195.28 l
217.367619 198.802678 l
215.489566 198.802678 l
cl
0.122 0.467 0.706 setrgbcolor
fill
grestore
gsave
103.293 123.44 201.404 195.28 clipbox
217.367619 195.28 m
219.245672 195.28 l
219.245672 199.041503 l
217.367619 199.041503 l
cl
0.122 0.467 0.706 setrgbcolor
fill
grestore
gsave
103.293 123.44 201.404 195.28 clipbox
219.245672 195.28 m
221.123725 195.28 l
221.123725 201.967117 l
219.245672 201.967117 l
cl
0.122 0.467 0.706 setrgbcolor
fill
grestore
gsave
103.293 123.44 201.404 195.28 clipbox
221.123725 195.28 m
223.001779 195.28 l
223.001779 199.10121 l
221.123725 199.10121 l
cl
0.122 0.467 0.706 setrgbcolor
fill
grestore
gsave
103.293 123.44 201.404 195.28 clipbox
223.001779 195.28 m
224.879832 195.28 l
224.879832 202.803007 l
223.001779 202.803007 l
cl
0.122 0.467 0.706 setrgbcolor
fill
grestore
gsave
103.293 123.44 201.404 195.28 clipbox
224.879832 195.28 m
226.757885 195.28 l
226.757885 204.534492 l
224.879832 204.534492 l
cl
0.122 0.467 0.706 setrgbcolor
fill
grestore
gsave
103.293 123.44 201.404 195.28 clipbox
226.757885 195.28 m
228.635938 195.28 l
228.635938 208.295996 l
226.757885 208.295996 l
cl
0.122 0.467 0.706 setrgbcolor
fill
grestore
gsave
103.293 123.44 201.404 195.28 clipbox
228.635938 195.28 m
230.513992 195.28 l
230.513992 210.027481 l
228.635938 210.027481 l
cl
0.122 0.467 0.706 setrgbcolor
fill
grestore
gsave
103.293 123.44 201.404 195.28 clipbox
230.513992 195.28 m
232.392045 195.28 l
232.392045 210.863371 l
230.513992 210.863371 l
cl
0.122 0.467 0.706 setrgbcolor
fill
grestore
gsave
103.293 123.44 201.404 195.28 clipbox
232.392045 195.28 m
234.270098 195.28 l
234.270098 227.46175 l
232.392045 227.46175 l
cl
0.122 0.467 0.706 setrgbcolor
fill
grestore
gsave
103.293 123.44 201.404 195.28 clipbox
234.270098 195.28 m
236.148152 195.28 l
236.148152 233.671216 l
234.270098 233.671216 l
cl
0.122 0.467 0.706 setrgbcolor
fill
grestore
gsave
103.293 123.44 201.404 195.28 clipbox
236.148152 195.28 m
238.026205 195.28 l
238.026205 238.865673 l
236.148152 238.865673 l
cl
0.122 0.467 0.706 setrgbcolor
fill
grestore
gsave
103.293 123.44 201.404 195.28 clipbox
238.026205 195.28 m
239.904258 195.28 l
239.904258 237.970077 l
238.026205 237.970077 l
cl
0.122 0.467 0.706 setrgbcolor
fill
grestore
gsave
103.293 123.44 201.404 195.28 clipbox
239.904258 195.28 m
241.782311 195.28 l
241.782311 263.046766 l
239.904258 263.046766 l
cl
0.122 0.467 0.706 setrgbcolor
fill
grestore
gsave
103.293 123.44 201.404 195.28 clipbox
241.782311 195.28 m
243.660365 195.28 l
243.660365 241.07481 l
241.782311 241.07481 l
cl
0.122 0.467 0.706 setrgbcolor
fill
grestore
gsave
103.293 123.44 201.404 195.28 clipbox
243.660365 195.28 m
245.538408 195.28 l
245.538408 234.567014 l
243.660365 234.567014 l
cl
0.122 0.467 0.706 setrgbcolor
fill
grestore
gsave
103.293 123.44 201.404 195.28 clipbox
245.538408 195.28 m
247.416462 195.28 l
247.416462 265.554435 l
245.538408 265.554435 l
cl
0.122 0.467 0.706 setrgbcolor
fill
grestore
gsave
103.293 123.44 201.404 195.28 clipbox
247.416462 195.28 m
249.294515 195.28 l
249.294515 308.841576 l
247.416462 308.841576 l
cl
0.122 0.467 0.706 setrgbcolor
fill
grestore
gsave
103.293 123.44 201.404 195.28 clipbox
249.294515 195.28 m
251.172568 195.28 l
251.172568 286.391969 l
249.294515 286.391969 l
cl
0.122 0.467 0.706 setrgbcolor
fill
grestore
gsave
103.293 123.44 201.404 195.28 clipbox
251.172568 195.28 m
253.050621 195.28 l
253.050621 312.841905 l
251.172568 312.841905 l
cl
0.122 0.467 0.706 setrgbcolor
fill
grestore
gsave
103.293 123.44 201.404 195.28 clipbox
253.050621 195.28 m
254.928675 195.28 l
254.928675 251.52343 l
253.050621 251.52343 l
cl
0.122 0.467 0.706 setrgbcolor
fill
grestore
gsave
103.293 123.44 201.404 195.28 clipbox
254.928675 195.28 m
256.806733 195.28 l
256.806733 280.839054 l
254.928675 280.839054 l
cl
0.122 0.467 0.706 setrgbcolor
fill
grestore
gsave
103.293 123.44 201.404 195.28 clipbox
256.806733 195.28 m
258.684786 195.28 l
258.684786 307.050384 l
256.806733 307.050384 l
cl
0.122 0.467 0.706 setrgbcolor
fill
grestore
gsave
103.293 123.44 201.404 195.28 clipbox
258.684786 195.28 m
260.562839 195.28 l
260.562839 258.449373 l
258.684786 258.449373 l
cl
0.122 0.467 0.706 setrgbcolor
fill
grestore
gsave
103.293 123.44 201.404 195.28 clipbox
260.562839 195.28 m
262.440888 195.28 l
262.440888 274.032946 l
260.562839 274.032946 l
cl
0.122 0.467 0.706 setrgbcolor
fill
grestore
gsave
103.293 123.44 201.404 195.28 clipbox
262.440888 195.28 m
264.318941 195.28 l
264.318941 263.822949 l
262.440888 263.822949 l
cl
0.122 0.467 0.706 setrgbcolor
fill
grestore
gsave
103.293 123.44 201.404 195.28 clipbox
264.318941 195.28 m
266.196994 195.28 l
266.196994 259.16585 l
264.318941 259.16585 l
cl
0.122 0.467 0.706 setrgbcolor
fill
grestore
gsave
103.293 123.44 201.404 195.28 clipbox
266.196994 195.28 m
268.075048 195.28 l
268.075048 233.61151 l
266.196994 233.61151 l
cl
0.122 0.467 0.706 setrgbcolor
fill
grestore
gsave
103.293 123.44 201.404 195.28 clipbox
268.075048 195.28 m
269.953101 195.28 l
269.953101 219.520799 l
268.075048 219.520799 l
cl
0.122 0.467 0.706 setrgbcolor
fill
grestore
gsave
103.293 123.44 201.404 195.28 clipbox
269.953101 195.28 m
271.831154 195.28 l
271.831154 223.103183 l
269.953101 223.103183 l
cl
0.122 0.467 0.706 setrgbcolor
fill
grestore
gsave
103.293 123.44 201.404 195.28 clipbox
271.831154 195.28 m
273.709207 195.28 l
273.709207 211.758967 l
271.831154 211.758967 l
cl
0.122 0.467 0.706 setrgbcolor
fill
grestore
gsave
103.293 123.44 201.404 195.28 clipbox
273.709207 195.28 m
275.587261 195.28 l
275.587261 209.490124 l
273.709207 209.490124 l
cl
0.122 0.467 0.706 setrgbcolor
fill
grestore
gsave
103.293 123.44 201.404 195.28 clipbox
275.587261 195.28 m
277.465314 195.28 l
277.465314 199.578861 l
275.587261 199.578861 l
cl
0.122 0.467 0.706 setrgbcolor
fill
grestore
gsave
103.293 123.44 201.404 195.28 clipbox
277.465314 195.28 m
279.343367 195.28 l
279.343367 207.280987 l
277.465314 207.280987 l
cl
0.122 0.467 0.706 setrgbcolor
fill
grestore
gsave
103.293 123.44 201.404 195.28 clipbox
279.343367 195.28 m
281.22142 195.28 l
281.22142 213.37104 l
279.343367 213.37104 l
cl
0.122 0.467 0.706 setrgbcolor
fill
grestore
gsave
103.293 123.44 201.404 195.28 clipbox
281.22142 195.28 m
283.099474 195.28 l
283.099474 197.787669 l
281.22142 197.787669 l
cl
0.122 0.467 0.706 setrgbcolor
fill
grestore
gsave
103.293 123.44 201.404 195.28 clipbox
283.099474 195.28 m
284.977527 195.28 l
284.977527 198.504146 l
283.099474 198.504146 l
cl
0.122 0.467 0.706 setrgbcolor
fill
grestore
gsave
103.293 123.44 201.404 195.28 clipbox
284.977527 195.28 m
286.85558 195.28 l
286.85558 200.474457 l
284.977527 200.474457 l
cl
0.122 0.467 0.706 setrgbcolor
fill
grestore
gsave
103.293 123.44 201.404 195.28 clipbox
286.85558 195.28 m
288.733634 195.28 l
288.733634 200.056512 l
286.85558 200.056512 l
cl
0.122 0.467 0.706 setrgbcolor
fill
grestore
gsave
103.293 123.44 201.404 195.28 clipbox
288.733634 195.28 m
290.611687 195.28 l
290.611687 195.28 l
288.733634 195.28 l
cl
0.122 0.467 0.706 setrgbcolor
fill
grestore
gsave
103.293 123.44 201.404 195.28 clipbox
290.611687 195.28 m
292.48974 195.28 l
292.48974 195.339706 l
290.611687 195.339706 l
cl
0.122 0.467 0.706 setrgbcolor
fill
grestore
gsave
103.293 123.44 201.404 195.28 clipbox
292.48974 195.28 m
294.367793 195.28 l
294.367793 195.28 l
292.48974 195.28 l
cl
0.122 0.467 0.706 setrgbcolor
fill
grestore
gsave
103.293 123.44 201.404 195.28 clipbox
294.367793 195.28 m
296.245847 195.28 l
296.245847 195.28 l
294.367793 195.28 l
cl
0.122 0.467 0.706 setrgbcolor
fill
grestore
gsave
103.293 123.44 201.404 195.28 clipbox
296.245847 195.28 m
298.123897 195.28 l
298.123897 195.28 l
296.245847 195.28 l
cl
0.122 0.467 0.706 setrgbcolor
fill
grestore
gsave
103.293 123.44 201.404 195.28 clipbox
298.123897 195.28 m
300.001951 195.28 l
300.001951 196.832366 l
298.123897 196.832366 l
cl
0.122 0.467 0.706 setrgbcolor
fill
grestore
1 setlinejoin
0 setlinecap
gsave
/o {
gsave
newpath
translate
0.8 setlinewidth
1 setlinejoin

0 setlinecap

0 0 m
0 -3.5 l

gsave
0.000 setgray
fill
grestore
stroke
grestore
} bind def
208.234 195.28 o
grestore
/DejaVuSans 10.000 selectfont
gsave

196.093 180.686 translate
0 rotate
0 0 m /minus glyphshow
8.37891 0 m /zero glyphshow
14.7412 0 m /period glyphshow
17.9199 0 m /four glyphshow
grestore
gsave
/o {
gsave
newpath
translate
0.8 setlinewidth
1 setlinejoin

0 setlinecap

0 0 m
0 -3.5 l

gsave
0.000 setgray
fill
grestore
stroke
grestore
} bind def
272.898 195.28 o
grestore
/DejaVuSans 10.000 selectfont
gsave

260.757 180.686 translate
0 rotate
0 0 m /minus glyphshow
8.37891 0 m /zero glyphshow
14.7412 0 m /period glyphshow
17.9199 0 m /two glyphshow
grestore
gsave
/o {
gsave
newpath
translate
0.8 setlinewidth
1 setlinejoin

0 setlinecap

-0 0 m
-3.5 0 l

gsave
0.000 setgray
fill
grestore
stroke
grestore
} bind def
201.404 195.28 o
grestore
/DejaVuSans 10.000 selectfont
gsave

178.498 191.483 translate
0 rotate
0 0 m /zero glyphshow
6.3623 0 m /period glyphshow
9.54102 0 m /zero glyphshow
grestore
gsave
/o {
gsave
newpath
translate
0.8 setlinewidth
1 setlinejoin

0 setlinecap

-0 0 m
-3.5 0 l

gsave
0.000 setgray
fill
grestore
stroke
grestore
} bind def
201.404 216.956 o
grestore
/DejaVuSans 10.000 selectfont
gsave

178.498 213.159 translate
0 rotate
0 0 m /two glyphshow
6.3623 0 m /period glyphshow
9.54102 0 m /five glyphshow
grestore
gsave
/o {
gsave
newpath
translate
0.8 setlinewidth
1 setlinejoin

0 setlinecap

-0 0 m
-3.5 0 l

gsave
0.000 setgray
fill
grestore
stroke
grestore
} bind def
201.404 238.632 o
grestore
/DejaVuSans 10.000 selectfont
gsave

178.498 234.835 translate
0 rotate
0 0 m /five glyphshow
6.3623 0 m /period glyphshow
9.54102 0 m /zero glyphshow
grestore
gsave
/o {
gsave
newpath
translate
0.8 setlinewidth
1 setlinejoin

0 setlinecap

-0 0 m
-3.5 0 l

gsave
0.000 setgray
fill
grestore
stroke
grestore
} bind def
201.404 260.308 o
grestore
/DejaVuSans 10.000 selectfont
gsave

178.498 256.511 translate
0 rotate
0 0 m /seven glyphshow
6.3623 0 m /period glyphshow
9.54102 0 m /five glyphshow
grestore
gsave
/o {
gsave
newpath
translate
0.8 setlinewidth
1 setlinejoin

0 setlinecap

-0 0 m
-3.5 0 l

gsave
0.000 setgray
fill
grestore
stroke
grestore
} bind def
201.404 281.983 o
grestore
/DejaVuSans 10.000 selectfont
gsave

172.139 278.187 translate
0 rotate
0 0 m /one glyphshow
6.3623 0 m /zero glyphshow
12.7246 0 m /period glyphshow
15.9033 0 m /zero glyphshow
grestore
gsave
/o {
gsave
newpath
translate
0.8 setlinewidth
1 setlinejoin

0 setlinecap

-0 0 m
-3.5 0 l

gsave
0.000 setgray
fill
grestore
stroke
grestore
} bind def
201.404 303.659 o
grestore
/DejaVuSans 10.000 selectfont
gsave

172.139 299.862 translate
0 rotate
0 0 m /one glyphshow
6.3623 0 m /two glyphshow
12.7246 0 m /period glyphshow
15.9033 0 m /five glyphshow
grestore
0 setlinejoin
2 setlinecap
gsave
201.404167 195.28 m
201.404167 318.72 l
stroke
grestore
gsave
304.697083 195.28 m
304.697083 318.72 l
stroke
grestore
gsave
201.404167 195.28 m
304.697083 195.28 l
stroke
grestore
gsave
201.404167 318.72 m
304.697083 318.72 l
stroke
grestore
gsave
346.707083 195.28 m
450 195.28 l
450 318.72 l
346.707083 318.72 l
cl
1.000 setgray
fill
grestore
gsave
103.293 123.44 346.707 195.28 clipbox
352.457302 257.765075 m
352.457302 256.234925 l
355.62256 255.700063 l
357.732732 255.347246 l
359.842904 255.072852 l
361.953076 254.846046 l
364.063248 254.65194 l
366.17342 254.482384 l
368.283591 254.332278 l
370.393763 254.198185 l
372.503935 254.077428 l
374.614107 253.968107 l
376.724279 253.868787 l
378.834451 253.778246 l
380.944623 253.69537 l
383.054795 253.619016 l
385.164967 253.548446 l
387.275139 253.483141 l
389.385311 253.422584 l
391.495483 253.366389 l
393.605655 253.31414 l
395.715827 253.265566 l
397.825999 253.220496 l
399.936171 253.178704 l
402.046343 253.139734 l
404.156515 253.103446 l
406.266686 253.069677 l
408.376858 253.038118 l
410.48703 253.008603 l
412.597202 252.980952 l
414.707374 252.954978 l
416.817546 252.930485 l
418.927718 252.907437 l
421.03789 252.885762 l
423.148062 252.865352 l
425.258234 252.846167 l
427.368406 252.828034 l
429.478578 252.810926 l
431.58875 252.794812 l
433.698922 252.77961 l
435.809094 252.765213 l
437.919266 252.751588 l
440.029438 252.738707 l
442.13961 252.726526 l
445.304867 252.714944 l
445.304867 261.285056 l
445.304867 261.285056 l
442.13961 261.273474 l
440.029438 261.261293 l
437.919266 261.248412 l
435.809094 261.234787 l
433.698922 261.22039 l
431.58875 261.205188 l
429.478578 261.189074 l
427.368406 261.171966 l
425.258234 261.153833 l
423.148062 261.134648 l
421.03789 261.114238 l
418.927718 261.092563 l
416.817546 261.069515 l
414.707374 261.045022 l
412.597202 261.019048 l
410.48703 260.991397 l
408.376858 260.961882 l
406.266686 260.930323 l
404.156515 260.896554 l
402.046343 260.860266 l
399.936171 260.821296 l
397.825999 260.779504 l
395.715827 260.734434 l
393.605655 260.68586 l
391.495483 260.633611 l
389.385311 260.577416 l
387.275139 260.516859 l
385.164967 260.451554 l
383.054795 260.380984 l
380.944623 260.30463 l
378.834451 260.221754 l
376.724279 260.131213 l
374.614107 260.031893 l
372.503935 259.922572 l
370.393763 259.801815 l
368.283591 259.667722 l
366.17342 259.517616 l
364.063248 259.34806 l
361.953076 259.153954 l
359.842904 258.927148 l
357.732732 258.652754 l
355.62256 258.299937 l
352.457302 257.765075 l
cl
0.122 0.467 0.706 setrgbcolor
fill
grestore
1 setlinejoin
0 setlinecap
gsave
/o {
gsave
newpath
translate
0.8 setlinewidth
1 setlinejoin

0 setlinecap

0 0 m
0 -3.5 l

gsave
0.000 setgray
fill
grestore
stroke
grestore
} bind def
351.402 195.28 o
grestore
/DejaVuSans 10.000 selectfont
gsave

348.223 180.686 translate
0 rotate
0 0 m /zero glyphshow
grestore
gsave
/o {
gsave
newpath
translate
0.8 setlinewidth
1 setlinejoin

0 setlinecap

0 0 m
0 -3.5 l

gsave
0.000 setgray
fill
grestore
stroke
grestore
} bind def
393.606 195.28 o
grestore
/DejaVuSans 10.000 selectfont
gsave

387.246 180.686 translate
0 rotate
0 0 m /two glyphshow
6.3623 0 m /zero glyphshow
grestore
gsave
/o {
gsave
newpath
translate
0.8 setlinewidth
1 setlinejoin

0 setlinecap

0 0 m
0 -3.5 l

gsave
0.000 setgray
fill
grestore
stroke
grestore
} bind def
435.809 195.28 o
grestore
/DejaVuSans 10.000 selectfont
gsave

429.45 180.686 translate
0 rotate
0 0 m /four glyphshow
6.3623 0 m /zero glyphshow
grestore
gsave
/o {
gsave
newpath
translate
0.8 setlinewidth
1 setlinejoin

0 setlinecap

-0 0 m
-3.5 0 l

gsave
0.000 setgray
fill
grestore
stroke
grestore
} bind def
346.707 195.28 o
grestore
/DejaVuSans 10.000 selectfont
gsave

315.426 191.483 translate
0 rotate
0 0 m /minus glyphshow
8.37891 0 m /one glyphshow
14.7412 0 m /period glyphshow
17.9199 0 m /zero glyphshow
grestore
gsave
/o {
gsave
newpath
translate
0.8 setlinewidth
1 setlinejoin

0 setlinecap

-0 0 m
-3.5 0 l

gsave
0.000 setgray
fill
grestore
stroke
grestore
} bind def
346.707 226.14 o
grestore
/DejaVuSans 10.000 selectfont
gsave

315.426 222.343 translate
0 rotate
0 0 m /minus glyphshow
8.37891 0 m /zero glyphshow
14.7412 0 m /period glyphshow
17.9199 0 m /five glyphshow
grestore
gsave
/o {
gsave
newpath
translate
0.8 setlinewidth
1 setlinejoin

0 setlinecap

-0 0 m
-3.5 0 l

gsave
0.000 setgray
fill
grestore
stroke
grestore
} bind def
346.707 257 o
grestore
/DejaVuSans 10.000 selectfont
gsave

323.801 253.203 translate
0 rotate
0 0 m /zero glyphshow
6.3623 0 m /period glyphshow
9.54102 0 m /zero glyphshow
grestore
gsave
/o {
gsave
newpath
translate
0.8 setlinewidth
1 setlinejoin

0 setlinecap

-0 0 m
-3.5 0 l

gsave
0.000 setgray
fill
grestore
stroke
grestore
} bind def
346.707 287.86 o
grestore
/DejaVuSans 10.000 selectfont
gsave

323.801 284.063 translate
0 rotate
0 0 m /zero glyphshow
6.3623 0 m /period glyphshow
9.54102 0 m /five glyphshow
grestore
gsave
/o {
gsave
newpath
translate
0.8 setlinewidth
1 setlinejoin

0 setlinecap

-0 0 m
-3.5 0 l

gsave
0.000 setgray
fill
grestore
stroke
grestore
} bind def
346.707 318.72 o
grestore
/DejaVuSans 10.000 selectfont
gsave

323.801 314.923 translate
0 rotate
0 0 m /one glyphshow
6.3623 0 m /period glyphshow
9.54102 0 m /zero glyphshow
grestore
1.500 setlinewidth
0.122 0.467 0.706 setrgbcolor
gsave
103.293 123.44 346.707 195.28 clipbox
351.402216 257 m
351.402216 318.72 l
stroke
grestore
gsave
103.293 123.44 346.707 195.28 clipbox
353.512388 257 m
353.512388 316.949987 l
stroke
grestore
gsave
103.293 123.44 346.707 195.28 clipbox
355.62256 257 m
355.62256 315.222441 l
stroke
grestore
gsave
103.293 123.44 346.707 195.28 clipbox
357.732732 257 m
357.732732 313.536615 l
stroke
grestore
gsave
103.293 123.44 346.707 195.28 clipbox
359.842904 257 m
359.842904 311.881141 l
stroke
grestore
gsave
103.293 123.44 346.707 195.28 clipbox
361.953076 257 m
361.953076 310.324849 l
stroke
grestore
gsave
103.293 123.44 346.707 195.28 clipbox
364.063248 257 m
364.063248 308.812606 l
stroke
grestore
gsave
103.293 123.44 346.707 195.28 clipbox
366.17342 257 m
366.17342 307.326193 l
stroke
grestore
gsave
103.293 123.44 346.707 195.28 clipbox
368.283591 257 m
368.283591 305.852361 l
stroke
grestore
gsave
103.293 123.44 346.707 195.28 clipbox
370.393763 257 m
370.393763 304.427196 l
stroke
grestore
gsave
103.293 123.44 346.707 195.28 clipbox
372.503935 257 m
372.503935 303.023459 l
stroke
grestore
gsave
103.293 123.44 346.707 195.28 clipbox
374.614107 257 m
374.614107 301.629914 l
stroke
grestore
gsave
103.293 123.44 346.707 195.28 clipbox
376.724279 257 m
376.724279 300.263053 l
stroke
grestore
gsave
103.293 123.44 346.707 195.28 clipbox
378.834451 257 m
378.834451 298.952629 l
stroke
grestore
gsave
103.293 123.44 346.707 195.28 clipbox
380.944623 257 m
380.944623 297.756018 l
stroke
grestore
gsave
103.293 123.44 346.707 195.28 clipbox
383.054795 257 m
383.054795 296.610472 l
stroke
grestore
gsave
103.293 123.44 346.707 195.28 clipbox
385.164967 257 m
385.164967 295.480843 l
stroke
grestore
gsave
103.293 123.44 346.707 195.28 clipbox
387.275139 257 m
387.275139 294.389172 l
stroke
grestore
gsave
103.293 123.44 346.707 195.28 clipbox
389.385311 257 m
389.385311 293.312168 l
stroke
grestore
gsave
103.293 123.44 346.707 195.28 clipbox
391.495483 257 m
391.495483 292.276613 l
stroke
grestore
gsave
103.293 123.44 346.707 195.28 clipbox
393.605655 257 m
393.605655 291.246584 l
stroke
grestore
gsave
103.293 123.44 346.707 195.28 clipbox
395.715827 257 m
395.715827 290.195915 l
stroke
grestore
gsave
103.293 123.44 346.707 195.28 clipbox
397.825999 257 m
397.825999 289.150156 l
stroke
grestore
gsave
103.293 123.44 346.707 195.28 clipbox
399.936171 257 m
399.936171 288.21046 l
stroke
grestore
gsave
103.293 123.44 346.707 195.28 clipbox
402.046343 257 m
402.046343 287.264187 l
stroke
grestore
gsave
103.293 123.44 346.707 195.28 clipbox
404.156515 257 m
404.156515 286.326505 l
stroke
grestore
gsave
103.293 123.44 346.707 195.28 clipbox
406.266686 257 m
406.266686 285.468562 l
stroke
grestore
gsave
103.293 123.44 346.707 195.28 clipbox
408.376858 257 m
408.376858 284.637612 l
stroke
grestore
gsave
103.293 123.44 346.707 195.28 clipbox
410.48703 257 m
410.48703 283.846978 l
stroke
grestore
gsave
103.293 123.44 346.707 195.28 clipbox
412.597202 257 m
412.597202 283.106527 l
stroke
grestore
gsave
103.293 123.44 346.707 195.28 clipbox
414.707374 257 m
414.707374 282.430854 l
stroke
grestore
gsave
103.293 123.44 346.707 195.28 clipbox
416.817546 257 m
416.817546 281.741746 l
stroke
grestore
gsave
103.293 123.44 346.707 195.28 clipbox
418.927718 257 m
418.927718 281.058619 l
stroke
grestore
gsave
103.293 123.44 346.707 195.28 clipbox
421.03789 257 m
421.03789 280.405601 l
stroke
grestore
gsave
103.293 123.44 346.707 195.28 clipbox
423.148062 257 m
423.148062 279.747034 l
stroke
grestore
gsave
103.293 123.44 346.707 195.28 clipbox
425.258234 257 m
425.258234 279.164823 l
stroke
grestore
gsave
103.293 123.44 346.707 195.28 clipbox
427.368406 257 m
427.368406 278.573916 l
stroke
grestore
gsave
103.293 123.44 346.707 195.28 clipbox
429.478578 257 m
429.478578 277.979615 l
stroke
grestore
gsave
103.293 123.44 346.707 195.28 clipbox
431.58875 257 m
431.58875 277.415766 l
stroke
grestore
gsave
103.293 123.44 346.707 195.28 clipbox
433.698922 257 m
433.698922 276.901962 l
stroke
grestore
gsave
103.293 123.44 346.707 195.28 clipbox
435.809094 257 m
435.809094 276.393911 l
stroke
grestore
gsave
103.293 123.44 346.707 195.28 clipbox
437.919266 257 m
437.919266 275.885669 l
stroke
grestore
gsave
103.293 123.44 346.707 195.28 clipbox
440.029438 257 m
440.029438 275.392825 l
stroke
grestore
gsave
103.293 123.44 346.707 195.28 clipbox
442.13961 257 m
442.13961 274.959248 l
stroke
grestore
gsave
103.293 123.44 346.707 195.28 clipbox
444.249781 257 m
444.249781 274.565137 l
stroke
grestore
2 setlinecap
gsave
103.293 123.44 346.707 195.28 clipbox
346.707083 257 m
450 257 l
stroke
grestore
1.000 setlinewidth
0 setlinecap
gsave
103.293 123.44 346.707 195.28 clipbox
/o {
gsave
newpath
translate
1.0 setlinewidth
1 setlinejoin

0 setlinecap

0 -2.5 m
0.663008 -2.5 1.29895 -2.236584 1.767767 -1.767767 c
2.236584 -1.29895 2.5 -0.663008 2.5 0 c
2.5 0.663008 2.236584 1.29895 1.767767 1.767767 c
1.29895 2.236584 0.663008 2.5 0 2.5 c
-0.663008 2.5 -1.29895 2.236584 -1.767767 1.767767 c
-2.236584 1.29895 -2.5 0.663008 -2.5 0 c
-2.5 -0.663008 -2.236584 -1.29895 -1.767767 -1.767767 c
-1.29895 -2.236584 -0.663008 -2.5 0 -2.5 c
cl

gsave
0.122 0.467 0.706 setrgbcolor
fill
grestore
stroke
grestore
} bind def
351.402 318.72 o
353.512 316.95 o
355.623 315.222 o
357.733 313.537 o
359.843 311.881 o
361.953 310.325 o
364.063 308.813 o
366.173 307.326 o
368.284 305.852 o
370.394 304.427 o
372.504 303.023 o
374.614 301.63 o
376.724 300.263 o
378.834 298.953 o
380.945 297.756 o
383.055 296.61 o
385.165 295.481 o
387.275 294.389 o
389.385 293.312 o
391.495 292.277 o
393.606 291.247 o
395.716 290.196 o
397.826 289.15 o
399.936 288.21 o
402.046 287.264 o
404.157 286.327 o
406.267 285.469 o
408.377 284.638 o
410.487 283.847 o
412.597 283.107 o
414.707 282.431 o
416.818 281.742 o
418.928 281.059 o
421.038 280.406 o
423.148 279.747 o
425.258 279.165 o
427.368 278.574 o
429.479 277.98 o
431.589 277.416 o
433.699 276.902 o
435.809 276.394 o
437.919 275.886 o
440.029 275.393 o
442.14 274.959 o
444.25 274.565 o
grestore
0.800 setlinewidth
0 setlinejoin
2 setlinecap
0.000 setgray
gsave
346.707083 195.28 m
346.707083 318.72 l
stroke
grestore
gsave
450 195.28 m
450 318.72 l
stroke
grestore
gsave
346.707083 195.28 m
450 195.28 l
stroke
grestore
gsave
346.707083 318.72 m
450 318.72 l
stroke
grestore
/DejaVuSans 12.000 selectfont
gsave

352.236 324.72 translate
0 rotate
0 0 m /A glyphshow
8.20898 0 m /u glyphshow
15.8145 0 m /t glyphshow
20.5195 0 m /o glyphshow
27.8613 0 m /c glyphshow
34.459 0 m /o glyphshow
41.8008 0 m /r glyphshow
46.4844 0 m /r glyphshow
51.168 0 m /e glyphshow
58.5508 0 m /l glyphshow
61.8848 0 m /a glyphshow
69.2383 0 m /t glyphshow
73.9434 0 m /i glyphshow
77.2773 0 m /o glyphshow
84.6191 0 m /n glyphshow
grestore
gsave
56.10125 27.88 m
159.394167 27.88 l
159.394167 151.32 l
56.10125 151.32 l
cl
1.000 setgray
fill
grestore
1 setlinejoin
0 setlinecap
gsave
/o {
gsave
newpath
translate
0.8 setlinewidth
1 setlinejoin

0 setlinecap

0 0 m
0 -3.5 l

gsave
0.000 setgray
fill
grestore
stroke
grestore
} bind def
60.7964 27.88 o
grestore
/DejaVuSans 10.000 selectfont
gsave

57.6167 13.2863 translate
0 rotate
0 0 m /zero glyphshow
grestore
gsave
/o {
gsave
newpath
translate
0.8 setlinewidth
1 setlinejoin

0 setlinecap

0 0 m
0 -3.5 l

gsave
0.000 setgray
fill
grestore
stroke
grestore
} bind def
98.3589 27.88 o
grestore
/DejaVuSans 10.000 selectfont
gsave

82.4605 13.2863 translate
0 rotate
0 0 m /one glyphshow
6.3623 0 m /zero glyphshow
12.7246 0 m /zero glyphshow
19.0869 0 m /zero glyphshow
25.4492 0 m /zero glyphshow
grestore
gsave
/o {
gsave
newpath
translate
0.8 setlinewidth
1 setlinejoin

0 setlinecap

0 0 m
0 -3.5 l

gsave
0.000 setgray
fill
grestore
stroke
grestore
} bind def
135.922 27.88 o
grestore
/DejaVuSans 10.000 selectfont
gsave

120.023 13.2863 translate
0 rotate
0 0 m /two glyphshow
6.3623 0 m /zero glyphshow
12.7246 0 m /zero glyphshow
19.0869 0 m /zero glyphshow
25.4492 0 m /zero glyphshow
grestore
gsave
/o {
gsave
newpath
translate
0.8 setlinewidth
1 setlinejoin

0 setlinecap

-0 0 m
-3.5 0 l

gsave
0.000 setgray
fill
grestore
stroke
grestore
} bind def
56.1013 40.0144 o
grestore
/DejaVuSans 10.000 selectfont
gsave

26.8356 36.2176 translate
0 rotate
0 0 m /zero glyphshow
6.3623 0 m /period glyphshow
9.54102 0 m /one glyphshow
15.9033 0 m /five glyphshow
grestore
gsave
/o {
gsave
newpath
translate
0.8 setlinewidth
1 setlinejoin

0 setlinecap

-0 0 m
-3.5 0 l

gsave
0.000 setgray
fill
grestore
stroke
grestore
} bind def
56.1013 63.4164 o
grestore
/DejaVuSans 10.000 selectfont
gsave

26.8356 59.6195 translate
0 rotate
0 0 m /zero glyphshow
6.3623 0 m /period glyphshow
9.54102 0 m /two glyphshow
15.9033 0 m /zero glyphshow
grestore
gsave
/o {
gsave
newpath
translate
0.8 setlinewidth
1 setlinejoin

0 setlinecap

-0 0 m
-3.5 0 l

gsave
0.000 setgray
fill
grestore
stroke
grestore
} bind def
56.1013 86.8184 o
grestore
/DejaVuSans 10.000 selectfont
gsave

26.8356 83.0215 translate
0 rotate
0 0 m /zero glyphshow
6.3623 0 m /period glyphshow
9.54102 0 m /two glyphshow
15.9033 0 m /five glyphshow
grestore
gsave
/o {
gsave
newpath
translate
0.8 setlinewidth
1 setlinejoin

0 setlinecap

-0 0 m
-3.5 0 l

gsave
0.000 setgray
fill
grestore
stroke
grestore
} bind def
56.1013 110.22 o
grestore
/DejaVuSans 10.000 selectfont
gsave

26.8356 106.424 translate
0 rotate
0 0 m /zero glyphshow
6.3623 0 m /period glyphshow
9.54102 0 m /three glyphshow
15.9033 0 m /zero glyphshow
grestore
gsave
/o {
gsave
newpath
translate
0.8 setlinewidth
1 setlinejoin

0 setlinecap

-0 0 m
-3.5 0 l

gsave
0.000 setgray
fill
grestore
stroke
grestore
} bind def
56.1013 133.622 o
grestore
/DejaVuSans 10.000 selectfont
gsave

26.8356 129.826 translate
0 rotate
0 0 m /zero glyphshow
6.3623 0 m /period glyphshow
9.54102 0 m /three glyphshow
15.9033 0 m /five glyphshow
grestore
/DejaVuSans 10.000 selectfont
gsave

20.4763 76.7484 translate
90 rotate
0 0 m /s glyphshow
5.20996 0 m /i glyphshow
7.98828 0 m /g glyphshow
14.3359 0 m /underscore glyphshow
19.3359 0 m /one glyphshow
grestore
1.500 setlinewidth
2 setlinecap
0.122 0.467 0.706 setrgbcolor
gsave
103.293 123.44 56.101 27.88 clipbox
60.796383 114.553642 m
61.123177 114.553642 l
61.235865 110.221979 l
61.697884 110.221979 l
61.810572 76.767085 l
61.878184 76.767085 l
61.990872 98.144326 l
62.04346 98.144326 l
62.065997 68.331451 l
62.069753 107.506898 l
62.152391 107.506898 l
62.265079 91.175904 l
62.531773 91.175904 l
62.644461 120.51013 l
63.113993 120.51013 l
63.237949 64.286196 l
63.534693 64.286196 l
63.557231 60.240893 l
63.560987 74.207636 l
63.632356 74.207636 l
63.745044 109.795052 l
64.049301 109.795052 l
64.098132 56.056521 l
64.101888 117.33205 l
64.158232 117.33205 l
64.184526 117.33205 l
64.297213 112.038404 l
64.650302 112.038404 l
64.762989 67.539599 l
64.947046 67.539599 l
65.040952 74.236266 l
65.044708 58.395769 l
65.052221 58.395769 l
65.397797 58.395769 l
65.510484 112.750692 l
65.608147 112.750692 l
65.720835 102.456293 l
65.750885 102.456293 l
65.863572 86.624333 l
65.97626 86.624333 l
66.088948 88.924211 l
66.167829 88.924211 l
66.280517 101.987088 l
66.291786 101.987088 l
66.404473 91.660104 l
66.565992 91.660104 l
66.67868 87.034766 l
66.904055 87.034766 l
67.016743 59.411749 l
67.110649 59.411749 l
67.223337 102.961765 l
67.384856 102.961765 l
67.497544 95.241133 l
67.6215 95.241133 l
67.659063 96.416699 l
67.783019 52.648972 l
67.876926 52.648972 l
67.989613 58.382581 l
69.210397 58.382581 l
69.240447 77.850806 l
69.323084 73.283495 l
69.405722 73.283495 l
69.51841 80.38067 l
69.522166 80.38067 l
69.525922 69.61189 l
69.529678 102.557463 l
69.623585 102.557463 l
69.646122 138.91041 l
69.649879 39.948433 l
69.732516 97.666905 l
70.010479 97.666905 l
70.021748 63.604664 l
70.025504 102.389967 l
70.119411 102.389967 l
70.705387 102.389967 l
70.818074 77.821144 l
70.994618 77.821144 l
71.107306 78.2995 l
72.391946 78.2995 l
72.504633 90.65414 l
73.060559 90.65414 l
73.113147 61.620835 l
73.18076 62.365868 l
73.319741 62.365868 l
73.432429 122.752435 l
73.608973 122.752435 l
73.721661 87.882887 l
73.736686 87.882887 l
73.793029 42.976076 l
73.796786 95.811201 l
73.845617 95.811201 l
74.078505 95.811201 l
74.191193 127.713797 l
74.262561 127.713797 l
74.318905 48.52928 l
74.371493 110.717129 l
74.521743 110.717129 l
74.563062 80.155999 l
74.566818 114.431215 l
74.630675 103.645808 l
74.67575 103.645808 l
74.788437 105.979421 l
75.212894 105.979421 l
75.325582 101.421762 l
75.415732 101.421762 l
75.52842 82.843762 l
75.930339 82.843762 l
76.043027 83.658831 l
76.478753 83.658831 l
76.59144 105.884737 l
76.629003 105.884737 l
76.659053 124.432092 l
76.662809 46.008978 l
76.726666 46.008978 l
77.08351 46.008978 l
77.196198 55.104168 l
77.245029 55.104168 l
77.357717 60.591332 l
77.466648 60.591332 l
77.489186 44.775692 l
77.586848 103.712566 l
77.680755 103.712566 l
77.789686 49.117007 l
77.793442 69.864717 l
78.462056 69.864717 l
78.574744 79.709 l
78.702456 79.709 l
78.755044 126.006828 l
78.7588 73.466996 l
78.811388 73.466996 l
79.506295 73.466996 l
79.55137 92.369101 l
79.618983 84.598226 l
80.088515 84.598226 l
80.118565 132.153506 l
80.197446 49.98753 l
80.268815 112.647835 l
80.306378 51.308253 l
80.347697 51.308253 l
80.441603 87.222557 l
80.460384 82.771452 l
80.663222 82.771452 l
80.764641 90.706112 l
80.790935 66.206998 l
80.877329 67.114408 l
80.899866 67.114408 l
81.01631 90.150314 l
81.050117 90.150314 l
81.132754 89.986807 l
81.245442 81.502862 l
81.252954 81.502862 l
81.267979 87.553154 l
81.294273 57.543742 l
81.350617 65.049858 l
81.527161 65.049858 l
81.639849 84.893833 l
81.666143 84.893833 l
81.745024 66.453562 l
81.74878 117.615264 l
81.775074 92.54113 l
82.113137 92.54113 l
82.225825 91.156682 l
82.661551 91.156682 l
82.774238 114.948766 l
82.826826 114.948766 l
82.860632 42.148369 l
82.935757 102.450923 l
83.03342 102.450923 l
83.146108 85.30603 l
83.24377 85.30603 l
83.352702 118.068554 l
83.439096 67.875476 l
83.442852 120.445366 l
83.465389 77.411709 l
83.919896 77.411709 l
84.032584 91.918085 l
84.107709 91.918085 l
84.220397 93.016529 l
84.310547 93.016529 l
84.423235 89.082375 l
84.904036 89.082375 l
85.016723 85.689905 l
85.846856 85.689905 l
85.876906 117.057917 l
85.955787 95.011063 l
86.365219 95.011063 l
86.477907 71.873807 l
88.502529 71.873807 l
88.615217 83.090702 l
88.731661 83.090702 l
88.788005 46.423379 l
88.791761 119.594679 l
88.840592 74.780278 l
88.844348 74.780278 l
88.926986 58.410088 l
89.039674 110.709555 l
89.058455 110.709555 l
89.171143 95.573711 l
89.186168 95.573711 l
89.298855 66.069478 l
89.389006 66.069478 l
89.501693 109.259856 l
89.531743 109.259856 l
89.543012 121.725031 l
89.546768 71.631532 l
89.629406 71.631532 l
89.640675 71.631532 l
89.730825 60.832379 l
89.734581 108.521804 l
90.005032 108.521804 l
90.072644 53.897092 l
90.117719 65.268511 l
90.181576 65.268511 l
90.275482 41.451263 l
90.279238 67.402239 l
90.290507 67.402239 l
90.350607 67.402239 l
90.354363 57.964797 l
90.35812 121.720819 l
90.463295 61.673484 l
90.647351 61.673484 l
90.654864 109.954263 l
90.760039 88.255344 l
91.045515 88.255344 l
91.049271 127.497773 l
91.158202 107.363157 l
91.297184 107.363157 l
91.409872 79.005638 l
91.965797 79.005638 l
92.078485 125.267618 l
92.21371 125.267618 l
92.300104 52.694061 l
92.326398 84.907063 l
92.536748 84.907063 l
92.649436 66.976253 l
92.852274 66.976253 l
92.964962 102.354788 l
93.126481 102.354788 l
93.231656 65.639503 l
93.235412 102.610384 l
93.250437 102.610384 l
93.385662 76.962227 l
93.967882 76.962227 l
94.027982 52.299844 l
94.084326 52.366776 l
94.538833 52.366776 l
94.651521 75.32528 l
96.18783 75.32528 l
96.300517 63.766162 l
97.025475 63.766162 l
97.138162 54.846676 l
97.540082 54.846676 l
97.652769 111.110761 l
97.765457 92.156188 l
98.588077 92.156188 l
98.700765 79.568613 l
99.061366 79.568613 l
99.14776 117.132696 l
99.151516 76.648354 l
99.170297 76.648354 l
100.541331 76.648354 l
100.676556 127.427891 l
100.699093 127.427891 l
100.811781 87.307769 l
100.935738 87.307769 l
101.048425 83.7828 l
101.097257 83.7828 l
101.209944 62.64102 l
101.664451 62.64102 l
101.67572 99.672849 l
101.679476 47.197851 l
101.773383 47.197851 l
101.844752 47.197851 l
102.010027 86.413401 l
102.122715 48.693303 l
102.145252 48.693303 l
102.160277 142.701576 l
102.254183 80.851773 l
102.734984 80.851773 l
102.847672 85.254699 l
102.888991 85.254699 l
103.001678 92.1965 l
104.034649 92.1965 l
104.147337 89.335516 l
104.530475 89.335516 l
104.643162 55.089034 l
104.849757 55.089034 l
104.962444 74.697583 l
106.171959 74.697583 l
106.19074 67.143184 l
106.254596 91.963139 l
106.273378 91.963139 l
106.389822 91.963139 l
106.502509 98.647454 l
106.65276 98.647454 l
106.690322 76.541382 l
106.694078 100.152907 l
106.761691 100.152907 l
106.878135 100.152907 l
106.896916 121.043722 l
106.960773 57.78889 l
106.979554 57.78889 l
107.065948 57.78889 l
107.144829 45.619859 l
107.148585 103.770565 l
107.156098 103.770565 l
107.283811 103.770565 l
107.396498 94.659222 l
107.663193 94.659222 l
107.779637 72.795995 l
107.888568 72.795995 l
107.944912 77.188746 l
107.948668 53.625281 l
107.982474 53.625281 l
108.001256 53.625281 l
108.113943 97.418046 l
108.384394 97.418046 l
108.421956 109.448791 l
108.425713 79.692275 l
108.485813 86.86939 l
108.50835 86.86939 l
108.621038 81.863902 l
108.917782 81.863902 l
109.03047 86.429477 l
109.345995 86.429477 l
109.458683 86.634683 l
109.770452 86.634683 l
109.800502 137.976602 l
109.819284 38.627131 l
109.875628 38.627131 l
109.920703 38.627131 l
110.059684 111.020806 l
110.070953 111.020806 l
110.183641 78.662145 l
110.49541 78.662145 l
110.608098 68.139768 l
111.355593 68.139768 l
111.46828 75.753316 l
112.174456 75.753316 l
112.245825 109.795206 l
112.185725 51.610842 l
112.279632 60.043972 l
112.347244 60.043972 l
112.459932 86.61844 l
113.079714 86.61844 l
113.143571 60.489695 l
113.188646 80.738551 l
113.673203 80.738551 l
113.774622 84.625314 l
113.838478 44.7124 l
113.887309 56.308825 l
113.992484 56.308825 l
114.105172 87.192051 l
114.954086 87.192051 l
115.066774 95.007618 l
115.078043 95.007618 l
115.19073 82.896041 l
115.205755 82.896041 l
115.307174 115.175111 l
115.322199 108.327387 l
115.679044 108.327387 l
115.791731 70.350354 l
115.799244 70.350354 l
115.866856 47.058658 l
115.908175 70.234636 l
115.9232 70.234636 l
116.020863 116.285523 l
116.035888 91.728773 l
116.208676 91.728773 l
116.317607 57.192006 l
116.373951 116.952214 l
116.426539 68.815295 l
117.609759 68.815295 l
117.643566 145.709091 l
117.722447 118.825953 l
117.921529 118.825953 l
117.996654 33.490909 l
118.03046 96.881483 l
118.075535 96.881483 l
118.188223 89.833037 l
118.338473 89.833037 l
118.451161 49.205526 l
118.530042 49.205526 l
118.590142 39.488804 l
118.593898 66.213589 l
118.61268 66.213589 l
118.64273 144.96299 l
118.721611 84.693948 l
118.76293 84.693948 l
118.875618 128.891218 l
118.94323 128.891218 l
119.055918 85.102031 l
119.341393 85.102031 l
119.352662 88.461994 l
119.450325 86.193187 l
119.641894 86.193187 l
119.709507 76.026843 l
119.754582 80.030872 l
120.302995 80.030872 l
120.415683 91.595898 l
120.430708 91.595898 l
120.550908 112.259281 l
121.061759 112.259281 l
121.099321 42.248304 l
121.17069 104.507668 l
121.178203 104.507668 l
121.189472 136.667268 l
121.193228 54.518931 l
121.283378 54.518931 l
121.324697 54.518931 l
121.347234 110.603852 l
121.350991 43.137853 l
121.433628 43.137853 l
121.508753 43.137853 l
121.580122 77.983786 l
121.621441 69.25336 l
121.625197 69.25336 l
121.696566 123.936063 l
121.737885 96.634452 l
121.918185 96.634452 l
122.034629 54.576337 l
122.064679 54.576337 l
122.177367 92.342208 l
122.297567 92.342208 l
122.39523 77.931283 l
122.398986 114.230172 l
122.402742 114.230172 l
122.492892 114.230172 l
122.60558 106.001306 l
123.063843 106.001306 l
123.138969 90.699919 l
123.176531 94.758383 l
123.292975 94.758383 l
123.296731 68.048404 l
123.300488 96.110902 l
123.401907 96.110902 l
123.477032 96.110902 l
123.559669 77.686435 l
123.589719 84.698579 l
123.600988 84.698579 l
123.713676 57.133923 l
123.728701 57.133923 l
123.848901 131.453059 l
123.931539 131.453059 l
124.044226 69.102471 l
124.164427 69.102471 l
124.277114 91.614896 l
124.371021 91.614896 l
124.483708 100.057428 l
124.968265 100.057428 l
125.080953 111.089099 l
125.118516 111.089099 l
125.223691 47.250982 l
125.231203 54.525006 l
125.249985 54.525006 l
125.362672 89.275885 l
125.437797 89.275885 l
125.550485 84.264057 l
125.681954 84.264057 l
125.794642 70.120375 l
125.809667 70.120375 l
125.817179 48.644224 l
125.877279 97.216823 l
125.918598 63.167652 l
126.065092 63.167652 l
126.068848 89.487514 l
126.174024 73.886189 l
126.204074 73.886189 l
126.316761 74.466 l
126.575943 74.466 l
126.590968 114.529985 l
126.688631 52.907692 l
126.6999 52.907692 l
126.812587 91.213426 l
127.383538 91.213426 l
127.469932 83.234324 l
127.473688 110.737927 l
127.484957 110.737927 l
127.691551 110.737927 l
127.804239 36.467172 l
127.819264 36.467172 l
127.931952 84.370004 l
127.94322 84.370004 l
128.010833 100.93088 l
128.014589 70.444082 l
128.048396 70.444082 l
128.270015 70.444082 l
128.303821 113.376751 l
128.363921 55.977558 l
128.378946 55.977558 l
128.664422 55.977558 l
128.777109 111.097356 l
129.483285 111.097356 l
129.595973 72.478001 l
129.626023 72.478001 l
129.738711 45.173648 l
129.956574 45.173648 l
130.069261 63.396892 l
130.084286 63.396892 l
130.196974 53.810059 l
130.211999 53.810059 l
130.324687 49.339621 l
130.437375 77.730876 l
130.501231 77.730876 l
130.613919 59.27169 l
130.621431 59.27169 l
130.734119 75.488459 l
130.895638 75.488459 l
131.008326 114.816393 l
131.383951 114.816393 l
131.496639 75.520429 l
132.150227 75.520429 l
132.199059 102.745198 l
132.202815 56.324322 l
132.255403 56.324322 l
132.304234 56.324322 l
132.416922 101.318332 l
132.582197 101.318332 l
132.67986 100.069033 l
132.792547 124.973496 l
132.807572 124.973496 l
132.92026 101.247138 l
133.014166 101.247138 l
133.096804 46.131043 l
133.10056 106.982442 l
133.123098 106.982442 l
133.235786 106.982442 l
133.292129 49.10308 l
133.310911 117.811522 l
133.344717 85.609476 l
133.630192 85.609476 l
133.74288 62.238636 l
133.930693 62.238636 l
133.968256 67.062505 l
133.972012 44.818452 l
134.024599 44.818452 l
134.249975 44.818452 l
134.362662 94.695768 l
134.681944 94.695768 l
134.794632 83.504196 l
135.282945 83.504196 l
135.395633 106.946789 l
135.527102 106.946789 l
135.63979 92.412928 l
137.157317 92.412928 l
137.270005 108.308445 l
137.49538 108.308445 l
137.608068 98.248634 l
137.931106 98.248634 l
138.043794 59.524956 l
138.475763 59.524956 l
138.588451 85.481351 l
138.667332 85.481351 l
138.78002 47.638051 l
138.855145 47.638051 l
138.873926 43.671299 l
138.877683 107.780418 l
138.907733 107.780418 l
138.93027 107.780418 l
138.997883 66.394036 l
139.039202 95.153228 l
139.095545 95.153228 l
139.118083 103.110737 l
139.121839 82.742724 l
139.200721 82.742724 l
139.238283 82.742724 l
139.350971 63.870533 l
139.658984 63.870533 l
139.771672 73.165566 l
139.895628 73.165566 l
139.970753 54.169363 l
139.974509 103.880355 l
139.997047 103.880355 l
140.072172 103.880355 l
140.18486 102.748894 l
140.203641 102.748894 l
140.323841 91.352898 l
140.402723 91.352898 l
140.48536 62.010791 l
140.519167 69.948255 l
140.60556 69.948255 l
140.718248 50.370045 l
140.748298 50.370045 l
140.860986 68.384742 l
140.894792 68.384742 l
141.00748 55.334935 l
141.259149 55.334935 l
141.371837 96.08387 l
141.533356 96.08387 l
141.646043 97.413443 l
142.419832 97.413443 l
142.50247 112.148556 l
142.506226 95.796918 l
142.528764 95.796918 l
142.810483 95.796918 l
142.923171 63.13322 l
142.953221 63.13322 l
143.065908 91.187774 l
143.137277 91.187774 l
143.249965 100.973842 l
143.467828 100.973842 l
143.584272 48.773891 l
143.629347 48.773891 l
143.734522 95.058698 l
143.742034 94.096281 l
144.05756 94.096281 l
144.170248 67.16659 l
144.181516 67.16659 l
144.234104 93.032165 l
144.294204 92.47154 l
144.72993 92.47154 l
144.842618 82.528584 l
144.955305 82.528584 l
144.97033 56.520803 l
144.974087 124.57734 l
145.06048 104.122336 l
145.109312 104.122336 l
145.221999 126.685152 l
145.259562 126.685152 l
145.37225 63.1302 l
145.383518 63.1302 l
145.496206 77.033791 l
145.560062 77.033791 l
145.721582 51.678716 l
145.849294 101.978928 l
147.073834 101.978928 l
147.186521 87.062412 l
147.231597 87.062412 l
147.284184 97.049299 l
147.28794 58.753629 l
147.329259 58.753629 l
147.517072 58.753629 l
147.62976 67.356111 l
147.825085 67.356111 l
147.937773 54.64744 l
147.982848 54.64744 l
148.095535 71.360545 l
148.658974 71.360545 l
148.689024 76.061561 l
148.69278 50.724627 l
148.75288 50.724627 l
148.888106 50.724627 l
149.000793 106.016078 l
149.012062 106.016078 l
149.128506 41.091987 l
149.402713 41.091987 l
149.5154 80.068345 l
149.830926 80.068345 l
149.883514 78.710965 l
149.88727 88.209551 l
149.91732 88.209551 l
150.375583 88.209551 l
150.488271 89.885484 l
151.626416 89.885484 l
151.739104 68.12448 l
151.863061 68.12448 l
151.975748 68.423352 l
152.137267 68.423352 l
152.193611 65.797577 l
152.272493 60.276922 l
152.306299 121.086071 l
152.38518 121.086071 l
152.497868 106.11934 l
152.742025 106.11934 l
152.775831 58.84772 l
152.850956 94.078734 l
152.903544 94.078734 l
152.959887 73.537026 l
153.016231 78.780911 l
153.215313 78.780911 l
153.222825 78.272426 l
153.226582 88.310316 l
153.230338 88.310316 l
153.343026 91.850057 l
153.60972 91.850057 l
153.718651 108.376277 l
153.831339 53.236183 l
153.891439 53.236183 l
153.936514 97.429191 l
153.94027 48.037917 l
154.00037 48.037917 l
154.090521 48.037917 l
154.214477 114.460883 l
154.25204 114.460883 l
154.364727 75.807577 l
154.454877 75.807577 l
154.46239 54.1903 l
154.466146 87.732911 l
154.563809 87.732911 l
154.699034 87.732911 l
154.699034 87.732911 l
stroke
grestore
0.800 setlinewidth
0 setlinejoin
0.000 setgray
gsave
56.10125 27.88 m
56.10125 151.32 l
stroke
grestore
gsave
159.394167 27.88 m
159.394167 151.32 l
stroke
grestore
gsave
56.10125 27.88 m
159.394167 27.88 l
stroke
grestore
gsave
56.10125 151.32 m
159.394167 151.32 l
stroke
grestore
gsave
201.404167 27.88 m
304.697083 27.88 l
304.697083 151.32 l
201.404167 151.32 l
cl
1.000 setgray
fill
grestore
gsave
103.293 123.44 201.404 27.88 clipbox
206.099299 27.88 m
207.977351 27.88 l
207.977351 29.341299 l
206.099299 29.341299 l
cl
0.122 0.467 0.706 setrgbcolor
fill
grestore
gsave
103.293 123.44 201.404 27.88 clipbox
207.977351 27.88 m
209.855403 27.88 l
209.855403 30.364209 l
207.977351 30.364209 l
cl
0.122 0.467 0.706 setrgbcolor
fill
grestore
gsave
103.293 123.44 201.404 27.88 clipbox
209.855403 27.88 m
211.733461 27.88 l
211.733461 32.336949 l
209.855403 32.336949 l
cl
0.122 0.467 0.706 setrgbcolor
fill
grestore
gsave
103.293 123.44 201.404 27.88 clipbox
211.733461 27.88 m
213.611513 27.88 l
213.611513 38.328291 l
211.733461 38.328291 l
cl
0.122 0.467 0.706 setrgbcolor
fill
grestore
gsave
103.293 123.44 201.404 27.88 clipbox
213.611513 27.88 m
215.489565 27.88 l
215.489565 32.775353 l
213.611513 32.775353 l
cl
0.122 0.467 0.706 setrgbcolor
fill
grestore
gsave
103.293 123.44 201.404 27.88 clipbox
215.489565 27.88 m
217.367617 27.88 l
217.367617 52.210636 l
215.489565 52.210636 l
cl
0.122 0.467 0.706 setrgbcolor
fill
grestore
gsave
103.293 123.44 201.404 27.88 clipbox
217.367617 27.88 m
219.245669 27.88 l
219.245669 51.333856 l
217.367617 51.333856 l
cl
0.122 0.467 0.706 setrgbcolor
fill
grestore
gsave
103.293 123.44 201.404 27.88 clipbox
219.245669 27.88 m
221.123721 27.88 l
221.123721 44.027359 l
219.245669 44.027359 l
cl
0.122 0.467 0.706 setrgbcolor
fill
grestore
gsave
103.293 123.44 201.404 27.88 clipbox
221.123721 27.88 m
223.001779 27.88 l
223.001779 51.845236 l
221.123721 51.845236 l
cl
0.122 0.467 0.706 setrgbcolor
fill
grestore
gsave
103.293 123.44 201.404 27.88 clipbox
223.001779 27.88 m
224.879831 27.88 l
224.879831 67.70041 l
223.001779 67.70041 l
cl
0.122 0.467 0.706 setrgbcolor
fill
grestore
gsave
103.293 123.44 201.404 27.88 clipbox
224.879831 27.88 m
226.757883 27.88 l
226.757883 46.438503 l
224.879831 46.438503 l
cl
0.122 0.467 0.706 setrgbcolor
fill
grestore
gsave
103.293 123.44 201.404 27.88 clipbox
226.757883 27.88 m
228.635935 27.88 l
228.635935 84.724548 l
226.757883 84.724548 l
cl
0.122 0.467 0.706 setrgbcolor
fill
grestore
gsave
103.293 123.44 201.404 27.88 clipbox
228.635935 27.88 m
230.513987 27.88 l
230.513987 64.047161 l
228.635935 64.047161 l
cl
0.122 0.467 0.706 setrgbcolor
fill
grestore
gsave
103.293 123.44 201.404 27.88 clipbox
230.513987 27.88 m
232.392044 27.88 l
232.392044 71.791912 l
230.513987 71.791912 l
cl
0.122 0.467 0.706 setrgbcolor
fill
grestore
gsave
103.293 123.44 201.404 27.88 clipbox
232.392044 27.88 m
234.270096 27.88 l
234.270096 57.325184 l
232.392044 57.325184 l
cl
0.122 0.467 0.706 setrgbcolor
fill
grestore
gsave
103.293 123.44 201.404 27.88 clipbox
234.270096 27.88 m
236.148148 27.88 l
236.148148 105.109675 l
234.270096 105.109675 l
cl
0.122 0.467 0.706 setrgbcolor
fill
grestore
gsave
103.293 123.44 201.404 27.88 clipbox
236.148148 27.88 m
238.0262 27.88 l
238.0262 70.403814 l
236.148148 70.403814 l
cl
0.122 0.467 0.706 setrgbcolor
fill
grestore
gsave
103.293 123.44 201.404 27.88 clipbox
238.0262 27.88 m
239.904252 27.88 l
239.904252 103.721441 l
238.0262 103.721441 l
cl
0.122 0.467 0.706 setrgbcolor
fill
grestore
gsave
103.293 123.44 201.404 27.88 clipbox
239.904252 27.88 m
241.782304 27.88 l
241.782304 144.491695 l
239.904252 144.491695 l
cl
0.122 0.467 0.706 setrgbcolor
fill
grestore
gsave
103.293 123.44 201.404 27.88 clipbox
241.782304 27.88 m
243.660362 27.88 l
243.660362 128.270959 l
241.782304 128.270959 l
cl
0.122 0.467 0.706 setrgbcolor
fill
grestore
gsave
103.293 123.44 201.404 27.88 clipbox
243.660362 27.88 m
245.538414 27.88 l
245.538414 93.56541 l
243.660362 93.56541 l
cl
0.122 0.467 0.706 setrgbcolor
fill
grestore
gsave
103.293 123.44 201.404 27.88 clipbox
245.538414 27.88 m
247.416466 27.88 l
247.416466 83.993898 l
245.538414 83.993898 l
cl
0.122 0.467 0.706 setrgbcolor
fill
grestore
gsave
103.293 123.44 201.404 27.88 clipbox
247.416466 27.88 m
249.294518 27.88 l
249.294518 100.579647 l
247.416466 100.579647 l
cl
0.122 0.467 0.706 setrgbcolor
fill
grestore
gsave
103.293 123.44 201.404 27.88 clipbox
249.294518 27.88 m
251.172576 27.88 l
251.172576 143.83375 l
249.294518 143.83375 l
cl
0.122 0.467 0.706 setrgbcolor
fill
grestore
gsave
103.293 123.44 201.404 27.88 clipbox
251.172576 27.88 m
253.050622 27.88 l
253.050622 82.313573 l
251.172576 82.313573 l
cl
0.122 0.467 0.706 setrgbcolor
fill
grestore
gsave
103.293 123.44 201.404 27.88 clipbox
253.050622 27.88 m
254.92868 27.88 l
254.92868 129.36693 l
253.050622 129.36693 l
cl
0.122 0.467 0.706 setrgbcolor
fill
grestore
gsave
103.293 123.44 201.404 27.88 clipbox
254.92868 27.88 m
256.806726 27.88 l
256.806726 145.441905 l
254.92868 145.441905 l
cl
0.122 0.467 0.706 setrgbcolor
fill
grestore
gsave
103.293 123.44 201.404 27.88 clipbox
256.806726 27.88 m
258.684784 27.88 l
258.684784 96.049407 l
256.806726 96.049407 l
cl
0.122 0.467 0.706 setrgbcolor
fill
grestore
gsave
103.293 123.44 201.404 27.88 clipbox
258.684784 27.88 m
260.562842 27.88 l
260.562842 81.217264 l
258.684784 81.217264 l
cl
0.122 0.467 0.706 setrgbcolor
fill
grestore
gsave
103.293 123.44 201.404 27.88 clipbox
260.562842 27.88 m
262.440888 27.88 l
262.440888 53.014428 l
260.562842 53.014428 l
cl
0.122 0.467 0.706 setrgbcolor
fill
grestore
gsave
103.293 123.44 201.404 27.88 clipbox
262.440888 27.88 m
264.318946 27.88 l
264.318946 112.196715 l
262.440888 112.196715 l
cl
0.122 0.467 0.706 setrgbcolor
fill
grestore
gsave
103.293 123.44 201.404 27.88 clipbox
264.318946 27.88 m
266.196992 27.88 l
266.196992 44.538865 l
264.318946 44.538865 l
cl
0.122 0.467 0.706 setrgbcolor
fill
grestore
gsave
103.293 123.44 201.404 27.88 clipbox
266.196992 27.88 m
268.07505 27.88 l
268.07505 76.979508 l
266.196992 76.979508 l
cl
0.122 0.467 0.706 setrgbcolor
fill
grestore
gsave
103.293 123.44 201.404 27.88 clipbox
268.07505 27.88 m
269.953107 27.88 l
269.953107 62.0743 l
268.07505 62.0743 l
cl
0.122 0.467 0.706 setrgbcolor
fill
grestore
gsave
103.293 123.44 201.404 27.88 clipbox
269.953107 27.88 m
271.831154 27.88 l
271.831154 80.633073 l
269.953107 80.633073 l
cl
0.122 0.467 0.706 setrgbcolor
fill
grestore
gsave
103.293 123.44 201.404 27.88 clipbox
271.831154 27.88 m
273.709211 27.88 l
273.709211 48.922646 l
271.831154 48.922646 l
cl
0.122 0.467 0.706 setrgbcolor
fill
grestore
gsave
103.293 123.44 201.404 27.88 clipbox
273.709211 27.88 m
275.587258 27.88 l
275.587258 52.649102 l
273.709211 52.649102 l
cl
0.122 0.467 0.706 setrgbcolor
fill
grestore
gsave
103.293 123.44 201.404 27.88 clipbox
275.587258 27.88 m
277.465315 27.88 l
277.465315 35.405669 l
275.587258 35.405669 l
cl
0.122 0.467 0.706 setrgbcolor
fill
grestore
gsave
103.293 123.44 201.404 27.88 clipbox
277.465315 27.88 m
279.343373 27.88 l
279.343373 47.461352 l
277.465315 47.461352 l
cl
0.122 0.467 0.706 setrgbcolor
fill
grestore
gsave
103.293 123.44 201.404 27.88 clipbox
279.343373 27.88 m
281.221419 27.88 l
281.221419 36.355563 l
279.343373 36.355563 l
cl
0.122 0.467 0.706 setrgbcolor
fill
grestore
gsave
103.293 123.44 201.404 27.88 clipbox
281.221419 27.88 m
283.099477 27.88 l
283.099477 36.50164 l
281.221419 36.50164 l
cl
0.122 0.467 0.706 setrgbcolor
fill
grestore
gsave
103.293 123.44 201.404 27.88 clipbox
283.099477 27.88 m
284.977523 27.88 l
284.977523 38.693649 l
283.099477 38.693649 l
cl
0.122 0.467 0.706 setrgbcolor
fill
grestore
gsave
103.293 123.44 201.404 27.88 clipbox
284.977523 27.88 m
286.855581 27.88 l
286.855581 31.387108 l
284.977523 31.387108 l
cl
0.122 0.467 0.706 setrgbcolor
fill
grestore
gsave
103.293 123.44 201.404 27.88 clipbox
286.855581 27.88 m
288.733627 27.88 l
288.733627 30.802608 l
286.855581 30.802608 l
cl
0.122 0.467 0.706 setrgbcolor
fill
grestore
gsave
103.293 123.44 201.404 27.88 clipbox
288.733627 27.88 m
290.611685 27.88 l
290.611685 27.88 l
288.733627 27.88 l
cl
0.122 0.467 0.706 setrgbcolor
fill
grestore
gsave
103.293 123.44 201.404 27.88 clipbox
290.611685 27.88 m
292.489743 27.88 l
292.489743 28.099194 l
290.611685 28.099194 l
cl
0.122 0.467 0.706 setrgbcolor
fill
grestore
gsave
103.293 123.44 201.404 27.88 clipbox
292.489743 27.88 m
294.367789 27.88 l
294.367789 28.902913 l
292.489743 28.902913 l
cl
0.122 0.467 0.706 setrgbcolor
fill
grestore
gsave
103.293 123.44 201.404 27.88 clipbox
294.367789 27.88 m
296.245847 27.88 l
296.245847 27.88 l
294.367789 27.88 l
cl
0.122 0.467 0.706 setrgbcolor
fill
grestore
gsave
103.293 123.44 201.404 27.88 clipbox
296.245847 27.88 m
298.123893 27.88 l
298.123893 28.172261 l
296.245847 28.172261 l
cl
0.122 0.467 0.706 setrgbcolor
fill
grestore
gsave
103.293 123.44 201.404 27.88 clipbox
298.123893 27.88 m
300.001951 27.88 l
300.001951 29.122101 l
298.123893 29.122101 l
cl
0.122 0.467 0.706 setrgbcolor
fill
grestore
1 setlinejoin
0 setlinecap
gsave
/o {
gsave
newpath
translate
0.8 setlinewidth
1 setlinejoin

0 setlinecap

0 0 m
0 -3.5 l

gsave
0.000 setgray
fill
grestore
stroke
grestore
} bind def
231.141 27.88 o
grestore
/DejaVuSans 10.000 selectfont
gsave

223.187 13.2863 translate
0 rotate
0 0 m /zero glyphshow
6.3623 0 m /period glyphshow
9.54102 0 m /two glyphshow
grestore
gsave
/o {
gsave
newpath
translate
0.8 setlinewidth
1 setlinejoin

0 setlinecap

0 0 m
0 -3.5 l

gsave
0.000 setgray
fill
grestore
stroke
grestore
} bind def
270.305 27.88 o
grestore
/DejaVuSans 10.000 selectfont
gsave

262.352 13.2863 translate
0 rotate
0 0 m /zero glyphshow
6.3623 0 m /period glyphshow
9.54102 0 m /three glyphshow
grestore
gsave
/o {
gsave
newpath
translate
0.8 setlinewidth
1 setlinejoin

0 setlinecap

-0 0 m
-3.5 0 l

gsave
0.000 setgray
fill
grestore
stroke
grestore
} bind def
201.404 27.88 o
grestore
/DejaVuSans 10.000 selectfont
gsave

178.498 24.0831 translate
0 rotate
0 0 m /zero glyphshow
6.3623 0 m /period glyphshow
9.54102 0 m /zero glyphshow
grestore
gsave
/o {
gsave
newpath
translate
0.8 setlinewidth
1 setlinejoin

0 setlinecap

-0 0 m
-3.5 0 l

gsave
0.000 setgray
fill
grestore
stroke
grestore
} bind def
201.404 49.7777 o
grestore
/DejaVuSans 10.000 selectfont
gsave

178.498 45.9809 translate
0 rotate
0 0 m /two glyphshow
6.3623 0 m /period glyphshow
9.54102 0 m /five glyphshow
grestore
gsave
/o {
gsave
newpath
translate
0.8 setlinewidth
1 setlinejoin

0 setlinecap

-0 0 m
-3.5 0 l

gsave
0.000 setgray
fill
grestore
stroke
grestore
} bind def
201.404 71.6755 o
grestore
/DejaVuSans 10.000 selectfont
gsave

178.498 67.8786 translate
0 rotate
0 0 m /five glyphshow
6.3623 0 m /period glyphshow
9.54102 0 m /zero glyphshow
grestore
gsave
/o {
gsave
newpath
translate
0.8 setlinewidth
1 setlinejoin

0 setlinecap

-0 0 m
-3.5 0 l

gsave
0.000 setgray
fill
grestore
stroke
grestore
} bind def
201.404 93.5732 o
grestore
/DejaVuSans 10.000 selectfont
gsave

178.498 89.7764 translate
0 rotate
0 0 m /seven glyphshow
6.3623 0 m /period glyphshow
9.54102 0 m /five glyphshow
grestore
gsave
/o {
gsave
newpath
translate
0.8 setlinewidth
1 setlinejoin

0 setlinecap

-0 0 m
-3.5 0 l

gsave
0.000 setgray
fill
grestore
stroke
grestore
} bind def
201.404 115.471 o
grestore
/DejaVuSans 10.000 selectfont
gsave

172.139 111.674 translate
0 rotate
0 0 m /one glyphshow
6.3623 0 m /zero glyphshow
12.7246 0 m /period glyphshow
15.9033 0 m /zero glyphshow
grestore
gsave
/o {
gsave
newpath
translate
0.8 setlinewidth
1 setlinejoin

0 setlinecap

-0 0 m
-3.5 0 l

gsave
0.000 setgray
fill
grestore
stroke
grestore
} bind def
201.404 137.369 o
grestore
/DejaVuSans 10.000 selectfont
gsave

172.139 133.572 translate
0 rotate
0 0 m /one glyphshow
6.3623 0 m /two glyphshow
12.7246 0 m /period glyphshow
15.9033 0 m /five glyphshow
grestore
0 setlinejoin
2 setlinecap
gsave
201.404167 27.88 m
201.404167 151.32 l
stroke
grestore
gsave
304.697083 27.88 m
304.697083 151.32 l
stroke
grestore
gsave
201.404167 27.88 m
304.697083 27.88 l
stroke
grestore
gsave
201.404167 151.32 m
304.697083 151.32 l
stroke
grestore
gsave
346.707083 27.88 m
450 27.88 l
450 151.32 l
346.707083 151.32 l
cl
1.000 setgray
fill
grestore
gsave
103.293 123.44 346.707 27.88 clipbox
352.457302 90.365075 m
352.457302 88.834925 l
355.62256 88.299004 l
357.732732 87.944721 l
359.842904 87.668792 l
361.953076 87.439541 l
364.063248 87.242492 l
366.17342 87.06953 l
368.283591 86.915492 l
370.393763 86.776967 l
372.503935 86.651458 l
374.614107 86.536915 l
376.724279 86.431985 l
378.834451 86.335401 l
380.944623 86.246032 l
383.054795 86.163026 l
385.164967 86.085773 l
387.275139 86.01346 l
389.385311 85.945751 l
391.495483 85.88219 l
393.605655 85.822479 l
395.715827 85.766194 l
397.825999 85.712942 l
399.936171 85.66251 l
402.046343 85.614735 l
404.156515 85.569335 l
406.266686 85.526054 l
408.376858 85.484756 l
410.48703 85.445351 l
412.597202 85.407744 l
414.707374 85.371802 l
416.817546 85.337362 l
418.927718 85.304396 l
421.03789 85.27287 l
423.148062 85.242652 l
425.258234 85.213643 l
427.368406 85.185845 l
429.478578 85.159168 l
431.58875 85.133461 l
433.698922 85.108712 l
435.809094 85.084892 l
437.919266 85.061943 l
440.029438 85.039929 l
442.13961 85.018747 l
445.304867 84.998436 l
445.304867 94.201564 l
445.304867 94.201564 l
442.13961 94.181253 l
440.029438 94.160071 l
437.919266 94.138057 l
435.809094 94.115108 l
433.698922 94.091288 l
431.58875 94.066539 l
429.478578 94.040832 l
427.368406 94.014155 l
425.258234 93.986357 l
423.148062 93.957348 l
421.03789 93.92713 l
418.927718 93.895604 l
416.817546 93.862638 l
414.707374 93.828198 l
412.597202 93.792256 l
410.48703 93.754649 l
408.376858 93.715244 l
406.266686 93.673946 l
404.156515 93.630665 l
402.046343 93.585265 l
399.936171 93.53749 l
397.825999 93.487058 l
395.715827 93.433806 l
393.605655 93.377521 l
391.495483 93.31781 l
389.385311 93.254249 l
387.275139 93.18654 l
385.164967 93.114227 l
383.054795 93.036974 l
380.944623 92.953968 l
378.834451 92.864599 l
376.724279 92.768015 l
374.614107 92.663085 l
372.503935 92.548542 l
370.393763 92.423033 l
368.283591 92.284508 l
366.17342 92.13047 l
364.063248 91.957508 l
361.953076 91.760459 l
359.842904 91.531208 l
357.732732 91.255279 l
355.62256 90.900996 l
352.457302 90.365075 l
cl
0.122 0.467 0.706 setrgbcolor
fill
grestore
1 setlinejoin
0 setlinecap
gsave
/o {
gsave
newpath
translate
0.8 setlinewidth
1 setlinejoin

0 setlinecap

0 0 m
0 -3.5 l

gsave
0.000 setgray
fill
grestore
stroke
grestore
} bind def
351.402 27.88 o
grestore
/DejaVuSans 10.000 selectfont
gsave

348.223 13.2863 translate
0 rotate
0 0 m /zero glyphshow
grestore
gsave
/o {
gsave
newpath
translate
0.8 setlinewidth
1 setlinejoin

0 setlinecap

0 0 m
0 -3.5 l

gsave
0.000 setgray
fill
grestore
stroke
grestore
} bind def
393.606 27.88 o
grestore
/DejaVuSans 10.000 selectfont
gsave

387.246 13.2863 translate
0 rotate
0 0 m /two glyphshow
6.3623 0 m /zero glyphshow
grestore
gsave
/o {
gsave
newpath
translate
0.8 setlinewidth
1 setlinejoin

0 setlinecap

0 0 m
0 -3.5 l

gsave
0.000 setgray
fill
grestore
stroke
grestore
} bind def
435.809 27.88 o
grestore
/DejaVuSans 10.000 selectfont
gsave

429.45 13.2863 translate
0 rotate
0 0 m /four glyphshow
6.3623 0 m /zero glyphshow
grestore
gsave
/o {
gsave
newpath
translate
0.8 setlinewidth
1 setlinejoin

0 setlinecap

-0 0 m
-3.5 0 l

gsave
0.000 setgray
fill
grestore
stroke
grestore
} bind def
346.707 27.88 o
grestore
/DejaVuSans 10.000 selectfont
gsave

315.426 24.0831 translate
0 rotate
0 0 m /minus glyphshow
8.37891 0 m /one glyphshow
14.7412 0 m /period glyphshow
17.9199 0 m /zero glyphshow
grestore
gsave
/o {
gsave
newpath
translate
0.8 setlinewidth
1 setlinejoin

0 setlinecap

-0 0 m
-3.5 0 l

gsave
0.000 setgray
fill
grestore
stroke
grestore
} bind def
346.707 58.74 o
grestore
/DejaVuSans 10.000 selectfont
gsave

315.426 54.9431 translate
0 rotate
0 0 m /minus glyphshow
8.37891 0 m /zero glyphshow
14.7412 0 m /period glyphshow
17.9199 0 m /five glyphshow
grestore
gsave
/o {
gsave
newpath
translate
0.8 setlinewidth
1 setlinejoin

0 setlinecap

-0 0 m
-3.5 0 l

gsave
0.000 setgray
fill
grestore
stroke
grestore
} bind def
346.707 89.6 o
grestore
/DejaVuSans 10.000 selectfont
gsave

323.801 85.8031 translate
0 rotate
0 0 m /zero glyphshow
6.3623 0 m /period glyphshow
9.54102 0 m /zero glyphshow
grestore
gsave
/o {
gsave
newpath
translate
0.8 setlinewidth
1 setlinejoin

0 setlinecap

-0 0 m
-3.5 0 l

gsave
0.000 setgray
fill
grestore
stroke
grestore
} bind def
346.707 120.46 o
grestore
/DejaVuSans 10.000 selectfont
gsave

323.801 116.663 translate
0 rotate
0 0 m /zero glyphshow
6.3623 0 m /period glyphshow
9.54102 0 m /five glyphshow
grestore
gsave
/o {
gsave
newpath
translate
0.8 setlinewidth
1 setlinejoin

0 setlinecap

-0 0 m
-3.5 0 l

gsave
0.000 setgray
fill
grestore
stroke
grestore
} bind def
346.707 151.32 o
grestore
/DejaVuSans 10.000 selectfont
gsave

323.801 147.523 translate
0 rotate
0 0 m /one glyphshow
6.3623 0 m /period glyphshow
9.54102 0 m /zero glyphshow
grestore
1.500 setlinewidth
0.122 0.467 0.706 setrgbcolor
gsave
103.293 123.44 346.707 27.88 clipbox
351.402216 89.6 m
351.402216 151.32 l
stroke
grestore
gsave
103.293 123.44 346.707 27.88 clipbox
353.512388 89.6 m
353.512388 149.624674 l
stroke
grestore
gsave
103.293 123.44 346.707 27.88 clipbox
355.62256 89.6 m
355.62256 147.978701 l
stroke
grestore
gsave
103.293 123.44 346.707 27.88 clipbox
357.732732 89.6 m
357.732732 146.346639 l
stroke
grestore
gsave
103.293 123.44 346.707 27.88 clipbox
359.842904 89.6 m
359.842904 144.847577 l
stroke
grestore
gsave
103.293 123.44 346.707 27.88 clipbox
361.953076 89.6 m
361.953076 143.422652 l
stroke
grestore
gsave
103.293 123.44 346.707 27.88 clipbox
364.063248 89.6 m
364.063248 142.050254 l
stroke
grestore
gsave
103.293 123.44 346.707 27.88 clipbox
366.17342 89.6 m
366.17342 140.726579 l
stroke
grestore
gsave
103.293 123.44 346.707 27.88 clipbox
368.283591 89.6 m
368.283591 139.425228 l
stroke
grestore
gsave
103.293 123.44 346.707 27.88 clipbox
370.393763 89.6 m
370.393763 138.150318 l
stroke
grestore
gsave
103.293 123.44 346.707 27.88 clipbox
372.503935 89.6 m
372.503935 136.935444 l
stroke
grestore
gsave
103.293 123.44 346.707 27.88 clipbox
374.614107 89.6 m
374.614107 135.725463 l
stroke
grestore
gsave
103.293 123.44 346.707 27.88 clipbox
376.724279 89.6 m
376.724279 134.562737 l
stroke
grestore
gsave
103.293 123.44 346.707 27.88 clipbox
378.834451 89.6 m
378.834451 133.4714 l
stroke
grestore
gsave
103.293 123.44 346.707 27.88 clipbox
380.944623 89.6 m
380.944623 132.427974 l
stroke
grestore
gsave
103.293 123.44 346.707 27.88 clipbox
383.054795 89.6 m
383.054795 131.401623 l
stroke
grestore
gsave
103.293 123.44 346.707 27.88 clipbox
385.164967 89.6 m
385.164967 130.475952 l
stroke
grestore
gsave
103.293 123.44 346.707 27.88 clipbox
387.275139 89.6 m
387.275139 129.541434 l
stroke
grestore
gsave
103.293 123.44 346.707 27.88 clipbox
389.385311 89.6 m
389.385311 128.647773 l
stroke
grestore
gsave
103.293 123.44 346.707 27.88 clipbox
391.495483 89.6 m
391.495483 127.761874 l
stroke
grestore
gsave
103.293 123.44 346.707 27.88 clipbox
393.605655 89.6 m
393.605655 126.936623 l
stroke
grestore
gsave
103.293 123.44 346.707 27.88 clipbox
395.715827 89.6 m
395.715827 126.176875 l
stroke
grestore
gsave
103.293 123.44 346.707 27.88 clipbox
397.825999 89.6 m
397.825999 125.433486 l
stroke
grestore
gsave
103.293 123.44 346.707 27.88 clipbox
399.936171 89.6 m
399.936171 124.695197 l
stroke
grestore
gsave
103.293 123.44 346.707 27.88 clipbox
402.046343 89.6 m
402.046343 124.012146 l
stroke
grestore
gsave
103.293 123.44 346.707 27.88 clipbox
404.156515 89.6 m
404.156515 123.384698 l
stroke
grestore
gsave
103.293 123.44 346.707 27.88 clipbox
406.266686 89.6 m
406.266686 122.773341 l
stroke
grestore
gsave
103.293 123.44 346.707 27.88 clipbox
408.376858 89.6 m
408.376858 122.163882 l
stroke
grestore
gsave
103.293 123.44 346.707 27.88 clipbox
410.48703 89.6 m
410.48703 121.559546 l
stroke
grestore
gsave
103.293 123.44 346.707 27.88 clipbox
412.597202 89.6 m
412.597202 120.981863 l
stroke
grestore
gsave
103.293 123.44 346.707 27.88 clipbox
414.707374 89.6 m
414.707374 120.447109 l
stroke
grestore
gsave
103.293 123.44 346.707 27.88 clipbox
416.817546 89.6 m
416.817546 119.899036 l
stroke
grestore
gsave
103.293 123.44 346.707 27.88 clipbox
418.927718 89.6 m
418.927718 119.341691 l
stroke
grestore
gsave
103.293 123.44 346.707 27.88 clipbox
421.03789 89.6 m
421.03789 118.822333 l
stroke
grestore
gsave
103.293 123.44 346.707 27.88 clipbox
423.148062 89.6 m
423.148062 118.328798 l
stroke
grestore
gsave
103.293 123.44 346.707 27.88 clipbox
425.258234 89.6 m
425.258234 117.814034 l
stroke
grestore
gsave
103.293 123.44 346.707 27.88 clipbox
427.368406 89.6 m
427.368406 117.324966 l
stroke
grestore
gsave
103.293 123.44 346.707 27.88 clipbox
429.478578 89.6 m
429.478578 116.896809 l
stroke
grestore
gsave
103.293 123.44 346.707 27.88 clipbox
431.58875 89.6 m
431.58875 116.458742 l
stroke
grestore
gsave
103.293 123.44 346.707 27.88 clipbox
433.698922 89.6 m
433.698922 116.020961 l
stroke
grestore
gsave
103.293 123.44 346.707 27.88 clipbox
435.809094 89.6 m
435.809094 115.601369 l
stroke
grestore
gsave
103.293 123.44 346.707 27.88 clipbox
437.919266 89.6 m
437.919266 115.128633 l
stroke
grestore
gsave
103.293 123.44 346.707 27.88 clipbox
440.029438 89.6 m
440.029438 114.701212 l
stroke
grestore
gsave
103.293 123.44 346.707 27.88 clipbox
442.13961 89.6 m
442.13961 114.235509 l
stroke
grestore
gsave
103.293 123.44 346.707 27.88 clipbox
444.249781 89.6 m
444.249781 113.786423 l
stroke
grestore
2 setlinecap
gsave
103.293 123.44 346.707 27.88 clipbox
346.707083 89.6 m
450 89.6 l
stroke
grestore
1.000 setlinewidth
0 setlinecap
gsave
103.293 123.44 346.707 27.88 clipbox
/o {
gsave
newpath
translate
1.0 setlinewidth
1 setlinejoin

0 setlinecap

0 -2.5 m
0.663008 -2.5 1.29895 -2.236584 1.767767 -1.767767 c
2.236584 -1.29895 2.5 -0.663008 2.5 0 c
2.5 0.663008 2.236584 1.29895 1.767767 1.767767 c
1.29895 2.236584 0.663008 2.5 0 2.5 c
-0.663008 2.5 -1.29895 2.236584 -1.767767 1.767767 c
-2.236584 1.29895 -2.5 0.663008 -2.5 0 c
-2.5 -0.663008 -2.236584 -1.29895 -1.767767 -1.767767 c
-1.29895 -2.236584 -0.663008 -2.5 0 -2.5 c
cl

gsave
0.122 0.467 0.706 setrgbcolor
fill
grestore
stroke
grestore
} bind def
351.402 151.32 o
353.512 149.625 o
355.623 147.979 o
357.733 146.347 o
359.843 144.848 o
361.953 143.423 o
364.063 142.05 o
366.173 140.727 o
368.284 139.425 o
370.394 138.15 o
372.504 136.935 o
374.614 135.725 o
376.724 134.563 o
378.834 133.471 o
380.945 132.428 o
383.055 131.402 o
385.165 130.476 o
387.275 129.541 o
389.385 128.648 o
391.495 127.762 o
393.606 126.937 o
395.716 126.177 o
397.826 125.433 o
399.936 124.695 o
402.046 124.012 o
404.157 123.385 o
406.267 122.773 o
408.377 122.164 o
410.487 121.56 o
412.597 120.982 o
414.707 120.447 o
416.818 119.899 o
418.928 119.342 o
421.038 118.822 o
423.148 118.329 o
425.258 117.814 o
427.368 117.325 o
429.479 116.897 o
431.589 116.459 o
433.699 116.021 o
435.809 115.601 o
437.919 115.129 o
440.029 114.701 o
442.14 114.236 o
444.25 113.786 o
grestore
0.800 setlinewidth
0 setlinejoin
2 setlinecap
0.000 setgray
gsave
346.707083 27.88 m
346.707083 151.32 l
stroke
grestore
gsave
450 27.88 m
450 151.32 l
stroke
grestore
gsave
346.707083 27.88 m
450 27.88 l
stroke
grestore
gsave
346.707083 151.32 m
450 151.32 l
stroke
grestore
/DejaVuSans 12.000 selectfont
gsave

352.236 157.32 translate
0 rotate
0 0 m /A glyphshow
8.20898 0 m /u glyphshow
15.8145 0 m /t glyphshow
20.5195 0 m /o glyphshow
27.8613 0 m /c glyphshow
34.459 0 m /o glyphshow
41.8008 0 m /r glyphshow
46.4844 0 m /r glyphshow
51.168 0 m /e glyphshow
58.5508 0 m /l glyphshow
61.8848 0 m /a glyphshow
69.2383 0 m /t glyphshow
73.9434 0 m /i glyphshow
77.2773 0 m /o glyphshow
84.6191 0 m /n glyphshow
grestore

end
showpage
