%!PS-Adobe-3.0 EPSF-3.0
%%Title: posterior_predictive.eps
%%Creator: Matplotlib v3.6.2, https://matplotlib.org/
%%CreationDate: Tue Feb 14 19:59:01 2023
%%Orientation: portrait
%%BoundingBox: 75 223 537 569
%%HiResBoundingBox: 75.600000 223.200000 536.400000 568.800000
%%EndComments
%%BeginProlog
/mpldict 11 dict def
mpldict begin
/_d { bind def } bind def
/m { moveto } _d
/l { lineto } _d
/r { rlineto } _d
/c { curveto } _d
/cl { closepath } _d
/ce { closepath eofill } _d
/box {
      m
      1 index 0 r
      0 exch r
      neg 0 r
      cl
    } _d
/clipbox {
      box
      clip
      newpath
    } _d
/sc { setcachedevice } _d
%!PS-Adobe-3.0 Resource-Font
%%Creator: Converted from TrueType to Type 3 by Matplotlib.
10 dict begin
/FontName /DejaVuSans def
/PaintType 0 def
/FontMatrix [0.00048828125 0 0 0.00048828125 0 0] def
/FontBBox [-2090 -948 3673 2524] def
/FontType 3 def
/Encoding [/period /zero /one /two /three /four /five /six /seven /eight] def
/CharStrings 11 dict dup begin
/.notdef 0 def
/period{651 0 219 0 430 254 sc
219 254 m
430 254 l
430 0 l
219 0 l
219 254 l

ce} _d
/zero{1303 0 135 -29 1167 1520 sc
651 1360 m
547 1360 469 1309 416 1206 c
364 1104 338 950 338 745 c
338 540 364 387 416 284 c
469 182 547 131 651 131 c
756 131 834 182 886 284 c
939 387 965 540 965 745 c
965 950 939 1104 886 1206 c
834 1309 756 1360 651 1360 c

651 1520 m
818 1520 946 1454 1034 1321 c
1123 1189 1167 997 1167 745 c
1167 494 1123 302 1034 169 c
946 37 818 -29 651 -29 c
484 -29 356 37 267 169 c
179 302 135 494 135 745 c
135 997 179 1189 267 1321 c
356 1454 484 1520 651 1520 c

ce} _d
/one{1303 0 225 0 1114 1493 sc
254 170 m
584 170 l
584 1309 l
225 1237 l
225 1421 l
582 1493 l
784 1493 l
784 170 l
1114 170 l
1114 0 l
254 0 l
254 170 l

ce} _d
/two{1303 0 150 0 1098 1520 sc
393 170 m
1098 170 l
1098 0 l
150 0 l
150 170 l
227 249 331 356 463 489 c
596 623 679 709 713 748 c
778 821 823 882 848 932 c
874 983 887 1032 887 1081 c
887 1160 859 1225 803 1275 c
748 1325 675 1350 586 1350 c
523 1350 456 1339 385 1317 c
315 1295 240 1262 160 1217 c
160 1421 l
241 1454 317 1478 388 1495 c
459 1512 523 1520 582 1520 c
737 1520 860 1481 952 1404 c
1044 1327 1090 1223 1090 1094 c
1090 1033 1078 974 1055 919 c
1032 864 991 800 930 725 c
913 706 860 650 771 557 c
682 465 556 336 393 170 c

ce} _d
/three{1303 0 156 -29 1139 1520 sc
831 805 m
928 784 1003 741 1057 676 c
1112 611 1139 530 1139 434 c
1139 287 1088 173 987 92 c
886 11 742 -29 555 -29 c
492 -29 428 -23 361 -10 c
295 2 227 20 156 45 c
156 240 l
212 207 273 183 340 166 c
407 149 476 141 549 141 c
676 141 772 166 838 216 c
905 266 938 339 938 434 c
938 522 907 591 845 640 c
784 690 698 715 588 715 c
414 715 l
414 881 l
596 881 l
695 881 771 901 824 940 c
877 980 903 1037 903 1112 c
903 1189 876 1247 821 1288 c
767 1329 689 1350 588 1350 c
533 1350 473 1344 410 1332 c
347 1320 277 1301 201 1276 c
201 1456 l
278 1477 349 1493 416 1504 c
483 1515 547 1520 606 1520 c
759 1520 881 1485 970 1415 c
1059 1346 1104 1252 1104 1133 c
1104 1050 1080 980 1033 923 c
986 866 918 827 831 805 c

ce} _d
/four{1303 0 100 0 1188 1493 sc
774 1317 m
264 520 l
774 520 l
774 1317 l

721 1493 m
975 1493 l
975 520 l
1188 520 l
1188 352 l
975 352 l
975 0 l
774 0 l
774 352 l
100 352 l
100 547 l
721 1493 l

ce} _d
/five{1303 0 158 -29 1124 1493 sc
221 1493 m
1014 1493 l
1014 1323 l
406 1323 l
406 957 l
435 967 465 974 494 979 c
523 984 553 987 582 987 c
749 987 881 941 978 850 c
1075 759 1124 635 1124 479 c
1124 318 1074 193 974 104 c
874 15 733 -29 551 -29 c
488 -29 424 -24 359 -13 c
294 -2 227 14 158 35 c
158 238 l
218 205 280 181 344 165 c
408 149 476 141 547 141 c
662 141 754 171 821 232 c
888 293 922 375 922 479 c
922 583 888 665 821 726 c
754 787 662 817 547 817 c
493 817 439 811 385 799 c
332 787 277 768 221 743 c
221 1493 l

ce} _d
/six{1303 0 143 -29 1174 1520 sc
676 827 m
585 827 513 796 460 734 c
407 672 381 587 381 479 c
381 372 407 287 460 224 c
513 162 585 131 676 131 c
767 131 838 162 891 224 c
944 287 971 372 971 479 c
971 587 944 672 891 734 c
838 796 767 827 676 827 c

1077 1460 m
1077 1276 l
1026 1300 975 1318 923 1331 c
872 1344 821 1350 770 1350 c
637 1350 535 1305 464 1215 c
394 1125 354 989 344 807 c
383 865 433 909 492 940 c
551 971 617 987 688 987 c
838 987 956 941 1043 850 c
1130 759 1174 636 1174 479 c
1174 326 1129 203 1038 110 c
947 17 827 -29 676 -29 c
503 -29 371 37 280 169 c
189 302 143 494 143 745 c
143 981 199 1169 311 1309 c
423 1450 573 1520 762 1520 c
813 1520 864 1515 915 1505 c
967 1495 1021 1480 1077 1460 c

ce} _d
/seven{1303 0 168 0 1128 1493 sc
168 1493 m
1128 1493 l
1128 1407 l
586 0 l
375 0 l
885 1323 l
168 1323 l
168 1493 l

ce} _d
/eight{1303 0 139 -29 1163 1520 sc
651 709 m
555 709 479 683 424 632 c
369 581 342 510 342 420 c
342 330 369 259 424 208 c
479 157 555 131 651 131 c
747 131 823 157 878 208 c
933 260 961 331 961 420 c
961 510 933 581 878 632 c
823 683 748 709 651 709 c

449 795 m
362 816 295 857 246 916 c
198 975 174 1048 174 1133 c
174 1252 216 1347 301 1416 c
386 1485 503 1520 651 1520 c
800 1520 916 1485 1001 1416 c
1086 1347 1128 1252 1128 1133 c
1128 1048 1104 975 1055 916 c
1007 857 940 816 854 795 c
951 772 1027 728 1081 662 c
1136 596 1163 515 1163 420 c
1163 275 1119 164 1030 87 c
942 10 816 -29 651 -29 c
486 -29 360 10 271 87 c
183 164 139 275 139 420 c
139 515 166 596 221 662 c
276 728 352 772 449 795 c

375 1114 m
375 1037 399 976 447 933 c
496 890 564 868 651 868 c
738 868 805 890 854 933 c
903 976 928 1037 928 1114 c
928 1191 903 1252 854 1295 c
805 1338 738 1360 651 1360 c
564 1360 496 1338 447 1295 c
399 1252 375 1191 375 1114 c

ce} _d
end readonly def

/BuildGlyph {
 exch begin
 CharStrings exch
 2 copy known not {pop /.notdef} if
 true 3 1 roll get exec
 end
} _d

/BuildChar {
 1 index /Encoding get exch get
 1 index /BuildGlyph get exec
} _d

FontName currentdict end definefont pop
end
%%EndProlog
mpldict begin
75.6 223.2 translate
460.8 345.6 0 0 clipbox
gsave
0 0 m
460.8 0 l
460.8 345.6 l
0 345.6 l
cl
1.000 setgray
fill
grestore
gsave
46.24 195.28 m
450 195.28 l
450 334.8 l
46.24 334.8 l
cl
1.000 setgray
fill
grestore
gsave
403.76 139.52 46.24 195.28 clipbox
64.592727 195.28 m
73.769091 195.28 l
73.769091 199.347638 l
64.592727 199.347638 l
cl
0.275 0.195 0.496 setrgbcolor
fill
grestore
gsave
403.76 139.52 46.24 195.28 clipbox
73.769091 195.28 m
82.945455 195.28 l
82.945455 195.28 l
73.769091 195.28 l
cl
0.275 0.195 0.496 setrgbcolor
fill
grestore
gsave
403.76 139.52 46.24 195.28 clipbox
82.945455 195.28 m
92.121818 195.28 l
92.121818 202.059397 l
82.945455 202.059397 l
cl
0.275 0.195 0.496 setrgbcolor
fill
grestore
gsave
403.76 139.52 46.24 195.28 clipbox
92.121818 195.28 m
101.298182 195.28 l
101.298182 195.28 l
92.121818 195.28 l
cl
0.275 0.195 0.496 setrgbcolor
fill
grestore
gsave
403.76 139.52 46.24 195.28 clipbox
101.298182 195.28 m
110.474545 195.28 l
110.474545 207.482915 l
101.298182 207.482915 l
cl
0.275 0.195 0.496 setrgbcolor
fill
grestore
gsave
403.76 139.52 46.24 195.28 clipbox
110.474545 195.28 m
119.650909 195.28 l
119.650909 195.28 l
110.474545 195.28 l
cl
0.275 0.195 0.496 setrgbcolor
fill
grestore
gsave
403.76 139.52 46.24 195.28 clipbox
119.650909 195.28 m
128.827273 195.28 l
128.827273 195.28 l
119.650909 195.28 l
cl
0.275 0.195 0.496 setrgbcolor
fill
grestore
gsave
403.76 139.52 46.24 195.28 clipbox
128.827273 195.28 m
138.003636 195.28 l
138.003636 238.668144 l
128.827273 238.668144 l
cl
0.275 0.195 0.496 setrgbcolor
fill
grestore
gsave
403.76 139.52 46.24 195.28 clipbox
138.003636 195.28 m
147.18 195.28 l
147.18 195.28 l
138.003636 195.28 l
cl
0.275 0.195 0.496 setrgbcolor
fill
grestore
gsave
403.76 139.52 46.24 195.28 clipbox
147.18 195.28 m
156.356364 195.28 l
156.356364 252.226939 l
147.18 252.226939 l
cl
0.275 0.195 0.496 setrgbcolor
fill
grestore
gsave
403.76 139.52 46.24 195.28 clipbox
156.356364 195.28 m
165.532727 195.28 l
165.532727 195.28 l
156.356364 195.28 l
cl
0.275 0.195 0.496 setrgbcolor
fill
grestore
gsave
403.76 139.52 46.24 195.28 clipbox
165.532727 195.28 m
174.709091 195.28 l
174.709091 291.547444 l
165.532727 291.547444 l
cl
0.275 0.195 0.496 setrgbcolor
fill
grestore
gsave
403.76 139.52 46.24 195.28 clipbox
174.709091 195.28 m
183.885455 195.28 l
183.885455 195.28 l
174.709091 195.28 l
cl
0.275 0.195 0.496 setrgbcolor
fill
grestore
gsave
403.76 139.52 46.24 195.28 clipbox
183.885455 195.28 m
193.061818 195.28 l
193.061818 195.28 l
183.885455 195.28 l
cl
0.275 0.195 0.496 setrgbcolor
fill
grestore
gsave
403.76 139.52 46.24 195.28 clipbox
193.061818 195.28 m
202.238182 195.28 l
202.238182 309.173878 l
193.061818 309.173878 l
cl
0.275 0.195 0.496 setrgbcolor
fill
grestore
gsave
403.76 139.52 46.24 195.28 clipbox
202.238182 195.28 m
211.414545 195.28 l
211.414545 195.28 l
202.238182 195.28 l
cl
0.275 0.195 0.496 setrgbcolor
fill
grestore
gsave
403.76 139.52 46.24 195.28 clipbox
211.414545 195.28 m
220.590909 195.28 l
220.590909 328.15619 l
211.414545 328.15619 l
cl
0.275 0.195 0.496 setrgbcolor
fill
grestore
gsave
403.76 139.52 46.24 195.28 clipbox
220.590909 195.28 m
229.767273 195.28 l
229.767273 195.28 l
220.590909 195.28 l
cl
0.275 0.195 0.496 setrgbcolor
fill
grestore
gsave
403.76 139.52 46.24 195.28 clipbox
229.767273 195.28 m
238.943636 195.28 l
238.943636 317.309155 l
229.767273 317.309155 l
cl
0.275 0.195 0.496 setrgbcolor
fill
grestore
gsave
403.76 139.52 46.24 195.28 clipbox
238.943636 195.28 m
248.12 195.28 l
248.12 195.28 l
238.943636 195.28 l
cl
0.275 0.195 0.496 setrgbcolor
fill
grestore
gsave
403.76 139.52 46.24 195.28 clipbox
248.12 195.28 m
257.296364 195.28 l
257.296364 195.28 l
248.12 195.28 l
cl
0.275 0.195 0.496 setrgbcolor
fill
grestore
gsave
403.76 139.52 46.24 195.28 clipbox
257.296364 195.28 m
266.472727 195.28 l
266.472727 302.39448 l
257.296364 302.39448 l
cl
0.275 0.195 0.496 setrgbcolor
fill
grestore
gsave
403.76 139.52 46.24 195.28 clipbox
266.472727 195.28 m
275.649091 195.28 l
275.649091 195.28 l
266.472727 195.28 l
cl
0.275 0.195 0.496 setrgbcolor
fill
grestore
gsave
403.76 139.52 46.24 195.28 clipbox
275.649091 195.28 m
284.825455 195.28 l
284.825455 271.209252 l
275.649091 271.209252 l
cl
0.275 0.195 0.496 setrgbcolor
fill
grestore
gsave
403.76 139.52 46.24 195.28 clipbox
284.825455 195.28 m
294.001818 195.28 l
294.001818 195.28 l
284.825455 195.28 l
cl
0.275 0.195 0.496 setrgbcolor
fill
grestore
gsave
403.76 139.52 46.24 195.28 clipbox
294.001818 195.28 m
303.178182 195.28 l
303.178182 260.362216 l
294.001818 260.362216 l
cl
0.275 0.195 0.496 setrgbcolor
fill
grestore
gsave
403.76 139.52 46.24 195.28 clipbox
303.178182 195.28 m
312.354545 195.28 l
312.354545 195.28 l
303.178182 195.28 l
cl
0.275 0.195 0.496 setrgbcolor
fill
grestore
gsave
403.76 139.52 46.24 195.28 clipbox
312.354545 195.28 m
321.530909 195.28 l
321.530909 195.28 l
312.354545 195.28 l
cl
0.275 0.195 0.496 setrgbcolor
fill
grestore
gsave
403.76 139.52 46.24 195.28 clipbox
321.530909 195.28 m
330.707273 195.28 l
330.707273 244.091662 l
321.530909 244.091662 l
cl
0.275 0.195 0.496 setrgbcolor
fill
grestore
gsave
403.76 139.52 46.24 195.28 clipbox
330.707273 195.28 m
339.883636 195.28 l
339.883636 195.28 l
330.707273 195.28 l
cl
0.275 0.195 0.496 setrgbcolor
fill
grestore
gsave
403.76 139.52 46.24 195.28 clipbox
339.883636 195.28 m
349.06 195.28 l
349.06 230.532867 l
339.883636 230.532867 l
cl
0.275 0.195 0.496 setrgbcolor
fill
grestore
gsave
403.76 139.52 46.24 195.28 clipbox
349.06 195.28 m
358.236364 195.28 l
358.236364 195.28 l
349.06 195.28 l
cl
0.275 0.195 0.496 setrgbcolor
fill
grestore
gsave
403.76 139.52 46.24 195.28 clipbox
358.236364 195.28 m
367.412727 195.28 l
367.412727 204.771156 l
358.236364 204.771156 l
cl
0.275 0.195 0.496 setrgbcolor
fill
grestore
gsave
403.76 139.52 46.24 195.28 clipbox
367.412727 195.28 m
376.589091 195.28 l
376.589091 195.28 l
367.412727 195.28 l
cl
0.275 0.195 0.496 setrgbcolor
fill
grestore
gsave
403.76 139.52 46.24 195.28 clipbox
376.589091 195.28 m
385.765455 195.28 l
385.765455 195.28 l
376.589091 195.28 l
cl
0.275 0.195 0.496 setrgbcolor
fill
grestore
gsave
403.76 139.52 46.24 195.28 clipbox
385.765455 195.28 m
394.941818 195.28 l
394.941818 207.482915 l
385.765455 207.482915 l
cl
0.275 0.195 0.496 setrgbcolor
fill
grestore
gsave
403.76 139.52 46.24 195.28 clipbox
394.941818 195.28 m
404.118182 195.28 l
404.118182 195.28 l
394.941818 195.28 l
cl
0.275 0.195 0.496 setrgbcolor
fill
grestore
gsave
403.76 139.52 46.24 195.28 clipbox
404.118182 195.28 m
413.294545 195.28 l
413.294545 199.347638 l
404.118182 199.347638 l
cl
0.275 0.195 0.496 setrgbcolor
fill
grestore
gsave
403.76 139.52 46.24 195.28 clipbox
413.294545 195.28 m
422.470909 195.28 l
422.470909 195.28 l
413.294545 195.28 l
cl
0.275 0.195 0.496 setrgbcolor
fill
grestore
gsave
403.76 139.52 46.24 195.28 clipbox
422.470909 195.28 m
431.647273 195.28 l
431.647273 197.991759 l
422.470909 197.991759 l
cl
0.275 0.195 0.496 setrgbcolor
fill
grestore
0.800 setlinewidth
1 setlinejoin
0 setlinecap
[] 0 setdash
0.000 setgray
gsave
/o {
gsave
newpath
translate
0.8 setlinewidth
1 setlinejoin

0 setlinecap

0 0 m
0 -3.5 l

gsave
0.000 setgray
fill
grestore
stroke
grestore
} bind def
75.3884 195.28 o
grestore
/DejaVuSans 10.000 selectfont
gsave

67.4353 180.686 translate
0 rotate
0 0 m /two glyphshow
6.3623 0 m /period glyphshow
9.54102 0 m /five glyphshow
grestore
gsave
/o {
gsave
newpath
translate
0.8 setlinewidth
1 setlinejoin

0 setlinecap

0 0 m
0 -3.5 l

gsave
0.000 setgray
fill
grestore
stroke
grestore
} bind def
129.367 195.28 o
grestore
/DejaVuSans 10.000 selectfont
gsave

121.414 180.686 translate
0 rotate
0 0 m /five glyphshow
6.3623 0 m /period glyphshow
9.54102 0 m /zero glyphshow
grestore
gsave
/o {
gsave
newpath
translate
0.8 setlinewidth
1 setlinejoin

0 setlinecap

0 0 m
0 -3.5 l

gsave
0.000 setgray
fill
grestore
stroke
grestore
} bind def
183.346 195.28 o
grestore
/DejaVuSans 10.000 selectfont
gsave

175.393 180.686 translate
0 rotate
0 0 m /seven glyphshow
6.3623 0 m /period glyphshow
9.54102 0 m /five glyphshow
grestore
gsave
/o {
gsave
newpath
translate
0.8 setlinewidth
1 setlinejoin

0 setlinecap

0 0 m
0 -3.5 l

gsave
0.000 setgray
fill
grestore
stroke
grestore
} bind def
237.324 195.28 o
grestore
/DejaVuSans 10.000 selectfont
gsave

226.191 180.686 translate
0 rotate
0 0 m /one glyphshow
6.3623 0 m /zero glyphshow
12.7246 0 m /period glyphshow
15.9033 0 m /zero glyphshow
grestore
gsave
/o {
gsave
newpath
translate
0.8 setlinewidth
1 setlinejoin

0 setlinecap

0 0 m
0 -3.5 l

gsave
0.000 setgray
fill
grestore
stroke
grestore
} bind def
291.303 195.28 o
grestore
/DejaVuSans 10.000 selectfont
gsave

280.17 180.686 translate
0 rotate
0 0 m /one glyphshow
6.3623 0 m /two glyphshow
12.7246 0 m /period glyphshow
15.9033 0 m /five glyphshow
grestore
gsave
/o {
gsave
newpath
translate
0.8 setlinewidth
1 setlinejoin

0 setlinecap

0 0 m
0 -3.5 l

gsave
0.000 setgray
fill
grestore
stroke
grestore
} bind def
345.281 195.28 o
grestore
/DejaVuSans 10.000 selectfont
gsave

334.149 180.686 translate
0 rotate
0 0 m /one glyphshow
6.3623 0 m /five glyphshow
12.7246 0 m /period glyphshow
15.9033 0 m /zero glyphshow
grestore
gsave
/o {
gsave
newpath
translate
0.8 setlinewidth
1 setlinejoin

0 setlinecap

0 0 m
0 -3.5 l

gsave
0.000 setgray
fill
grestore
stroke
grestore
} bind def
399.26 195.28 o
grestore
/DejaVuSans 10.000 selectfont
gsave

388.127 180.686 translate
0 rotate
0 0 m /one glyphshow
6.3623 0 m /seven glyphshow
12.7246 0 m /period glyphshow
15.9033 0 m /five glyphshow
grestore
gsave
/o {
gsave
newpath
translate
0.8 setlinewidth
1 setlinejoin

0 setlinecap

-0 0 m
-3.5 0 l

gsave
0.000 setgray
fill
grestore
stroke
grestore
} bind def
46.24 195.28 o
grestore
/DejaVuSans 10.000 selectfont
gsave

23.3338 191.483 translate
0 rotate
0 0 m /zero glyphshow
6.3623 0 m /period glyphshow
9.54102 0 m /zero glyphshow
grestore
gsave
/o {
gsave
newpath
translate
0.8 setlinewidth
1 setlinejoin

0 setlinecap

-0 0 m
-3.5 0 l

gsave
0.000 setgray
fill
grestore
stroke
grestore
} bind def
46.24 235.617 o
grestore
/DejaVuSans 10.000 selectfont
gsave

23.3338 231.821 translate
0 rotate
0 0 m /zero glyphshow
6.3623 0 m /period glyphshow
9.54102 0 m /one glyphshow
grestore
gsave
/o {
gsave
newpath
translate
0.8 setlinewidth
1 setlinejoin

0 setlinecap

-0 0 m
-3.5 0 l

gsave
0.000 setgray
fill
grestore
stroke
grestore
} bind def
46.24 275.955 o
grestore
/DejaVuSans 10.000 selectfont
gsave

23.3338 272.158 translate
0 rotate
0 0 m /zero glyphshow
6.3623 0 m /period glyphshow
9.54102 0 m /two glyphshow
grestore
gsave
/o {
gsave
newpath
translate
0.8 setlinewidth
1 setlinejoin

0 setlinecap

-0 0 m
-3.5 0 l

gsave
0.000 setgray
fill
grestore
stroke
grestore
} bind def
46.24 316.292 o
grestore
/DejaVuSans 10.000 selectfont
gsave

23.3338 312.495 translate
0 rotate
0 0 m /zero glyphshow
6.3623 0 m /period glyphshow
9.54102 0 m /three glyphshow
grestore
0 setlinejoin
2 setlinecap
gsave
46.24 195.28 m
46.24 334.8 l
stroke
grestore
gsave
450 195.28 m
450 334.8 l
stroke
grestore
gsave
46.24 195.28 m
450 195.28 l
stroke
grestore
gsave
46.24 334.8 m
450 334.8 l
stroke
grestore
gsave
46.24 27.88 m
450 27.88 l
450 167.4 l
46.24 167.4 l
cl
1.000 setgray
fill
grestore
gsave
403.76 139.52 46.24 27.88 clipbox
64.592727 27.88 m
73.769091 27.88 l
73.769091 33.572554 l
64.592727 33.572554 l
cl
0.275 0.195 0.496 setrgbcolor
fill
grestore
gsave
403.76 139.52 46.24 27.88 clipbox
73.769091 27.88 m
82.945455 27.88 l
82.945455 41.961581 l
73.769091 41.961581 l
cl
0.275 0.195 0.496 setrgbcolor
fill
grestore
gsave
403.76 139.52 46.24 27.88 clipbox
82.945455 27.88 m
92.121818 27.88 l
92.121818 73.120822 l
82.945455 73.120822 l
cl
0.275 0.195 0.496 setrgbcolor
fill
grestore
gsave
403.76 139.52 46.24 27.88 clipbox
92.121818 27.88 m
101.298182 27.88 l
101.298182 76.865924 l
92.121818 76.865924 l
cl
0.275 0.195 0.496 setrgbcolor
fill
grestore
gsave
403.76 139.52 46.24 27.88 clipbox
101.298182 27.88 m
110.474545 27.88 l
110.474545 121.207922 l
101.298182 121.207922 l
cl
0.275 0.195 0.496 setrgbcolor
fill
grestore
gsave
403.76 139.52 46.24 27.88 clipbox
110.474545 27.88 m
119.650909 27.88 l
119.650909 112.219679 l
110.474545 112.219679 l
cl
0.275 0.195 0.496 setrgbcolor
fill
grestore
gsave
403.76 139.52 46.24 27.88 clipbox
119.650909 27.88 m
128.827273 27.88 l
128.827273 150.719319 l
119.650909 150.719319 l
cl
0.275 0.195 0.496 setrgbcolor
fill
grestore
gsave
403.76 139.52 46.24 27.88 clipbox
128.827273 27.88 m
138.003636 27.88 l
138.003636 120.908314 l
128.827273 120.908314 l
cl
0.275 0.195 0.496 setrgbcolor
fill
grestore
gsave
403.76 139.52 46.24 27.88 clipbox
138.003636 27.88 m
147.18 27.88 l
147.18 160.75619 l
138.003636 160.75619 l
cl
0.275 0.195 0.496 setrgbcolor
fill
grestore
gsave
403.76 139.52 46.24 27.88 clipbox
147.18 27.88 m
156.356364 27.88 l
156.356364 112.369483 l
147.18 112.369483 l
cl
0.275 0.195 0.496 setrgbcolor
fill
grestore
gsave
403.76 139.52 46.24 27.88 clipbox
156.356364 27.88 m
165.532727 27.88 l
165.532727 141.281664 l
156.356364 141.281664 l
cl
0.275 0.195 0.496 setrgbcolor
fill
grestore
gsave
403.76 139.52 46.24 27.88 clipbox
165.532727 27.88 m
174.709091 27.88 l
174.709091 104.13026 l
165.532727 104.13026 l
cl
0.275 0.195 0.496 setrgbcolor
fill
grestore
gsave
403.76 139.52 46.24 27.88 clipbox
174.709091 27.88 m
183.885455 27.88 l
183.885455 124.653415 l
174.709091 124.653415 l
cl
0.275 0.195 0.496 setrgbcolor
fill
grestore
gsave
403.76 139.52 46.24 27.88 clipbox
183.885455 27.88 m
193.061818 27.88 l
193.061818 92.894957 l
183.885455 92.894957 l
cl
0.275 0.195 0.496 setrgbcolor
fill
grestore
gsave
403.76 139.52 46.24 27.88 clipbox
193.061818 27.88 m
202.238182 27.88 l
202.238182 99.486335 l
193.061818 99.486335 l
cl
0.275 0.195 0.496 setrgbcolor
fill
grestore
gsave
403.76 139.52 46.24 27.88 clipbox
202.238182 27.88 m
211.414545 27.88 l
211.414545 73.120822 l
202.238182 73.120822 l
cl
0.275 0.195 0.496 setrgbcolor
fill
grestore
gsave
403.76 139.52 46.24 27.88 clipbox
211.414545 27.88 m
220.590909 27.88 l
220.590909 82.858086 l
211.414545 82.858086 l
cl
0.275 0.195 0.496 setrgbcolor
fill
grestore
gsave
403.76 139.52 46.24 27.88 clipbox
220.590909 27.88 m
229.767273 27.88 l
229.767273 65.031404 l
220.590909 65.031404 l
cl
0.275 0.195 0.496 setrgbcolor
fill
grestore
gsave
403.76 139.52 46.24 27.88 clipbox
229.767273 27.88 m
238.943636 27.88 l
238.943636 68.776505 l
229.767273 68.776505 l
cl
0.275 0.195 0.496 setrgbcolor
fill
grestore
gsave
403.76 139.52 46.24 27.88 clipbox
238.943636 27.88 m
248.12 27.88 l
248.12 58.140418 l
238.943636 58.140418 l
cl
0.275 0.195 0.496 setrgbcolor
fill
grestore
gsave
403.76 139.52 46.24 27.88 clipbox
248.12 27.88 m
257.296364 27.88 l
257.296364 49.601587 l
248.12 49.601587 l
cl
0.275 0.195 0.496 setrgbcolor
fill
grestore
gsave
403.76 139.52 46.24 27.88 clipbox
257.296364 27.88 m
266.472727 27.88 l
266.472727 57.541201 l
257.296364 57.541201 l
cl
0.275 0.195 0.496 setrgbcolor
fill
grestore
gsave
403.76 139.52 46.24 27.88 clipbox
266.472727 27.88 m
275.649091 27.88 l
275.649091 43.459621 l
266.472727 43.459621 l
cl
0.275 0.195 0.496 setrgbcolor
fill
grestore
gsave
403.76 139.52 46.24 27.88 clipbox
275.649091 27.88 m
284.825455 27.88 l
284.825455 44.358445 l
275.649091 44.358445 l
cl
0.275 0.195 0.496 setrgbcolor
fill
grestore
gsave
403.76 139.52 46.24 27.88 clipbox
284.825455 27.88 m
294.001818 27.88 l
294.001818 40.313736 l
284.825455 40.313736 l
cl
0.275 0.195 0.496 setrgbcolor
fill
grestore
gsave
403.76 139.52 46.24 27.88 clipbox
294.001818 27.88 m
303.178182 27.88 l
303.178182 38.9655 l
294.001818 38.9655 l
cl
0.275 0.195 0.496 setrgbcolor
fill
grestore
gsave
403.76 139.52 46.24 27.88 clipbox
303.178182 27.88 m
312.354545 27.88 l
312.354545 35.819615 l
303.178182 35.819615 l
cl
0.275 0.195 0.496 setrgbcolor
fill
grestore
gsave
403.76 139.52 46.24 27.88 clipbox
312.354545 27.88 m
321.530909 27.88 l
321.530909 35.819615 l
312.354545 35.819615 l
cl
0.275 0.195 0.496 setrgbcolor
fill
grestore
gsave
403.76 139.52 46.24 27.88 clipbox
321.530909 27.88 m
330.707273 27.88 l
330.707273 32.523925 l
321.530909 32.523925 l
cl
0.275 0.195 0.496 setrgbcolor
fill
grestore
gsave
403.76 139.52 46.24 27.88 clipbox
330.707273 27.88 m
339.883636 27.88 l
339.883636 31.625101 l
330.707273 31.625101 l
cl
0.275 0.195 0.496 setrgbcolor
fill
grestore
gsave
403.76 139.52 46.24 27.88 clipbox
339.883636 27.88 m
349.06 27.88 l
349.06 30.276865 l
339.883636 30.276865 l
cl
0.275 0.195 0.496 setrgbcolor
fill
grestore
gsave
403.76 139.52 46.24 27.88 clipbox
349.06 27.88 m
358.236364 27.88 l
358.236364 29.977257 l
349.06 29.977257 l
cl
0.275 0.195 0.496 setrgbcolor
fill
grestore
gsave
403.76 139.52 46.24 27.88 clipbox
358.236364 27.88 m
367.412727 27.88 l
367.412727 29.37804 l
358.236364 29.37804 l
cl
0.275 0.195 0.496 setrgbcolor
fill
grestore
gsave
403.76 139.52 46.24 27.88 clipbox
367.412727 27.88 m
376.589091 27.88 l
376.589091 29.37804 l
367.412727 29.37804 l
cl
0.275 0.195 0.496 setrgbcolor
fill
grestore
gsave
403.76 139.52 46.24 27.88 clipbox
376.589091 27.88 m
385.765455 27.88 l
385.765455 28.778824 l
376.589091 28.778824 l
cl
0.275 0.195 0.496 setrgbcolor
fill
grestore
gsave
403.76 139.52 46.24 27.88 clipbox
385.765455 27.88 m
394.941818 27.88 l
394.941818 28.479216 l
385.765455 28.479216 l
cl
0.275 0.195 0.496 setrgbcolor
fill
grestore
gsave
403.76 139.52 46.24 27.88 clipbox
394.941818 27.88 m
404.118182 27.88 l
404.118182 28.329412 l
394.941818 28.329412 l
cl
0.275 0.195 0.496 setrgbcolor
fill
grestore
gsave
403.76 139.52 46.24 27.88 clipbox
404.118182 27.88 m
413.294545 27.88 l
413.294545 28.479216 l
404.118182 28.479216 l
cl
0.275 0.195 0.496 setrgbcolor
fill
grestore
gsave
403.76 139.52 46.24 27.88 clipbox
413.294545 27.88 m
422.470909 27.88 l
422.470909 28.029804 l
413.294545 28.029804 l
cl
0.275 0.195 0.496 setrgbcolor
fill
grestore
gsave
403.76 139.52 46.24 27.88 clipbox
422.470909 27.88 m
431.647273 27.88 l
431.647273 28.029804 l
422.470909 28.029804 l
cl
0.275 0.195 0.496 setrgbcolor
fill
grestore
1 setlinejoin
0 setlinecap
gsave
/o {
gsave
newpath
translate
0.8 setlinewidth
1 setlinejoin

0 setlinecap

0 0 m
0 -3.5 l

gsave
0.000 setgray
fill
grestore
stroke
grestore
} bind def
61.952 27.88 o
grestore
/DejaVuSans 10.000 selectfont
gsave

58.7724 13.2863 translate
0 rotate
0 0 m /zero glyphshow
grestore
gsave
/o {
gsave
newpath
translate
0.8 setlinewidth
1 setlinejoin

0 setlinecap

0 0 m
0 -3.5 l

gsave
0.000 setgray
fill
grestore
stroke
grestore
} bind def
114.766 27.88 o
grestore
/DejaVuSans 10.000 selectfont
gsave

108.406 13.2863 translate
0 rotate
0 0 m /two glyphshow
6.3623 0 m /zero glyphshow
grestore
gsave
/o {
gsave
newpath
translate
0.8 setlinewidth
1 setlinejoin

0 setlinecap

0 0 m
0 -3.5 l

gsave
0.000 setgray
fill
grestore
stroke
grestore
} bind def
167.579 27.88 o
grestore
/DejaVuSans 10.000 selectfont
gsave

161.22 13.2863 translate
0 rotate
0 0 m /four glyphshow
6.3623 0 m /zero glyphshow
grestore
gsave
/o {
gsave
newpath
translate
0.8 setlinewidth
1 setlinejoin

0 setlinecap

0 0 m
0 -3.5 l

gsave
0.000 setgray
fill
grestore
stroke
grestore
} bind def
220.393 27.88 o
grestore
/DejaVuSans 10.000 selectfont
gsave

214.033 13.2863 translate
0 rotate
0 0 m /six glyphshow
6.3623 0 m /zero glyphshow
grestore
gsave
/o {
gsave
newpath
translate
0.8 setlinewidth
1 setlinejoin

0 setlinecap

0 0 m
0 -3.5 l

gsave
0.000 setgray
fill
grestore
stroke
grestore
} bind def
273.206 27.88 o
grestore
/DejaVuSans 10.000 selectfont
gsave

266.847 13.2863 translate
0 rotate
0 0 m /eight glyphshow
6.3623 0 m /zero glyphshow
grestore
gsave
/o {
gsave
newpath
translate
0.8 setlinewidth
1 setlinejoin

0 setlinecap

0 0 m
0 -3.5 l

gsave
0.000 setgray
fill
grestore
stroke
grestore
} bind def
326.02 27.88 o
grestore
/DejaVuSans 10.000 selectfont
gsave

316.481 13.2863 translate
0 rotate
0 0 m /one glyphshow
6.3623 0 m /zero glyphshow
12.7246 0 m /zero glyphshow
grestore
gsave
/o {
gsave
newpath
translate
0.8 setlinewidth
1 setlinejoin

0 setlinecap

0 0 m
0 -3.5 l

gsave
0.000 setgray
fill
grestore
stroke
grestore
} bind def
378.834 27.88 o
grestore
/DejaVuSans 10.000 selectfont
gsave

369.295 13.2863 translate
0 rotate
0 0 m /one glyphshow
6.3623 0 m /two glyphshow
12.7246 0 m /zero glyphshow
grestore
gsave
/o {
gsave
newpath
translate
0.8 setlinewidth
1 setlinejoin

0 setlinecap

0 0 m
0 -3.5 l

gsave
0.000 setgray
fill
grestore
stroke
grestore
} bind def
431.647 27.88 o
grestore
/DejaVuSans 10.000 selectfont
gsave

422.108 13.2863 translate
0 rotate
0 0 m /one glyphshow
6.3623 0 m /four glyphshow
12.7246 0 m /zero glyphshow
grestore
gsave
/o {
gsave
newpath
translate
0.8 setlinewidth
1 setlinejoin

0 setlinecap

-0 0 m
-3.5 0 l

gsave
0.000 setgray
fill
grestore
stroke
grestore
} bind def
46.24 27.88 o
grestore
/DejaVuSans 10.000 selectfont
gsave

10.615 24.0831 translate
0 rotate
0 0 m /zero glyphshow
6.3623 0 m /period glyphshow
9.54102 0 m /zero glyphshow
15.9033 0 m /zero glyphshow
22.2656 0 m /zero glyphshow
grestore
gsave
/o {
gsave
newpath
translate
0.8 setlinewidth
1 setlinejoin

0 setlinecap

-0 0 m
-3.5 0 l

gsave
0.000 setgray
fill
grestore
stroke
grestore
} bind def
46.24 53.9085 o
grestore
/DejaVuSans 10.000 selectfont
gsave

10.615 50.1116 translate
0 rotate
0 0 m /zero glyphshow
6.3623 0 m /period glyphshow
9.54102 0 m /zero glyphshow
15.9033 0 m /zero glyphshow
22.2656 0 m /five glyphshow
grestore
gsave
/o {
gsave
newpath
translate
0.8 setlinewidth
1 setlinejoin

0 setlinecap

-0 0 m
-3.5 0 l

gsave
0.000 setgray
fill
grestore
stroke
grestore
} bind def
46.24 79.9369 o
grestore
/DejaVuSans 10.000 selectfont
gsave

10.615 76.14 translate
0 rotate
0 0 m /zero glyphshow
6.3623 0 m /period glyphshow
9.54102 0 m /zero glyphshow
15.9033 0 m /one glyphshow
22.2656 0 m /zero glyphshow
grestore
gsave
/o {
gsave
newpath
translate
0.8 setlinewidth
1 setlinejoin

0 setlinecap

-0 0 m
-3.5 0 l

gsave
0.000 setgray
fill
grestore
stroke
grestore
} bind def
46.24 105.965 o
grestore
/DejaVuSans 10.000 selectfont
gsave

10.615 102.168 translate
0 rotate
0 0 m /zero glyphshow
6.3623 0 m /period glyphshow
9.54102 0 m /zero glyphshow
15.9033 0 m /one glyphshow
22.2656 0 m /five glyphshow
grestore
gsave
/o {
gsave
newpath
translate
0.8 setlinewidth
1 setlinejoin

0 setlinecap

-0 0 m
-3.5 0 l

gsave
0.000 setgray
fill
grestore
stroke
grestore
} bind def
46.24 131.994 o
grestore
/DejaVuSans 10.000 selectfont
gsave

10.615 128.197 translate
0 rotate
0 0 m /zero glyphshow
6.3623 0 m /period glyphshow
9.54102 0 m /zero glyphshow
15.9033 0 m /two glyphshow
22.2656 0 m /zero glyphshow
grestore
gsave
/o {
gsave
newpath
translate
0.8 setlinewidth
1 setlinejoin

0 setlinecap

-0 0 m
-3.5 0 l

gsave
0.000 setgray
fill
grestore
stroke
grestore
} bind def
46.24 158.022 o
grestore
/DejaVuSans 10.000 selectfont
gsave

10.615 154.225 translate
0 rotate
0 0 m /zero glyphshow
6.3623 0 m /period glyphshow
9.54102 0 m /zero glyphshow
15.9033 0 m /two glyphshow
22.2656 0 m /five glyphshow
grestore
0 setlinejoin
2 setlinecap
gsave
46.24 27.88 m
46.24 167.4 l
stroke
grestore
gsave
450 27.88 m
450 167.4 l
stroke
grestore
gsave
46.24 27.88 m
450 27.88 l
stroke
grestore
gsave
46.24 167.4 m
450 167.4 l
stroke
grestore
1.000 setlinewidth
0 setlinecap
0.800 setgray
gsave
449.8 332.6 m
453.8 332.6 l
455.133333 332.6 455.8 333.266667 455.8 334.6 c
455.8 338.6 l
455.8 339.933333 455.133333 340.6 453.8 340.6 c
449.8 340.6 l
448.466667 340.6 447.8 339.933333 447.8 338.6 c
447.8 334.6 l
447.8 333.266667 448.466667 332.6 449.8 332.6 c
cl
gsave
1.000 setgray
fill
grestore
stroke
grestore

end
showpage
