%!PS-Adobe-3.0 EPSF-3.0
%%Title: data.eps
%%Creator: Matplotlib v3.6.2, https://matplotlib.org/
%%CreationDate: Tue Feb 14 20:05:06 2023
%%Orientation: portrait
%%BoundingBox: 75 223 537 569
%%HiResBoundingBox: 75.600000 223.200000 536.400000 568.800000
%%EndComments
%%BeginProlog
/mpldict 11 dict def
mpldict begin
/_d { bind def } bind def
/m { moveto } _d
/l { lineto } _d
/r { rlineto } _d
/c { curveto } _d
/cl { closepath } _d
/ce { closepath eofill } _d
/box {
      m
      1 index 0 r
      0 exch r
      neg 0 r
      cl
    } _d
/clipbox {
      box
      clip
      newpath
    } _d
/sc { setcachedevice } _d
%!PS-Adobe-3.0 Resource-Font
%%Creator: Converted from TrueType to Type 3 by Matplotlib.
10 dict begin
/FontName /DejaVuSans def
/PaintType 0 def
/FontMatrix [0.00048828125 0 0 0.00048828125 0 0] def
/FontBBox [-2090 -948 3673 2524] def
/FontType 3 def
/Encoding [/zero /one /minus /two /four /five /three] def
/CharStrings 8 dict dup begin
/.notdef 0 def
/zero{1303 0 135 -29 1167 1520 sc
651 1360 m
547 1360 469 1309 416 1206 c
364 1104 338 950 338 745 c
338 540 364 387 416 284 c
469 182 547 131 651 131 c
756 131 834 182 886 284 c
939 387 965 540 965 745 c
965 950 939 1104 886 1206 c
834 1309 756 1360 651 1360 c

651 1520 m
818 1520 946 1454 1034 1321 c
1123 1189 1167 997 1167 745 c
1167 494 1123 302 1034 169 c
946 37 818 -29 651 -29 c
484 -29 356 37 267 169 c
179 302 135 494 135 745 c
135 997 179 1189 267 1321 c
356 1454 484 1520 651 1520 c

ce} _d
/one{1303 0 225 0 1114 1493 sc
254 170 m
584 170 l
584 1309 l
225 1237 l
225 1421 l
582 1493 l
784 1493 l
784 170 l
1114 170 l
1114 0 l
254 0 l
254 170 l

ce} _d
/minus{1716 0 217 557 1499 727 sc
217 727 m
1499 727 l
1499 557 l
217 557 l
217 727 l

ce} _d
/two{1303 0 150 0 1098 1520 sc
393 170 m
1098 170 l
1098 0 l
150 0 l
150 170 l
227 249 331 356 463 489 c
596 623 679 709 713 748 c
778 821 823 882 848 932 c
874 983 887 1032 887 1081 c
887 1160 859 1225 803 1275 c
748 1325 675 1350 586 1350 c
523 1350 456 1339 385 1317 c
315 1295 240 1262 160 1217 c
160 1421 l
241 1454 317 1478 388 1495 c
459 1512 523 1520 582 1520 c
737 1520 860 1481 952 1404 c
1044 1327 1090 1223 1090 1094 c
1090 1033 1078 974 1055 919 c
1032 864 991 800 930 725 c
913 706 860 650 771 557 c
682 465 556 336 393 170 c

ce} _d
/four{1303 0 100 0 1188 1493 sc
774 1317 m
264 520 l
774 520 l
774 1317 l

721 1493 m
975 1493 l
975 520 l
1188 520 l
1188 352 l
975 352 l
975 0 l
774 0 l
774 352 l
100 352 l
100 547 l
721 1493 l

ce} _d
/five{1303 0 158 -29 1124 1493 sc
221 1493 m
1014 1493 l
1014 1323 l
406 1323 l
406 957 l
435 967 465 974 494 979 c
523 984 553 987 582 987 c
749 987 881 941 978 850 c
1075 759 1124 635 1124 479 c
1124 318 1074 193 974 104 c
874 15 733 -29 551 -29 c
488 -29 424 -24 359 -13 c
294 -2 227 14 158 35 c
158 238 l
218 205 280 181 344 165 c
408 149 476 141 547 141 c
662 141 754 171 821 232 c
888 293 922 375 922 479 c
922 583 888 665 821 726 c
754 787 662 817 547 817 c
493 817 439 811 385 799 c
332 787 277 768 221 743 c
221 1493 l

ce} _d
/three{1303 0 156 -29 1139 1520 sc
831 805 m
928 784 1003 741 1057 676 c
1112 611 1139 530 1139 434 c
1139 287 1088 173 987 92 c
886 11 742 -29 555 -29 c
492 -29 428 -23 361 -10 c
295 2 227 20 156 45 c
156 240 l
212 207 273 183 340 166 c
407 149 476 141 549 141 c
676 141 772 166 838 216 c
905 266 938 339 938 434 c
938 522 907 591 845 640 c
784 690 698 715 588 715 c
414 715 l
414 881 l
596 881 l
695 881 771 901 824 940 c
877 980 903 1037 903 1112 c
903 1189 876 1247 821 1288 c
767 1329 689 1350 588 1350 c
533 1350 473 1344 410 1332 c
347 1320 277 1301 201 1276 c
201 1456 l
278 1477 349 1493 416 1504 c
483 1515 547 1520 606 1520 c
759 1520 881 1485 970 1415 c
1059 1346 1104 1252 1104 1133 c
1104 1050 1080 980 1033 923 c
986 866 918 827 831 805 c

ce} _d
end readonly def

/BuildGlyph {
 exch begin
 CharStrings exch
 2 copy known not {pop /.notdef} if
 true 3 1 roll get exec
 end
} _d

/BuildChar {
 1 index /Encoding get exch get
 1 index /BuildGlyph get exec
} _d

FontName currentdict end definefont pop
end
%%EndProlog
mpldict begin
75.6 223.2 translate
460.8 345.6 0 0 clipbox
gsave
0 0 m
460.8 0 l
460.8 345.6 l
0 345.6 l
cl
1.000 setgray
fill
grestore
gsave
57.6 38.016 m
414.72 38.016 l
414.72 304.128 l
57.6 304.128 l
cl
1.000 setgray
fill
grestore
1.000 setlinewidth
1 setlinejoin
0 setlinecap
[] 0 setdash
0.122 0.467 0.706 setrgbcolor
gsave
357.12 266.112 57.6 38.016 clipbox
/o {
gsave
newpath
translate
1.0 setlinewidth
1 setlinejoin

0 setlinecap

0 -3 m
0.795609 -3 1.55874 -2.683901 2.12132 -2.12132 c
2.683901 -1.55874 3 -0.795609 3 0 c
3 0.795609 2.683901 1.55874 2.12132 2.12132 c
1.55874 2.683901 0.795609 3 0 3 c
-0.795609 3 -1.55874 2.683901 -2.12132 2.12132 c
-2.683901 1.55874 -3 0.795609 -3 0 c
-3 -0.795609 -2.683901 -1.55874 -2.12132 -2.12132 c
-1.55874 -2.683901 -0.795609 -3 0 -3 c
cl

gsave
0.122 0.467 0.706 setrgbcolor
fill
grestore
stroke
grestore
} bind def
73.8327 50.112 o
75.4642 84.408 o
77.0956 70.2977 o
78.727 100.771 o
80.3584 84.2137 o
81.9899 92.8115 o
83.6213 83.6431 o
85.2527 100.427 o
86.8842 86.4188 o
88.5156 133.655 o
90.147 101.896 o
91.7785 135.521 o
93.4099 125.143 o
95.0413 134.52 o
96.6728 107.251 o
98.3042 128.344 o
99.9356 115.644 o
101.567 103.174 o
103.198 124.583 o
104.83 130.44 o
106.461 145.89 o
108.093 137.251 o
109.724 128.37 o
111.356 138.87 o
112.987 138.96 o
114.618 126.599 o
116.25 145.042 o
117.881 147.966 o
119.513 147.857 o
121.144 168.004 o
122.776 142.904 o
124.407 140.039 o
126.038 160.201 o
127.67 154.912 o
129.301 163.755 o
130.933 151.092 o
132.564 169.756 o
134.196 160.681 o
135.827 167.993 o
137.458 168.266 o
139.09 164.888 o
140.721 162.195 o
142.353 180.499 o
143.984 166.099 o
145.616 182.584 o
147.247 174.452 o
148.879 190.433 o
150.51 185.248 o
152.141 185.985 o
153.773 180.988 o
155.404 180.154 o
157.036 184.744 o
158.667 189.113 o
160.299 192.763 o
161.93 193.901 o
163.561 193.692 o
165.193 185.835 o
166.824 204.041 o
168.456 194.834 o
170.087 197.557 o
171.719 202.091 o
173.35 203.186 o
174.981 199.766 o
176.613 202.005 o
178.244 200.34 o
179.876 199.147 o
181.507 194.517 o
183.139 205.614 o
184.77 204.663 o
186.401 203.005 o
188.033 205.87 o
189.664 207.726 o
191.296 205.169 o
192.927 210.202 o
194.559 206.23 o
196.19 209.086 o
197.821 209.966 o
199.453 206.642 o
201.084 211.524 o
202.716 209.479 o
204.347 211.84 o
205.979 209.966 o
207.61 216.561 o
209.241 220.185 o
210.873 208.19 o
212.504 218.538 o
214.136 209.825 o
215.767 216.103 o
217.399 215.076 o
219.03 220.13 o
220.661 219.849 o
222.293 214.147 o
223.924 219.05 o
225.556 218.118 o
227.187 219.472 o
228.819 216.633 o
230.45 213.567 o
232.081 212.035 o
233.713 215.818 o
235.344 220.649 o
236.976 222.88 o
238.607 218.485 o
240.239 223.187 o
241.87 219.051 o
243.501 219.123 o
245.133 224.48 o
246.764 216.91 o
248.396 225.492 o
250.027 220.563 o
251.659 223.23 o
253.29 221.97 o
254.921 223.027 o
256.553 226.286 o
258.184 224.217 o
259.816 226.275 o
261.447 223.516 o
263.079 224.218 o
264.71 223.316 o
266.341 221.364 o
267.973 223.696 o
269.604 222.768 o
271.236 226.222 o
272.867 227.389 o
274.499 227.387 o
276.13 228.923 o
277.761 223.496 o
279.393 222.01 o
281.024 223.903 o
282.656 233.271 o
284.287 230.34 o
285.919 228.197 o
287.55 224.534 o
289.181 230.313 o
290.813 227.193 o
292.444 225.438 o
294.076 226.787 o
295.707 233.472 o
297.339 229.921 o
298.97 229.796 o
300.601 232.377 o
302.233 233.453 o
303.864 229.688 o
305.496 242.577 o
307.127 236.778 o
308.759 228.02 o
310.39 236.897 o
312.021 236.126 o
313.653 232.023 o
315.284 229.903 o
316.916 244.275 o
318.547 235.882 o
320.179 249.785 o
321.81 238.282 o
323.441 240.511 o
325.073 235.129 o
326.704 242.564 o
328.336 246.408 o
329.967 240.716 o
331.599 243.937 o
333.23 245.032 o
334.862 248.932 o
336.493 241.819 o
338.124 250.58 o
339.756 250.291 o
341.387 255.635 o
343.019 236.642 o
344.65 238.474 o
346.282 254.826 o
347.913 254.624 o
349.544 277.819 o
351.176 239.897 o
352.807 249.664 o
354.439 261.698 o
356.07 251.184 o
357.702 251.907 o
359.333 264.875 o
360.964 233.892 o
362.596 265.116 o
364.227 286.153 o
365.859 245.493 o
367.49 292.032 o
369.122 261.713 o
370.753 275.392 o
372.384 282.717 o
374.016 254.827 o
375.647 266.603 o
377.279 273.344 o
378.91 272.955 o
380.542 289.049 o
382.173 263.534 o
383.804 269.003 o
385.436 276.239 o
387.067 279.776 o
388.699 271.456 o
390.33 278.796 o
391.962 284.927 o
393.593 279.062 o
395.224 282.447 o
396.856 274.178 o
398.487 276.285 o
grestore
0.800 setlinewidth
0.000 setgray
gsave
/o {
gsave
newpath
translate
0.8 setlinewidth
1 setlinejoin

0 setlinecap

0 0 m
0 -3.5 l

gsave
0.000 setgray
fill
grestore
stroke
grestore
} bind def
106.298 38.016 o
grestore
/DejaVuSans 10.000 selectfont
gsave

98.931 23.4222 translate
0 rotate
0 0 m /minus glyphshow
8.37891 0 m /four glyphshow
grestore
gsave
/o {
gsave
newpath
translate
0.8 setlinewidth
1 setlinejoin

0 setlinecap

0 0 m
0 -3.5 l

gsave
0.000 setgray
fill
grestore
stroke
grestore
} bind def
171.229 38.016 o
grestore
/DejaVuSans 10.000 selectfont
gsave

163.862 23.4222 translate
0 rotate
0 0 m /minus glyphshow
8.37891 0 m /two glyphshow
grestore
gsave
/o {
gsave
newpath
translate
0.8 setlinewidth
1 setlinejoin

0 setlinecap

0 0 m
0 -3.5 l

gsave
0.000 setgray
fill
grestore
stroke
grestore
} bind def
236.16 38.016 o
grestore
/DejaVuSans 10.000 selectfont
gsave

232.98 23.4222 translate
0 rotate
0 0 m /zero glyphshow
grestore
gsave
/o {
gsave
newpath
translate
0.8 setlinewidth
1 setlinejoin

0 setlinecap

0 0 m
0 -3.5 l

gsave
0.000 setgray
fill
grestore
stroke
grestore
} bind def
301.091 38.016 o
grestore
/DejaVuSans 10.000 selectfont
gsave

297.911 23.4222 translate
0 rotate
0 0 m /two glyphshow
grestore
gsave
/o {
gsave
newpath
translate
0.8 setlinewidth
1 setlinejoin

0 setlinecap

0 0 m
0 -3.5 l

gsave
0.000 setgray
fill
grestore
stroke
grestore
} bind def
366.022 38.016 o
grestore
/DejaVuSans 10.000 selectfont
gsave

362.842 23.4222 translate
0 rotate
0 0 m /four glyphshow
grestore
gsave
/o {
gsave
newpath
translate
0.8 setlinewidth
1 setlinejoin

0 setlinecap

-0 0 m
-3.5 0 l

gsave
0.000 setgray
fill
grestore
stroke
grestore
} bind def
57.6 59.4811 o
grestore
/DejaVuSans 10.000 selectfont
gsave

29.5063 55.6842 translate
0 rotate
0 0 m /minus glyphshow
8.37891 0 m /five glyphshow
14.7412 0 m /zero glyphshow
grestore
gsave
/o {
gsave
newpath
translate
0.8 setlinewidth
1 setlinejoin

0 setlinecap

-0 0 m
-3.5 0 l

gsave
0.000 setgray
fill
grestore
stroke
grestore
} bind def
57.6 91.0835 o
grestore
/DejaVuSans 10.000 selectfont
gsave

29.5063 87.2866 translate
0 rotate
0 0 m /minus glyphshow
8.37891 0 m /four glyphshow
14.7412 0 m /zero glyphshow
grestore
gsave
/o {
gsave
newpath
translate
0.8 setlinewidth
1 setlinejoin

0 setlinecap

-0 0 m
-3.5 0 l

gsave
0.000 setgray
fill
grestore
stroke
grestore
} bind def
57.6 122.686 o
grestore
/DejaVuSans 10.000 selectfont
gsave

29.5063 118.889 translate
0 rotate
0 0 m /minus glyphshow
8.37891 0 m /three glyphshow
14.7412 0 m /zero glyphshow
grestore
gsave
/o {
gsave
newpath
translate
0.8 setlinewidth
1 setlinejoin

0 setlinecap

-0 0 m
-3.5 0 l

gsave
0.000 setgray
fill
grestore
stroke
grestore
} bind def
57.6 154.288 o
grestore
/DejaVuSans 10.000 selectfont
gsave

29.5063 150.491 translate
0 rotate
0 0 m /minus glyphshow
8.37891 0 m /two glyphshow
14.7412 0 m /zero glyphshow
grestore
gsave
/o {
gsave
newpath
translate
0.8 setlinewidth
1 setlinejoin

0 setlinecap

-0 0 m
-3.5 0 l

gsave
0.000 setgray
fill
grestore
stroke
grestore
} bind def
57.6 185.891 o
grestore
/DejaVuSans 10.000 selectfont
gsave

29.5063 182.094 translate
0 rotate
0 0 m /minus glyphshow
8.37891 0 m /one glyphshow
14.7412 0 m /zero glyphshow
grestore
gsave
/o {
gsave
newpath
translate
0.8 setlinewidth
1 setlinejoin

0 setlinecap

-0 0 m
-3.5 0 l

gsave
0.000 setgray
fill
grestore
stroke
grestore
} bind def
57.6 217.493 o
grestore
/DejaVuSans 10.000 selectfont
gsave

44.2406 213.696 translate
0 rotate
0 0 m /zero glyphshow
grestore
gsave
/o {
gsave
newpath
translate
0.8 setlinewidth
1 setlinejoin

0 setlinecap

-0 0 m
-3.5 0 l

gsave
0.000 setgray
fill
grestore
stroke
grestore
} bind def
57.6 249.095 o
grestore
/DejaVuSans 10.000 selectfont
gsave

37.8813 245.298 translate
0 rotate
0 0 m /one glyphshow
6.3623 0 m /zero glyphshow
grestore
gsave
/o {
gsave
newpath
translate
0.8 setlinewidth
1 setlinejoin

0 setlinecap

-0 0 m
-3.5 0 l

gsave
0.000 setgray
fill
grestore
stroke
grestore
} bind def
57.6 280.698 o
grestore
/DejaVuSans 10.000 selectfont
gsave

37.8813 276.901 translate
0 rotate
0 0 m /two glyphshow
6.3623 0 m /zero glyphshow
grestore
0 setlinejoin
2 setlinecap
gsave
57.6 38.016 m
57.6 304.128 l
stroke
grestore
gsave
414.72 38.016 m
414.72 304.128 l
stroke
grestore
gsave
57.6 38.016 m
414.72 38.016 l
stroke
grestore
gsave
57.6 304.128 m
414.72 304.128 l
stroke
grestore

end
showpage
