Coutry	Year	Total	Car	MBike	Moped	Bus	Bike	Tractor	Heavy	Lorry	Other
E	2018	530	275	87	18	2	89	4	19	30	6
BG	2018	487	341	4	7	28	21	1	68	0	17
CZ	2018	514	333	94	5	3	56	0	19	2	2
DK	2018	141	65	21	10	0	28	0	3	13	1
DE	2018	2811	1424	619	78	9	445	20	95	79	42
EE	2018	55	21	6	0	1	3	0	3	0	21
IE	2016	147	106	22	0	0	10	0	3	5	1
EL	2018	554	267	190	27	0	12	17	10	31	0
ES	2018	1420	732	359	62	12	58	20	58	93	26
FR	2018	2778	1637	627	133	3	175	16	44	92	51
HR	2018	252	154	55	4	0	22	9	2	4	2
IT	2018	2722	1423	687	108	5	219	15	50	139	76
CY	2018	41	15	14	2	0	1	1	0	7	1
LV	2018	98	70	3	4	1	9	4	3	2	2
LT	2018	102	78	13	1	0	9	0	0	0	1
LU	2018	33	19	9	0	0	3	0	0	1	1
HU	2018	468	291	49	13	3	68	0	14	25	5
MT	2018	16	5	7	1	2	1	0	0	0	0
NL	2018	548	245	42	31	0	122	0	7	21	80
AT	2018	362	181	102	8	2	41	9	4	11	4
PL	2017	1958	1295	231	55	3	220	17	136	0	1
PT	2018	537	238	112	42	1	26	28	7	61	22
RO	2018	1177	737	55	18	11	181	8	14	73	80
SI	2018	78	32	16	2	0	8	1	6	0	13
SK	2018	188	120	0	3	2	19	0	3	19	22
FI	2018	214	146	24	3	5	21	2	3	6	4
SE	2018	290	181	47	7	0	23	3	4	12	13
UK	2018	1367	799	353	8	16	100	6	17	38	30
