%!PS-Adobe-3.0 EPSF-3.0
%%Title: posterior_predictive.eps
%%Creator: Matplotlib v3.6.2, https://matplotlib.org/
%%CreationDate: Wed Jan 11 17:44:22 2023
%%Orientation: portrait
%%BoundingBox: 75 223 537 569
%%HiResBoundingBox: 75.600000 223.200000 536.400000 568.800000
%%EndComments
%%BeginProlog
/mpldict 12 dict def
mpldict begin
/_d { bind def } bind def
/m { moveto } _d
/l { lineto } _d
/r { rlineto } _d
/c { curveto } _d
/cl { closepath } _d
/ce { closepath eofill } _d
/box {
      m
      1 index 0 r
      0 exch r
      neg 0 r
      cl
    } _d
/clipbox {
      box
      clip
      newpath
    } _d
/sc { setcachedevice } _d
%!PS-Adobe-3.0 Resource-Font
%%Creator: Converted from TrueType to Type 3 by Matplotlib.
10 dict begin
/FontName /DejaVuSans def
/PaintType 0 def
/FontMatrix [0.00048828125 0 0 0.00048828125 0 0] def
/FontBBox [-2090 -948 3673 2524] def
/FontType 3 def
/Encoding [/D /e /i /period /n /zero /one /minus /two /four /three /six /s /t /y] def
/CharStrings 16 dict dup begin
/.notdef 0 def
/D{1577 0 201 0 1456 1493 sc
403 1327 m
403 166 l
647 166 l
853 166 1004 213 1099 306 c
1195 399 1243 547 1243 748 c
1243 948 1195 1094 1099 1187 c
1004 1280 853 1327 647 1327 c
403 1327 l

201 1493 m
616 1493 l
905 1493 1118 1433 1253 1312 c
1388 1192 1456 1004 1456 748 c
1456 491 1388 302 1252 181 c
1116 60 904 0 616 0 c
201 0 l
201 1493 l

ce} _d
/e{1260 0 113 -29 1151 1147 sc
1151 606 m
1151 516 l
305 516 l
313 389 351 293 419 226 c
488 160 583 127 705 127 c
776 127 844 136 910 153 c
977 170 1043 196 1108 231 c
1108 57 l
1042 29 974 8 905 -7 c
836 -22 765 -29 694 -29 c
515 -29 374 23 269 127 c
165 231 113 372 113 549 c
113 732 162 878 261 985 c
360 1093 494 1147 662 1147 c
813 1147 932 1098 1019 1001 c
1107 904 1151 773 1151 606 c

967 660 m
966 761 937 841 882 901 c
827 961 755 991 664 991 c
561 991 479 962 417 904 c
356 846 320 764 311 659 c
967 660 l

ce} _d
/i{569 0 193 0 377 1556 sc
193 1120 m
377 1120 l
377 0 l
193 0 l
193 1120 l

193 1556 m
377 1556 l
377 1323 l
193 1323 l
193 1556 l

ce} _d
/period{651 0 219 0 430 254 sc
219 254 m
430 254 l
430 0 l
219 0 l
219 254 l

ce} _d
/n{1298 0 186 0 1124 1147 sc
1124 676 m
1124 0 l
940 0 l
940 670 l
940 776 919 855 878 908 c
837 961 775 987 692 987 c
593 987 514 955 457 892 c
400 829 371 742 371 633 c
371 0 l
186 0 l
186 1120 l
371 1120 l
371 946 l
415 1013 467 1064 526 1097 c
586 1130 655 1147 733 1147 c
862 1147 959 1107 1025 1027 c
1091 948 1124 831 1124 676 c

ce} _d
/zero{1303 0 135 -29 1167 1520 sc
651 1360 m
547 1360 469 1309 416 1206 c
364 1104 338 950 338 745 c
338 540 364 387 416 284 c
469 182 547 131 651 131 c
756 131 834 182 886 284 c
939 387 965 540 965 745 c
965 950 939 1104 886 1206 c
834 1309 756 1360 651 1360 c

651 1520 m
818 1520 946 1454 1034 1321 c
1123 1189 1167 997 1167 745 c
1167 494 1123 302 1034 169 c
946 37 818 -29 651 -29 c
484 -29 356 37 267 169 c
179 302 135 494 135 745 c
135 997 179 1189 267 1321 c
356 1454 484 1520 651 1520 c

ce} _d
/one{1303 0 225 0 1114 1493 sc
254 170 m
584 170 l
584 1309 l
225 1237 l
225 1421 l
582 1493 l
784 1493 l
784 170 l
1114 170 l
1114 0 l
254 0 l
254 170 l

ce} _d
/minus{1716 0 217 557 1499 727 sc
217 727 m
1499 727 l
1499 557 l
217 557 l
217 727 l

ce} _d
/two{1303 0 150 0 1098 1520 sc
393 170 m
1098 170 l
1098 0 l
150 0 l
150 170 l
227 249 331 356 463 489 c
596 623 679 709 713 748 c
778 821 823 882 848 932 c
874 983 887 1032 887 1081 c
887 1160 859 1225 803 1275 c
748 1325 675 1350 586 1350 c
523 1350 456 1339 385 1317 c
315 1295 240 1262 160 1217 c
160 1421 l
241 1454 317 1478 388 1495 c
459 1512 523 1520 582 1520 c
737 1520 860 1481 952 1404 c
1044 1327 1090 1223 1090 1094 c
1090 1033 1078 974 1055 919 c
1032 864 991 800 930 725 c
913 706 860 650 771 557 c
682 465 556 336 393 170 c

ce} _d
/four{1303 0 100 0 1188 1493 sc
774 1317 m
264 520 l
774 520 l
774 1317 l

721 1493 m
975 1493 l
975 520 l
1188 520 l
1188 352 l
975 352 l
975 0 l
774 0 l
774 352 l
100 352 l
100 547 l
721 1493 l

ce} _d
/three{1303 0 156 -29 1139 1520 sc
831 805 m
928 784 1003 741 1057 676 c
1112 611 1139 530 1139 434 c
1139 287 1088 173 987 92 c
886 11 742 -29 555 -29 c
492 -29 428 -23 361 -10 c
295 2 227 20 156 45 c
156 240 l
212 207 273 183 340 166 c
407 149 476 141 549 141 c
676 141 772 166 838 216 c
905 266 938 339 938 434 c
938 522 907 591 845 640 c
784 690 698 715 588 715 c
414 715 l
414 881 l
596 881 l
695 881 771 901 824 940 c
877 980 903 1037 903 1112 c
903 1189 876 1247 821 1288 c
767 1329 689 1350 588 1350 c
533 1350 473 1344 410 1332 c
347 1320 277 1301 201 1276 c
201 1456 l
278 1477 349 1493 416 1504 c
483 1515 547 1520 606 1520 c
759 1520 881 1485 970 1415 c
1059 1346 1104 1252 1104 1133 c
1104 1050 1080 980 1033 923 c
986 866 918 827 831 805 c

ce} _d
/six{1303 0 143 -29 1174 1520 sc
676 827 m
585 827 513 796 460 734 c
407 672 381 587 381 479 c
381 372 407 287 460 224 c
513 162 585 131 676 131 c
767 131 838 162 891 224 c
944 287 971 372 971 479 c
971 587 944 672 891 734 c
838 796 767 827 676 827 c

1077 1460 m
1077 1276 l
1026 1300 975 1318 923 1331 c
872 1344 821 1350 770 1350 c
637 1350 535 1305 464 1215 c
394 1125 354 989 344 807 c
383 865 433 909 492 940 c
551 971 617 987 688 987 c
838 987 956 941 1043 850 c
1130 759 1174 636 1174 479 c
1174 326 1129 203 1038 110 c
947 17 827 -29 676 -29 c
503 -29 371 37 280 169 c
189 302 143 494 143 745 c
143 981 199 1169 311 1309 c
423 1450 573 1520 762 1520 c
813 1520 864 1515 915 1505 c
967 1495 1021 1480 1077 1460 c

ce} _d
/s{1067 0 111 -29 967 1147 sc
907 1087 m
907 913 l
855 940 801 960 745 973 c
689 986 631 993 571 993 c
480 993 411 979 365 951 c
320 923 297 881 297 825 c
297 782 313 749 346 724 c
379 700 444 677 543 655 c
606 641 l
737 613 829 573 884 522 c
939 471 967 400 967 309 c
967 205 926 123 843 62 c
761 1 648 -29 504 -29 c
444 -29 381 -23 316 -11 c
251 0 183 18 111 41 c
111 231 l
179 196 246 169 312 151 c
378 134 443 125 508 125 c
595 125 661 140 708 169 c
755 199 778 241 778 295 c
778 345 761 383 727 410 c
694 437 620 462 506 487 c
442 502 l
328 526 246 563 195 612 c
144 662 119 730 119 817 c
119 922 156 1004 231 1061 c
306 1118 412 1147 549 1147 c
617 1147 681 1142 741 1132 c
801 1122 856 1107 907 1087 c

ce} _d
/t{803 0 55 0 754 1438 sc
375 1438 m
375 1120 l
754 1120 l
754 977 l
375 977 l
375 369 l
375 278 387 219 412 193 c
437 167 488 154 565 154 c
754 154 l
754 0 l
565 0 l
423 0 325 26 271 79 c
217 132 190 229 190 369 c
190 977 l
55 977 l
55 1120 l
190 1120 l
190 1438 l
375 1438 l

ce} _d
/y{1212 0 61 -426 1151 1120 sc
659 -104 m
607 -237 556 -324 507 -365 c
458 -406 392 -426 309 -426 c
162 -426 l
162 -272 l
270 -272 l
321 -272 360 -260 388 -236 c
416 -212 447 -155 481 -66 c
514 18 l
61 1120 l
256 1120 l
606 244 l
956 1120 l
1151 1120 l
659 -104 l

ce} _d
end readonly def

/BuildGlyph {
 exch begin
 CharStrings exch
 2 copy known not {pop /.notdef} if
 true 3 1 roll get exec
 end
} _d

/BuildChar {
 1 index /Encoding get exch get
 1 index /BuildGlyph get exec
} _d

FontName currentdict end definefont pop
%!PS-Adobe-3.0 Resource-Font
%%Creator: Converted from TrueType to Type 3 by Matplotlib.
10 dict begin
/FontName /DejaVuSans-Oblique def
/PaintType 0 def
/FontMatrix [0.00048828125 0 0 0.00048828125 0 0] def
/FontBBox [-2080 -717 3398 2187] def
/FontType 3 def
/Encoding [/x] def
/CharStrings 2 dict dup begin
/.notdef 0 def
/x{1212 0 -53 0 1229 1120 sc
1229 1120 m
715 571 l
1030 0 l
819 0 l
582 444 l
170 0 l
-53 0 l
498 590 l
205 1120 l
416 1120 l
631 715 l
1006 1120 l
1229 1120 l

ce} _d
end readonly def

/BuildGlyph {
 exch begin
 CharStrings exch
 2 copy known not {pop /.notdef} if
 true 3 1 roll get exec
 end
} _d

/BuildChar {
 1 index /Encoding get exch get
 1 index /BuildGlyph get exec
} _d

FontName currentdict end definefont pop
end
%%EndProlog
mpldict begin
75.6 223.2 translate
460.8 345.6 0 0 clipbox
gsave
0 0 m
460.8 0 l
460.8 345.6 l
0 345.6 l
cl
1.000 setgray
fill
grestore
gsave
47.72 209.648 m
446.805 209.648 l
446.805 334.8 l
47.72 334.8 l
cl
1.000 setgray
fill
grestore
gsave
399.085 125.152 47.72 209.648 clipbox
155.761369 209.648 m
160.767895 209.648 l
160.767895 218.161741 l
155.761369 218.161741 l
cl
0.502 setgray
fill
grestore
gsave
399.085 125.152 47.72 209.648 clipbox
160.767895 209.648 m
165.774422 209.648 l
165.774422 218.161741 l
160.767895 218.161741 l
cl
0.502 setgray
fill
grestore
gsave
399.085 125.152 47.72 209.648 clipbox
165.774422 209.648 m
170.780948 209.648 l
170.780948 209.648 l
165.774422 209.648 l
cl
0.502 setgray
fill
grestore
gsave
399.085 125.152 47.72 209.648 clipbox
170.780948 209.648 m
175.787474 209.648 l
175.787474 226.675483 l
170.780948 226.675483 l
cl
0.502 setgray
fill
grestore
gsave
399.085 125.152 47.72 209.648 clipbox
175.787474 209.648 m
180.794 209.648 l
180.794 226.675483 l
175.787474 226.675483 l
cl
0.502 setgray
fill
grestore
gsave
399.085 125.152 47.72 209.648 clipbox
180.794 209.648 m
185.800526 209.648 l
185.800526 209.648 l
180.794 209.648 l
cl
0.502 setgray
fill
grestore
gsave
399.085 125.152 47.72 209.648 clipbox
185.800526 209.648 m
190.807053 209.648 l
190.807053 252.216707 l
185.800526 252.216707 l
cl
0.502 setgray
fill
grestore
gsave
399.085 125.152 47.72 209.648 clipbox
190.807053 209.648 m
195.813579 209.648 l
195.813579 235.189224 l
190.807053 235.189224 l
cl
0.502 setgray
fill
grestore
gsave
399.085 125.152 47.72 209.648 clipbox
195.813579 209.648 m
200.820105 209.648 l
200.820105 235.189224 l
195.813579 235.189224 l
cl
0.502 setgray
fill
grestore
gsave
399.085 125.152 47.72 209.648 clipbox
200.820105 209.648 m
205.826631 209.648 l
205.826631 218.161741 l
200.820105 218.161741 l
cl
0.502 setgray
fill
grestore
gsave
399.085 125.152 47.72 209.648 clipbox
205.826631 209.648 m
210.833157 209.648 l
210.833157 243.702966 l
205.826631 243.702966 l
cl
0.502 setgray
fill
grestore
gsave
399.085 125.152 47.72 209.648 clipbox
210.833157 209.648 m
215.839684 209.648 l
215.839684 252.216707 l
210.833157 252.216707 l
cl
0.502 setgray
fill
grestore
gsave
399.085 125.152 47.72 209.648 clipbox
215.839684 209.648 m
220.84621 209.648 l
220.84621 243.702966 l
215.839684 243.702966 l
cl
0.502 setgray
fill
grestore
gsave
399.085 125.152 47.72 209.648 clipbox
220.84621 209.648 m
225.852736 209.648 l
225.852736 260.730449 l
220.84621 260.730449 l
cl
0.502 setgray
fill
grestore
gsave
399.085 125.152 47.72 209.648 clipbox
225.852736 209.648 m
230.859262 209.648 l
230.859262 294.785415 l
225.852736 294.785415 l
cl
0.502 setgray
fill
grestore
gsave
399.085 125.152 47.72 209.648 clipbox
230.859262 209.648 m
235.865788 209.648 l
235.865788 260.730449 l
230.859262 260.730449 l
cl
0.502 setgray
fill
grestore
gsave
399.085 125.152 47.72 209.648 clipbox
235.865788 209.648 m
240.872315 209.648 l
240.872315 277.757932 l
235.865788 277.757932 l
cl
0.502 setgray
fill
grestore
gsave
399.085 125.152 47.72 209.648 clipbox
240.872315 209.648 m
245.878841 209.648 l
245.878841 328.840381 l
240.872315 328.840381 l
cl
0.502 setgray
fill
grestore
gsave
399.085 125.152 47.72 209.648 clipbox
245.878841 209.648 m
250.885367 209.648 l
250.885367 286.271673 l
245.878841 286.271673 l
cl
0.502 setgray
fill
grestore
gsave
399.085 125.152 47.72 209.648 clipbox
250.885367 209.648 m
255.891893 209.648 l
255.891893 235.189224 l
250.885367 235.189224 l
cl
0.502 setgray
fill
grestore
gsave
399.085 125.152 47.72 209.648 clipbox
255.891893 209.648 m
260.898419 209.648 l
260.898419 303.299156 l
255.891893 303.299156 l
cl
0.502 setgray
fill
grestore
gsave
399.085 125.152 47.72 209.648 clipbox
260.898419 209.648 m
265.904946 209.648 l
265.904946 286.271673 l
260.898419 286.271673 l
cl
0.502 setgray
fill
grestore
gsave
399.085 125.152 47.72 209.648 clipbox
265.904946 209.648 m
270.911472 209.648 l
270.911472 235.189224 l
265.904946 235.189224 l
cl
0.502 setgray
fill
grestore
gsave
399.085 125.152 47.72 209.648 clipbox
270.911472 209.648 m
275.917998 209.648 l
275.917998 243.702966 l
270.911472 243.702966 l
cl
0.502 setgray
fill
grestore
gsave
399.085 125.152 47.72 209.648 clipbox
275.917998 209.648 m
280.924524 209.648 l
280.924524 260.730449 l
275.917998 260.730449 l
cl
0.502 setgray
fill
grestore
gsave
399.085 125.152 47.72 209.648 clipbox
280.924524 209.648 m
285.931051 209.648 l
285.931051 294.785415 l
280.924524 294.785415 l
cl
0.502 setgray
fill
grestore
gsave
399.085 125.152 47.72 209.648 clipbox
285.931051 209.648 m
290.937577 209.648 l
290.937577 294.785415 l
285.931051 294.785415 l
cl
0.502 setgray
fill
grestore
gsave
399.085 125.152 47.72 209.648 clipbox
290.937577 209.648 m
295.944103 209.648 l
295.944103 286.271673 l
290.937577 286.271673 l
cl
0.502 setgray
fill
grestore
gsave
399.085 125.152 47.72 209.648 clipbox
295.944103 209.648 m
300.950629 209.648 l
300.950629 252.216707 l
295.944103 252.216707 l
cl
0.502 setgray
fill
grestore
gsave
399.085 125.152 47.72 209.648 clipbox
300.950629 209.648 m
305.957155 209.648 l
305.957155 260.730449 l
300.950629 260.730449 l
cl
0.502 setgray
fill
grestore
gsave
399.085 125.152 47.72 209.648 clipbox
305.957155 209.648 m
310.963682 209.648 l
310.963682 235.189224 l
305.957155 235.189224 l
cl
0.502 setgray
fill
grestore
gsave
399.085 125.152 47.72 209.648 clipbox
310.963682 209.648 m
315.970208 209.648 l
315.970208 269.24419 l
310.963682 269.24419 l
cl
0.502 setgray
fill
grestore
gsave
399.085 125.152 47.72 209.648 clipbox
315.970208 209.648 m
320.976734 209.648 l
320.976734 252.216707 l
315.970208 252.216707 l
cl
0.502 setgray
fill
grestore
gsave
399.085 125.152 47.72 209.648 clipbox
320.976734 209.648 m
325.98326 209.648 l
325.98326 260.730449 l
320.976734 260.730449 l
cl
0.502 setgray
fill
grestore
gsave
399.085 125.152 47.72 209.648 clipbox
325.98326 209.648 m
330.989786 209.648 l
330.989786 218.161741 l
325.98326 218.161741 l
cl
0.502 setgray
fill
grestore
gsave
399.085 125.152 47.72 209.648 clipbox
330.989786 209.648 m
335.996313 209.648 l
335.996313 243.702966 l
330.989786 243.702966 l
cl
0.502 setgray
fill
grestore
gsave
399.085 125.152 47.72 209.648 clipbox
335.996313 209.648 m
341.002839 209.648 l
341.002839 243.702966 l
335.996313 243.702966 l
cl
0.502 setgray
fill
grestore
gsave
399.085 125.152 47.72 209.648 clipbox
341.002839 209.648 m
346.009365 209.648 l
346.009365 235.189224 l
341.002839 235.189224 l
cl
0.502 setgray
fill
grestore
gsave
399.085 125.152 47.72 209.648 clipbox
346.009365 209.648 m
351.015891 209.648 l
351.015891 218.161741 l
346.009365 218.161741 l
cl
0.502 setgray
fill
grestore
gsave
399.085 125.152 47.72 209.648 clipbox
351.015891 209.648 m
356.022417 209.648 l
356.022417 218.161741 l
351.015891 218.161741 l
cl
0.502 setgray
fill
grestore
gsave
399.085 125.152 47.72 209.648 clipbox
356.022417 209.648 m
361.028944 209.648 l
361.028944 209.648 l
356.022417 209.648 l
cl
0.502 setgray
fill
grestore
gsave
399.085 125.152 47.72 209.648 clipbox
361.028944 209.648 m
366.03547 209.648 l
366.03547 218.161741 l
361.028944 218.161741 l
cl
0.502 setgray
fill
grestore
gsave
399.085 125.152 47.72 209.648 clipbox
366.03547 209.648 m
371.041996 209.648 l
371.041996 218.161741 l
366.03547 218.161741 l
cl
0.502 setgray
fill
grestore
gsave
399.085 125.152 47.72 209.648 clipbox
371.041996 209.648 m
376.048522 209.648 l
376.048522 218.161741 l
371.041996 218.161741 l
cl
0.502 setgray
fill
grestore
gsave
399.085 125.152 47.72 209.648 clipbox
376.048522 209.648 m
381.055048 209.648 l
381.055048 218.161741 l
376.048522 218.161741 l
cl
0.502 setgray
fill
grestore
gsave
399.085 125.152 47.72 209.648 clipbox
381.055048 209.648 m
386.061575 209.648 l
386.061575 209.648 l
381.055048 209.648 l
cl
0.502 setgray
fill
grestore
gsave
399.085 125.152 47.72 209.648 clipbox
386.061575 209.648 m
391.068101 209.648 l
391.068101 209.648 l
386.061575 209.648 l
cl
0.502 setgray
fill
grestore
gsave
399.085 125.152 47.72 209.648 clipbox
391.068101 209.648 m
396.074627 209.648 l
396.074627 209.648 l
391.068101 209.648 l
cl
0.502 setgray
fill
grestore
gsave
399.085 125.152 47.72 209.648 clipbox
396.074627 209.648 m
401.081153 209.648 l
401.081153 209.648 l
396.074627 209.648 l
cl
0.502 setgray
fill
grestore
gsave
399.085 125.152 47.72 209.648 clipbox
401.081153 209.648 m
406.08768 209.648 l
406.08768 218.161741 l
401.081153 218.161741 l
cl
0.502 setgray
fill
grestore
0.800 setlinewidth
1 setlinejoin
0 setlinecap
[] 0 setdash
0.000 setgray
gsave
/o {
gsave
newpath
translate
0.8 setlinewidth
1 setlinejoin

0 setlinecap

0 0 m
0 -3.5 l

gsave
0.000 setgray
fill
grestore
stroke
grestore
} bind def
47.72 209.648 o
grestore
/DejaVuSans 10.000 selectfont
gsave

40.3528 195.054 translate
0 rotate
0 0 m /minus glyphshow
8.37891 0 m /six glyphshow
grestore
gsave
/o {
gsave
newpath
translate
0.8 setlinewidth
1 setlinejoin

0 setlinecap

0 0 m
0 -3.5 l

gsave
0.000 setgray
fill
grestore
stroke
grestore
} bind def
114.234 209.648 o
grestore
/DejaVuSans 10.000 selectfont
gsave

106.867 195.054 translate
0 rotate
0 0 m /minus glyphshow
8.37891 0 m /four glyphshow
grestore
gsave
/o {
gsave
newpath
translate
0.8 setlinewidth
1 setlinejoin

0 setlinecap

0 0 m
0 -3.5 l

gsave
0.000 setgray
fill
grestore
stroke
grestore
} bind def
180.748 209.648 o
grestore
/DejaVuSans 10.000 selectfont
gsave

173.381 195.054 translate
0 rotate
0 0 m /minus glyphshow
8.37891 0 m /two glyphshow
grestore
gsave
/o {
gsave
newpath
translate
0.8 setlinewidth
1 setlinejoin

0 setlinecap

0 0 m
0 -3.5 l

gsave
0.000 setgray
fill
grestore
stroke
grestore
} bind def
247.262 209.648 o
grestore
/DejaVuSans 10.000 selectfont
gsave

244.083 195.054 translate
0 rotate
0 0 m /zero glyphshow
grestore
gsave
/o {
gsave
newpath
translate
0.8 setlinewidth
1 setlinejoin

0 setlinecap

0 0 m
0 -3.5 l

gsave
0.000 setgray
fill
grestore
stroke
grestore
} bind def
313.777 209.648 o
grestore
/DejaVuSans 10.000 selectfont
gsave

310.597 195.054 translate
0 rotate
0 0 m /two glyphshow
grestore
gsave
/o {
gsave
newpath
translate
0.8 setlinewidth
1 setlinejoin

0 setlinecap

0 0 m
0 -3.5 l

gsave
0.000 setgray
fill
grestore
stroke
grestore
} bind def
380.291 209.648 o
grestore
/DejaVuSans 10.000 selectfont
gsave

377.111 195.054 translate
0 rotate
0 0 m /four glyphshow
grestore
gsave
/o {
gsave
newpath
translate
0.8 setlinewidth
1 setlinejoin

0 setlinecap

0 0 m
0 -3.5 l

gsave
0.000 setgray
fill
grestore
stroke
grestore
} bind def
446.805 209.648 o
grestore
/DejaVuSans 10.000 selectfont
gsave

443.625 195.054 translate
0 rotate
0 0 m /six glyphshow
grestore
gsave
241.762 181.382 translate
0 rotate
/DejaVuSans-Oblique 10.0 selectfont
0 0.53125 moveto
/x glyphshow
/DejaVuSans 7.0 selectfont
5.91797 -1.10938 moveto
/zero glyphshow
grestore
gsave
/o {
gsave
newpath
translate
0.8 setlinewidth
1 setlinejoin

0 setlinecap

-0 0 m
-3.5 0 l

gsave
0.000 setgray
fill
grestore
stroke
grestore
} bind def
47.72 209.648 o
grestore
/DejaVuSans 10.000 selectfont
gsave

24.8138 205.851 translate
0 rotate
0 0 m /zero glyphshow
6.3623 0 m /period glyphshow
9.54102 0 m /zero glyphshow
grestore
gsave
/o {
gsave
newpath
translate
0.8 setlinewidth
1 setlinejoin

0 setlinecap

-0 0 m
-3.5 0 l

gsave
0.000 setgray
fill
grestore
stroke
grestore
} bind def
47.72 235.281 o
grestore
/DejaVuSans 10.000 selectfont
gsave

24.8138 231.484 translate
0 rotate
0 0 m /zero glyphshow
6.3623 0 m /period glyphshow
9.54102 0 m /one glyphshow
grestore
gsave
/o {
gsave
newpath
translate
0.8 setlinewidth
1 setlinejoin

0 setlinecap

-0 0 m
-3.5 0 l

gsave
0.000 setgray
fill
grestore
stroke
grestore
} bind def
47.72 260.914 o
grestore
/DejaVuSans 10.000 selectfont
gsave

24.8138 257.118 translate
0 rotate
0 0 m /zero glyphshow
6.3623 0 m /period glyphshow
9.54102 0 m /two glyphshow
grestore
gsave
/o {
gsave
newpath
translate
0.8 setlinewidth
1 setlinejoin

0 setlinecap

-0 0 m
-3.5 0 l

gsave
0.000 setgray
fill
grestore
stroke
grestore
} bind def
47.72 286.548 o
grestore
/DejaVuSans 10.000 selectfont
gsave

24.8138 282.751 translate
0 rotate
0 0 m /zero glyphshow
6.3623 0 m /period glyphshow
9.54102 0 m /three glyphshow
grestore
gsave
/o {
gsave
newpath
translate
0.8 setlinewidth
1 setlinejoin

0 setlinecap

-0 0 m
-3.5 0 l

gsave
0.000 setgray
fill
grestore
stroke
grestore
} bind def
47.72 312.181 o
grestore
/DejaVuSans 10.000 selectfont
gsave

24.8138 308.384 translate
0 rotate
0 0 m /zero glyphshow
6.3623 0 m /period glyphshow
9.54102 0 m /four glyphshow
grestore
/DejaVuSans 10.000 selectfont
gsave

18.7356 253.201 translate
90 rotate
0 0 m /D glyphshow
7.7002 0 m /e glyphshow
13.8525 0 m /n glyphshow
20.1904 0 m /s glyphshow
25.4004 0 m /i glyphshow
28.1787 0 m /t glyphshow
32.0996 0 m /y glyphshow
grestore
1.500 setlinewidth
2 setlinecap
0.122 0.467 0.706 setrgbcolor
gsave
399.085 125.152 47.72 209.648 clipbox
69.36448 209.648312 m
89.729789 209.748645 l
118.241221 210.24359 l
124.350814 210.519886 l
132.496937 211.158501 l
144.716122 212.336566 l
148.789184 212.928356 l
152.862246 213.708711 l
161.008369 215.612851 l
165.081431 216.704503 l
169.154493 218.087811 l
173.227554 219.858973 l
177.300616 221.942558 l
183.410209 225.358224 l
187.48327 227.784419 l
191.556332 230.411592 l
197.665925 234.645699 l
201.738987 237.599588 l
205.812048 240.879279 l
209.88511 244.685929 l
215.994703 250.774521 l
220.067764 254.499649 l
228.213888 261.512053 l
232.28695 264.581192 l
240.433073 270.167869 l
244.506135 273.691326 l
248.579197 277.213889 l
250.615727 278.635693 l
252.652258 279.742659 l
254.688789 280.543345 l
256.72532 281.073165 l
258.761851 281.375017 l
262.834913 281.514537 l
273.017567 281.387013 l
275.054098 281.161292 l
277.090629 280.720868 l
279.12716 280.012088 l
281.16369 279.014977 l
283.200221 277.758937 l
287.273283 274.801249 l
291.346345 271.82924 l
299.492468 266.14556 l
301.528999 264.48426 l
305.602061 260.73432 l
313.748184 252.908892 l
317.821246 249.406357 l
330.040431 239.429604 l
338.186555 232.472816 l
342.259617 229.233856 l
346.332678 226.250767 l
350.40574 223.671124 l
354.478802 221.536099 l
358.551864 219.703444 l
364.661456 217.214735 l
368.734518 215.79191 l
372.80758 214.690457 l
376.880641 213.843399 l
382.990234 212.865187 l
393.172888 211.659574 l
401.319012 210.908499 l
407.428604 210.532679 l
419.64779 210.167201 l
437.976567 209.779538 l
452.232283 209.663907 l
461.8 209.659572 l
461.8 209.659572 l
stroke
grestore
0.800 setlinewidth
0 setlinejoin
0.000 setgray
gsave
47.72 209.648 m
47.72 334.8 l
stroke
grestore
gsave
446.805 209.648 m
446.805 334.8 l
stroke
grestore
gsave
47.72 209.648 m
446.805 209.648 l
stroke
grestore
gsave
47.72 334.8 m
446.805 334.8 l
stroke
grestore
gsave
47.72 42.248 m
446.805 42.248 l
446.805 167.4 l
47.72 167.4 l
cl
1.000 setgray
fill
grestore
gsave
399.085 125.152 47.72 42.248 clipbox
56.925402 42.248 m
64.188795 42.248 l
64.188795 50.761741 l
56.925402 50.761741 l
cl
0.502 setgray
fill
grestore
gsave
399.085 125.152 47.72 42.248 clipbox
64.188795 42.248 m
71.452188 42.248 l
71.452188 42.248 l
64.188795 42.248 l
cl
0.502 setgray
fill
grestore
gsave
399.085 125.152 47.72 42.248 clipbox
71.452188 42.248 m
78.715581 42.248 l
78.715581 42.248 l
71.452188 42.248 l
cl
0.502 setgray
fill
grestore
gsave
399.085 125.152 47.72 42.248 clipbox
78.715581 42.248 m
85.978974 42.248 l
85.978974 42.248 l
78.715581 42.248 l
cl
0.502 setgray
fill
grestore
gsave
399.085 125.152 47.72 42.248 clipbox
85.978974 42.248 m
93.242367 42.248 l
93.242367 42.248 l
85.978974 42.248 l
cl
0.502 setgray
fill
grestore
gsave
399.085 125.152 47.72 42.248 clipbox
93.242367 42.248 m
100.50576 42.248 l
100.50576 42.248 l
93.242367 42.248 l
cl
0.502 setgray
fill
grestore
gsave
399.085 125.152 47.72 42.248 clipbox
100.50576 42.248 m
107.769153 42.248 l
107.769153 59.275483 l
100.50576 59.275483 l
cl
0.502 setgray
fill
grestore
gsave
399.085 125.152 47.72 42.248 clipbox
107.769153 42.248 m
115.032546 42.248 l
115.032546 84.816707 l
107.769153 84.816707 l
cl
0.502 setgray
fill
grestore
gsave
399.085 125.152 47.72 42.248 clipbox
115.032546 42.248 m
122.295939 42.248 l
122.295939 76.302966 l
115.032546 76.302966 l
cl
0.502 setgray
fill
grestore
gsave
399.085 125.152 47.72 42.248 clipbox
122.295939 42.248 m
129.559332 42.248 l
129.559332 67.789224 l
122.295939 67.789224 l
cl
0.502 setgray
fill
grestore
gsave
399.085 125.152 47.72 42.248 clipbox
129.559332 42.248 m
136.822725 42.248 l
136.822725 59.275483 l
129.559332 59.275483 l
cl
0.502 setgray
fill
grestore
gsave
399.085 125.152 47.72 42.248 clipbox
136.822725 42.248 m
144.086118 42.248 l
144.086118 76.302966 l
136.822725 76.302966 l
cl
0.502 setgray
fill
grestore
gsave
399.085 125.152 47.72 42.248 clipbox
144.086118 42.248 m
151.349511 42.248 l
151.349511 93.330449 l
144.086118 93.330449 l
cl
0.502 setgray
fill
grestore
gsave
399.085 125.152 47.72 42.248 clipbox
151.349511 42.248 m
158.612904 42.248 l
158.612904 101.84419 l
151.349511 101.84419 l
cl
0.502 setgray
fill
grestore
gsave
399.085 125.152 47.72 42.248 clipbox
158.612904 42.248 m
165.876296 42.248 l
165.876296 76.302966 l
158.612904 76.302966 l
cl
0.502 setgray
fill
grestore
gsave
399.085 125.152 47.72 42.248 clipbox
165.876296 42.248 m
173.139689 42.248 l
173.139689 59.275483 l
165.876296 59.275483 l
cl
0.502 setgray
fill
grestore
gsave
399.085 125.152 47.72 42.248 clipbox
173.139689 42.248 m
180.403082 42.248 l
180.403082 93.330449 l
173.139689 93.330449 l
cl
0.502 setgray
fill
grestore
gsave
399.085 125.152 47.72 42.248 clipbox
180.403082 42.248 m
187.666475 42.248 l
187.666475 67.789224 l
180.403082 67.789224 l
cl
0.502 setgray
fill
grestore
gsave
399.085 125.152 47.72 42.248 clipbox
187.666475 42.248 m
194.929868 42.248 l
194.929868 84.816707 l
187.666475 84.816707 l
cl
0.502 setgray
fill
grestore
gsave
399.085 125.152 47.72 42.248 clipbox
194.929868 42.248 m
202.193261 42.248 l
202.193261 118.871673 l
194.929868 118.871673 l
cl
0.502 setgray
fill
grestore
gsave
399.085 125.152 47.72 42.248 clipbox
202.193261 42.248 m
209.456654 42.248 l
209.456654 118.871673 l
202.193261 118.871673 l
cl
0.502 setgray
fill
grestore
gsave
399.085 125.152 47.72 42.248 clipbox
209.456654 42.248 m
216.720047 42.248 l
216.720047 101.84419 l
209.456654 101.84419 l
cl
0.502 setgray
fill
grestore
gsave
399.085 125.152 47.72 42.248 clipbox
216.720047 42.248 m
223.98344 42.248 l
223.98344 127.385415 l
216.720047 127.385415 l
cl
0.502 setgray
fill
grestore
gsave
399.085 125.152 47.72 42.248 clipbox
223.98344 42.248 m
231.246833 42.248 l
231.246833 110.357932 l
223.98344 110.357932 l
cl
0.502 setgray
fill
grestore
gsave
399.085 125.152 47.72 42.248 clipbox
231.246833 42.248 m
238.510226 42.248 l
238.510226 161.440381 l
231.246833 161.440381 l
cl
0.502 setgray
fill
grestore
gsave
399.085 125.152 47.72 42.248 clipbox
238.510226 42.248 m
245.773619 42.248 l
245.773619 161.440381 l
238.510226 161.440381 l
cl
0.502 setgray
fill
grestore
gsave
399.085 125.152 47.72 42.248 clipbox
245.773619 42.248 m
253.037012 42.248 l
253.037012 84.816707 l
245.773619 84.816707 l
cl
0.502 setgray
fill
grestore
gsave
399.085 125.152 47.72 42.248 clipbox
253.037012 42.248 m
260.300405 42.248 l
260.300405 118.871673 l
253.037012 118.871673 l
cl
0.502 setgray
fill
grestore
gsave
399.085 125.152 47.72 42.248 clipbox
260.300405 42.248 m
267.563798 42.248 l
267.563798 93.330449 l
260.300405 93.330449 l
cl
0.502 setgray
fill
grestore
gsave
399.085 125.152 47.72 42.248 clipbox
267.563798 42.248 m
274.827191 42.248 l
274.827191 127.385415 l
267.563798 127.385415 l
cl
0.502 setgray
fill
grestore
gsave
399.085 125.152 47.72 42.248 clipbox
274.827191 42.248 m
282.090584 42.248 l
282.090584 93.330449 l
274.827191 93.330449 l
cl
0.502 setgray
fill
grestore
gsave
399.085 125.152 47.72 42.248 clipbox
282.090584 42.248 m
289.353977 42.248 l
289.353977 101.84419 l
282.090584 101.84419 l
cl
0.502 setgray
fill
grestore
gsave
399.085 125.152 47.72 42.248 clipbox
289.353977 42.248 m
296.61737 42.248 l
296.61737 118.871673 l
289.353977 118.871673 l
cl
0.502 setgray
fill
grestore
gsave
399.085 125.152 47.72 42.248 clipbox
296.61737 42.248 m
303.880763 42.248 l
303.880763 84.816707 l
296.61737 84.816707 l
cl
0.502 setgray
fill
grestore
gsave
399.085 125.152 47.72 42.248 clipbox
303.880763 42.248 m
311.144156 42.248 l
311.144156 67.789224 l
303.880763 67.789224 l
cl
0.502 setgray
fill
grestore
gsave
399.085 125.152 47.72 42.248 clipbox
311.144156 42.248 m
318.407549 42.248 l
318.407549 76.302966 l
311.144156 76.302966 l
cl
0.502 setgray
fill
grestore
gsave
399.085 125.152 47.72 42.248 clipbox
318.407549 42.248 m
325.670942 42.248 l
325.670942 59.275483 l
318.407549 59.275483 l
cl
0.502 setgray
fill
grestore
gsave
399.085 125.152 47.72 42.248 clipbox
325.670942 42.248 m
332.934334 42.248 l
332.934334 84.816707 l
325.670942 84.816707 l
cl
0.502 setgray
fill
grestore
gsave
399.085 125.152 47.72 42.248 clipbox
332.934334 42.248 m
340.197727 42.248 l
340.197727 50.761741 l
332.934334 50.761741 l
cl
0.502 setgray
fill
grestore
gsave
399.085 125.152 47.72 42.248 clipbox
340.197727 42.248 m
347.46112 42.248 l
347.46112 42.248 l
340.197727 42.248 l
cl
0.502 setgray
fill
grestore
gsave
399.085 125.152 47.72 42.248 clipbox
347.46112 42.248 m
354.724513 42.248 l
354.724513 42.248 l
347.46112 42.248 l
cl
0.502 setgray
fill
grestore
gsave
399.085 125.152 47.72 42.248 clipbox
354.724513 42.248 m
361.987906 42.248 l
361.987906 42.248 l
354.724513 42.248 l
cl
0.502 setgray
fill
grestore
gsave
399.085 125.152 47.72 42.248 clipbox
361.987906 42.248 m
369.251299 42.248 l
369.251299 50.761741 l
361.987906 50.761741 l
cl
0.502 setgray
fill
grestore
gsave
399.085 125.152 47.72 42.248 clipbox
369.251299 42.248 m
376.514692 42.248 l
376.514692 42.248 l
369.251299 42.248 l
cl
0.502 setgray
fill
grestore
gsave
399.085 125.152 47.72 42.248 clipbox
376.514692 42.248 m
383.778085 42.248 l
383.778085 42.248 l
376.514692 42.248 l
cl
0.502 setgray
fill
grestore
gsave
399.085 125.152 47.72 42.248 clipbox
383.778085 42.248 m
391.041478 42.248 l
391.041478 42.248 l
383.778085 42.248 l
cl
0.502 setgray
fill
grestore
gsave
399.085 125.152 47.72 42.248 clipbox
391.041478 42.248 m
398.304871 42.248 l
398.304871 42.248 l
391.041478 42.248 l
cl
0.502 setgray
fill
grestore
gsave
399.085 125.152 47.72 42.248 clipbox
398.304871 42.248 m
405.568264 42.248 l
405.568264 50.761741 l
398.304871 50.761741 l
cl
0.502 setgray
fill
grestore
gsave
399.085 125.152 47.72 42.248 clipbox
405.568264 42.248 m
412.831657 42.248 l
412.831657 42.248 l
405.568264 42.248 l
cl
0.502 setgray
fill
grestore
gsave
399.085 125.152 47.72 42.248 clipbox
412.831657 42.248 m
420.09505 42.248 l
420.09505 50.761741 l
412.831657 50.761741 l
cl
0.502 setgray
fill
grestore
1 setlinejoin
0 setlinecap
gsave
/o {
gsave
newpath
translate
0.8 setlinewidth
1 setlinejoin

0 setlinecap

0 0 m
0 -3.5 l

gsave
0.000 setgray
fill
grestore
stroke
grestore
} bind def
47.72 42.248 o
grestore
/DejaVuSans 10.000 selectfont
gsave

40.3528 27.6542 translate
0 rotate
0 0 m /minus glyphshow
8.37891 0 m /six glyphshow
grestore
gsave
/o {
gsave
newpath
translate
0.8 setlinewidth
1 setlinejoin

0 setlinecap

0 0 m
0 -3.5 l

gsave
0.000 setgray
fill
grestore
stroke
grestore
} bind def
114.234 42.248 o
grestore
/DejaVuSans 10.000 selectfont
gsave

106.867 27.6542 translate
0 rotate
0 0 m /minus glyphshow
8.37891 0 m /four glyphshow
grestore
gsave
/o {
gsave
newpath
translate
0.8 setlinewidth
1 setlinejoin

0 setlinecap

0 0 m
0 -3.5 l

gsave
0.000 setgray
fill
grestore
stroke
grestore
} bind def
180.748 42.248 o
grestore
/DejaVuSans 10.000 selectfont
gsave

173.381 27.6542 translate
0 rotate
0 0 m /minus glyphshow
8.37891 0 m /two glyphshow
grestore
gsave
/o {
gsave
newpath
translate
0.8 setlinewidth
1 setlinejoin

0 setlinecap

0 0 m
0 -3.5 l

gsave
0.000 setgray
fill
grestore
stroke
grestore
} bind def
247.262 42.248 o
grestore
/DejaVuSans 10.000 selectfont
gsave

244.083 27.6542 translate
0 rotate
0 0 m /zero glyphshow
grestore
gsave
/o {
gsave
newpath
translate
0.8 setlinewidth
1 setlinejoin

0 setlinecap

0 0 m
0 -3.5 l

gsave
0.000 setgray
fill
grestore
stroke
grestore
} bind def
313.777 42.248 o
grestore
/DejaVuSans 10.000 selectfont
gsave

310.597 27.6542 translate
0 rotate
0 0 m /two glyphshow
grestore
gsave
/o {
gsave
newpath
translate
0.8 setlinewidth
1 setlinejoin

0 setlinecap

0 0 m
0 -3.5 l

gsave
0.000 setgray
fill
grestore
stroke
grestore
} bind def
380.291 42.248 o
grestore
/DejaVuSans 10.000 selectfont
gsave

377.111 27.6542 translate
0 rotate
0 0 m /four glyphshow
grestore
gsave
/o {
gsave
newpath
translate
0.8 setlinewidth
1 setlinejoin

0 setlinecap

0 0 m
0 -3.5 l

gsave
0.000 setgray
fill
grestore
stroke
grestore
} bind def
446.805 42.248 o
grestore
/DejaVuSans 10.000 selectfont
gsave

443.625 27.6542 translate
0 rotate
0 0 m /six glyphshow
grestore
gsave
241.762 13.9824 translate
0 rotate
/DejaVuSans-Oblique 10.0 selectfont
0 0.53125 moveto
/x glyphshow
/DejaVuSans 7.0 selectfont
5.91797 -1.10938 moveto
/one glyphshow
grestore
gsave
/o {
gsave
newpath
translate
0.8 setlinewidth
1 setlinejoin

0 setlinecap

-0 0 m
-3.5 0 l

gsave
0.000 setgray
fill
grestore
stroke
grestore
} bind def
47.72 42.248 o
grestore
/DejaVuSans 10.000 selectfont
gsave

24.8138 38.4511 translate
0 rotate
0 0 m /zero glyphshow
6.3623 0 m /period glyphshow
9.54102 0 m /zero glyphshow
grestore
gsave
/o {
gsave
newpath
translate
0.8 setlinewidth
1 setlinejoin

0 setlinecap

-0 0 m
-3.5 0 l

gsave
0.000 setgray
fill
grestore
stroke
grestore
} bind def
47.72 79.4363 o
grestore
/DejaVuSans 10.000 selectfont
gsave

24.8138 75.6394 translate
0 rotate
0 0 m /zero glyphshow
6.3623 0 m /period glyphshow
9.54102 0 m /one glyphshow
grestore
gsave
/o {
gsave
newpath
translate
0.8 setlinewidth
1 setlinejoin

0 setlinecap

-0 0 m
-3.5 0 l

gsave
0.000 setgray
fill
grestore
stroke
grestore
} bind def
47.72 116.625 o
grestore
/DejaVuSans 10.000 selectfont
gsave

24.8138 112.828 translate
0 rotate
0 0 m /zero glyphshow
6.3623 0 m /period glyphshow
9.54102 0 m /two glyphshow
grestore
gsave
/o {
gsave
newpath
translate
0.8 setlinewidth
1 setlinejoin

0 setlinecap

-0 0 m
-3.5 0 l

gsave
0.000 setgray
fill
grestore
stroke
grestore
} bind def
47.72 153.813 o
grestore
/DejaVuSans 10.000 selectfont
gsave

24.8138 150.016 translate
0 rotate
0 0 m /zero glyphshow
6.3623 0 m /period glyphshow
9.54102 0 m /three glyphshow
grestore
/DejaVuSans 10.000 selectfont
gsave

18.7356 85.8006 translate
90 rotate
0 0 m /D glyphshow
7.7002 0 m /e glyphshow
13.8525 0 m /n glyphshow
20.1904 0 m /s glyphshow
25.4004 0 m /i glyphshow
28.1787 0 m /t glyphshow
32.0996 0 m /y glyphshow
grestore
1.500 setlinewidth
2 setlinecap
0.122 0.467 0.706 setrgbcolor
gsave
399.085 125.152 47.72 42.248 clipbox
-1 42.418246 m
31.579413 42.890999 l
51.165247 43.764729 l
59.559177 44.390154 l
65.155129 44.979298 l
73.549058 46.116313 l
81.942988 47.34505 l
87.53894 48.40066 l
93.134893 49.797231 l
101.528822 52.25319 l
107.124775 54.104591 l
112.720728 56.294931 l
118.31668 58.880679 l
123.912633 61.795118 l
129.508586 65.04068 l
135.104539 68.741379 l
146.296444 76.794477 l
151.892397 80.314576 l
157.48835 83.685277 l
160.286326 85.511402 l
163.084302 87.525487 l
168.680255 92.093631 l
174.276208 96.698614 l
177.074184 98.750345 l
182.670137 102.415856 l
196.660019 111.162115 l
199.457995 112.67127 l
202.255972 114.02383 l
207.851924 116.388204 l
213.447877 118.41567 l
216.245854 119.217443 l
219.04383 119.837738 l
221.841806 120.297982 l
224.639783 120.631937 l
227.437759 120.843545 l
230.235735 120.899394 l
233.033712 120.760003 l
235.831688 120.415274 l
238.629664 119.892926 l
244.225617 118.499304 l
249.82157 116.805738 l
252.619546 115.81813 l
255.417523 114.696142 l
258.215499 113.426662 l
263.811452 110.526852 l
269.407405 107.308692 l
272.205381 105.536485 l
275.003357 103.577883 l
277.801334 101.388636 l
280.59931 98.97204 l
291.791216 88.666137 l
294.589192 86.380019 l
300.185145 82.196724 l
316.973003 70.108648 l
322.568956 66.51559 l
325.366932 64.936092 l
330.962885 62.17083 l
339.356814 58.365984 l
344.952767 56.026044 l
350.548719 54.046522 l
356.144672 52.412463 l
375.730507 47.210981 l
381.32646 46.227721 l
389.720389 45.10223 l
398.114318 44.151025 l
403.710271 43.69501 l
412.1042 43.254846 l
423.296105 42.876051 l
440.083963 42.577665 l
461.8 42.328725 l
461.8 42.328725 l
stroke
grestore
0.800 setlinewidth
0 setlinejoin
0.000 setgray
gsave
47.72 42.248 m
47.72 167.4 l
stroke
grestore
gsave
446.805 42.248 m
446.805 167.4 l
stroke
grestore
gsave
47.72 42.248 m
446.805 42.248 l
stroke
grestore
gsave
47.72 167.4 m
446.805 167.4 l
stroke
grestore

end
showpage
